Simulation;Time;PC 0;PC 1;PC 2;PC 3;PC 4;PC 5;PC 6;PC 7;PC 8;PC 9;PC10;PC11;PC12;PC13;PC14;PC15;PC16;PC17;PC18;PC19;PC20;PC21;PC22;PC23;PC24;PC25;PC26;PC27;PC28;PC29;PC30;PC31;PC32;PC33;PC34;PC35;PC36;PC37;PC38;PC39;PC40;
Nan;Nan;0;0;1;0;0;0;0;0;0;0;0;0;0;0;0;0;0;0;0;0;0;0;0;0;0;0;0;0;0;0;0;0;0;0;0;0;0;0;0;0;0;
  0;    2.594538;   62.578261;    2.909744;    0.032311;    0.019955;    0.013461;    0.011516;    0.009968;    0.009263;    0.008889;    0.008594;    0.008222;    0.007989;    0.007823;    0.007640;    0.007374;    0.007221;    0.007036;    0.006887;    0.006874;    0.006714;    0.006515;    0.006392;    0.006333;    0.006240;    0.005902;    0.005755;    0.005379;    0.005235;    0.005121;    0.004764;    0.004755;    0.004586;    0.004658;    0.004415;    0.004225;    0.004814;    0.004351;    0.003877;    0.003732;    0.008877;    0.047283;
  1;    2.589335;  947.148558;    0.474880;    0.031459;    0.032278;    0.033121;    0.034092;    0.035247;    0.036383;    0.037378;    0.038754;    0.040190;    0.041537;    0.042947;    0.044759;    0.046587;    0.048622;    0.050599;    0.052546;    0.054776;    0.057619;    0.061133;    0.064995;    0.068688;    0.072950;    0.077704;    0.083066;    0.089875;    0.097339;    0.105959;    0.114812;    0.126892;    0.141955;    0.161813;    0.191031;    0.228442;    0.292962;    0.397406;    0.583328;    1.089467;   25.828972; 1623.260175;
  2;    2.577568; 8802.891287;    0.813052;    0.031168;    0.032010;    0.032831;    0.033576;    0.034486;    0.035529;    0.036619;    0.037714;    0.039117;    0.040514;    0.041922;    0.043448;    0.045214;    0.047134;    0.049273;    0.051381;    0.053952;    0.056646;    0.059553;    0.062687;    0.066664;    0.070738;    0.075393;    0.080968;    0.087700;    0.095195;    0.103779;    0.113637;    0.124972;    0.139272;    0.158741;    0.184031;    0.214087;    0.257761;    0.318985;    0.585601;    1.254014;    3.259430;38941.866346;
