Simulation;Time;PC0;PC1;PC2;PC3;PC4;PC5;PC6;PC7;PC8;
Nan;Nan;0;0;0;1;0;0;0;0;0;
  0;    0.222607;    0.999735;    0.648002;    0.376075;    0.186145;    0.169617;    0.156022;    0.123154;    0.093229;    0.055519;
  1;    0.210987;    1.037288;    0.682862;    0.381428;    0.189111;    0.176357;    0.150984;    0.132357;    0.099606;    0.061526;
  2;    0.197130;    1.040879;    0.690463;    0.397859;    0.194746;    0.186593;    0.160659;    0.135182;    0.098447;    0.061650;
  3;    0.196970;    0.980819;    0.643868;    0.396196;    0.197160;    0.181634;    0.167474;    0.149132;    0.114548;    0.066348;
  4;    0.192597;    1.035172;    0.677334;    0.410371;    0.197065;    0.185243;    0.155826;    0.134760;    0.111933;    0.061735;
  5;    0.187448;    0.994798;    0.638155;    0.369615;    0.190776;    0.180715;    0.162118;    0.140348;    0.109818;    0.069146;
  6;    0.184615;    1.011370;    0.662468;    0.372514;    0.188973;    0.178303;    0.157988;    0.137449;    0.101810;    0.061990;
  7;    0.196541;    1.017089;    0.658696;    0.385671;    0.197166;    0.180617;    0.157094;    0.137643;    0.096987;    0.053276;
  8;    0.206626;    0.971927;    0.625836;    0.370288;    0.192230;    0.180343;    0.170749;    0.149161;    0.113947;    0.064044;
  9;    0.193368;    1.003613;    0.658939;    0.381888;    0.195234;    0.182049;    0.168920;    0.144727;    0.108279;    0.063991;
 10;    0.192644;    1.022722;    0.673397;    0.390631;    0.193083;    0.179508;    0.158516;    0.137454;    0.100876;    0.052214;
 11;    0.189599;    0.987842;    0.653854;    0.371875;    0.191196;    0.178292;    0.159807;    0.128963;    0.101210;    0.056413;
 12;    0.188839;    0.968160;    0.645082;    0.363997;    0.192455;    0.177730;    0.159870;    0.137102;    0.094854;    0.043463;
 13;    0.185427;    1.003810;    0.637182;    0.375371;    0.189788;    0.172573;    0.157959;    0.126250;    0.102853;    0.060485;
 14;    0.187289;    0.985054;    0.648637;    0.381726;    0.185725;    0.175249;    0.159164;    0.129149;    0.092344;    0.047512;
 15;    0.185250;    1.022303;    0.639175;    0.381166;    0.185890;    0.169963;    0.152423;    0.125787;    0.103002;    0.056453;
 16;    0.214820;    1.002438;    0.663098;    0.385949;    0.195892;    0.177634;    0.156445;    0.129070;    0.107789;    0.067243;
 17;    0.187663;    0.974912;    0.640139;    0.393617;    0.188689;    0.175555;    0.149873;    0.131060;    0.101305;    0.057291;
 18;    0.187679;    0.942375;    0.623577;    0.369035;    0.190902;    0.178946;    0.155695;    0.134873;    0.106073;    0.057098;
 19;    0.184889;    0.977908;    0.621591;    0.349926;    0.190415;    0.177184;    0.163501;    0.140842;    0.111520;    0.066643;
 20;    0.185647;    1.031293;    0.652708;    0.384317;    0.189930;    0.180337;    0.161005;    0.140629;    0.107278;    0.062844;
 21;    0.184827;    1.012766;    0.638972;    0.376943;    0.190333;    0.170644;    0.154805;    0.131915;    0.090052;    0.046656;
 22;    0.189559;    1.010506;    0.643868;    0.375118;    0.198249;    0.172237;    0.152348;    0.118717;    0.092362;    0.054235;
 23;    0.188159;    0.982161;    0.633073;    0.357911;    0.193502;    0.187111;    0.164438;    0.134157;    0.092333;    0.054948;
 24;    0.186660;    1.035903;    0.681021;    0.392130;    0.196350;    0.185438;    0.166737;    0.128630;    0.101205;    0.054644;
 25;    0.184961;    0.986779;    0.651406;    0.381336;    0.189060;    0.178575;    0.158357;    0.129454;    0.098238;    0.052189;
 26;    0.187703;    1.001279;    0.649797;    0.382270;    0.197359;    0.185924;    0.159997;    0.139283;    0.102255;    0.057322;
 27;    0.226749;    1.008146;    0.636575;    0.373624;    0.193454;    0.178495;    0.163075;    0.141314;    0.103528;    0.047698;
 28;    0.186020;    1.016261;    0.638329;    0.373629;    0.195245;    0.181558;    0.167086;    0.131405;    0.103120;    0.052698;
 29;    0.184261;    1.045898;    0.650120;    0.380485;    0.196087;    0.183601;    0.164274;    0.139473;    0.097582;    0.047599;
 30;    0.188119;    1.018663;    0.654365;    0.388794;    0.192314;    0.183167;    0.163785;    0.135811;    0.109666;    0.063782;
 31;    0.199723;    1.019540;    0.658898;    0.372016;    0.189372;    0.179524;    0.161697;    0.137952;    0.106220;    0.046770;
 32;    0.184249;    0.998188;    0.681387;    0.370889;    0.191695;    0.178538;    0.137945;    0.124394;    0.094504;    0.053166;
 33;    0.185255;    1.021161;    0.645241;    0.365781;    0.189236;    0.177730;    0.161527;    0.134110;    0.097619;    0.064274;
 34;    0.187894;    1.034101;    0.653231;    0.381597;    0.193662;    0.182358;    0.156620;    0.135088;    0.101319;    0.065376;
 35;    0.188115;    0.999531;    0.652665;    0.374192;    0.195127;    0.178568;    0.152701;    0.128008;    0.106081;    0.068585;
 36;    0.190830;    0.974850;    0.666751;    0.387590;    0.188294;    0.176033;    0.161729;    0.135934;    0.103155;    0.057983;
 37;    0.190565;    1.006100;    0.666479;    0.392982;    0.186327;    0.175336;    0.155803;    0.131012;    0.093764;    0.045704;
 38;    0.187346;    0.996128;    0.635565;    0.368761;    0.191587;    0.177354;    0.160231;    0.130312;    0.094073;    0.047251;
 39;    0.186258;    0.954319;    0.628410;    0.368420;    0.185169;    0.171695;    0.144967;    0.118707;    0.085076;    0.050794;
 40;    0.186394;    1.032127;    0.684822;    0.381816;    0.188595;    0.177719;    0.164594;    0.142304;    0.103511;    0.055844;
 41;    0.188369;    0.999501;    0.648302;    0.364892;    0.191935;    0.177051;    0.157737;    0.124500;    0.089701;    0.052443;
 42;    0.185968;    1.036559;    0.648541;    0.383879;    0.188907;    0.177362;    0.162365;    0.135849;    0.103910;    0.062141;
 43;    0.188524;    1.019695;    0.647921;    0.379842;    0.194709;    0.177542;    0.157475;    0.139795;    0.108448;    0.062145;
 44;    0.192155;    1.009101;    0.661724;    0.369672;    0.194890;    0.187477;    0.169430;    0.144491;    0.104882;    0.056857;
 45;    0.188768;    0.971192;    0.620237;    0.363812;    0.188985;    0.175313;    0.164392;    0.146869;    0.105357;    0.052113;
 46;    0.187745;    1.021816;    0.649192;    0.379754;    0.193188;    0.177852;    0.162101;    0.139465;    0.104431;    0.067208;
 47;    0.191405;    1.014561;    0.640093;    0.386662;    0.195328;    0.181399;    0.168665;    0.141697;    0.107633;    0.061082;
 48;    0.195927;    0.964385;    0.626897;    0.374628;    0.193978;    0.171220;    0.151409;    0.130002;    0.099928;    0.066141;
 49;    0.192805;    0.972625;    0.628250;    0.374967;    0.192963;    0.178834;    0.151616;    0.128357;    0.104533;    0.059523;
 50;    0.190847;    1.012825;    0.650656;    0.370755;    0.188071;    0.172478;    0.159311;    0.136070;    0.106121;    0.058785;
 51;    0.190713;    1.033792;    0.664043;    0.396102;    0.197385;    0.183220;    0.159662;    0.134360;    0.105082;    0.065350;
 52;    0.190803;    1.015954;    0.662733;    0.386630;    0.187866;    0.173052;    0.149516;    0.124181;    0.092836;    0.052615;
 53;    0.190295;    0.987072;    0.693918;    0.379936;    0.190037;    0.182020;    0.163856;    0.139179;    0.099542;    0.060817;
 54;    0.186790;    1.049218;    0.688218;    0.367602;    0.192859;    0.184427;    0.164464;    0.137386;    0.100745;    0.064501;
 55;    0.188815;    0.983792;    0.623793;    0.365053;    0.185691;    0.177406;    0.152885;    0.128721;    0.099638;    0.057352;
 56;    0.193242;    1.012621;    0.652032;    0.368237;    0.184569;    0.171558;    0.150439;    0.124123;    0.094424;    0.058094;
 57;    0.186339;    1.032350;    0.674251;    0.384827;    0.189653;    0.179096;    0.159640;    0.138185;    0.093760;    0.059858;
 58;    0.188808;    1.014523;    0.657971;    0.372316;    0.193764;    0.183427;    0.160235;    0.134602;    0.109575;    0.068420;
 59;    0.230725;    0.998361;    0.657605;    0.394789;    0.188510;    0.170536;    0.154585;    0.132763;    0.096935;    0.062529;
 60;    0.193589;    0.998046;    0.645484;    0.376554;    0.193550;    0.179968;    0.164232;    0.138740;    0.087027;    0.046880;
 61;    0.187796;    0.983823;    0.634843;    0.359463;    0.190118;    0.177262;    0.163466;    0.135502;    0.094003;    0.040647;
 62;    0.188363;    0.991681;    0.638533;    0.382348;    0.188201;    0.176057;    0.149386;    0.126927;    0.097394;    0.056076;
 63;    0.189425;    1.030703;    0.654020;    0.361078;    0.185952;    0.170307;    0.150128;    0.129863;    0.102599;    0.059927;
 64;    0.185178;    1.011515;    0.653773;    0.391161;    0.190879;    0.176192;    0.162524;    0.135211;    0.106826;    0.054171;
 65;    0.189695;    0.973070;    0.640627;    0.364062;    0.186878;    0.175656;    0.156854;    0.124169;    0.092387;    0.054928;
 66;    0.191066;    0.988465;    0.641594;    0.376531;    0.195119;    0.182452;    0.156796;    0.128000;    0.103518;    0.057569;
 67;    0.190668;    0.959613;    0.623824;    0.361051;    0.196916;    0.180653;    0.166351;    0.139497;    0.107785;    0.044511;
 68;    0.187986;    0.994653;    0.638861;    0.371013;    0.191688;    0.165399;    0.147789;    0.122660;    0.100361;    0.053830;
 69;    0.190689;    0.980134;    0.651068;    0.380545;    0.186966;    0.175952;    0.164923;    0.134396;    0.102700;    0.054985;
 70;    0.188993;    1.024593;    0.673330;    0.368206;    0.193253;    0.178405;    0.165954;    0.136703;    0.100289;    0.054112;
 71;    0.189166;    0.996839;    0.635632;    0.367232;    0.192061;    0.176956;    0.159373;    0.133245;    0.103738;    0.063882;
 72;    0.190186;    0.996708;    0.626909;    0.371351;    0.194270;    0.186253;    0.161810;    0.141040;    0.104357;    0.043857;
 73;    0.188124;    1.036179;    0.661027;    0.387695;    0.198430;    0.180918;    0.159730;    0.137007;    0.105997;    0.058878;
 74;    0.192116;    1.021463;    0.643730;    0.390426;    0.186258;    0.172211;    0.155741;    0.130654;    0.101637;    0.055584;
 75;    0.190473;    1.027953;    0.678718;    0.376353;    0.186702;    0.177276;    0.157057;    0.121003;    0.084706;    0.054859;
 76;    0.197892;    1.013887;    0.636661;    0.365745;    0.192305;    0.180495;    0.158930;    0.139247;    0.105353;    0.061565;
 77;    0.190094;    0.974466;    0.634151;    0.358239;    0.184361;    0.169679;    0.148079;    0.126856;    0.082624;    0.050960;
 78;    0.186554;    0.997991;    0.665965;    0.381264;    0.187244;    0.174147;    0.158504;    0.135354;    0.102281;    0.062498;
 79;    0.190439;    1.004288;    0.647083;    0.369364;    0.193348;    0.177365;    0.163823;    0.143158;    0.106108;    0.057216;
 80;    0.187560;    1.010707;    0.649729;    0.373034;    0.182597;    0.167241;    0.151925;    0.126560;    0.101030;    0.052889;
 81;    0.186840;    0.981865;    0.633864;    0.376547;    0.190488;    0.173815;    0.153370;    0.124184;    0.097590;    0.055214;
 82;    0.190198;    0.987482;    0.633578;    0.367589;    0.187530;    0.171735;    0.154157;    0.131615;    0.090919;    0.052469;
 83;    0.188721;    0.948092;    0.620477;    0.357256;    0.186247;    0.171322;    0.155389;    0.125025;    0.093356;    0.054459;
 84;    0.194169;    0.982949;    0.669942;    0.387667;    0.190321;    0.178472;    0.161532;    0.132605;    0.089909;    0.052371;
 85;    0.190493;    0.988457;    0.651454;    0.375715;    0.194593;    0.173482;    0.158915;    0.133570;    0.102107;    0.066438;
 86;    0.192795;    1.037650;    0.659231;    0.372135;    0.186652;    0.172370;    0.156299;    0.134309;    0.107341;    0.057893;
 87;    0.189376;    1.004755;    0.638634;    0.363907;    0.186064;    0.170327;    0.145044;    0.127412;    0.097176;    0.056285;
 88;    0.194647;    1.051366;    0.673375;    0.388892;    0.188782;    0.175248;    0.162987;    0.137597;    0.107792;    0.056923;
 89;    0.192264;    1.027126;    0.669983;    0.397047;    0.193381;    0.178341;    0.166135;    0.132717;    0.105466;    0.052997;
 90;    0.192811;    0.986258;    0.647360;    0.363958;    0.188025;    0.172174;    0.159102;    0.134964;    0.108588;    0.061611;
 91;    0.188855;    1.033389;    0.670033;    0.380316;    0.191376;    0.178558;    0.156830;    0.137572;    0.102650;    0.064300;
 92;    0.190452;    0.997953;    0.644919;    0.384189;    0.185944;    0.174043;    0.155791;    0.129708;    0.092143;    0.046726;
 93;    0.188846;    1.000345;    0.649780;    0.383200;    0.191289;    0.180886;    0.160388;    0.134168;    0.102875;    0.060442;
 94;    0.188432;    1.005611;    0.650268;    0.363882;    0.191667;    0.176904;    0.156918;    0.138327;    0.097006;    0.062289;
 95;    0.190552;    1.020684;    0.652139;    0.378215;    0.192861;    0.180584;    0.164878;    0.141711;    0.096401;    0.049090;
 96;    0.188937;    1.028116;    0.653770;    0.371994;    0.188548;    0.176806;    0.152398;    0.130834;    0.091870;    0.049143;
 97;    0.188855;    1.012666;    0.676914;    0.395862;    0.198250;    0.177605;    0.157861;    0.140991;    0.100196;    0.059158;
 98;    0.187777;    1.017308;    0.669442;    0.383301;    0.189223;    0.177330;    0.160144;    0.135319;    0.102144;    0.055856;
 99;    0.187860;    1.007688;    0.633799;    0.368933;    0.183721;    0.170040;    0.152851;    0.135113;    0.104057;    0.056812;
100;    0.186543;    0.987944;    0.627898;    0.373058;    0.185826;    0.173220;    0.158505;    0.132477;    0.101114;    0.057344;
