Simulation;Time;PC0;PC1;PC2;PC3;PC4;PC5;PC6;PC7;PC8;
Nan;Nan;0;1;0;0;0;0;0;0;0;
  0;    0.106437;    0.988377;    0.491081;    0.476829;    0.461412;    0.441953;    0.392285;    0.323110;    0.221950;    0.119196;
  1;    0.113145;    1.011890;    0.503285;    0.486513;    0.473704;    0.434562;    0.380799;    0.342406;    0.241450;    0.143184;
  2;    0.112542;    1.012934;    0.517772;    0.505260;    0.501917;    0.470179;    0.404502;    0.338502;    0.265125;    0.162673;
  3;    0.107067;    0.986669;    0.511353;    0.495294;    0.489352;    0.439926;    0.404149;    0.332060;    0.223441;    0.134642;
  4;    0.101792;    1.024921;    0.518483;    0.516007;    0.487887;    0.451784;    0.396884;    0.353167;    0.251037;    0.131282;
  5;    0.104405;    1.002993;    0.496555;    0.484937;    0.464074;    0.443302;    0.403815;    0.360621;    0.275167;    0.151244;
  6;    0.118527;    0.996774;    0.499110;    0.488469;    0.464628;    0.409623;    0.367113;    0.324873;    0.251102;    0.152615;
  7;    0.113200;    1.021751;    0.512236;    0.493452;    0.470403;    0.436491;    0.409975;    0.318417;    0.233410;    0.111922;
  8;    0.102265;    0.987817;    0.497272;    0.485468;    0.471649;    0.449139;    0.405002;    0.315438;    0.250102;    0.136333;
  9;    0.098037;    0.998411;    0.509292;    0.498264;    0.484009;    0.474801;    0.434274;    0.360042;    0.275586;    0.171904;
 10;    0.108513;    1.004826;    0.509339;    0.502779;    0.479507;    0.460534;    0.403552;    0.355665;    0.277702;    0.169652;
 11;    0.107801;    0.977386;    0.499184;    0.498742;    0.479933;    0.436155;    0.407597;    0.335982;    0.269390;    0.146671;
 12;    0.100287;    0.959287;    0.498528;    0.495136;    0.467122;    0.417464;    0.382937;    0.314087;    0.214668;    0.145946;
 13;    0.104382;    1.015971;    0.494171;    0.482441;    0.459223;    0.438559;    0.405229;    0.341641;    0.265038;    0.132182;
 14;    0.101987;    0.969005;    0.490335;    0.479776;    0.459320;    0.441253;    0.401349;    0.318519;    0.215864;    0.097474;
 15;    0.100033;    1.035110;    0.490042;    0.474302;    0.451679;    0.423857;    0.380159;    0.307565;    0.237481;    0.133607;
 16;    0.110973;    0.996129;    0.510783;    0.490996;    0.471628;    0.434102;    0.407770;    0.352259;    0.276168;    0.158554;
 17;    0.102430;    0.970477;    0.494706;    0.481988;    0.449083;    0.413175;    0.373980;    0.325588;    0.230613;    0.129110;
 18;    0.099294;    0.946003;    0.493849;    0.480290;    0.453316;    0.432487;    0.397157;    0.319473;    0.271461;    0.172169;
 19;    0.116122;    0.994795;    0.490789;    0.479417;    0.461922;    0.440106;    0.393440;    0.329848;    0.237154;    0.123365;
 20;    0.112455;    1.036975;    0.499096;    0.486263;    0.486383;    0.451384;    0.406579;    0.363283;    0.292979;    0.172813;
 21;    0.098267;    1.025612;    0.495505;    0.483500;    0.469196;    0.448332;    0.399498;    0.324976;    0.254654;    0.143574;
 22;    0.105710;    1.025551;    0.509235;    0.496559;    0.472842;    0.429107;    0.377296;    0.337155;    0.261322;    0.133764;
 23;    0.107356;    0.992641;    0.498330;    0.500762;    0.494942;    0.456025;    0.379788;    0.307315;    0.242421;    0.135226;
 24;    0.098747;    1.026413;    0.515137;    0.509399;    0.491520;    0.459844;    0.419278;    0.361602;    0.279991;    0.153131;
 25;    0.095954;    0.975208;    0.497091;    0.484802;    0.469186;    0.442766;    0.406351;    0.329746;    0.236585;    0.134870;
 26;    0.143473;    1.009921;    0.510627;    0.491951;    0.475743;    0.464088;    0.424201;    0.354215;    0.249232;    0.162697;
 27;    0.100719;    1.027680;    0.500328;    0.474405;    0.459602;    0.446320;    0.420418;    0.362420;    0.263516;    0.168390;
 28;    0.105914;    1.038328;    0.504197;    0.501349;    0.475482;    0.443236;    0.378724;    0.314532;    0.252718;    0.142678;
 29;    0.099621;    1.070349;    0.508247;    0.497341;    0.480410;    0.456334;    0.425937;    0.356515;    0.253863;    0.133807;
 30;    0.095986;    1.020977;    0.504068;    0.501698;    0.483784;    0.460898;    0.414294;    0.365613;    0.286973;    0.155433;
 31;    0.102064;    1.010461;    0.498552;    0.485562;    0.476080;    0.450610;    0.403138;    0.319340;    0.252694;    0.145330;
 32;    0.102728;    0.970828;    0.503702;    0.487205;    0.459883;    0.428482;    0.363341;    0.327144;    0.240275;    0.143097;
 33;    0.102125;    1.032169;    0.495806;    0.481970;    0.465957;    0.435030;    0.387804;    0.327089;    0.271344;    0.160700;
 34;    0.099757;    1.045828;    0.505975;    0.499178;    0.460386;    0.434829;    0.398358;    0.345602;    0.264230;    0.156875;
 35;    0.111336;    0.999887;    0.506177;    0.502145;    0.479512;    0.443328;    0.392864;    0.335548;    0.258411;    0.152193;
 36;    0.102875;    0.943171;    0.498474;    0.484584;    0.469367;    0.442529;    0.414268;    0.340799;    0.266324;    0.164451;
 37;    0.103304;    0.979222;    0.496856;    0.476235;    0.451275;    0.428954;    0.389918;    0.332946;    0.254765;    0.127625;
 38;    0.095641;    1.007419;    0.496868;    0.489785;    0.467283;    0.434073;    0.405662;    0.343200;    0.272472;    0.138339;
 39;    0.102728;    0.946408;    0.483729;    0.471957;    0.459266;    0.420714;    0.379348;    0.329021;    0.225168;    0.117678;
 40;    0.099800;    1.002468;    0.502560;    0.479925;    0.471045;    0.442771;    0.408326;    0.353028;    0.249325;    0.145879;
 41;    0.099333;    0.999910;    0.498704;    0.489942;    0.466814;    0.447709;    0.385619;    0.350541;    0.262473;    0.138040;
 42;    0.098084;    1.048099;    0.497452;    0.489926;    0.480174;    0.448569;    0.400199;    0.349792;    0.275942;    0.144451;
 43;    0.117350;    1.032192;    0.506063;    0.491242;    0.481819;    0.457847;    0.413471;    0.368539;    0.266872;    0.157935;
 44;    0.098249;    1.004253;    0.507384;    0.496146;    0.487647;    0.455122;    0.415858;    0.356005;    0.272907;    0.151103;
 45;    0.100953;    0.986023;    0.489312;    0.474200;    0.456072;    0.430196;    0.395008;    0.343333;    0.253065;    0.141998;
 46;    0.100335;    1.033732;    0.502971;    0.488472;    0.466956;    0.442615;    0.402192;    0.334812;    0.255729;    0.147552;
 47;    0.098304;    1.039303;    0.506274;    0.491221;    0.485752;    0.463162;    0.388124;    0.316907;    0.263099;    0.140883;
 48;    0.097092;    0.977461;    0.499684;    0.481506;    0.466453;    0.444567;    0.395528;    0.333906;    0.260693;    0.136436;
 49;    0.105575;    0.985808;    0.499465;    0.487797;    0.460830;    0.403720;    0.367365;    0.313653;    0.250525;    0.144771;
 50;    0.105226;    1.010407;    0.495111;    0.484941;    0.464246;    0.430106;    0.376123;    0.329872;    0.236929;    0.090940;
 51;    0.105988;    1.041845;    0.515899;    0.502675;    0.488107;    0.456478;    0.405229;    0.343046;    0.240065;    0.142663;
 52;    0.101519;    0.999985;    0.497583;    0.488277;    0.463062;    0.433280;    0.374627;    0.330236;    0.247628;    0.137849;
 53;    0.101980;    0.942835;    0.505733;    0.491437;    0.488436;    0.466787;    0.416450;    0.353187;    0.260162;    0.169239;
 54;    0.096575;    1.026458;    0.510639;    0.492520;    0.478936;    0.446081;    0.411455;    0.359131;    0.253069;    0.134713;
 55;    0.103978;    0.995221;    0.484906;    0.478755;    0.464198;    0.444590;    0.395478;    0.351952;    0.273343;    0.156083;
 56;    0.109617;    1.002971;    0.489991;    0.477420;    0.465969;    0.419260;    0.381417;    0.307494;    0.243313;    0.160837;
 57;    0.100272;    1.012844;    0.503258;    0.492085;    0.479532;    0.446918;    0.389261;    0.319718;    0.243525;    0.159069;
 58;    0.119120;    1.015081;    0.505901;    0.489537;    0.481490;    0.451500;    0.400087;    0.364481;    0.283113;    0.175542;
 59;    0.105805;    0.980671;    0.498257;    0.489851;    0.447039;    0.424657;    0.381841;    0.331549;    0.254099;    0.158728;
 60;    0.108696;    1.003740;    0.502640;    0.489880;    0.472454;    0.441449;    0.407845;    0.350313;    0.265295;    0.120156;
 61;    0.103927;    0.988072;    0.493146;    0.481967;    0.462021;    0.436864;    0.399436;    0.332831;    0.243388;    0.153001;
 62;    0.110174;    0.990936;    0.492466;    0.479499;    0.462335;    0.434689;    0.391134;    0.335548;    0.244780;    0.146675;
 63;    0.103508;    1.025692;    0.491706;    0.478250;    0.454733;    0.433499;    0.386120;    0.350741;    0.275421;    0.166335;
 64;    0.116483;    1.009892;    0.502622;    0.499909;    0.465556;    0.448973;    0.396484;    0.352429;    0.284695;    0.168221;
 65;    0.111252;    0.962350;    0.490096;    0.477210;    0.464121;    0.440613;    0.395947;    0.335278;    0.251657;    0.125794;
 66;    0.110642;    0.993411;    0.503832;    0.505042;    0.484578;    0.440221;    0.423652;    0.371239;    0.283324;    0.153985;
 67;    0.101266;    0.979561;    0.502935;    0.483917;    0.463162;    0.445977;    0.397200;    0.312669;    0.220568;    0.122383;
 68;    0.111233;    0.998949;    0.496988;    0.479598;    0.470950;    0.426221;    0.403234;    0.349884;    0.258761;    0.153561;
 69;    0.104866;    0.957714;    0.493109;    0.484870;    0.473788;    0.451148;    0.430253;    0.374867;    0.276069;    0.143633;
 70;    0.101570;    1.011823;    0.507701;    0.486508;    0.476254;    0.439984;    0.384149;    0.313208;    0.239680;    0.136068;
 71;    0.096650;    1.008476;    0.498228;    0.456847;    0.438969;    0.419490;    0.378893;    0.349084;    0.278433;    0.171862;
 72;    0.097563;    1.021482;    0.500005;    0.495523;    0.472040;    0.457045;    0.397627;    0.344068;    0.262781;    0.169718;
 73;    0.107430;    1.046649;    0.514800;    0.510318;    0.489398;    0.481311;    0.451049;    0.375012;    0.296393;    0.178541;
 74;    0.096962;    1.027971;    0.491794;    0.477485;    0.455259;    0.427141;    0.381280;    0.332418;    0.257140;    0.135066;
 75;    0.104596;    0.999940;    0.496543;    0.484941;    0.468804;    0.439399;    0.395627;    0.342386;    0.256556;    0.150664;
 76;    0.101070;    1.033717;    0.498419;    0.491208;    0.449493;    0.419673;    0.378532;    0.328156;    0.264754;    0.149895;
 77;    0.111136;    0.967647;    0.482787;    0.465986;    0.448846;    0.428952;    0.392842;    0.316975;    0.243517;    0.118192;
 78;    0.105529;    0.966640;    0.497684;    0.483725;    0.469650;    0.436816;    0.399185;    0.321692;    0.250485;    0.149546;
 79;    0.099300;    1.007457;    0.503856;    0.470849;    0.461250;    0.437878;    0.389751;    0.312094;    0.246639;    0.128248;
 80;    0.099671;    0.998373;    0.485284;    0.478721;    0.469181;    0.426164;    0.378157;    0.324357;    0.260996;    0.136636;
 81;    0.107476;    0.988676;    0.494682;    0.486012;    0.462654;    0.437959;    0.399626;    0.348119;    0.267328;    0.150288;
 82;    0.108482;    0.988742;    0.488681;    0.478801;    0.466948;    0.433759;    0.396704;    0.348308;    0.262595;    0.147916;
 83;    0.098389;    0.946733;    0.482817;    0.471662;    0.444339;    0.426583;    0.395109;    0.340058;    0.254393;    0.141135;
 84;    0.109554;    0.955638;    0.503053;    0.494263;    0.474642;    0.436633;    0.407210;    0.343680;    0.233432;    0.141369;
 85;    0.096517;    0.980329;    0.504978;    0.495102;    0.491338;    0.469008;    0.413027;    0.373046;    0.287424;    0.168331;
 86;    0.118444;    1.031387;    0.493297;    0.475369;    0.455120;    0.436793;    0.408385;    0.346218;    0.238506;    0.144317;
 87;    0.097969;    1.006743;    0.487605;    0.471030;    0.459285;    0.415848;    0.372641;    0.307498;    0.247477;    0.152137;
 88;    0.114692;    1.036182;    0.501958;    0.489614;    0.469965;    0.462334;    0.425079;    0.364206;    0.281238;    0.137056;
 89;    0.100086;    1.016756;    0.510021;    0.500402;    0.471931;    0.443048;    0.410576;    0.368821;    0.274016;    0.139420;
 90;    0.125343;    0.977691;    0.493159;    0.477718;    0.468566;    0.440009;    0.407009;    0.338347;    0.274419;    0.171865;
 91;    0.108177;    1.022035;    0.505652;    0.504794;    0.485458;    0.438365;    0.399118;    0.338102;    0.252017;    0.163136;
 92;    0.101647;    0.989692;    0.491200;    0.479095;    0.464465;    0.420326;    0.390485;    0.316902;    0.264003;    0.152832;
 93;    0.105522;    0.996625;    0.501821;    0.494134;    0.479935;    0.470687;    0.437763;    0.356824;    0.256820;    0.148101;
 94;    0.101576;    1.005300;    0.500087;    0.488786;    0.461345;    0.436083;    0.397543;    0.328288;    0.249161;    0.140263;
 95;    0.111104;    1.026823;    0.505046;    0.485066;    0.474076;    0.439144;    0.391888;    0.303078;    0.216097;    0.096506;
 96;    0.114617;    1.027736;    0.494627;    0.487480;    0.467508;    0.448581;    0.417254;    0.343651;    0.252983;    0.127385;
 97;    0.103304;    0.998519;    0.518784;    0.495502;    0.471366;    0.423783;    0.402144;    0.348278;    0.235277;    0.146413;
 98;    0.103257;    0.996465;    0.500841;    0.489128;    0.480573;    0.441328;    0.418414;    0.349730;    0.262502;    0.156458;
 99;    0.101027;    1.013486;    0.483286;    0.476084;    0.466809;    0.432673;    0.406338;    0.361525;    0.256278;    0.138655;
100;    0.104320;    0.995605;    0.486026;    0.479592;    0.458365;    0.441157;    0.394547;    0.324395;    0.244011;    0.136017;
