Simulation;Time;PC0;PC1;PC2;PC3;PC4;PC5;PC6;PC7;PC8;
Nan;Nan;0;0;0;1;0;0;0;0;0;
  0;    0.051074;    0.994416;    0.465237;    0.366010;    0.300776;    0.368221;    0.495810;    0.724968;    1.163137;    4.091907;
  1;    0.049565;    1.023517;    0.483561;    0.364766;    0.305875;    0.393634;    0.510531;    0.723576;    2.072229;  890.120261;
  2;    0.050449;    1.018004;    0.494087;    0.377504;    0.312432;    0.404722;    0.532345;    0.745732;    1.594507;346879.659959;
  3;    0.051643;    0.973721;    0.467817;    0.385473;    0.318122;    0.387554;    0.493423;    0.963765;    6.754247;  878.986956;
  4;    0.049560;    1.025446;    0.486438;    0.395008;    0.318673;    0.449191;    0.691929;    1.112477;    2.614509; 3133.257225;
  5;    0.050632;    1.001730;    0.460865;    0.364237;    0.309044;    0.395774;    0.551955;    0.996564;    2.933066;   77.497314;
  6;    0.049103;    1.002306;    0.473100;    0.363434;    0.306652;    0.414675;    0.547333;    0.882548;    1.556751; 2750.123416;
  7;    0.051526;    1.018290;    0.475765;    0.370331;    0.320421;    0.392174;    0.557171;    0.776377;    1.543043;   70.052303;
  8;    0.050436;    0.978654;    0.454152;    0.362729;    0.310513;    0.400045;    0.563146;    1.009527;    3.581405;   95.720782;
  9;    0.048973;    0.994533;    0.473908;    0.370970;    0.315348;    0.380279;    0.533065;    0.779280;    1.715518;  156.145403;
 10;    0.050736;    1.007982;    0.481075;    0.378105;    0.311344;    0.406507;    0.542468;    0.793077;    2.470333;113226.545488;
 11;    0.049902;    0.975513;    0.466768;    0.363958;    0.310753;    0.408007;    0.724893;    1.214511;    2.216975;   83.050658;
 12;    0.047827;    0.952050;    0.464255;    0.354852;    0.311628;    0.419467;    0.551747;    0.764929;    1.352008;11890.928920;
 13;    0.048184;    1.017673;    0.459382;    0.368836;    0.306375;    0.442739;    1.097072;    3.177525;    7.961175; 5534.407938;
 14;    0.050024;    0.972228;    0.464113;    0.359883;    0.300044;    0.387321;    0.542897;    0.815758;    1.603162;   69.102978;
 15;    0.049452;    1.044199;    0.460375;    0.371363;    0.299810;    0.364886;    0.454042;    0.731507;    1.476738;    4.167384;
 16;    0.049280;    0.991544;    0.475015;    0.366794;    0.317337;    0.385659;    0.495968;    1.177778;    4.351464;12393.997713;
 17;    0.049759;    0.966413;    0.460874;    0.365298;    0.307650;    0.393653;    0.584788;    0.854208;   12.033049;76466.110710;
 18;    0.049001;    0.932390;    0.452574;    0.361648;    0.306697;    0.375720;    0.476336;    0.817988;    1.328926;   85.815991;
 19;    0.049463;    0.990662;    0.451330;    0.346572;    0.308031;    0.373549;    0.508879;    0.722817;    6.370017; 2796.134334;
 20;    0.050290;    1.044747;    0.469092;    0.368932;    0.307589;    0.413562;    0.527553;    0.810716;    1.949841;   67.764142;
 21;    0.047855;    1.028642;    0.461033;    0.363077;    0.310217;    0.435941;    0.607028;    0.947844;    3.019647; 1835.076924;
 22;    0.048932;    1.020324;    0.467997;    0.370244;    0.323791;    0.546871;    0.821408;    1.135198;    2.049566;  404.832865;
 23;    0.049599;    0.986561;    0.459279;    0.355876;    0.312362;    0.393640;    0.517496;    0.913478;    1.276400;  108.984770;
 24;    0.048433;    1.028720;    0.485804;    0.383019;    0.318170;    0.392710;    0.527742;    0.988905;    5.219457;  158.787966;
 25;    0.049139;    0.974378;    0.466443;    0.369650;    0.304094;    0.376585;    0.504691;    0.953434;    2.764877;   13.603515;
 26;    0.049692;    1.002514;    0.470321;    0.370838;    0.320712;    0.504416;    0.928150;    1.444732;    2.524148;   14.913488;
 27;    0.055145;    1.025901;    0.460368;    0.362789;    0.313215;    0.395687;    0.491735;    0.810672;    2.006742;   85.772829;
 28;    0.048077;    1.036282;    0.463356;    0.365250;    0.317408;    0.423351;    0.644049;    1.098385;   10.305235; 4092.401056;
 29;    0.049430;    1.073843;    0.471197;    0.371078;    0.317168;    0.389385;    0.524243;    0.924223;    1.731250;   29.946191;
 30;    0.050711;    1.022814;    0.471900;    0.378746;    0.310907;    0.437756;    0.631293;    1.428039;   10.523924;  426.440778;
 31;    0.047757;    1.017475;    0.473294;    0.361208;    0.305459;    0.373649;    0.497376;    0.666944;    3.482369;43502.329092;
 32;    0.046451;    0.971987;    0.477095;    0.366102;    0.311853;    0.514360;    4.697088;   12.522868;  115.656613;  793.515942;
 33;    0.049158;    1.037833;    0.463985;    0.360579;    0.303829;    0.386165;    0.731693;    1.346319;   11.619323;   81.240514;
 34;    0.049437;    1.049298;    0.471090;    0.372835;    0.312670;    0.514136;    0.777377;    1.038745;    2.157265;   14.350147;
 35;    0.048705;    0.995824;    0.470637;    0.368268;    0.317892;    0.509599;    0.720073;    1.119936;    2.236486;  357.037567;
 36;    0.048916;    0.941312;    0.473511;    0.374668;    0.304031;    0.368710;    0.547415;    0.942040;    3.667125;  282.588460;
 37;    0.048332;    0.986189;    0.474495;    0.371726;    0.302494;    0.369314;    0.499790;    1.166258;    4.130600; 4684.295981;
 38;    0.047633;    1.005687;    0.459676;    0.358468;    0.311092;    0.386482;    0.503699;    0.824069;    2.156550;18458.421183;
 39;    0.047910;    0.943524;    0.452196;    0.357031;    0.301269;    0.401928;    0.681213;    2.298113;    3.760554; 2219.660191;
 40;    0.049249;    1.013785;    0.483219;    0.366559;    0.304736;    0.376911;    0.537365;    1.333713;    5.430354;   18.217536;
 41;    0.049058;    1.000087;    0.465443;    0.358872;    0.311926;    0.391747;    0.521142;    1.133496;    4.783530;66402.052969;
 42;    0.049128;    1.056666;    0.465542;    0.369710;    0.304642;    0.413806;    0.665357;    0.928098;    1.816329; 1474.464029;
 43;    0.048557;    1.031891;    0.469339;    0.367624;    0.315927;    0.405692;    0.544188;    4.370262;   64.400632;516075.639700;
 44;    0.048175;    1.002992;    0.474506;    0.363480;    0.315921;    0.396555;    0.673197;    1.338764;   20.020761; 1598.018359;
 45;    0.049577;    0.980910;    0.449184;    0.353815;    0.306540;    0.394367;    0.567600;    0.961279;    3.474522;  256.858992;
 46;    0.049193;    1.035644;    0.465563;    0.372767;    0.314324;    0.401405;    0.539501;    0.772532;    2.436258;  637.869807;
 47;    0.048758;    1.035324;    0.464422;    0.379490;    0.314957;    0.385345;    0.603347;    0.801170;   12.388471;  557.153410;
 48;    0.052323;    0.965265;    0.454959;    0.368704;    0.313773;    0.379759;    0.492079;    0.671715;    1.720407;   40.058056;
 49;    0.048738;    0.975579;    0.457158;    0.370920;    0.310546;    0.378391;    0.605060;    1.444400;    2.813715; 2210.649896;
 50;    0.051560;    1.016254;    0.466841;    0.357306;    0.302650;    0.370624;    0.527504;    0.787424;    6.168727;19253.527027;
 51;    0.049122;    1.040080;    0.478461;    0.386076;    0.317656;    0.380362;    0.604808;    2.105286;   26.332609;43602.101983;
 52;    0.048920;    1.007607;    0.474883;    0.373513;    0.304382;    0.377072;    0.626532;    0.819311;    2.235120; 3489.041139;
 53;    0.050523;    0.942362;    0.484440;    0.370792;    0.305747;    0.372580;    0.474641;    0.683841;    2.160905;   54.516858;
 54;    0.049232;    1.037155;    0.490358;    0.363587;    0.311996;    0.394113;    0.495463;    0.740836;    1.415355;  440.248204;
 55;    0.049437;    0.996324;    0.449889;    0.360250;    0.297586;    0.384191;    0.525961;    0.849741;    1.700898;   40.900254;
 56;    0.048653;    1.013135;    0.466817;    0.354946;    0.296965;    0.392976;    0.510856;    0.832975;    2.599644;  420.323897;
 57;    0.048130;    1.022217;    0.480678;    0.367335;    0.307066;    0.400969;    0.502414;    0.727837;   11.711962; 8146.558790;
 58;    0.049063;    1.014952;    0.473074;    0.367951;    0.311596;    0.380863;    0.529479;    0.722540;    2.080552;   16.984225;
 59;    0.050391;    0.983140;    0.471838;    0.373054;    0.306719;    0.423218;    0.651484;    0.850715;   11.955201;  383.555251;
 60;    0.057815;    1.000212;    0.464249;    0.370440;    0.314376;    0.590962;    0.846469;    1.876126;   14.055569;   78.827448;
 61;    0.049161;    0.986222;    0.457578;    0.355951;    0.305990;    0.380208;    0.515806;    0.763952;    1.078359;  618.269740;
 62;    0.049433;    0.992024;    0.459961;    0.358696;    0.305264;    0.375418;    0.751370;    1.167157;    1.808721; 6086.075282;
 63;    0.050265;    1.039048;    0.469254;    0.352569;    0.299011;    0.393620;    0.510133;    0.724337;    1.832108;   33.084713;
 64;    0.048789;    1.011258;    0.470292;    0.374919;    0.307425;    0.386673;    0.545267;    0.873412;    3.648827;  627.215325;
 65;    0.048537;    0.961615;    0.459671;    0.358309;    0.301266;    0.381478;    0.607385;    0.975486;    1.913745;17135.473174;
 66;    0.048560;    0.986851;    0.463682;    0.367677;    0.318279;    0.681349;    1.133724;    1.923491;    4.368135; 7068.936968;
 67;    0.048780;    0.963027;    0.454959;    0.361325;    0.317151;    0.376814;    0.554141;    1.099146;    3.285353;   99.213176;
 68;    0.049121;    0.997840;    0.462803;    0.365663;    0.312929;    0.612866;    0.864990;    1.568935;    3.038167;   88.013037;
 69;    0.048526;    0.959075;    0.466134;    0.363597;    0.302636;    0.381921;    0.579945;    0.940335;    1.552042; 2558.252263;
 70;    0.049259;    1.015726;    0.480955;    0.363300;    0.314490;    0.416700;    0.613479;    0.907141;   18.216510;  409.452450;
 71;    0.048982;    1.006166;    0.460662;    0.362869;    0.311272;    0.377977;    0.504043;    0.746879;    5.105377;  411.549459;
 72;    0.048664;    1.016195;    0.457118;    0.366874;    0.314122;    0.392358;    0.490136;    0.882474;    1.866553; 1433.165943;
 73;    0.048502;    1.046240;    0.478320;    0.380696;    0.322161;    0.439128;    0.672875;    1.066703;    1.893045;  242.391508;
 74;    0.049675;    1.036502;    0.462019;    0.375565;    0.301563;    0.399616;    0.491211;    0.735236;    1.344989;    3.755401;
 75;    0.049297;    1.013396;    0.480563;    0.361651;    0.301237;    0.440795;    1.169880;    3.822737;   17.248417;   96.974311;
 76;    0.050287;    1.034837;    0.460663;    0.356402;    0.311978;    0.390946;    0.507241;    0.789991;    1.451093;  112.471514;
 77;    0.049867;    0.970504;    0.455594;    0.350094;    0.297139;    0.356792;    0.469519;    0.708606;    1.778784;   25.579067;
 78;    0.050839;    0.971492;    0.475639;    0.366751;    0.302639;    0.424129;    0.550240;    0.702469;    1.237757;   19.502763;
 79;    0.050117;    1.005505;    0.468719;    0.365887;    0.312394;    0.391799;    0.554842;    0.949524;    1.980018;  280.857663;
 80;    0.050215;    1.010608;    0.464107;    0.359745;    0.293595;    0.352990;    0.493219;    0.932569;    1.655183;   23.542934;
 81;    0.049437;    0.984957;    0.458349;    0.363541;    0.310247;    0.450369;    0.785884;    1.070962;    1.603809;  414.095033;
 82;    0.048034;    0.990902;    0.457254;    0.360696;    0.305089;    0.527872;    0.806400;    1.618459;   28.914558;  613.174565;
 83;    0.049955;    0.941385;    0.448718;    0.351607;    0.301420;    0.385738;    0.562103;    1.249387;    1.717941;  667.047901;
 84;    0.048377;    0.952915;    0.475497;    0.372848;    0.306552;    0.375812;    0.502496;    1.412422;    3.650280;  139.351751;
 85;    0.049274;    0.975079;    0.469678;    0.367441;    0.317531;    0.496557;    0.821246;    1.215151;    3.147923;  596.929885;
 86;    0.047871;    1.045749;    0.470152;    0.364470;    0.302207;    0.416119;    0.548974;    3.879932;   13.022889; 2970.214881;
 87;    0.048148;    1.014042;    0.459937;    0.357497;    0.298999;    0.372924;    0.528955;    0.866722;    3.031798; 3388.259024;
 88;    0.048881;    1.050940;    0.482093;    0.369018;    0.305339;    0.393676;    0.541624;    0.723516;   10.024355;  539.512816;
 89;    0.048618;    1.019739;    0.480153;    0.380906;    0.313463;    0.407591;    0.704484;    1.257726;   41.191614;53039.933382;
 90;    0.048335;    0.978333;    0.463035;    0.359203;    0.302878;    0.369934;    0.690626;    2.733877;    9.606654; 1732.074513;
 91;    0.050583;    1.028977;    0.480501;    0.369588;    0.308185;    0.373858;    0.949321;    2.258759;   81.536578; 1075.842254;
 92;    0.048680;    0.994643;    0.463954;    0.372341;    0.301243;    0.447293;    0.563235;    0.790567;    8.566983; 1928.414156;
 93;    0.051226;    0.995757;    0.468397;    0.369653;    0.307896;    0.371318;    0.558950;    0.949538;    1.828888;    8.093972;
 94;    0.049823;    1.006419;    0.468217;    0.359537;    0.309225;    0.393324;    0.488240;    0.843236;    1.683901;  221.497774;
 95;    0.049936;    1.028280;    0.471302;    0.366194;    0.308997;    0.374428;    0.477940;    0.823403;    1.904463;  177.239930;
 96;    0.048464;    1.037828;    0.466921;    0.360080;    0.306532;    0.500047;    0.795784;    1.182707;    5.498481;  155.463194;
 97;    0.049963;    0.993153;    0.485890;    0.386785;    0.321170;    0.401960;    0.510429;    0.690999;    1.495741;  759.214850;
 98;    0.047990;    1.003383;    0.478405;    0.372293;    0.305895;    0.379916;    0.532462;    0.897823;    2.289699;  456.707696;
 99;    0.049613;    1.023046;    0.455611;    0.358039;    0.297190;    0.367356;    0.473817;    0.867419;    2.359871;  784.319742;
100;    0.049206;    0.997647;    0.452437;    0.353479;    0.300862;    0.390625;    0.727627;    1.005911;    1.898294;  101.719305;
