Simulation;Time;PC0;PC1;PC2;PC3;PC4;PC5;PC6;PC7;PC8;
Nan;Nan;0;0;0;0;0;0;1;0;0;
  0;    0.058018;    1.416816;    1.252426;    1.148401;    1.100369;    1.077616;    1.074082;    1.032436;    1.033098;    1.032858;
  1;    0.056987;    1.431706;    1.268994;    1.155670;    1.104929;    1.083138;    1.074947;    1.042100;    1.042810;    1.043711;
  2;    0.055467;    1.433601;    1.280389;    1.171479;    1.118584;    1.094273;    1.089856;    1.059193;    1.060039;    1.060238;
  3;    0.059537;    1.411002;    1.257053;    1.171209;    1.124524;    1.099268;    1.093390;    1.060719;    1.061305;    1.061775;
  4;    0.057022;    1.435049;    1.278367;    1.182524;    1.129670;    1.108492;    1.104367;    1.062080;    1.062440;    1.062843;
  5;    0.057664;    1.418184;    1.251546;    1.148166;    1.108857;    1.085283;    1.084920;    1.044510;    1.044820;    1.044984;
  6;    0.055538;    1.424505;    1.263959;    1.154213;    1.113566;    1.082434;    1.079428;    1.040514;    1.040598;    1.040839;
  7;    0.057563;    1.427786;    1.266035;    1.164562;    1.122279;    1.096357;    1.084951;    1.058101;    1.057245;    1.057626;
  8;    0.054706;    1.408099;    1.244053;    1.149518;    1.111825;    1.081512;    1.075724;    1.046155;    1.046985;    1.047478;
  9;    0.055200;    1.421624;    1.264281;    1.164886;    1.123547;    1.096952;    1.092191;    1.055512;    1.056537;    1.056976;
 10;    0.055316;    1.427725;    1.269643;    1.167975;    1.119526;    1.097472;    1.090888;    1.053723;    1.054969;    1.054825;
 11;    0.055258;    1.413796;    1.256795;    1.154106;    1.112816;    1.089152;    1.083250;    1.043718;    1.044409;    1.044804;
 12;    0.055308;    1.404191;    1.256259;    1.148181;    1.110927;    1.087923;    1.087506;    1.045893;    1.046667;    1.045907;
 13;    0.055392;    1.422060;    1.246943;    1.146953;    1.105400;    1.084831;    1.077272;    1.040367;    1.040388;    1.040928;
 14;    0.054883;    1.410728;    1.256983;    1.157941;    1.108413;    1.079667;    1.073755;    1.033546;    1.033550;    1.033675;
 15;    0.055201;    1.426931;    1.244950;    1.141759;    1.090943;    1.069804;    1.062037;    1.033501;    1.034164;    1.033745;
 16;    0.054959;    1.420577;    1.265605;    1.167095;    1.122480;    1.100438;    1.087004;    1.055773;    1.055718;    1.056136;
 17;    0.054877;    1.406083;    1.249039;    1.160714;    1.107851;    1.080133;    1.068060;    1.039135;    1.039613;    1.039883;
 18;    0.055698;    1.390901;    1.240400;    1.143919;    1.102858;    1.082250;    1.078359;    1.042464;    1.042918;    1.043127;
 19;    0.054607;    1.412328;    1.243317;    1.136274;    1.105983;    1.081001;    1.069805;    1.039420;    1.040333;    1.040515;
 20;    0.056106;    1.433313;    1.258266;    1.160117;    1.109664;    1.086787;    1.086687;    1.045644;    1.046773;    1.046919;
 21;    0.054777;    1.426677;    1.250279;    1.156103;    1.110156;    1.089635;    1.079855;    1.042113;    1.043083;    1.042487;
 22;    0.056634;    1.426382;    1.257856;    1.158557;    1.119391;    1.104262;    1.094409;    1.056145;    1.055919;    1.056418;
 23;    0.054534;    1.413241;    1.251650;    1.143888;    1.111053;    1.090475;    1.087721;    1.047443;    1.048046;    1.048224;
 24;    0.055074;    1.435004;    1.277590;    1.170517;    1.124013;    1.103110;    1.104547;    1.060044;    1.060020;    1.060605;
 25;    0.055320;    1.410554;    1.253431;    1.154001;    1.107616;    1.078152;    1.072553;    1.041920;    1.043081;    1.042279;
 26;    0.054535;    1.421073;    1.261117;    1.163693;    1.121171;    1.099629;    1.094658;    1.060299;    1.060505;    1.060943;
 27;    0.054652;    1.425793;    1.248879;    1.154227;    1.113139;    1.092217;    1.084049;    1.049125;    1.049453;    1.049615;
 28;    0.055248;    1.430499;    1.255697;    1.158395;    1.118111;    1.097708;    1.091450;    1.053080;    1.053664;    1.053284;
 29;    0.055423;    1.442605;    1.260939;    1.161355;    1.116568;    1.100467;    1.093183;    1.056115;    1.056326;    1.056842;
 30;    0.054384;    1.427706;    1.261796;    1.163380;    1.116970;    1.089959;    1.088237;    1.051386;    1.052052;    1.052199;
 31;    0.055088;    1.427214;    1.263906;    1.151739;    1.109117;    1.084270;    1.078426;    1.043422;    1.043929;    1.044065;
 32;    0.055264;    1.413941;    1.260749;    1.144772;    1.103930;    1.088100;    1.080781;    1.046001;    1.046228;    1.046833;
 33;    0.055012;    1.429223;    1.255103;    1.141375;    1.102911;    1.075425;    1.071257;    1.042077;    1.042522;    1.042734;
 34;    0.054934;    1.433986;    1.257340;    1.154706;    1.107831;    1.087142;    1.081378;    1.053900;    1.054793;    1.054263;
 35;    0.054948;    1.420853;    1.264127;    1.159451;    1.120054;    1.099661;    1.095342;    1.053216;    1.053761;    1.054225;
 36;    0.054924;    1.402964;    1.262251;    1.157591;    1.109665;    1.081945;    1.077622;    1.041812;    1.042216;    1.042703;
 37;    0.057433;    1.416120;    1.261595;    1.160677;    1.101716;    1.075445;    1.065099;    1.038270;    1.038398;    1.038918;
 38;    0.055149;    1.419874;    1.252841;    1.152483;    1.113598;    1.088716;    1.081172;    1.043504;    1.043477;    1.043871;
 39;    0.054743;    1.395178;    1.240486;    1.142351;    1.093628;    1.073987;    1.069221;    1.027251;    1.027666;    1.027795;
 40;    0.055052;    1.429132;    1.270463;    1.156073;    1.105260;    1.082227;    1.074972;    1.042557;    1.043090;    1.043505;
 41;    0.054598;    1.420520;    1.257856;    1.149437;    1.115885;    1.083982;    1.074511;    1.044919;    1.044733;    1.045010;
 42;    0.056610;    1.436050;    1.253781;    1.157798;    1.107413;    1.082196;    1.078020;    1.043026;    1.043380;    1.043702;
 43;    0.054741;    1.428652;    1.257339;    1.157224;    1.111227;    1.092500;    1.082436;    1.053857;    1.054589;    1.054922;
 44;    0.054914;    1.424559;    1.268491;    1.156453;    1.119761;    1.096952;    1.103999;    1.053835;    1.054309;    1.054765;
 45;    0.053733;    1.408114;    1.239167;    1.144308;    1.105472;    1.079841;    1.072556;    1.037303;    1.038206;    1.037868;
 46;    0.055533;    1.432348;    1.255390;    1.161351;    1.121474;    1.092820;    1.086661;    1.048376;    1.048950;    1.049397;
 47;    0.055104;    1.427995;    1.252662;    1.160431;    1.117679;    1.092207;    1.091136;    1.056922;    1.057141;    1.057526;
 48;    0.056452;    1.405874;    1.246177;    1.156381;    1.118217;    1.096935;    1.086359;    1.048606;    1.049211;    1.049451;
 49;    0.056526;    1.410021;    1.248661;    1.153345;    1.117829;    1.090486;    1.079996;    1.047255;    1.046956;    1.047416;
 50;    0.055867;    1.423633;    1.256597;    1.146752;    1.101506;    1.076042;    1.070149;    1.039393;    1.040588;    1.040597;
 51;    0.054719;    1.436608;    1.271716;    1.173994;    1.130312;    1.103295;    1.093884;    1.063258;    1.063641;    1.064064;
 52;    0.054556;    1.423155;    1.262253;    1.156876;    1.104499;    1.081726;    1.071353;    1.038963;    1.039194;    1.039387;
 53;    0.055822;    1.407963;    1.272296;    1.156474;    1.112534;    1.084410;    1.078529;    1.047248;    1.047543;    1.047738;
 54;    0.054397;    1.439894;    1.280596;    1.151414;    1.117041;    1.088872;    1.084223;    1.051108;    1.052190;    1.052342;
 55;    0.055065;    1.411847;    1.235238;    1.135759;    1.095964;    1.070729;    1.060456;    1.031772;    1.032387;    1.032918;
 56;    0.054949;    1.421481;    1.253175;    1.138716;    1.091355;    1.062520;    1.060147;    1.030561;    1.030664;    1.031092;
 57;    0.054905;    1.431748;    1.272078;    1.163048;    1.114065;    1.085381;    1.083419;    1.045443;    1.045997;    1.046309;
 58;    0.055260;    1.427042;    1.265610;    1.153465;    1.118033;    1.090131;    1.083533;    1.051663;    1.053158;    1.053140;
 59;    0.054401;    1.417025;    1.263141;    1.168933;    1.115489;    1.086225;    1.082441;    1.041607;    1.042790;    1.042653;
 60;    0.054507;    1.421332;    1.255284;    1.158802;    1.123329;    1.089791;    1.084462;    1.049751;    1.051461;    1.049589;
 61;    0.054561;    1.411570;    1.244778;    1.137760;    1.101791;    1.080480;    1.073930;    1.040601;    1.040440;    1.040699;
 62;    0.056111;    1.413649;    1.249583;    1.155204;    1.102916;    1.082046;    1.073990;    1.038264;    1.037977;    1.038372;
 63;    0.054741;    1.432070;    1.259258;    1.140401;    1.097864;    1.076323;    1.066818;    1.033514;    1.034292;    1.034455;
 64;    0.054323;    1.421289;    1.254578;    1.159678;    1.104358;    1.083453;    1.087908;    1.049410;    1.050020;    1.050645;
 65;    0.054986;    1.406566;    1.249467;    1.144511;    1.107403;    1.078984;    1.070275;    1.033431;    1.033762;    1.034177;
 66;    0.054513;    1.416253;    1.255913;    1.160885;    1.122023;    1.097308;    1.088628;    1.053362;    1.054347;    1.054061;
 67;    0.054612;    1.401646;    1.244021;    1.141679;    1.106653;    1.092410;    1.089837;    1.052605;    1.052697;    1.052908;
 68;    0.054960;    1.419575;    1.255489;    1.155311;    1.116751;    1.094958;    1.087121;    1.044058;    1.044920;    1.045152;
 69;    0.055234;    1.404557;    1.252202;    1.151634;    1.097454;    1.077341;    1.073757;    1.038188;    1.038771;    1.038920;
 70;    0.054694;    1.430536;    1.274227;    1.154022;    1.116876;    1.092490;    1.084940;    1.051320;    1.051746;    1.051821;
 71;    0.054370;    1.417486;    1.248467;    1.142892;    1.103357;    1.082023;    1.077235;    1.046807;    1.047005;    1.047259;
 72;    0.054159;    1.421716;    1.248873;    1.152760;    1.115955;    1.093131;    1.093567;    1.050978;    1.052213;    1.051379;
 73;    0.054768;    1.438713;    1.271079;    1.171136;    1.130488;    1.107696;    1.098990;    1.062785;    1.063391;    1.063759;
 74;    0.054726;    1.429170;    1.250855;    1.161281;    1.107515;    1.080390;    1.079153;    1.037391;    1.037946;    1.037853;
 75;    0.055462;    1.427005;    1.270179;    1.151324;    1.099909;    1.079422;    1.081467;    1.038140;    1.038499;    1.038684;
 76;    0.054552;    1.428502;    1.250818;    1.148798;    1.111196;    1.088806;    1.079750;    1.045262;    1.045991;    1.046025;
 77;    0.054777;    1.404586;    1.243295;    1.133077;    1.088526;    1.071154;    1.063637;    1.026914;    1.027170;    1.027352;
 78;    0.056461;    1.414414;    1.265601;    1.156956;    1.107736;    1.081565;    1.074322;    1.037749;    1.038219;    1.038788;
 79;    0.056361;    1.423607;    1.260597;    1.153870;    1.118401;    1.091797;    1.083629;    1.048218;    1.049356;    1.049401;
 80;    0.059529;    1.421576;    1.251913;    1.145863;    1.096660;    1.071629;    1.061274;    1.027620;    1.027650;    1.027974;
 81;    0.054491;    1.411010;    1.247076;    1.152709;    1.107112;    1.084423;    1.077071;    1.042766;    1.043160;    1.043647;
 82;    0.056920;    1.411647;    1.244087;    1.140351;    1.096452;    1.076412;    1.070593;    1.035353;    1.036322;    1.036440;
 83;    0.054122;    1.392185;    1.235146;    1.131396;    1.089299;    1.073818;    1.073637;    1.030623;    1.031585;    1.031342;
 84;    0.053973;    1.405933;    1.264001;    1.158823;    1.108388;    1.079569;    1.085448;    1.045510;    1.046535;    1.046911;
 85;    0.054483;    1.414189;    1.260778;    1.159218;    1.118764;    1.099052;    1.092765;    1.052755;    1.053439;    1.053384;
 86;    0.054780;    1.435435;    1.257195;    1.143646;    1.100516;    1.079530;    1.082315;    1.036246;    1.036314;    1.036750;
 87;    0.054994;    1.420920;    1.249007;    1.139105;    1.097938;    1.077083;    1.064391;    1.031727;    1.031000;    1.031417;
 88;    0.054341;    1.440779;    1.270630;    1.164962;    1.113634;    1.089300;    1.087426;    1.045207;    1.045800;    1.046228;
 89;    0.054470;    1.429104;    1.266502;    1.169767;    1.116982;    1.089306;    1.077657;    1.052927;    1.053438;    1.054140;
 90;    0.054208;    1.411416;    1.250587;    1.140569;    1.104016;    1.073171;    1.070205;    1.038753;    1.039178;    1.039627;
 91;    0.054440;    1.432408;    1.268973;    1.158025;    1.111256;    1.088155;    1.079321;    1.048829;    1.048909;    1.048976;
 92;    0.055683;    1.417814;    1.254133;    1.156450;    1.110052;    1.078910;    1.074873;    1.034652;    1.035085;    1.035237;
 93;    0.056523;    1.419222;    1.258258;    1.161352;    1.116569;    1.088919;    1.080839;    1.048231;    1.048884;    1.048815;
 94;    0.054973;    1.423077;    1.261264;    1.146773;    1.112902;    1.085898;    1.094446;    1.043392;    1.043913;    1.044270;
 95;    0.054416;    1.429926;    1.262357;    1.157947;    1.117685;    1.087105;    1.080512;    1.051208;    1.052475;    1.051843;
 96;    0.053979;    1.433411;    1.256960;    1.153889;    1.111949;    1.085387;    1.086806;    1.039583;    1.040680;    1.040968;
 97;    0.055075;    1.424752;    1.276258;    1.173535;    1.129362;    1.105563;    1.107613;    1.060929;    1.061000;    1.061638;
 98;    0.054437;    1.424747;    1.268684;    1.159218;    1.111802;    1.086682;    1.085392;    1.043417;    1.043971;    1.044627;
 99;    0.054959;    1.420837;    1.241219;    1.138020;    1.089916;    1.063334;    1.056346;    1.028570;    1.029283;    1.029540;
100;    0.054188;    1.413752;    1.240525;    1.145243;    1.099222;    1.072112;    1.067360;    1.032400;    1.032810;    1.033420;
