Simulation;Time;PC0;PC1;PC2;PC3;PC4;PC5;PC6;PC7;PC8;
Nan;Nan;0;1;0;0;0;0;0;0;0;
  0;    0.012419;    0.127247;    0.107429;    0.107450;    0.107514;    0.107632;    0.107596;    0.107553;    0.107536;    0.107552;
  1;    0.011329;    0.128259;    0.108514;    0.108512;    0.108628;    0.108593;    0.108582;    0.108655;    0.108636;    0.108654;
  2;    0.009694;    0.128347;    0.109545;    0.109584;    0.109722;    0.109746;    0.109660;    0.109720;    0.109707;    0.109728;
  3;    0.009185;    0.127127;    0.108852;    0.108873;    0.108992;    0.108951;    0.109012;    0.109044;    0.109046;    0.109061;
  4;    0.009173;    0.128843;    0.109701;    0.109844;    0.109849;    0.109826;    0.109777;    0.109843;    0.109818;    0.109829;
  5;    0.009195;    0.127874;    0.107956;    0.108019;    0.108023;    0.108066;    0.108113;    0.108145;    0.108163;    0.108173;
  6;    0.009121;    0.127609;    0.108081;    0.108165;    0.108140;    0.108137;    0.108166;    0.108199;    0.108190;    0.108192;
  7;    0.011002;    0.128687;    0.109233;    0.109235;    0.109293;    0.109303;    0.109382;    0.109324;    0.109332;    0.109338;
  8;    0.009165;    0.127172;    0.107863;    0.107911;    0.107947;    0.108001;    0.108058;    0.108022;    0.108063;    0.108052;
  9;    0.009006;    0.127650;    0.108817;    0.108857;    0.108900;    0.109012;    0.109048;    0.109005;    0.109034;    0.109063;
 10;    0.009607;    0.127941;    0.108879;    0.108969;    0.108980;    0.109060;    0.109070;    0.109098;    0.109122;    0.109126;
 11;    0.008915;    0.126699;    0.107908;    0.108035;    0.108087;    0.108026;    0.108098;    0.108073;    0.108123;    0.108091;
 12;    0.010017;    0.125878;    0.107699;    0.107840;    0.107901;    0.107825;    0.107884;    0.107878;    0.107863;    0.107882;
 13;    0.009095;    0.128448;    0.107894;    0.107941;    0.107943;    0.107991;    0.108026;    0.108044;    0.108096;    0.108063;
 14;    0.008981;    0.126303;    0.107184;    0.107224;    0.107272;    0.107342;    0.107354;    0.107322;    0.107312;    0.107314;
 15;    0.009195;    0.129285;    0.107742;    0.107771;    0.107744;    0.107813;    0.107876;    0.107847;    0.107835;    0.107839;
 16;    0.009069;    0.127572;    0.108911;    0.108883;    0.108918;    0.108916;    0.108978;    0.108999;    0.109010;    0.109024;
 17;    0.009080;    0.126380;    0.107505;    0.107553;    0.107545;    0.107539;    0.107556;    0.107555;    0.107576;    0.107589;
 18;    0.008950;    0.125224;    0.107221;    0.107277;    0.107310;    0.107367;    0.107419;    0.107339;    0.107369;    0.107390;
 19;    0.009323;    0.127510;    0.107448;    0.107488;    0.107544;    0.107625;    0.107622;    0.107667;    0.107666;    0.107654;
 20;    0.009012;    0.129350;    0.108424;    0.108491;    0.108620;    0.108588;    0.108644;    0.108678;    0.108694;    0.108703;
 21;    0.009370;    0.128867;    0.108071;    0.108129;    0.108159;    0.108198;    0.108207;    0.108209;    0.108229;    0.108243;
 22;    0.010230;    0.128857;    0.109055;    0.109107;    0.109139;    0.109086;    0.109095;    0.109154;    0.109169;    0.109174;
 23;    0.009036;    0.127398;    0.107976;    0.108106;    0.108224;    0.108233;    0.108148;    0.108168;    0.108206;    0.108190;
 24;    0.009012;    0.128914;    0.109481;    0.109578;    0.109595;    0.109583;    0.109631;    0.109643;    0.109699;    0.109693;
 25;    0.009316;    0.126612;    0.107745;    0.107802;    0.107874;    0.107890;    0.107947;    0.107939;    0.107914;    0.107925;
 26;    0.012617;    0.128170;    0.109008;    0.109064;    0.109100;    0.109206;    0.109252;    0.109264;    0.109219;    0.109241;
 27;    0.011374;    0.128955;    0.108436;    0.108433;    0.108467;    0.108555;    0.108617;    0.108647;    0.108605;    0.108637;
 28;    0.011097;    0.129423;    0.108807;    0.108921;    0.108891;    0.108900;    0.108938;    0.108949;    0.108985;    0.108974;
 29;    0.010703;    0.130811;    0.109368;    0.109418;    0.109457;    0.109534;    0.109597;    0.109563;    0.109560;    0.109550;
 30;    0.008861;    0.128657;    0.108644;    0.108741;    0.108767;    0.108820;    0.108854;    0.108902;    0.108919;    0.108913;
 31;    0.008966;    0.128204;    0.108173;    0.108231;    0.108310;    0.108320;    0.108385;    0.108369;    0.108388;    0.108398;
 32;    0.008992;    0.126385;    0.108148;    0.108187;    0.108260;    0.108268;    0.108267;    0.108340;    0.108317;    0.108314;
 33;    0.009677;    0.129153;    0.108147;    0.108193;    0.108243;    0.108251;    0.108254;    0.108289;    0.108339;    0.108354;
 34;    0.008912;    0.129762;    0.108999;    0.109076;    0.109098;    0.109125;    0.109191;    0.109203;    0.109218;    0.109245;
 35;    0.008840;    0.127733;    0.108607;    0.108750;    0.108744;    0.108714;    0.108738;    0.108738;    0.108774;    0.108796;
 36;    0.011280;    0.125099;    0.107510;    0.107572;    0.107627;    0.107629;    0.107706;    0.107681;    0.107697;    0.107718;
 37;    0.010329;    0.126793;    0.107765;    0.107836;    0.107833;    0.107909;    0.107874;    0.107912;    0.107917;    0.107918;
 38;    0.008800;    0.128079;    0.108015;    0.108108;    0.108096;    0.108124;    0.108185;    0.108183;    0.108240;    0.108168;
 39;    0.008780;    0.125288;    0.106497;    0.106556;    0.106612;    0.106555;    0.106581;    0.106635;    0.106592;    0.106604;
 40;    0.008943;    0.127860;    0.108387;    0.108427;    0.108537;    0.108570;    0.108611;    0.108634;    0.108560;    0.108573;
 41;    0.008950;    0.127727;    0.108077;    0.108134;    0.108176;    0.108263;    0.108205;    0.108283;    0.108273;    0.108276;
 42;    0.008949;    0.129845;    0.108408;    0.108473;    0.108566;    0.108571;    0.108532;    0.108559;    0.108594;    0.108588;
 43;    0.009028;    0.129163;    0.108892;    0.108927;    0.109011;    0.109031;    0.109045;    0.109101;    0.109082;    0.109095;
 44;    0.009639;    0.127940;    0.108734;    0.108775;    0.108858;    0.108876;    0.108933;    0.108955;    0.108947;    0.108956;
 45;    0.009144;    0.127088;    0.107254;    0.107270;    0.107320;    0.107383;    0.107433;    0.107450;    0.107400;    0.107421;
 46;    0.009066;    0.129226;    0.108679;    0.108662;    0.108741;    0.108770;    0.108831;    0.108847;    0.108829;    0.108845;
 47;    0.009557;    0.129453;    0.108967;    0.109008;    0.109101;    0.109180;    0.109138;    0.109160;    0.109211;    0.109202;
 48;    0.008846;    0.126698;    0.107939;    0.107944;    0.107988;    0.108068;    0.108099;    0.108075;    0.108104;    0.108097;
 49;    0.009632;    0.127096;    0.107998;    0.108057;    0.108122;    0.108012;    0.108049;    0.108093;    0.108126;    0.108118;
 50;    0.012107;    0.128205;    0.107906;    0.107994;    0.108057;    0.108055;    0.108080;    0.108124;    0.108119;    0.108112;
 51;    0.010847;    0.129583;    0.109662;    0.109690;    0.109758;    0.109807;    0.109805;    0.109849;    0.109857;    0.109863;
 52;    0.009780;    0.127730;    0.107990;    0.108068;    0.108058;    0.108151;    0.108136;    0.108144;    0.108142;    0.108122;
 53;    0.010614;    0.125076;    0.108028;    0.108053;    0.108166;    0.108213;    0.108189;    0.108199;    0.108214;    0.108234;
 54;    0.011087;    0.128898;    0.109160;    0.109141;    0.109226;    0.109263;    0.109319;    0.109357;    0.109318;    0.109328;
 55;    0.009111;    0.127536;    0.107022;    0.107105;    0.107138;    0.107189;    0.107174;    0.107218;    0.107242;    0.107247;
 56;    0.009014;    0.127881;    0.107476;    0.107497;    0.107604;    0.107548;    0.107533;    0.107507;    0.107525;    0.107548;
 57;    0.011183;    0.128295;    0.108518;    0.108567;    0.108672;    0.108679;    0.108703;    0.108678;    0.108691;    0.108715;
 58;    0.009826;    0.128416;    0.108734;    0.108764;    0.108842;    0.108874;    0.108866;    0.108928;    0.108940;    0.108958;
 59;    0.008888;    0.126850;    0.107875;    0.107992;    0.107945;    0.108004;    0.107966;    0.107981;    0.108022;    0.108051;
 60;    0.009041;    0.127900;    0.108399;    0.108483;    0.108516;    0.108545;    0.108600;    0.108602;    0.108610;    0.108578;
 61;    0.009022;    0.127187;    0.107565;    0.107623;    0.107657;    0.107683;    0.107708;    0.107734;    0.107766;    0.107771;
 62;    0.012072;    0.127319;    0.107545;    0.107580;    0.107618;    0.107663;    0.107652;    0.107694;    0.107677;    0.107691;
 63;    0.010896;    0.128875;    0.107792;    0.107838;    0.107824;    0.107896;    0.107864;    0.107906;    0.107936;    0.107949;
 64;    0.009260;    0.128187;    0.108451;    0.108590;    0.108554;    0.108617;    0.108650;    0.108687;    0.108710;    0.108714;
 65;    0.009032;    0.125995;    0.107103;    0.107135;    0.107206;    0.107251;    0.107286;    0.107290;    0.107257;    0.107260;
 66;    0.009302;    0.127426;    0.108378;    0.108531;    0.108587;    0.108518;    0.108610;    0.108643;    0.108652;    0.108645;
 67;    0.009022;    0.126798;    0.108196;    0.108173;    0.108228;    0.108308;    0.108245;    0.108240;    0.108251;    0.108247;
 68;    0.009078;    0.127686;    0.107949;    0.107967;    0.108058;    0.108048;    0.108143;    0.108193;    0.108146;    0.108156;
 69;    0.009075;    0.125790;    0.107284;    0.107336;    0.107426;    0.107463;    0.107525;    0.107547;    0.107543;    0.107534;
 70;    0.011898;    0.128264;    0.108849;    0.108875;    0.108965;    0.108949;    0.108968;    0.108978;    0.108967;    0.108999;
 71;    0.008897;    0.128105;    0.108116;    0.108135;    0.108171;    0.108224;    0.108255;    0.108310;    0.108307;    0.108322;
 72;    0.008931;    0.128711;    0.108367;    0.108474;    0.108476;    0.108578;    0.108551;    0.108572;    0.108565;    0.108590;
 73;    0.008892;    0.129779;    0.109630;    0.109719;    0.109700;    0.109799;    0.109849;    0.109824;    0.109854;    0.109871;
 74;    0.008912;    0.128980;    0.107822;    0.107868;    0.107945;    0.107942;    0.107983;    0.108004;    0.108003;    0.108002;
 75;    0.008978;    0.127720;    0.107921;    0.107960;    0.108014;    0.108066;    0.108107;    0.108149;    0.108124;    0.108135;
 76;    0.009008;    0.129227;    0.108349;    0.108449;    0.108409;    0.108408;    0.108461;    0.108461;    0.108488;    0.108494;
 77;    0.009094;    0.126257;    0.106618;    0.106621;    0.106663;    0.106737;    0.106789;    0.106745;    0.106781;    0.106775;
 78;    0.009886;    0.126203;    0.107706;    0.107738;    0.107830;    0.107825;    0.107828;    0.107845;    0.107834;    0.107843;
 79;    0.010061;    0.128100;    0.108531;    0.108527;    0.108620;    0.108658;    0.108691;    0.108650;    0.108701;    0.108664;
 80;    0.009645;    0.127667;    0.107079;    0.107176;    0.107269;    0.107235;    0.107214;    0.107271;    0.107319;    0.107287;
 81;    0.009046;    0.127233;    0.107681;    0.107743;    0.107744;    0.107761;    0.107819;    0.107880;    0.107899;    0.107893;
 82;    0.008933;    0.127219;    0.107243;    0.107338;    0.107426;    0.107448;    0.107481;    0.107509;    0.107505;    0.107514;
 83;    0.009370;    0.125253;    0.106417;    0.106460;    0.106512;    0.106577;    0.106633;    0.106631;    0.106645;    0.106660;
 84;    0.009018;    0.125697;    0.107976;    0.108031;    0.108054;    0.108079;    0.108171;    0.108210;    0.108136;    0.108154;
 85;    0.008922;    0.126832;    0.108347;    0.108412;    0.108523;    0.108539;    0.108519;    0.108586;    0.108595;    0.108610;
 86;    0.008962;    0.129159;    0.107959;    0.107977;    0.108020;    0.108074;    0.108141;    0.108161;    0.108145;    0.108162;
 87;    0.011120;    0.128043;    0.107329;    0.107377;    0.107482;    0.107408;    0.107484;    0.107447;    0.107452;    0.107474;
 88;    0.008948;    0.129324;    0.108618;    0.108663;    0.108695;    0.108796;    0.108853;    0.108875;    0.108906;    0.108896;
 89;    0.009190;    0.128479;    0.109031;    0.109134;    0.109135;    0.109161;    0.109184;    0.109245;    0.109223;    0.109208;
 90;    0.010666;    0.126711;    0.107477;    0.107501;    0.107579;    0.107627;    0.107714;    0.107705;    0.107730;    0.107746;
 91;    0.009087;    0.128706;    0.108770;    0.108915;    0.108968;    0.108884;    0.108899;    0.108938;    0.108937;    0.108940;
 92;    0.009796;    0.127254;    0.107433;    0.107464;    0.107517;    0.107518;    0.107596;    0.107558;    0.107595;    0.107600;
 93;    0.009560;    0.127581;    0.108272;    0.108312;    0.108372;    0.108470;    0.108494;    0.108450;    0.108472;    0.108488;
 94;    0.009678;    0.127967;    0.108220;    0.108282;    0.108238;    0.108274;    0.108294;    0.108286;    0.108324;    0.108336;
 95;    0.008870;    0.128930;    0.108762;    0.108811;    0.108881;    0.108886;    0.108934;    0.108938;    0.108962;    0.108954;
 96;    0.011123;    0.128971;    0.108024;    0.108094;    0.108178;    0.108249;    0.108313;    0.108301;    0.108284;    0.108294;
 97;    0.009076;    0.127676;    0.109466;    0.109435;    0.109489;    0.109474;    0.109565;    0.109593;    0.109543;    0.109566;
 98;    0.009077;    0.127595;    0.108214;    0.108255;    0.108358;    0.108302;    0.108398;    0.108393;    0.108430;    0.108435;
 99;    0.008995;    0.128339;    0.107072;    0.107164;    0.107255;    0.107250;    0.107305;    0.107341;    0.107321;    0.107330;
100;    0.009291;    0.127572;    0.107129;    0.107206;    0.107254;    0.107367;    0.107358;    0.107281;    0.107303;    0.107327;
