Simulation;Time;PC0;PC1;PC2;PC3;PC4;PC5;PC6;PC7;PC8;
Nan;Nan;0;0;0;0;0;0;0;1;0;
  0;    0.075459;    0.988567;    0.817425;    0.699431;    0.640960;    0.580178;    0.459055;    0.388257;    0.321346;    0.288108;
  1;    0.079172;    1.018445;    0.847614;    0.709722;    0.667112;    0.571128;    0.467351;    0.398143;    0.331269;    0.310669;
  2;    0.080461;    1.029718;    0.861732;    0.731594;    0.665560;    0.587426;    0.483814;    0.421199;    0.345299;    0.305994;
  3;    0.084243;    1.000133;    0.839776;    0.737979;    0.682499;    0.608644;    0.481966;    0.415600;    0.337143;    0.305044;
  4;    0.074342;    1.032808;    0.860620;    0.745771;    0.663269;    0.571957;    0.481847;    0.411033;    0.339923;    0.301595;
  5;    0.076301;    0.996432;    0.823744;    0.707136;    0.662509;    0.578287;    0.465261;    0.404846;    0.329637;    0.296405;
  6;    0.075572;    1.007035;    0.838954;    0.708290;    0.667615;    0.568378;    0.456119;    0.407278;    0.326565;    0.290105;
  7;    0.082517;    1.022678;    0.850980;    0.730572;    0.676506;    0.612226;    0.474227;    0.412482;    0.342885;    0.297877;
  8;    0.075346;    0.986706;    0.820580;    0.712096;    0.652674;    0.582145;    0.465085;    0.406998;    0.330741;    0.298307;
  9;    0.081785;    1.012250;    0.846360;    0.728389;    0.684766;    0.603560;    0.477958;    0.423122;    0.332263;    0.302802;
 10;    0.073191;    1.017743;    0.849298;    0.726540;    0.660802;    0.605707;    0.479106;    0.416507;    0.332384;    0.297634;
 11;    0.076958;    0.995920;    0.837428;    0.710411;    0.665947;    0.576633;    0.461483;    0.405704;    0.328276;    0.294901;
 12;    0.078017;    0.983123;    0.832792;    0.705500;    0.642216;    0.561129;    0.463425;    0.403805;    0.336062;    0.301729;
 13;    0.077510;    0.998755;    0.820352;    0.707368;    0.664957;    0.579662;    0.463281;    0.405077;    0.326482;    0.291343;
 14;    0.074350;    0.980400;    0.820002;    0.700529;    0.649427;    0.576287;    0.448474;    0.383365;    0.323391;    0.286482;
 15;    0.073279;    1.000011;    0.810704;    0.700970;    0.630731;    0.565473;    0.463544;    0.391156;    0.321917;    0.285322;
 16;    0.071282;    1.010397;    0.851275;    0.727463;    0.672471;    0.608957;    0.474690;    0.412636;    0.340376;    0.298475;
 17;    0.076735;    0.983196;    0.821476;    0.714300;    0.669712;    0.573477;    0.455999;    0.394434;    0.324254;    0.293143;
 18;    0.077329;    0.964749;    0.813250;    0.708277;    0.682664;    0.612458;    0.475992;    0.411562;    0.322264;    0.286627;
 19;    0.074176;    0.987400;    0.813673;    0.697587;    0.647523;    0.549493;    0.463866;    0.408175;    0.325457;    0.290436;
 20;    0.076531;    1.015862;    0.829401;    0.715271;    0.667695;    0.578716;    0.466305;    0.411231;    0.327796;    0.295512;
 21;    0.079624;    1.007921;    0.822535;    0.711277;    0.645380;    0.569490;    0.462545;    0.395127;    0.322442;    0.289490;
 22;    0.073212;    1.021195;    0.841853;    0.727671;    0.648498;    0.576092;    0.479844;    0.412155;    0.332910;    0.294786;
 23;    0.074366;    0.993590;    0.826151;    0.707677;    0.636979;    0.566938;    0.473092;    0.407180;    0.331220;    0.304692;
 24;    0.070924;    1.031668;    0.863095;    0.734695;    0.686051;    0.601373;    0.481600;    0.421644;    0.340787;    0.298950;
 25;    0.082050;    0.986164;    0.827882;    0.706393;    0.675635;    0.567534;    0.458956;    0.402754;    0.334959;    0.297298;
 26;    0.075795;    1.014792;    0.845632;    0.732036;    0.679683;    0.601853;    0.478788;    0.413883;    0.336038;    0.300883;
 27;    0.070811;    1.010262;    0.828362;    0.717077;    0.658856;    0.585721;    0.475191;    0.415636;    0.329356;    0.293880;
 28;    0.071622;    1.018710;    0.833675;    0.721844;    0.665581;    0.594966;    0.473710;    0.411040;    0.333696;    0.296135;
 29;    0.078328;    1.034727;    0.839833;    0.725608;    0.656012;    0.571338;    0.483791;    0.420111;    0.336947;    0.303434;
 30;    0.081582;    1.013303;    0.835652;    0.723615;    0.680808;    0.587145;    0.474370;    0.415897;    0.330726;    0.297184;
 31;    0.075914;    1.007055;    0.833314;    0.704359;    0.678172;    0.600074;    0.462393;    0.399067;    0.333547;    0.298564;
 32;    0.079426;    0.999387;    0.856844;    0.707722;    0.632063;    0.567695;    0.466822;    0.408829;    0.338551;    0.293785;
 33;    0.071637;    1.007544;    0.824337;    0.702244;    0.646409;    0.569913;    0.470568;    0.412104;    0.331921;    0.291840;
 34;    0.074480;    1.021452;    0.836086;    0.718798;    0.672640;    0.594332;    0.478279;    0.413447;    0.341979;    0.301526;
 35;    0.071352;    1.009681;    0.844868;    0.722114;    0.653342;    0.586616;    0.472019;    0.406910;    0.334089;    0.295114;
 36;    0.073794;    0.980020;    0.839331;    0.712131;    0.658030;    0.578096;    0.462200;    0.403074;    0.326745;    0.301219;
 37;    0.079711;    0.993285;    0.830586;    0.708157;    0.632078;    0.571133;    0.451823;    0.393191;    0.331591;    0.289747;
 38;    0.070652;    0.999935;    0.824361;    0.708829;    0.663967;    0.583519;    0.463700;    0.394359;    0.328620;    0.289959;
 39;    0.073508;    0.960637;    0.804263;    0.692705;    0.634255;    0.534892;    0.450783;    0.384753;    0.316609;    0.277010;
 40;    0.070732;    1.013221;    0.848680;    0.707868;    0.666147;    0.574647;    0.464000;    0.406077;    0.332457;    0.296706;
 41;    0.074869;    1.002365;    0.835658;    0.707197;    0.657985;    0.544859;    0.454706;    0.410462;    0.339014;    0.294298;
 42;    0.079231;    1.018677;    0.825548;    0.713278;    0.642315;    0.584088;    0.464865;    0.402187;    0.324710;    0.293345;
 43;    0.082714;    1.017816;    0.836807;    0.722320;    0.645707;    0.578537;    0.477875;    0.413003;    0.334895;    0.299415;
 44;    0.077221;    1.015596;    0.850280;    0.720621;    0.659003;    0.588114;    0.477244;    0.412447;    0.330907;    0.300020;
 45;    0.073196;    0.980329;    0.810191;    0.701608;    0.654595;    0.577427;    0.455160;    0.393327;    0.325158;    0.297165;
 46;    0.075961;    1.020196;    0.838951;    0.722944;    0.675344;    0.605421;    0.465313;    0.400910;    0.328984;    0.295145;
 47;    0.078887;    1.016216;    0.833477;    0.729626;    0.698410;    0.602852;    0.481161;    0.410530;    0.334914;    0.302024;
 48;    0.081806;    0.986318;    0.823566;    0.718919;    0.675766;    0.596928;    0.475590;    0.401437;    0.324677;    0.293461;
 49;    0.077743;    0.990288;    0.822089;    0.717278;    0.656981;    0.590878;    0.478638;    0.407419;    0.324528;    0.294567;
 50;    0.078397;    1.001311;    0.824127;    0.702783;    0.666815;    0.580684;    0.468551;    0.420177;    0.327119;    0.293072;
 51;    0.077128;    1.033852;    0.854750;    0.741273;    0.703842;    0.598455;    0.490149;    0.417179;    0.337015;    0.313241;
 52;    0.072774;    1.000958;    0.831212;    0.707472;    0.647537;    0.563701;    0.454384;    0.392966;    0.332384;    0.294893;
 53;    0.077647;    0.993270;    0.876370;    0.714434;    0.671939;    0.564992;    0.469506;    0.409862;    0.330846;    0.290649;
 54;    0.079700;    1.035844;    0.863342;    0.713716;    0.666808;    0.573620;    0.470864;    0.411450;    0.337205;    0.303786;
 55;    0.082482;    0.977759;    0.802142;    0.692778;    0.651204;    0.557347;    0.462190;    0.400345;    0.320921;    0.286831;
 56;    0.076755;    0.992553;    0.819110;    0.689197;    0.639036;    0.566432;    0.449856;    0.395670;    0.333360;    0.292117;
 57;    0.079691;    1.018918;    0.844234;    0.714301;    0.665714;    0.593011;    0.461602;    0.404418;    0.329563;    0.297846;
 58;    0.071997;    1.015619;    0.843967;    0.718358;    0.653204;    0.591927;    0.476104;    0.419525;    0.334159;    0.299485;
 59;    0.078358;    0.996153;    0.831352;    0.715879;    0.670728;    0.565998;    0.453863;    0.393824;    0.329725;    0.297638;
 60;    0.071596;    1.009162;    0.838522;    0.720865;    0.644331;    0.564395;    0.463464;    0.402434;    0.328405;    0.288201;
 61;    0.079511;    0.984916;    0.818313;    0.696098;    0.658307;    0.583383;    0.465925;    0.400239;    0.332686;    0.290786;
 62;    0.078686;    0.987963;    0.816197;    0.706328;    0.664738;    0.554022;    0.458309;    0.392228;    0.325190;    0.287481;
 63;    0.074859;    1.008137;    0.822035;    0.692583;    0.657763;    0.586294;    0.462456;    0.405210;    0.321553;    0.288830;
 64;    0.075247;    1.003442;    0.829687;    0.719044;    0.642030;    0.579193;    0.478133;    0.406806;    0.331316;    0.300423;
 65;    0.074388;    0.979584;    0.819274;    0.699249;    0.649124;    0.574733;    0.459920;    0.396380;    0.315807;    0.282579;
 66;    0.081981;    1.002558;    0.836171;    0.721449;    0.664336;    0.579125;    0.464989;    0.411986;    0.335463;    0.296789;
 67;    0.071852;    0.983839;    0.827290;    0.714553;    0.641685;    0.590313;    0.486265;    0.421993;    0.339109;    0.294242;
 68;    0.072060;    1.002538;    0.828216;    0.713973;    0.642740;    0.576342;    0.460945;    0.394542;    0.321410;    0.289767;
 69;    0.089884;    0.977791;    0.820121;    0.703817;    0.645075;    0.544428;    0.463026;    0.399258;    0.322779;    0.286863;
 70;    0.074514;    1.023508;    0.856466;    0.715414;    0.673044;    0.576833;    0.468209;    0.412537;    0.333516;    0.295431;
 71;    0.071841;    0.999976;    0.823385;    0.709980;    0.654098;    0.584860;    0.473907;    0.399509;    0.328589;    0.292058;
 72;    0.076826;    1.003803;    0.823671;    0.717885;    0.664187;    0.583389;    0.474075;    0.407716;    0.330788;    0.293767;
 73;    0.076085;    1.036997;    0.855536;    0.738358;    0.678236;    0.604533;    0.480115;    0.418180;    0.339865;    0.303793;
 74;    0.071489;    1.004356;    0.816507;    0.711855;    0.656056;    0.569219;    0.460626;    0.398730;    0.318051;    0.286996;
 75;    0.078192;    1.005691;    0.840687;    0.699993;    0.641188;    0.547825;    0.459955;    0.396917;    0.326987;    0.293098;
 76;    0.080289;    1.011716;    0.826787;    0.710513;    0.661608;    0.570173;    0.467332;    0.407132;    0.327376;    0.294309;
 77;    0.078590;    0.967439;    0.805162;    0.681833;    0.640034;    0.545341;    0.451680;    0.388640;    0.326150;    0.283764;
 78;    0.077190;    0.992484;    0.833092;    0.706337;    0.649992;    0.588372;    0.458148;    0.395746;    0.325912;    0.298773;
 79;    0.075821;    1.009516;    0.835816;    0.716381;    0.652942;    0.587812;    0.473997;    0.398943;    0.331898;    0.297048;
 80;    0.074043;    0.989758;    0.811517;    0.691200;    0.626376;    0.557304;    0.454458;    0.396451;    0.314995;    0.282065;
 81;    0.074240;    0.988251;    0.820160;    0.708880;    0.654239;    0.571734;    0.459567;    0.410490;    0.327754;    0.299973;
 82;    0.076892;    0.983723;    0.812499;    0.697281;    0.624353;    0.557158;    0.456046;    0.395673;    0.322777;    0.293534;
 83;    0.080653;    0.957937;    0.800090;    0.688388;    0.616584;    0.547893;    0.460755;    0.394684;    0.317625;    0.280287;
 84;    0.072511;    0.987230;    0.844654;    0.716554;    0.648574;    0.570919;    0.472078;    0.404074;    0.332032;    0.295022;
 85;    0.071690;    1.001858;    0.841194;    0.721624;    0.653733;    0.585814;    0.470290;    0.414174;    0.332934;    0.301577;
 86;    0.071553;    1.014537;    0.828375;    0.699440;    0.657898;    0.566733;    0.458430;    0.412974;    0.322812;    0.291394;
 87;    0.076234;    0.990803;    0.811266;    0.692926;    0.656862;    0.579629;    0.463200;    0.396646;    0.318653;    0.287118;
 88;    0.074851;    1.026814;    0.838998;    0.714809;    0.655492;    0.599434;    0.467333;    0.406665;    0.325815;    0.296344;
 89;    0.077613;    1.020680;    0.848029;    0.729128;    0.670220;    0.595975;    0.469909;    0.405054;    0.338053;    0.303030;
 90;    0.082092;    0.987211;    0.823787;    0.701241;    0.629971;    0.571008;    0.464520;    0.399438;    0.325598;    0.293653;
 91;    0.076548;    1.019508;    0.842528;    0.715054;    0.662019;    0.587748;    0.472863;    0.404689;    0.335013;    0.304779;
 92;    0.075993;    0.989744;    0.817835;    0.703027;    0.656944;    0.547465;    0.449079;    0.388170;    0.323725;    0.289684;
 93;    0.077139;    1.002401;    0.830883;    0.719687;    0.686988;    0.567047;    0.472529;    0.410878;    0.326026;    0.289473;
 94;    0.078416;    1.005694;    0.834568;    0.706420;    0.653960;    0.554459;    0.463981;    0.400663;    0.330945;    0.300129;
 95;    0.077538;    1.014638;    0.835923;    0.716235;    0.654544;    0.571415;    0.475299;    0.414868;    0.337515;    0.304112;
 96;    0.079242;    1.013814;    0.830325;    0.704646;    0.670858;    0.581992;    0.454831;    0.395456;    0.324421;    0.291643;
 97;    0.072484;    1.022375;    0.864134;    0.738959;    0.698182;    0.611655;    0.479145;    0.414258;    0.342512;    0.299705;
 98;    0.071988;    1.005693;    0.838883;    0.711408;    0.669481;    0.577546;    0.461700;    0.401991;    0.329955;    0.293708;
 99;    0.071862;    0.987127;    0.803422;    0.687891;    0.635848;    0.563615;    0.447644;    0.394402;    0.325151;    0.289353;
100;    0.074265;    0.982804;    0.806397;    0.695285;    0.660614;    0.570467;    0.452700;    0.409597;    0.321548;    0.298997;
