Simulation;Time;PC0;PC1;PC2;PC3;PC4;PC5;PC6;PC7;PC8;
Nan;Nan;0;0;0;0;0;0;1;0;0;
  0;    0.211363;    0.994757;    0.635596;    0.461363;    0.372939;    0.250347;    0.193072;    0.086240;    0.069332;    0.036555;
  1;    0.187912;    1.025499;    0.656396;    0.469557;    0.374446;    0.250593;    0.190229;    0.089781;    0.073831;    0.055161;
  2;    0.193283;    1.029100;    0.673481;    0.486078;    0.384991;    0.252145;    0.195947;    0.093066;    0.078480;    0.046136;
  3;    0.208119;    0.983937;    0.643565;    0.485843;    0.393568;    0.256740;    0.195030;    0.092389;    0.079400;    0.051195;
  4;    0.203003;    1.032054;    0.672433;    0.495392;    0.394778;    0.262866;    0.202454;    0.089364;    0.072319;    0.046377;
  5;    0.224103;    0.997984;    0.635431;    0.461215;    0.379969;    0.251846;    0.194601;    0.088241;    0.075840;    0.051975;
  6;    0.188694;    1.010290;    0.650118;    0.467155;    0.384579;    0.246756;    0.187980;    0.085873;    0.066430;    0.039291;
  7;    0.200045;    1.017675;    0.655670;    0.480668;    0.392041;    0.259648;    0.191116;    0.093034;    0.076217;    0.048854;
  8;    0.188600;    0.978302;    0.625873;    0.464998;    0.385401;    0.248252;    0.185812;    0.090332;    0.078169;    0.054572;
  9;    0.189407;    1.005182;    0.651334;    0.479793;    0.393335;    0.259051;    0.197768;    0.089838;    0.077799;    0.054382;
 10;    0.184168;    1.017443;    0.658089;    0.480772;    0.387066;    0.256002;    0.193724;    0.088677;    0.078799;    0.048681;
 11;    0.190738;    0.989330;    0.640622;    0.467710;    0.382840;    0.255411;    0.194118;    0.086340;    0.071512;    0.048648;
 12;    0.188189;    0.970323;    0.643479;    0.463728;    0.384314;    0.258189;    0.198142;    0.088456;    0.070348;    0.036955;
 13;    0.186544;    1.005676;    0.627868;    0.459332;    0.378241;    0.254235;    0.187597;    0.087670;    0.072249;    0.049786;
 14;    0.186344;    0.983349;    0.644894;    0.474414;    0.379045;    0.243853;    0.183247;    0.082890;    0.067483;    0.038507;
 15;    0.186407;    1.015656;    0.627198;    0.453935;    0.364387;    0.243890;    0.185879;    0.089984;    0.073958;    0.043067;
 16;    0.189782;    1.002872;    0.653342;    0.484007;    0.391645;    0.261626;    0.193136;    0.090397;    0.073590;    0.044560;
 17;    0.184725;    0.974345;    0.632366;    0.480059;    0.378129;    0.250785;    0.181604;    0.087296;    0.071724;    0.052653;
 18;    0.187696;    0.945231;    0.623517;    0.460022;    0.377864;    0.256627;    0.195485;    0.090522;    0.073630;    0.043167;
 19;    0.191081;    0.986184;    0.625075;    0.452022;    0.381232;    0.254489;    0.184765;    0.087773;    0.071695;    0.046002;
 20;    0.194051;    1.028919;    0.643412;    0.474504;    0.379309;    0.251789;    0.194631;    0.087569;    0.075360;    0.043936;
 21;    0.186113;    1.015145;    0.632361;    0.471829;    0.381728;    0.254742;    0.189253;    0.086251;    0.072085;    0.038161;
 22;    0.199522;    1.014628;    0.642857;    0.471978;    0.390430;    0.289747;    0.200421;    0.091242;    0.075914;    0.045183;
 23;    0.185639;    0.988324;    0.637296;    0.458084;    0.385037;    0.257366;    0.197404;    0.088998;    0.074647;    0.039901;
 24;    0.188245;    1.032216;    0.672547;    0.481763;    0.391096;    0.268992;    0.211130;    0.090303;    0.076199;    0.053880;
 25;    0.187858;    0.982824;    0.637091;    0.467806;    0.379249;    0.247938;    0.184623;    0.089066;    0.071497;    0.037151;
 26;    0.187966;    1.003966;    0.649577;    0.478861;    0.390716;    0.260059;    0.197313;    0.092232;    0.079532;    0.045974;
 27;    0.186810;    1.013421;    0.630168;    0.470568;    0.385355;    0.262509;    0.193076;    0.089185;    0.076959;    0.044194;
 28;    0.185051;    1.022924;    0.640946;    0.472859;    0.388866;    0.262194;    0.194775;    0.088976;    0.071451;    0.044484;
 29;    0.185511;    1.047703;    0.647953;    0.475506;    0.386335;    0.266830;    0.199678;    0.091111;    0.066806;    0.044275;
 30;    0.184888;    1.017412;    0.650229;    0.476378;    0.386333;    0.252764;    0.195131;    0.089278;    0.067402;    0.044809;
 31;    0.185528;    1.016224;    0.652113;    0.465415;    0.380343;    0.248589;    0.189982;    0.087411;    0.068907;    0.038098;
 32;    0.188456;    0.989857;    0.645071;    0.456115;    0.375916;    0.260302;    0.194193;    0.089904;    0.070820;    0.042621;
 33;    0.183601;    1.020160;    0.642033;    0.453828;    0.375865;    0.247770;    0.192151;    0.090535;    0.071909;    0.050213;
 34;    0.190569;    1.030029;    0.641946;    0.467704;    0.378079;    0.252938;    0.193566;    0.093714;    0.076719;    0.047344;
 35;    0.185922;    1.003354;    0.654161;    0.472535;    0.389405;    0.264880;    0.199654;    0.088468;    0.071571;    0.051305;
 36;    0.184902;    0.968181;    0.652747;    0.471104;    0.378937;    0.244230;    0.184452;    0.087248;    0.073725;    0.043967;
 37;    0.201265;    0.993973;    0.649068;    0.475114;    0.371360;    0.241850;    0.175978;    0.087710;    0.075239;    0.045834;
 38;    0.184826;    1.001453;    0.638269;    0.467907;    0.385663;    0.258968;    0.187349;    0.087308;    0.070293;    0.050401;
 39;    0.186166;    0.952834;    0.622465;    0.458061;    0.368640;    0.249775;    0.190518;    0.084814;    0.065264;    0.036893;
 40;    0.188851;    1.019894;    0.658920;    0.468926;    0.374542;    0.251731;    0.184801;    0.088547;    0.073473;    0.053223;
 41;    0.183186;    1.002772;    0.643347;    0.462932;    0.388581;    0.246603;    0.180848;    0.088282;    0.069075;    0.042161;
 42;    0.191159;    1.034480;    0.636922;    0.471874;    0.377970;    0.248056;    0.188654;    0.087876;    0.073641;    0.041090;
 43;    0.188108;    1.019073;    0.642923;    0.472582;    0.381904;    0.257431;    0.189771;    0.092298;    0.073328;    0.045136;
 44;    0.189335;    1.010517;    0.660395;    0.469741;    0.390752;    0.257556;    0.208372;    0.088965;    0.073969;    0.046112;
 45;    0.187710;    0.978300;    0.619086;    0.461200;    0.380390;    0.251039;    0.183614;    0.086267;    0.075562;    0.045378;
 46;    0.189701;    1.026785;    0.637563;    0.474624;    0.392026;    0.256753;    0.192346;    0.087348;    0.073991;    0.049224;
 47;    0.187925;    1.017957;    0.636587;    0.473483;    0.388226;    0.253776;    0.198149;    0.093561;    0.077226;    0.053522;
 48;    0.187325;    0.973792;    0.627997;    0.471104;    0.390902;    0.259102;    0.194034;    0.087584;    0.076338;    0.049636;
 49;    0.192013;    0.981782;    0.631915;    0.466336;    0.389896;    0.259108;    0.187245;    0.088008;    0.066752;    0.042495;
 50;    0.194533;    1.008911;    0.643214;    0.461618;    0.374181;    0.246027;    0.184125;    0.089724;    0.075611;    0.041005;
 51;    0.189118;    1.035479;    0.664881;    0.486400;    0.397342;    0.257907;    0.188850;    0.091906;    0.068361;    0.043168;
 52;    0.186286;    1.008052;    0.650119;    0.469282;    0.374044;    0.249688;    0.185101;    0.086920;    0.063219;    0.040740;
 53;    0.189606;    0.977939;    0.663057;    0.468719;    0.382602;    0.248006;    0.188364;    0.088876;    0.067149;    0.040669;
 54;    0.184912;    1.042414;    0.673522;    0.461740;    0.387644;    0.254702;    0.193614;    0.090072;    0.079884;    0.046905;
 55;    0.191776;    0.985101;    0.612963;    0.449903;    0.371773;    0.242430;    0.181710;    0.086928;    0.068952;    0.044595;
 56;    0.187779;    1.004576;    0.637093;    0.453542;    0.363790;    0.234560;    0.185716;    0.089118;    0.068917;    0.039748;
 57;    0.192006;    1.025720;    0.663486;    0.476680;    0.381542;    0.248792;    0.191286;    0.087463;    0.070173;    0.042809;
 58;    0.191806;    1.015811;    0.655984;    0.465114;    0.389534;    0.252078;    0.189997;    0.090391;    0.079175;    0.048196;
 59;    0.193054;    0.995856;    0.651645;    0.484631;    0.383557;    0.254240;    0.189843;    0.084546;    0.074237;    0.045214;
 60;    0.185569;    1.004441;    0.638198;    0.471957;    0.394968;    0.247761;    0.192345;    0.087958;    0.075162;    0.044692;
 61;    0.191371;    0.984960;    0.625572;    0.451734;    0.377320;    0.251559;    0.188025;    0.088932;    0.074493;    0.038482;
 62;    0.190326;    0.989132;    0.634362;    0.472744;    0.374449;    0.256436;    0.189051;    0.086748;    0.074003;    0.050944;
 63;    0.195000;    1.026164;    0.645424;    0.453589;    0.371191;    0.247183;    0.180149;    0.085891;    0.071243;    0.044601;
 64;    0.190250;    1.004097;    0.638163;    0.474747;    0.374814;    0.250805;    0.201817;    0.091976;    0.076196;    0.049581;
 65;    0.191322;    0.975379;    0.631530;    0.458250;    0.381160;    0.244653;    0.186418;    0.084543;    0.061563;    0.038404;
 66;    0.190179;    0.994298;    0.640884;    0.475609;    0.392890;    0.258135;    0.193326;    0.088394;    0.072520;    0.038895;
 67;    0.187255;    0.965604;    0.628113;    0.456114;    0.382258;    0.268336;    0.204420;    0.094240;    0.076894;    0.043943;
 68;    0.189539;    1.000738;    0.640521;    0.468398;    0.387350;    0.260902;    0.190799;    0.084321;    0.068193;    0.039047;
 69;    0.186581;    0.971259;    0.636295;    0.466952;    0.369622;    0.247170;    0.191696;    0.087663;    0.065772;    0.040502;
 70;    0.190021;    1.022818;    0.666594;    0.465723;    0.384853;    0.253825;    0.187736;    0.088977;    0.075127;    0.038570;
 71;    0.193020;    0.996727;    0.631949;    0.456383;    0.377461;    0.250138;    0.193639;    0.092152;    0.068752;    0.039298;
 72;    0.187640;    1.004810;    0.632640;    0.466463;    0.388770;    0.257539;    0.199921;    0.089443;    0.075566;    0.038292;
 73;    0.185781;    1.039986;    0.661944;    0.483637;    0.398043;    0.265575;    0.194231;    0.090212;    0.070965;    0.042246;
 74;    0.189380;    1.020025;    0.633048;    0.475271;    0.376157;    0.250218;    0.190987;    0.084674;    0.070753;    0.043056;
 75;    0.184870;    1.015988;    0.662480;    0.464397;    0.370287;    0.247268;    0.193838;    0.086257;    0.066883;    0.039438;
 76;    0.206680;    1.018848;    0.633342;    0.464654;    0.383371;    0.253873;    0.187283;    0.088598;    0.070141;    0.046087;
 77;    0.191214;    0.971216;    0.625616;    0.448379;    0.364979;    0.253030;    0.185894;    0.085429;    0.066258;    0.035942;
 78;    0.187667;    0.990554;    0.654276;    0.470253;    0.377437;    0.246569;    0.185670;    0.085823;    0.070256;    0.049051;
 79;    0.190726;    1.008622;    0.646953;    0.466411;    0.388856;    0.257853;    0.189506;    0.089134;    0.077972;    0.051384;
 80;    0.215567;    1.004724;    0.634807;    0.459467;    0.369386;    0.247997;    0.175953;    0.083608;    0.071167;    0.042136;
 81;    0.190865;    0.983706;    0.629990;    0.468728;    0.379561;    0.253730;    0.189346;    0.087868;    0.071637;    0.039240;
 82;    0.192860;    0.985189;    0.625546;    0.454128;    0.370710;    0.250061;    0.191791;    0.087279;    0.078215;    0.051649;
 83;    0.188521;    0.947672;    0.615401;    0.446979;    0.366304;    0.252047;    0.196146;    0.086947;    0.072764;    0.044901;
 84;    0.186916;    0.973869;    0.655864;    0.473049;    0.378470;    0.243859;    0.199728;    0.092181;    0.075462;    0.044323;
 85;    0.186403;    0.990006;    0.647206;    0.473032;    0.389791;    0.271138;    0.196969;    0.088309;    0.078543;    0.052462;
 86;    0.186592;    1.032598;    0.640069;    0.454552;    0.370334;    0.249059;    0.196471;    0.085241;    0.073743;    0.045121;
 87;    0.189976;    1.003315;    0.631914;    0.452055;    0.372282;    0.251049;    0.180652;    0.085267;    0.068842;    0.040952;
 88;    0.186443;    1.044335;    0.659244;    0.479484;    0.381926;    0.250629;    0.192009;    0.085501;    0.067126;    0.040387;
 89;    0.190483;    1.020254;    0.653679;    0.483648;    0.384341;    0.249751;    0.183085;    0.091367;    0.071226;    0.048713;
 90;    0.185043;    0.984660;    0.632750;    0.454059;    0.378258;    0.243527;    0.186303;    0.088921;    0.071345;    0.040121;
 91;    0.184961;    1.026985;    0.658363;    0.470847;    0.380259;    0.251786;    0.185067;    0.089886;    0.070816;    0.048531;
 92;    0.189542;    0.997396;    0.637850;    0.469055;    0.381070;    0.244933;    0.189077;    0.083132;    0.062846;    0.042495;
 93;    0.190041;    1.000354;    0.643895;    0.476305;    0.387036;    0.249947;    0.187575;    0.088260;    0.070167;    0.040914;
 94;    0.189414;    1.008024;    0.649174;    0.459050;    0.385815;    0.256142;    0.206961;    0.088006;    0.071930;    0.044785;
 95;    0.187811;    1.021698;    0.650076;    0.472529;    0.388270;    0.249621;    0.185858;    0.090769;    0.077629;    0.044006;
 96;    0.185027;    1.028620;    0.639719;    0.468356;    0.383516;    0.247865;    0.194174;    0.084259;    0.067201;    0.041749;
 97;    0.187787;    1.011137;    0.669037;    0.485236;    0.396662;    0.268186;    0.211591;    0.091397;    0.066859;    0.048562;
 98;    0.185314;    1.010740;    0.659196;    0.471047;    0.381095;    0.252339;    0.196664;    0.086492;    0.070360;    0.045535;
 99;    0.195458;    1.003273;    0.620882;    0.452429;    0.364964;    0.237478;    0.178469;    0.087195;    0.067735;    0.039799;
100;    0.189540;    0.988434;    0.620193;    0.463168;    0.373346;    0.242382;    0.188366;    0.086818;    0.070174;    0.042622;
