Simulation;Time;PC0;PC1;PC2;PC3;PC4;PC5;PC6;PC7;PC8;
Nan;Nan;0;1;0;0;0;0;0;0;0;
  0;    0.189893;    0.987021;    0.776598;    0.944765;    1.095116;    1.472348;    1.945271;    2.932230;    7.299215;   45.326137;
  1;    0.229741;    1.011106;    0.795453;    0.937191;    1.181019;    1.578264;    2.476536;    4.406311;   12.081114;   63.922462;
  2;    0.163992;    1.021077;    0.818292;    0.961120;    1.189284;    1.554830;    1.946328;    3.238424;    8.430133;   37.705557;
  3;    0.342529;    0.998804;    0.808847;    0.968944;    1.284469;    1.726538;    2.963779;    5.996888;   21.430042;  171.212945;
  4;    0.235695;    1.029407;    0.819766;    0.984055;    1.169592;    1.456796;    2.033054;    3.743956;    6.663351;   81.435225;
  5;    0.190696;    1.000356;    0.784820;    0.921997;    1.074957;    1.483843;    2.280867;    3.516390;    7.775913;   53.752890;
  6;    0.225162;    0.997686;    0.789264;    0.940286;    1.170519;    1.623732;    2.141989;    3.150226;    6.356909;   47.314552;
  7;    0.267336;    1.023455;    0.809417;    0.954823;    1.253623;    1.659315;    2.808572;    4.777317;    9.678435;   93.203208;
  8;    0.159836;    0.990529;    0.786365;    0.933826;    1.113313;    1.389478;    1.854467;    4.726791;   12.731046;   38.349967;
  9;    0.306733;    1.005577;    0.805156;    0.946431;    1.112816;    1.500196;    1.990470;    2.709562;   40.609236;  169.007388;
 10;    0.196301;    1.010134;    0.806042;    0.977119;    1.210498;    1.547351;    2.344801;    4.451351;   10.398477;   83.718094;
 11;    0.243091;    0.984867;    0.789762;    0.979565;    1.185002;    1.466756;    3.098670;    6.026559;   17.708106;   80.366729;
 12;    0.129353;    0.972274;    0.788172;    0.933201;    1.136096;    1.316199;    1.706266;    2.648554;    5.470583;   34.407341;
 13;    0.178937;    1.007848;    0.781631;    0.908760;    1.061862;    1.448824;    1.919678;    2.708712;    6.587839;   63.237956;
 14;    0.128111;    0.973282;    0.775236;    0.901940;    1.106675;    1.488679;    1.944444;    3.149377;    6.536238;   22.472080;
 15;    0.154533;    1.017984;    0.775020;    0.907202;    1.328394;    1.617280;    2.392922;    3.057077;    4.970624;   31.377937;
 16;    0.229718;    1.004670;    0.807695;    0.936631;    1.102237;    1.334647;    1.822567;    3.143284;   12.535264;  107.642556;
 17;    0.164138;    0.977402;    0.782487;    0.902745;    1.441720;    2.240297;    3.146509;    4.058311;    5.794230;   33.792672;
 18;    0.200026;    0.960101;    0.781123;    0.917790;    1.095266;    1.372297;    1.774223;    2.526184;   11.891725;   95.611569;
 19;    0.155883;    0.991196;    0.775977;    0.901185;    1.110583;    1.397946;    2.016902;    3.888280;    6.929829;   49.967698;
 20;    0.216289;    1.024994;    0.788834;    0.962455;    1.202666;    1.463695;    2.206381;    3.398801;    7.513319;   82.527449;
 21;    0.191661;    1.015574;    0.783352;    0.982653;    1.148430;    2.036288;    2.690492;    3.352637;   10.643747;   59.292762;
 22;    0.248094;    1.024111;    0.805383;    0.971450;    1.154913;    1.425449;    1.864808;    3.237179;    9.923709;  103.716233;
 23;    0.381204;    0.994540;    0.787936;    0.958638;    1.250231;    1.972251;    2.802672;    8.419663;   33.226394;  174.585901;
 24;    0.222533;    1.028488;    0.814305;    0.959412;    1.145473;    1.394194;    1.989377;    2.873679;    7.556304;   89.337725;
 25;    0.260788;    0.981984;    0.785875;    0.920755;    1.086300;    1.870015;    2.730428;   10.065110;   26.050630;   78.814300;
 26;    0.314101;    1.014229;    0.807622;    0.949745;    1.162546;    1.666979;    2.755875;    8.215901;   33.471195;  108.262737;
 27;    0.219347;    1.019928;    0.790916;    0.917631;    1.100368;    1.438911;    2.187727;    3.273999;    6.010746;  112.594093;
 28;    0.299859;    1.029620;    0.796662;    0.949578;    1.141166;    1.844391;    4.232567;    9.543498;   30.530923;  110.765736;
 29;    0.320498;    1.053945;    0.803407;    0.945758;    1.170050;    1.757343;    2.219775;    3.024326;   11.066481;  155.399545;
 30;    0.169331;    1.017625;    0.796959;    0.935234;    1.142686;    1.536789;    2.224995;    3.656580;    8.096567;   59.234561;
 31;    0.193154;    1.006859;    0.788347;    0.970755;    1.184447;    1.453654;    2.118077;    3.144212;   15.794753;   72.363216;
 32;    0.157232;    0.983310;    0.797288;    1.012509;    1.224171;    1.710508;    2.857129;    4.965806;    8.811456;   37.439312;
 33;    0.204100;    1.020038;    0.783625;    0.903809;    1.089864;    1.377653;    1.971526;    2.667891;    9.630385;   89.522054;
 34;    0.250151;    1.035862;    0.799902;    0.959519;    1.180569;    1.677004;    3.619165;    9.964667;   14.592878;  106.414902;
 35;    0.248779;    1.004487;    0.800386;    0.960160;    1.133436;    1.335177;    1.705733;    2.219354;   20.167886;  100.631656;
 36;    0.220699;    0.961272;    0.787361;    0.923492;    1.096081;    1.348062;    1.908999;    2.859582;   11.137324;  107.477131;
 37;    0.240229;    0.984551;    0.785694;    0.924397;    1.103079;    1.347653;    1.711350;    5.026169;   11.547092;  110.382829;
 38;    0.202930;    1.003770;    0.785650;    0.923934;    1.082924;    1.326401;    1.774578;    2.733058;    7.692545;   85.797165;
 39;    0.149466;    0.953747;    0.765103;    0.893372;    1.077795;    1.415028;    2.104857;    3.455194;    9.061079;   37.883885;
 40;    0.148930;    1.004184;    0.795204;    1.132715;    1.321540;    1.760970;    2.422918;    3.377738;    5.329573;   42.172509;
 41;    0.347569;    0.999540;    0.788676;    0.932915;    1.150773;    1.535104;    2.170356;    4.831198;   18.977684;  145.950812;
 42;    0.218301;    1.032225;    0.786692;    0.992984;    1.259982;    1.508208;    1.823399;    2.816694;   11.079813;   79.837131;
 43;    0.201565;    1.026250;    0.800114;    0.974290;    1.331786;    1.673473;    2.462150;    4.279479;    8.627973;   62.826018;
 44;    0.159250;    1.008220;    0.801877;    0.942790;    1.184071;    1.447084;    1.996707;    2.791959;    4.853132;   57.671741;
 45;    0.210356;    0.984539;    0.773183;    0.893565;    1.077531;    1.338331;    1.817265;    3.529260;   11.156918;   68.240509;
 46;    0.290491;    1.025485;    0.795247;    0.905581;    1.101620;    1.365813;    1.926915;    2.789829;    9.632213;  126.157919;
 47;    0.351608;    1.031452;    0.800282;    1.174352;    1.533699;    2.034464;    3.604727;    9.246131;   27.026344;  135.619456;
 48;    0.253402;    0.985134;    0.789546;    1.011472;    1.190327;    1.609178;    2.188053;    2.880879;   16.749945;   96.836375;
 49;    0.165186;    0.991125;    0.789049;    0.982368;    1.227474;    1.584474;    1.995415;    3.316148;    7.424386;   44.976764;
 50;    0.192661;    1.004809;    0.782120;    0.920033;    1.096528;    1.375789;    1.983509;    5.365715;   12.146469;   66.965588;
 51;    0.206815;    1.039819;    0.816226;    0.950991;    1.240746;    1.650501;    2.229730;    3.657955;   16.519400;   90.822492;
 52;    0.226612;    0.999083;    0.786479;    0.941245;    1.137708;    1.634698;    2.864471;   17.639063;   25.664603;   57.518013;
 53;    0.204189;    0.965703;    0.799858;    0.940510;    1.148986;    1.475876;    1.903871;    3.793257;   14.620870;   82.080353;
 54;    0.167670;    1.025510;    0.806786;    0.988424;    1.208402;    1.695810;    2.207893;    5.278535;   16.363822;   52.900139;
 55;    0.165083;    0.988169;    0.766619;    0.932150;    1.149304;    1.427003;    1.760963;    2.646128;    5.826889;   48.869646;
 56;    0.273704;    0.995973;    0.774716;    0.905417;    1.113398;    1.439788;    2.203489;   10.845290;   17.136561;   74.445927;
 57;    0.280313;    1.011698;    0.795938;    0.939963;    1.201168;    1.564225;    2.334913;    6.258129;   20.712979;   90.669330;
 58;    0.239737;    1.014993;    0.799723;    0.923841;    1.131672;    1.401883;    1.844457;    2.849411;    5.245946;  104.103260;
 59;    0.172355;    0.986638;    0.787579;    0.920796;    1.068843;    1.289229;    1.594415;    2.147251;    5.943097;   73.257700;
 60;    0.221229;    1.005001;    0.794344;    1.156799;    1.405067;    1.922551;    3.664442;    6.472795;   38.134382;   62.214562;
 61;    0.229270;    0.988143;    0.779769;    0.917672;    1.117055;    1.370545;    1.810413;    2.749497;   21.183650;   96.954878;
 62;    0.208806;    0.989998;    0.778581;    0.920847;    1.110353;    1.382777;    1.707851;    3.173524;   13.972089;   91.572230;
 63;    0.223529;    1.012652;    0.777383;    0.917455;    1.142616;    1.498670;    1.916100;    4.831217;   19.458331;   76.490481;
 64;    0.236437;    1.009060;    0.794710;    0.953504;    1.135943;    1.405748;    1.949225;    3.363702;   12.963886;  116.862268;
 65;    0.269842;    0.968636;    0.775548;    0.918119;    1.146279;    1.628791;    2.806237;    5.189490;   16.557326;   97.006478;
 66;    0.325622;    0.998597;    0.796188;    0.985248;    1.237942;    1.796676;    3.375902;   11.046714;   23.003114;  152.111272;
 67;    0.125646;    0.988901;    0.794489;    0.914130;    1.182098;    1.685324;    2.458790;    4.331890;    8.671713;   15.968003;
 68;    0.214925;    0.998088;    0.785432;    0.945913;    1.198815;    1.493625;    2.194818;    3.552322;    5.892598;   70.899118;
 69;    0.366798;    0.967387;    0.779467;    0.911811;    1.104642;    1.446400;    2.829489;    6.074705;   35.274829;  163.521933;
 70;    0.194581;    1.013762;    0.802684;    0.940257;    1.135087;    1.348422;    1.754878;    2.712149;    5.707750;   55.651137;
 71;    0.135301;    1.005343;    0.787813;    0.947774;    1.122884;    1.406844;    1.976247;    3.187770;    6.193640;   43.851332;
 72;    0.285471;    1.015194;    0.790501;    0.950157;    1.136264;    1.610243;    2.179006;    4.139158;   24.088487;  120.539758;
 73;    0.272955;    1.041849;    0.813923;    0.998416;    1.184439;    2.005544;    3.525623;    8.325631;   28.190145;  111.564469;
 74;    0.375134;    1.014631;    0.777210;    0.904403;    1.073807;    1.335509;    2.002504;    7.809858;   33.450219;  144.546533;
 75;    0.218028;    0.998334;    0.785021;    0.938339;    1.232790;    1.519824;    2.125932;    3.914358;    8.929673;   57.648575;
 76;    0.213975;    1.022449;    0.787842;    0.928693;    1.074739;    1.323506;    1.777468;    3.527293;   12.614047;   92.325832;
 77;    0.263409;    0.967771;    0.763294;    0.881207;    1.260313;    1.758388;    2.978601;    7.425345;   20.778497;   60.706476;
 78;    0.242424;    0.976756;    0.787226;    0.917568;    1.155703;    1.391099;    1.847391;    3.989702;   25.245922;   84.792867;
 79;    0.224278;    1.008183;    0.796350;    0.924636;    1.098321;    1.374133;    2.710741;    5.181000;   15.887762;   92.239504;
 80;    0.245459;    0.990261;    0.766763;    0.940451;    1.124190;    1.390347;    1.693466;    2.587060;    8.456445;  109.018926;
 81;    0.210270;    0.989572;    0.782368;    0.999346;    1.182350;    1.654264;    2.583400;    6.046780;   20.098698;   71.558417;
 82;    0.233553;    0.985582;    0.772497;    0.990869;    1.260402;    1.554930;    2.137012;    3.687137;    8.878134;   66.024731;
 83;    0.283208;    0.953691;    0.763832;    0.893864;    1.101957;    1.499547;    2.082978;    3.176197;   16.296631;  127.145107;
 84;    0.195926;    0.972558;    0.795052;    1.001536;    1.229526;    1.468387;    2.436984;    3.601227;    6.074201;   71.678366;
 85;    0.146983;    0.990584;    0.798584;    0.952361;    1.148706;    1.434151;    2.012792;    4.174358;    8.268779;   40.910635;
 86;    0.247190;    1.017768;    0.780320;    0.916098;    1.103065;    1.401641;    2.425320;    5.029521;   11.000047;   78.949544;
 87;    0.369971;    0.997229;    0.770915;    0.894474;    1.192604;    1.645675;    3.178509;    5.822150;   20.715483;  170.166206;
 88;    0.326919;    1.026553;    0.793215;    0.923915;    1.214212;    1.574091;    2.458300;    5.221788;   12.926426;  150.705032;
 89;    0.170550;    1.018439;    0.806368;    1.009235;    1.236050;    1.668977;    2.308187;    4.183015;   11.975066;   50.909367;
 90;    0.216481;    0.981298;    0.779642;    0.909486;    1.114002;    1.438140;    2.053800;    3.306463;   17.043640;   99.135233;
 91;    0.164264;    1.019654;    0.800159;    1.038745;    1.315105;    1.690810;    2.154412;    3.459559;    5.790108;   48.772386;
 92;    0.322430;    0.988016;    0.776579;    0.896690;    1.087569;    1.359958;    2.753096;    7.840106;   25.742640;  131.132244;
 93;    0.301409;    0.999500;    0.793393;    0.929317;    1.115632;    1.448943;    1.882958;    2.739579;   18.978712;   90.668309;
 94;    0.315675;    1.004208;    0.790201;    0.936651;    1.126130;    1.914966;    2.915680;    4.202239;   13.823734;   98.600821;
 95;    0.239923;    1.022039;    0.798659;    0.927068;    1.120670;    1.382376;    2.199275;    5.435617;   18.184393;  102.243832;
 96;    0.306185;    1.016137;    0.782271;    0.922018;    1.108672;    1.427486;    2.533758;    7.233117;   26.438694;  155.430427;
 97;    0.181912;    1.011908;    0.819119;    0.928167;    1.117887;    1.416116;    1.946001;    2.722141;    4.904557;   68.554481;
 98;    0.200739;    0.998868;    0.791828;    0.914640;    1.099213;    1.374151;    2.184596;    3.758557;   11.692936;   82.358782;
 99;    0.445180;    0.999375;    0.763984;    0.965687;    1.321048;    1.874978;    3.098829;    9.952060;   44.706238;  162.456208;
100;    0.228229;    0.989341;    0.767976;    0.899368;    1.087554;    1.372388;    1.863947;    3.179865;    9.378330;   88.339405;
