Simulation;Time;PC0;PC1;PC2;PC3;PC4;PC5;PC6;PC7;PC8;
Nan;Nan;0;1;0;0;0;0;0;0;0;
  0;    0.064846;    1.413851;    1.117982;    1.118317;    1.119719;    1.122319;    1.121551;    1.120624;    1.120312;    1.120722;
  1;    0.054486;    1.425095;    1.130227;    1.129914;    1.132483;    1.131698;    1.131376;    1.133074;    1.132676;    1.133159;
  2;    0.056384;    1.426077;    1.144057;    1.144862;    1.147999;    1.148645;    1.146693;    1.148078;    1.147712;    1.148272;
  3;    0.054186;    1.412517;    1.137671;    1.138188;    1.140971;    1.140091;    1.141497;    1.142231;    1.142360;    1.142674;
  4;    0.053915;    1.431589;    1.144903;    1.147911;    1.148119;    1.147681;    1.146423;    1.148033;    1.147417;    1.147716;
  5;    0.054821;    1.420823;    1.123585;    1.124954;    1.125029;    1.125879;    1.126900;    1.127637;    1.128205;    1.128444;
  6;    0.057223;    1.417878;    1.125941;    1.127550;    1.127273;    1.127359;    1.127962;    1.128719;    1.128439;    1.128556;
  7;    0.058863;    1.429858;    1.138911;    1.138963;    1.140425;    1.140633;    1.142358;    1.141143;    1.141394;    1.141542;
  8;    0.053684;    1.413021;    1.124057;    1.125058;    1.125758;    1.126852;    1.128169;    1.127435;    1.128381;    1.128123;
  9;    0.054460;    1.418330;    1.135901;    1.136650;    1.137491;    1.140050;    1.140956;    1.139894;    1.140581;    1.141310;
 10;    0.055792;    1.421569;    1.136033;    1.137898;    1.138217;    1.139922;    1.140202;    1.140777;    1.141343;    1.141447;
 11;    0.055162;    1.407769;    1.125870;    1.128627;    1.129768;    1.128371;    1.130021;    1.129402;    1.130658;    1.129934;
 12;    0.054233;    1.398641;    1.125098;    1.128323;    1.129822;    1.128260;    1.129544;    1.129467;    1.129139;    1.129620;
 13;    0.054667;    1.427201;    1.121350;    1.122376;    1.122311;    1.123424;    1.124163;    1.124660;    1.125866;    1.125172;
 14;    0.054278;    1.403370;    1.116975;    1.117787;    1.118999;    1.120564;    1.120809;    1.120162;    1.119979;    1.120087;
 15;    0.054103;    1.436499;    1.117337;    1.117775;    1.117279;    1.118886;    1.120348;    1.119638;    1.119407;    1.119527;
 16;    0.053679;    1.417464;    1.137264;    1.136554;    1.137197;    1.136934;    1.138390;    1.138792;    1.139085;    1.139450;
 17;    0.054877;    1.404228;    1.121305;    1.122226;    1.122164;    1.121984;    1.122294;    1.122254;    1.122794;    1.123107;
 18;    0.054643;    1.391378;    1.120196;    1.121132;    1.121965;    1.123195;    1.124301;    1.122523;    1.123259;    1.123784;
 19;    0.054939;    1.416779;    1.117688;    1.118679;    1.119972;    1.121844;    1.121766;    1.122860;    1.122898;    1.122585;
 20;    0.053539;    1.437225;    1.126360;    1.127740;    1.130618;    1.129777;    1.131105;    1.131872;    1.132258;    1.132489;
 21;    0.053715;    1.431860;    1.122740;    1.123944;    1.124429;    1.125321;    1.125552;    1.125635;    1.126128;    1.126427;
 22;    0.055225;    1.431741;    1.136118;    1.137093;    1.137818;    1.136705;    1.136939;    1.138244;    1.138689;    1.138839;
 23;    0.054618;    1.415539;    1.125134;    1.127968;    1.130797;    1.131115;    1.129253;    1.129665;    1.130597;    1.130203;
 24;    0.054410;    1.432375;    1.141770;    1.143865;    1.144004;    1.143681;    1.144748;    1.145151;    1.146547;    1.146418;
 25;    0.055170;    1.406803;    1.123761;    1.125001;    1.126575;    1.127024;    1.128283;    1.128113;    1.127566;    1.127891;
 26;    0.066627;    1.424107;    1.137220;    1.138500;    1.139194;    1.141551;    1.142642;    1.142838;    1.141861;    1.142404;
 27;    0.053626;    1.432834;    1.127508;    1.127542;    1.128182;    1.130113;    1.131559;    1.132253;    1.131327;    1.132165;
 28;    0.054183;    1.438036;    1.131397;    1.133923;    1.132866;    1.133107;    1.134012;    1.134372;    1.135196;    1.134998;
 29;    0.053451;    1.453453;    1.135612;    1.136532;    1.137402;    1.139162;    1.140549;    1.139714;    1.139690;    1.139497;
 30;    0.053559;    1.429523;    1.131018;    1.133039;    1.133658;    1.134756;    1.135604;    1.136761;    1.137106;    1.136946;
 31;    0.054215;    1.424492;    1.125639;    1.126996;    1.128684;    1.128947;    1.130626;    1.130277;    1.130702;    1.130935;
 32;    0.054020;    1.404280;    1.130080;    1.130808;    1.132590;    1.132740;    1.132689;    1.134224;    1.133807;    1.133751;
 33;    0.054076;    1.435031;    1.123142;    1.124104;    1.125208;    1.125340;    1.125490;    1.126341;    1.127494;    1.127842;
 34;    0.054344;    1.441801;    1.133151;    1.134765;    1.135505;    1.136041;    1.137526;    1.137764;    1.138148;    1.138844;
 35;    0.054591;    1.419258;    1.132895;    1.135780;    1.135653;    1.134951;    1.135546;    1.135539;    1.136398;    1.136935;
 36;    0.053848;    1.389992;    1.124651;    1.126059;    1.127168;    1.127184;    1.128913;    1.128363;    1.128763;    1.129312;
 37;    0.054243;    1.408814;    1.123612;    1.125253;    1.125313;    1.126919;    1.126030;    1.127013;    1.127110;    1.127164;
 38;    0.054571;    1.423095;    1.123928;    1.125812;    1.125492;    1.126031;    1.127442;    1.127366;    1.128733;    1.127006;
 39;    0.054611;    1.392093;    1.110117;    1.111337;    1.112627;    1.111366;    1.111980;    1.113256;    1.112250;    1.112566;
 40;    0.053807;    1.420671;    1.129455;    1.130388;    1.132508;    1.133403;    1.134284;    1.134727;    1.133053;    1.133396;
 41;    0.054062;    1.419188;    1.125623;    1.126711;    1.127549;    1.129431;    1.128200;    1.129941;    1.129746;    1.129823;
 42;    0.054094;    1.442719;    1.124889;    1.126210;    1.128138;    1.128280;    1.127299;    1.127855;    1.128757;    1.128670;
 43;    0.053659;    1.435139;    1.133114;    1.133719;    1.135542;    1.135971;    1.136273;    1.137625;    1.137199;    1.137545;
 44;    0.055747;    1.421553;    1.134098;    1.134962;    1.136784;    1.137157;    1.138516;    1.138947;    1.138760;    1.138976;
 45;    0.053491;    1.412090;    1.116161;    1.116527;    1.117578;    1.119041;    1.120093;    1.120421;    1.119336;    1.119917;
 46;    0.054049;    1.435847;    1.130139;    1.129671;    1.131499;    1.132057;    1.133532;    1.133935;    1.133477;    1.133874;
 47;    0.056091;    1.438369;    1.133457;    1.134462;    1.136476;    1.138466;    1.137544;    1.138105;    1.139325;    1.139090;
 48;    0.053844;    1.407753;    1.126287;    1.126351;    1.127185;    1.128981;    1.129592;    1.129033;    1.129885;    1.129704;
 49;    0.055496;    1.412176;    1.126218;    1.127592;    1.129286;    1.126958;    1.127778;    1.128866;    1.129502;    1.129351;
 50;    0.055487;    1.424497;    1.122233;    1.124162;    1.125645;    1.125637;    1.126301;    1.127298;    1.127371;    1.127226;
 51;    0.053184;    1.439807;    1.142650;    1.143233;    1.144687;    1.145787;    1.145773;    1.146850;    1.147139;    1.147239;
 52;    0.055808;    1.419219;    1.124551;    1.126198;    1.126088;    1.128268;    1.127728;    1.127857;    1.127839;    1.127388;
 53;    0.054438;    1.389736;    1.131696;    1.132055;    1.134512;    1.135523;    1.134931;    1.135180;    1.135567;    1.136092;
 54;    0.053491;    1.432199;    1.137448;    1.136886;    1.138524;    1.139404;    1.140516;    1.141500;    1.140731;    1.140949;
 55;    0.054029;    1.417067;    1.111834;    1.113500;    1.114031;    1.115165;    1.114832;    1.115919;    1.116529;    1.116622;
 56;    0.054126;    1.420901;    1.117071;    1.117467;    1.119854;    1.118639;    1.118144;    1.117518;    1.117954;    1.118532;
 57;    0.054481;    1.425501;    1.130185;    1.131345;    1.133447;    1.133777;    1.134341;    1.133637;    1.133930;    1.134497;
 58;    0.059620;    1.426845;    1.132825;    1.133296;    1.135139;    1.135786;    1.135593;    1.137091;    1.137387;    1.137851;
 59;    0.054423;    1.409450;    1.124945;    1.127620;    1.126593;    1.127904;    1.126946;    1.127332;    1.128373;    1.129100;
 60;    0.054132;    1.421112;    1.129548;    1.131357;    1.132203;    1.132707;    1.133908;    1.133952;    1.134177;    1.133468;
 61;    0.053400;    1.413187;    1.119988;    1.121184;    1.121962;    1.122507;    1.123080;    1.123744;    1.124551;    1.124616;
 62;    0.055861;    1.414660;    1.119351;    1.119957;    1.120729;    1.121731;    1.121596;    1.122606;    1.122216;    1.122532;
 63;    0.053571;    1.431947;    1.118962;    1.119771;    1.119336;    1.120853;    1.120148;    1.121102;    1.121823;    1.122153;
 64;    0.053849;    1.424304;    1.129635;    1.132542;    1.131876;    1.133297;    1.134051;    1.134856;    1.135443;    1.135570;
 65;    0.053994;    1.399944;    1.116649;    1.117176;    1.118839;    1.119895;    1.120716;    1.120839;    1.120059;    1.120102;
 66;    0.053351;    1.415839;    1.130528;    1.133776;    1.134760;    1.133312;    1.135269;    1.136062;    1.136204;    1.136119;
 67;    0.053787;    1.408866;    1.129446;    1.128824;    1.130033;    1.131774;    1.130491;    1.130480;    1.130769;    1.130711;
 68;    0.053886;    1.418737;    1.123940;    1.124464;    1.126399;    1.126183;    1.128240;    1.129339;    1.128241;    1.128541;
 69;    0.053693;    1.397670;    1.119613;    1.120786;    1.122779;    1.123635;    1.125103;    1.125602;    1.125529;    1.125364;
 70;    0.056485;    1.425157;    1.134713;    1.135258;    1.137233;    1.137068;    1.137550;    1.137887;    1.137560;    1.138340;
 71;    0.054369;    1.423386;    1.125207;    1.126051;    1.126698;    1.127897;    1.128542;    1.129745;    1.129641;    1.130060;
 72;    0.053799;    1.430123;    1.127132;    1.129491;    1.129409;    1.131706;    1.131008;    1.131497;    1.131374;    1.132018;
 73;    0.054055;    1.441991;    1.141669;    1.143486;    1.142927;    1.145272;    1.146548;    1.145924;    1.146620;    1.147019;
 74;    0.053411;    1.433109;    1.119069;    1.120155;    1.121948;    1.121773;    1.122847;    1.123281;    1.123326;    1.123343;
 75;    0.053864;    1.419113;    1.123493;    1.124168;    1.125320;    1.126442;    1.127485;    1.128372;    1.127850;    1.128140;
 76;    0.053265;    1.435855;    1.125671;    1.127791;    1.126912;    1.126866;    1.128009;    1.127976;    1.128684;    1.128818;
 77;    0.054004;    1.402855;    1.109391;    1.109250;    1.110184;    1.111983;    1.113191;    1.112260;    1.113176;    1.112989;
 78;    0.055792;    1.402250;    1.124316;    1.124969;    1.127102;    1.126914;    1.126861;    1.127268;    1.126986;    1.127228;
 79;    0.055564;    1.423339;    1.130745;    1.130729;    1.132645;    1.133229;    1.134106;    1.133177;    1.134351;    1.133567;
 80;    0.055790;    1.418527;    1.112222;    1.114166;    1.116268;    1.115531;    1.115029;    1.116351;    1.117518;    1.116791;
 81;    0.053418;    1.413695;    1.121473;    1.122757;    1.122829;    1.123091;    1.124438;    1.125819;    1.126331;    1.126143;
 82;    0.053906;    1.413547;    1.115493;    1.117536;    1.119491;    1.120019;    1.120697;    1.121348;    1.121186;    1.121417;
 83;    0.053600;    1.391704;    1.109228;    1.110265;    1.111564;    1.112933;    1.114215;    1.114183;    1.114582;    1.114940;
 84;    0.053374;    1.396628;    1.129274;    1.130372;    1.130763;    1.131464;    1.133553;    1.134545;    1.132837;    1.133265;
 85;    0.054224;    1.409240;    1.131581;    1.132864;    1.135247;    1.135601;    1.135226;    1.136849;    1.137029;    1.137384;
 86;    0.054245;    1.435098;    1.120602;    1.120790;    1.121847;    1.122991;    1.124576;    1.124955;    1.124644;    1.125081;
 87;    0.055461;    1.422695;    1.114677;    1.115526;    1.117768;    1.116338;    1.118024;    1.117031;    1.117146;    1.117734;
 88;    0.053693;    1.436936;    1.129132;    1.130030;    1.130735;    1.133062;    1.134195;    1.134738;    1.135436;    1.135337;
 89;    0.053611;    1.427545;    1.136711;    1.139005;    1.138893;    1.139484;    1.139890;    1.141350;    1.140857;    1.140420;
 90;    0.055293;    1.407901;    1.119960;    1.120506;    1.122227;    1.123312;    1.125304;    1.125037;    1.125612;    1.125999;
 91;    0.054799;    1.430066;    1.132631;    1.135566;    1.136709;    1.134761;    1.135145;    1.136121;    1.136056;    1.136155;
 92;    0.055662;    1.413938;    1.118126;    1.118911;    1.120039;    1.120112;    1.121864;    1.121031;    1.121938;    1.122051;
 93;    0.055650;    1.417563;    1.128620;    1.129438;    1.130721;    1.132964;    1.133604;    1.132491;    1.132972;    1.133371;
 94;    0.056614;    1.421855;    1.127032;    1.128232;    1.127241;    1.127966;    1.128454;    1.128297;    1.129212;    1.129501;
 95;    0.053523;    1.432554;    1.132074;    1.133259;    1.134893;    1.135095;    1.136289;    1.136466;    1.137086;    1.136918;
 96;    0.053700;    1.433007;    1.121876;    1.123518;    1.125582;    1.127111;    1.128681;    1.128367;    1.128001;    1.128243;
 97;    0.054147;    1.418625;    1.144928;    1.144648;    1.145957;    1.145630;    1.147652;    1.148197;    1.147089;    1.147628;
 98;    0.053936;    1.417727;    1.127729;    1.128449;    1.130789;    1.129481;    1.131742;    1.131563;    1.132499;    1.132597;
 99;    0.053877;    1.425986;    1.110475;    1.112328;    1.114338;    1.114215;    1.115379;    1.116269;    1.115885;    1.116101;
100;    0.054264;    1.417469;    1.113036;    1.114638;    1.115765;    1.118276;    1.118109;    1.116305;    1.116831;    1.117423;
