Simulation;Time;PC0;PC1;PC2;PC3;PC4;PC5;PC6;PC7;PC8;
Nan;Nan;0;0;0;1;0;0;0;0;0;
  0;    0.367831;    0.999735;    0.679452;    0.443429;    0.301089;    0.396300;    0.567618;    0.890846;    1.255566;    5.033952;
  1;    0.228735;    1.037288;    0.722150;    0.451053;    0.305686;    0.397403;    0.513242;    0.715254;    1.867273;    7.431024;
  2;    0.282889;    1.040879;    0.724065;    0.472652;    0.312890;    0.416922;    0.558502;    0.920594;    5.784260;   33.575099;
  3;    0.224665;    0.980819;    0.676934;    0.467250;    0.318270;    0.398793;    0.497477;    0.877757;    5.520535;   32.675996;
  4;    0.166880;    1.035172;    0.712820;    0.487189;    0.319788;    0.408659;    0.595445;    0.836825;    1.227871;   13.506004;
  5;    0.217231;    0.994798;    0.669840;    0.438999;    0.308497;    0.397351;    0.515984;    0.697593;    2.158897;   33.334868;
  6;    0.103580;    1.011370;    0.697529;    0.439615;    0.305750;    0.374588;    0.505076;    0.761920;    1.693090;    3.107855;
  7;    0.212473;    1.017089;    0.694211;    0.462086;    0.319384;    0.390311;    0.562054;    0.805892;    2.218809;   15.391527;
  8;    0.109838;    0.971927;    0.658616;    0.439293;    0.309981;    0.371196;    0.538597;    0.848090;    1.910777;    3.349729;
  9;    0.342958;    1.003613;    0.693732;    0.452890;    0.315140;    0.378546;    0.525041;    0.761088;    1.420855;   33.609994;
 10;    0.246872;    1.022722;    0.709496;    0.460940;    0.311949;    0.481020;    0.777817;    1.291756;    2.803189;   18.077956;
 11;    0.195247;    0.987842;    0.692687;    0.439436;    0.310936;    0.405790;    0.725232;    1.245340;    2.024920;   18.074373;
 12;    0.499570;    0.968160;    0.679909;    0.433931;    0.312751;    0.429349;    0.565830;    0.793807;    2.148760;   65.283658;
 13;    0.217917;    1.003810;    0.670349;    0.448044;    0.307841;    0.404339;    0.515404;    1.296138;    1.924286;   26.962580;
 14;    0.245752;    0.985054;    0.685448;    0.452867;    0.300528;    0.375530;    0.552718;    0.847081;    1.675092;   15.968327;
 15;    0.177530;    1.022303;    0.671882;    0.452547;    0.299419;    0.379599;    0.469670;    0.898700;    1.608741;   15.263512;
 16;    0.265555;    1.002438;    0.697497;    0.462520;    0.317842;    0.395380;    0.508550;    0.909668;    1.694501;   33.269631;
 17;    0.226586;    0.974912;    0.672448;    0.475080;    0.306247;    0.382715;    0.554980;    0.695108;    4.037438;   28.061798;
 18;    0.280978;    0.942375;    0.659515;    0.439259;    0.307248;    0.384395;    0.595079;    0.846517;    1.202782;   40.763891;
 19;    0.213011;    0.977908;    0.653616;    0.418542;    0.307536;    0.376203;    0.499416;    0.646785;    2.648665;   24.716152;
 20;    0.307922;    1.031293;    0.684196;    0.452671;    0.307586;    0.413311;    0.638700;    1.203504;    4.391667;   44.023215;
 21;    0.394630;    1.012766;    0.671565;    0.445090;    0.309741;    0.436238;    0.597528;    0.972280;    4.465634;   60.480977;
 22;    0.212328;    1.010506;    0.675598;    0.444729;    0.324292;    0.548325;    0.872986;    1.260204;    2.711863;   18.992695;
 23;    0.278450;    0.982161;    0.667347;    0.427181;    0.313348;    0.403982;    0.785169;    2.302676;    8.007034;   33.050069;
 24;    0.223541;    1.035903;    0.722207;    0.463758;    0.318828;    0.402422;    0.564106;    1.093481;    2.930320;   29.694375;
 25;    0.197304;    0.986779;    0.685770;    0.449088;    0.304873;    0.388228;    0.511060;    0.940545;    5.813335;   13.830470;
 26;    0.315420;    1.001279;    0.684529;    0.452922;    0.320470;    0.508988;    0.926995;    1.733359;    6.847857;   31.044618;
 27;    0.393107;    1.008146;    0.671953;    0.446862;    0.313943;    0.389592;    0.491825;    0.987712;    5.210616;   46.545622;
 28;    0.236476;    1.016261;    0.670168;    0.443548;    0.317575;    0.424704;    0.630479;    1.077442;    1.908731;   25.415796;
 29;    0.367022;    1.045898;    0.683633;    0.451048;    0.318192;    0.388270;    0.523844;    0.927412;    5.487835;   40.674128;
 30;    0.282671;    1.018663;    0.690502;    0.458130;    0.309812;    0.381449;    0.511604;    1.848706;    4.857244;   24.424517;
 31;    0.520418;    1.019540;    0.690903;    0.441149;    0.306154;    0.387240;    0.604101;    0.934148;    3.782524;   59.542510;
 32;    0.677882;    0.998188;    0.738178;    0.442765;    0.311860;    0.519181;    4.811242;   10.296328;   34.793507;   64.415437;
 33;    0.316703;    1.021161;    0.683439;    0.435518;    0.303043;    0.373746;    0.542287;    0.770136;    6.355246;   44.264162;
 34;    0.181852;    1.034101;    0.686723;    0.451021;    0.312634;    0.508833;    0.748736;    1.013776;    2.902349;   14.350831;
 35;    0.239266;    0.999531;    0.690278;    0.443263;    0.318037;    0.515675;    0.763759;    1.203349;    1.563795;   27.036814;
 36;    0.136831;    0.974850;    0.714099;    0.460463;    0.303278;    0.369953;    0.574311;    0.893312;    1.617867;    7.048330;
 37;    0.375841;    1.006100;    0.699486;    0.460099;    0.301636;    0.370409;    0.502186;    1.291640;    5.063845;   47.469064;
 38;    0.352010;    0.996128;    0.669386;    0.437570;    0.310356;    0.383715;    0.546354;    1.000893;    2.665877;   33.348558;
 39;    0.314858;    0.954319;    0.659454;    0.432955;    0.301333;    0.394815;    0.591993;    1.033808;    2.298703;   35.671277;
 40;    0.202704;    1.032127;    0.723292;    0.450210;    0.304971;    0.377043;    0.488273;    0.813892;    1.274787;   16.505922;
 41;    0.220240;    0.999501;    0.680892;    0.432906;    0.311361;    0.410677;    0.530523;    0.935788;    2.913448;   24.292083;
 42;    0.186108;    1.036559;    0.682868;    0.451740;    0.304857;    0.383609;    0.483923;    0.715025;    1.605876;   19.162065;
 43;    0.189120;    1.019695;    0.680639;    0.451364;    0.315812;    0.405088;    0.690409;    1.049915;    2.135758;    9.963637;
 44;    0.462065;    1.009101;    0.702625;    0.438867;    0.315713;    0.396488;    0.659767;    1.292233;   12.848005;   45.563967;
 45;    0.264103;    0.971192;    0.652919;    0.432542;    0.306352;    0.395454;    0.573111;    0.887864;    3.624831;   30.701654;
 46;    0.164710;    1.021816;    0.688807;    0.448575;    0.313500;    0.389196;    0.513096;    0.686017;    1.516719;   17.405560;
 47;    0.193194;    1.014561;    0.673571;    0.457492;    0.314584;    0.388052;    0.529370;    0.776490;    1.365688;   27.288728;
 48;    0.223173;    0.964385;    0.660124;    0.445107;    0.314209;    0.600599;    0.956769;    1.271071;    4.512803;   29.500395;
 49;    0.238005;    0.972625;    0.660711;    0.448113;    0.310264;    0.388898;    0.925451;    1.427164;    3.326552;   21.626598;
 50;    0.147425;    1.012825;    0.684726;    0.440831;    0.302476;    0.384613;    0.592963;    0.885044;    2.059811;    8.948405;
 51;    0.322786;    1.033792;    0.706448;    0.469511;    0.317241;    0.387632;    0.800713;    1.866233;    9.816678;   45.045580;
 52;    0.275727;    1.015954;    0.695455;    0.454448;    0.305198;    0.421357;    0.796066;    1.432900;    2.662093;   32.022895;
 53;    0.232512;    0.987072;    0.735270;    0.448353;    0.305103;    0.387797;    0.476333;    0.799277;    2.125756;   34.057751;
 54;    0.223863;    1.049218;    0.721921;    0.437319;    0.311219;    0.385550;    0.495071;    1.331231;    3.246575;   27.851931;
 55;    0.206757;    0.983792;    0.660017;    0.435169;    0.298171;    0.419732;    0.617094;    0.985028;    1.636983;   20.610619;
 56;    0.375487;    1.012621;    0.683911;    0.436993;    0.296821;    0.364064;    0.494616;    1.315897;    7.936953;   53.537476;
 57;    0.365366;    1.032350;    0.708732;    0.453765;    0.306732;    0.380548;    0.526484;    0.804143;    9.904817;   42.261143;
 58;    0.234973;    1.014523;    0.697050;    0.443121;    0.311593;    0.371458;    1.238909;    2.855460;   11.367859;   22.255746;
 59;    0.286887;    0.998361;    0.690044;    0.464823;    0.306112;    0.403900;    0.535949;    0.667893;    9.118294;   31.948329;
 60;    0.276168;    0.998046;    0.682980;    0.445480;    0.313421;    0.433279;    0.570623;    1.189318;    7.684492;   23.448112;
 61;    0.439947;    0.983823;    0.669918;    0.428358;    0.307126;    0.386899;    0.585765;    0.969516;    9.618913;   58.367360;
 62;    0.145777;    0.991681;    0.671652;    0.455346;    0.305879;    0.377389;    0.755412;    1.203806;    1.861810;    7.538290;
 63;    0.212814;    1.030703;    0.685334;    0.428030;    0.299997;    0.465689;    0.775541;    1.079038;    2.070802;   17.552838;
 64;    0.340522;    1.011515;    0.687175;    0.460862;    0.307259;    0.457018;    0.729031;    1.356435;    3.426408;   43.969334;
 65;    0.225308;    0.973070;    0.675814;    0.431740;    0.301158;    0.390720;    1.321437;    3.228819;    5.546256;   17.796564;
 66;    0.168511;    0.988465;    0.674860;    0.445777;    0.317631;    0.653741;    1.064465;    1.810500;    3.424217;    9.120481;
 67;    0.371169;    0.959613;    0.658900;    0.432713;    0.319307;    0.391272;    0.538345;    1.134516;    5.425459;   47.922067;
 68;    0.237527;    0.994653;    0.671562;    0.439345;    0.313148;    0.607214;    0.751923;    1.454966;    2.252502;   26.546338;
 69;    0.324976;    0.980134;    0.683773;    0.448101;    0.302984;    0.385100;    0.585112;    1.010959;    2.604863;   37.353943;
 70;    0.172719;    1.024593;    0.711814;    0.435942;    0.313347;    0.407584;    0.625940;    1.006496;    2.659905;   13.069092;
 71;    0.258489;    0.996839;    0.668410;    0.435725;    0.310235;    0.393491;    0.527820;    0.881035;    2.263678;   36.109245;
 72;    0.423612;    0.996708;    0.659250;    0.441719;    0.314717;    0.416275;    0.567651;    0.830948;    4.535573;   62.787334;
 73;    0.255383;    1.036179;    0.694895;    0.458758;    0.322436;    0.441686;    0.628868;    1.150246;    4.340649;   35.938149;
 74;    0.253009;    1.021463;    0.675988;    0.457428;    0.300954;    0.381577;    0.483655;    0.873363;    3.998552;   31.752619;
 75;    0.276891;    1.027953;    0.719542;    0.443364;    0.302850;    0.365133;    0.819687;    2.954974;    7.546700;   28.820146;
 76;    0.290548;    1.013887;    0.669504;    0.436700;    0.311449;    0.385548;    0.491438;    0.736485;    1.334660;   30.439482;
 77;    0.187270;    0.974466;    0.664747;    0.425027;    0.298866;    0.394063;    0.542080;    0.781950;    3.070271;   16.806922;
 78;    0.135462;    0.997991;    0.698209;    0.449476;    0.302677;    0.375134;    0.483014;    0.621044;    1.399231;   11.359334;
 79;    0.247411;    1.004288;    0.679519;    0.439044;    0.311667;    0.367904;    0.476807;    0.782684;    1.674076;   27.868788;
 80;    0.174960;    1.010707;    0.681637;    0.438493;    0.294366;    0.390057;    0.513499;    1.004287;    2.826960;   11.732058;
 81;    0.246176;    0.981865;    0.665369;    0.445223;    0.310145;    0.450011;    0.793841;    1.062099;    2.364047;   18.616386;
 82;    0.366272;    0.987482;    0.664587;    0.434098;    0.305171;    0.526594;    0.760420;    1.674387;   20.365748;   33.418472;
 83;    0.226512;    0.948092;    0.651251;    0.423143;    0.302547;    0.384829;    0.526659;    1.096147;    1.829944;   28.359792;
 84;    0.301481;    0.982949;    0.717963;    0.456836;    0.305604;    0.369552;    0.483033;    1.250531;    5.827716;   35.417183;
 85;    0.217816;    0.988457;    0.684395;    0.444380;    0.317210;    0.494255;    0.747923;    1.073162;    2.669587;   27.523217;
 86;    0.255310;    1.037650;    0.696580;    0.444398;    0.302863;    0.414845;    0.539891;    0.992698;    5.021014;   26.822335;
 87;    0.203352;    1.004755;    0.668631;    0.432636;    0.300777;    0.385123;    0.591044;    0.790657;    1.246002;   25.984746;
 88;    0.233582;    1.051366;    0.705542;    0.460797;    0.305212;    0.416343;    0.575911;    0.844335;    2.068185;   17.895082;
 89;    0.155986;    1.027126;    0.704672;    0.465903;    0.312700;    0.421510;    0.587418;    0.936148;    1.966501;    6.653217;
 90;    0.257217;    0.986258;    0.685452;    0.431634;    0.301535;    0.395123;    0.556145;    0.823385;    1.771579;   30.862701;
 91;    0.168672;    1.033389;    0.702113;    0.449313;    0.308566;    0.374507;    0.565659;    0.764664;    1.425184;   12.804625;
 92;    0.312279;    0.997953;    0.675599;    0.452351;    0.300838;    0.366477;    0.485880;    0.833903;    6.769797;   38.765620;
 93;    0.148475;    1.000345;    0.682944;    0.452883;    0.307493;    0.379427;    0.629752;    1.046916;    1.799498;   12.458602;
 94;    0.154492;    1.005611;    0.683481;    0.434291;    0.309907;    0.380467;    0.489850;    0.850280;    1.883483;    7.930583;
 95;    0.272912;    1.020684;    0.685430;    0.450740;    0.309257;    0.368344;    0.518503;    1.365325;    7.044940;   26.341483;
 96;    0.315452;    1.028116;    0.690756;    0.439653;    0.306376;    0.491724;    0.738596;    1.049965;    3.592807;   37.468769;
 97;    0.153352;    1.012666;    0.710875;    0.469409;    0.322009;    0.410239;    0.565386;    0.742930;    1.625783;   11.122866;
 98;    0.309212;    1.017308;    0.703987;    0.451304;    0.306175;    0.378183;    0.474305;    0.773000;    1.852122;   41.451349;
 99;    0.213045;    1.007688;    0.665450;    0.434671;    0.296789;    0.451852;    0.700457;    1.064815;    1.826538;   15.201871;
100;    0.195592;    0.987944;    0.660704;    0.446390;    0.300286;    0.376314;    0.541739;    0.754366;    1.128702;   22.281615;
