Simulation;Time;PC0;PC1;PC2;PC3;PC4;PC5;PC6;PC7;PC8;
Nan;Nan;0;0;0;1;0;0;0;0;0;
  0;    0.225330;    0.997004;    0.549033;    0.336540;    0.186115;    0.168056;    0.153684;    0.126423;    0.094168;    0.053209;
  1;    0.197349;    1.030294;    0.572940;    0.346698;    0.189036;    0.179479;    0.153787;    0.130787;    0.103531;    0.054081;
  2;    0.190715;    1.029194;    0.585385;    0.361680;    0.195014;    0.187425;    0.165198;    0.137916;    0.100141;    0.062669;
  3;    0.191872;    0.977095;    0.548486;    0.356516;    0.197013;    0.185716;    0.168998;    0.149935;    0.114743;    0.062102;
  4;    0.197104;    1.030115;    0.575871;    0.364178;    0.197369;    0.182526;    0.144810;    0.128845;    0.102223;    0.057598;
  5;    0.184364;    0.998357;    0.542608;    0.332431;    0.190862;    0.180216;    0.156127;    0.133413;    0.100638;    0.065329;
  6;    0.205806;    1.006786;    0.559034;    0.337649;    0.188573;    0.175767;    0.157595;    0.135708;    0.099984;    0.058073;
  7;    0.197294;    1.017705;    0.559647;    0.350478;    0.196050;    0.179265;    0.160059;    0.140847;    0.101399;    0.055263;
  8;    0.215130;    0.975354;    0.532602;    0.337453;    0.191824;    0.178441;    0.169652;    0.148107;    0.110418;    0.058303;
  9;    0.183974;    0.998983;    0.558231;    0.347831;    0.195318;    0.178992;    0.165987;    0.141915;    0.093634;    0.056012;
 10;    0.191111;    1.015175;    0.568978;    0.352320;    0.193442;    0.175848;    0.155154;    0.128565;    0.092572;    0.050761;
 11;    0.189032;    0.981573;    0.549755;    0.336845;    0.190753;    0.179541;    0.161509;    0.135242;    0.095698;    0.052883;
 12;    0.191196;    0.959996;    0.547384;    0.332481;    0.192108;    0.178725;    0.161304;    0.134897;    0.094969;    0.046030;
 13;    0.188325;    1.010886;    0.538764;    0.331310;    0.189474;    0.168641;    0.153776;    0.123523;    0.096564;    0.062434;
 14;    0.185295;    0.978455;    0.549730;    0.346980;    0.186191;    0.176308;    0.155629;    0.121964;    0.085562;    0.050095;
 15;    0.187058;    1.033438;    0.542640;    0.335479;    0.185818;    0.168543;    0.144917;    0.125684;    0.101574;    0.047852;
 16;    0.205692;    0.996868;    0.560373;    0.351581;    0.196199;    0.175440;    0.154406;    0.124866;    0.099532;    0.064367;
 17;    0.196564;    0.970481;    0.541972;    0.353440;    0.188447;    0.172739;    0.153311;    0.132552;    0.104243;    0.059402;
 18;    0.192090;    0.937264;    0.529604;    0.333468;    0.191324;    0.175948;    0.153233;    0.134358;    0.105857;    0.059211;
 19;    0.187724;    0.984520;    0.530313;    0.320458;    0.190935;    0.171296;    0.154990;    0.129987;    0.098467;    0.057211;
 20;    0.183617;    1.038135;    0.554360;    0.349297;    0.189662;    0.180846;    0.164586;    0.147477;    0.110787;    0.065483;
 21;    0.185703;    1.020848;    0.542076;    0.343183;    0.189935;    0.169802;    0.150868;    0.133062;    0.097833;    0.061664;
 22;    0.188066;    1.015550;    0.549247;    0.339488;    0.197482;    0.178354;    0.160540;    0.129715;    0.091929;    0.057540;
 23;    0.185134;    0.984493;    0.539925;    0.325440;    0.193671;    0.185163;    0.161994;    0.132485;    0.095464;    0.060697;
 24;    0.185951;    1.032226;    0.574239;    0.350527;    0.196104;    0.184843;    0.167078;    0.132027;    0.099531;    0.057779;
 25;    0.188779;    0.980410;    0.549736;    0.344967;    0.188717;    0.180557;    0.159092;    0.131497;    0.098736;    0.056808;
 26;    0.183782;    1.001899;    0.553170;    0.349093;    0.196812;    0.186957;    0.165402;    0.144411;    0.107367;    0.065721;
 27;    0.223463;    1.017222;    0.538354;    0.338577;    0.193090;    0.178258;    0.155503;    0.138104;    0.101553;    0.047338;
 28;    0.187893;    1.026507;    0.545156;    0.341206;    0.194990;    0.178705;    0.165286;    0.134359;    0.094923;    0.043365;
 29;    0.186316;    1.060178;    0.553526;    0.344999;    0.196411;    0.182820;    0.160029;    0.127265;    0.089744;    0.043608;
 30;    0.186429;    1.020734;    0.555448;    0.348833;    0.192653;    0.180937;    0.164143;    0.141081;    0.109348;    0.059998;
 31;    0.185051;    1.018532;    0.559730;    0.337824;    0.189467;    0.176438;    0.160071;    0.138421;    0.109764;    0.057232;
 32;    0.184108;    0.984880;    0.561167;    0.328687;    0.191035;    0.180931;    0.158666;    0.141596;    0.107202;    0.055831;
 33;    0.184809;    1.029735;    0.548142;    0.330468;    0.189499;    0.175043;    0.158443;    0.127606;    0.098373;    0.061685;
 34;    0.186546;    1.041867;    0.555090;    0.345199;    0.193678;    0.185760;    0.161711;    0.136188;    0.104233;    0.061899;
 35;    0.189849;    0.997672;    0.554216;    0.338645;    0.194823;    0.182561;    0.151438;    0.126750;    0.102983;    0.066762;
 36;    0.184665;    0.957671;    0.556843;    0.343481;    0.188613;    0.174883;    0.158183;    0.128864;    0.101652;    0.059149;
 37;    0.189701;    0.995850;    0.564189;    0.357597;    0.185822;    0.168987;    0.147909;    0.128362;    0.095696;    0.053120;
 38;    0.190062;    1.001025;    0.541861;    0.337745;    0.191506;    0.179050;    0.160086;    0.132315;    0.094311;    0.047890;
 39;    0.185845;    0.948774;    0.533607;    0.334068;    0.184562;    0.173089;    0.148861;    0.123869;    0.092451;    0.055835;
 40;    0.186704;    1.022786;    0.574469;    0.347344;    0.188395;    0.177188;    0.164951;    0.141185;    0.100090;    0.057750;
 41;    0.186854;    0.999860;    0.549422;    0.332804;    0.191253;    0.173820;    0.155154;    0.128060;    0.097901;    0.055472;
 42;    0.187626;    1.046785;    0.549722;    0.348605;    0.188829;    0.172251;    0.155887;    0.132787;    0.103204;    0.062706;
 43;    0.195110;    1.025926;    0.551427;    0.345275;    0.194596;    0.177947;    0.161037;    0.139436;    0.106500;    0.058655;
 44;    0.189193;    1.006048;    0.560593;    0.337421;    0.194783;    0.183852;    0.169965;    0.145708;    0.108954;    0.060285;
 45;    0.193341;    0.976161;    0.527130;    0.332554;    0.188575;    0.175798;    0.164847;    0.145528;    0.105161;    0.052233;
 46;    0.185020;    1.028870;    0.545370;    0.341342;    0.193204;    0.178214;    0.159212;    0.127963;    0.093520;    0.053790;
 47;    0.193535;    1.025106;    0.543836;    0.346583;    0.195108;    0.180194;    0.168129;    0.137780;    0.100912;    0.055992;
 48;    0.215256;    0.964814;    0.532884;    0.337419;    0.194235;    0.173708;    0.154157;    0.131395;    0.099444;    0.065276;
 49;    0.194828;    0.974115;    0.534979;    0.332515;    0.193828;    0.179417;    0.153020;    0.128370;    0.099294;    0.054720;
 50;    0.191407;    1.014614;    0.553054;    0.338437;    0.188462;    0.175428;    0.159926;    0.135610;    0.105209;    0.047791;
 51;    0.189574;    1.036956;    0.563400;    0.355518;    0.198155;    0.182034;    0.161621;    0.135750;    0.104087;    0.067434;
 52;    0.189252;    1.011654;    0.560945;    0.345677;    0.187040;    0.174101;    0.151215;    0.129950;    0.097975;    0.053756;
 53;    0.186948;    0.964275;    0.573856;    0.342295;    0.190627;    0.180938;    0.160107;    0.138139;    0.095113;    0.058885;
 54;    0.192753;    1.043202;    0.581888;    0.332265;    0.192641;    0.182719;    0.163428;    0.134337;    0.106979;    0.066290;
 55;    0.188222;    0.990189;    0.525756;    0.324103;    0.186135;    0.178330;    0.157634;    0.137533;    0.101806;    0.059735;
 56;    0.187237;    1.012935;    0.552344;    0.334367;    0.184020;    0.165950;    0.148602;    0.119615;    0.094134;    0.059304;
 57;    0.189243;    1.027171;    0.571560;    0.351399;    0.189401;    0.178265;    0.160932;    0.139619;    0.094505;    0.059600;
 58;    0.185910;    1.014800;    0.557919;    0.334796;    0.194085;    0.183348;    0.164503;    0.134397;    0.103524;    0.064854;
 59;    0.210153;    0.990512;    0.558320;    0.357961;    0.188169;    0.174787;    0.159305;    0.128537;    0.098007;    0.059087;
 60;    0.203721;    0.999153;    0.544669;    0.339369;    0.192556;    0.178783;    0.162657;    0.138353;    0.095570;    0.050774;
 61;    0.191199;    0.985111;    0.537302;    0.324938;    0.190565;    0.171703;    0.158845;    0.121130;    0.090201;    0.044379;
 62;    0.188055;    0.991801;    0.544086;    0.348884;    0.188002;    0.174246;    0.151871;    0.122522;    0.095684;    0.056181;
 63;    0.189559;    1.035058;    0.556230;    0.328206;    0.186340;    0.167359;    0.144985;    0.127385;    0.101809;    0.057577;
 64;    0.190585;    1.011315;    0.553665;    0.354449;    0.191063;    0.179529;    0.166716;    0.137541;    0.108098;    0.054158;
 65;    0.186082;    0.967254;    0.540591;    0.327734;    0.187089;    0.175089;    0.157090;    0.123499;    0.097429;    0.055376;
 66;    0.188701;    0.987639;    0.545898;    0.343168;    0.194357;    0.187359;    0.167768;    0.137959;    0.107391;    0.053674;
 67;    0.189554;    0.961409;    0.532064;    0.326121;    0.196540;    0.180607;    0.165338;    0.141662;    0.105365;    0.042781;
 68;    0.188001;    0.996287;    0.543168;    0.332518;    0.190970;    0.171591;    0.151633;    0.131610;    0.104377;    0.056119;
 69;    0.185525;    0.969338;    0.551980;    0.346213;    0.186872;    0.175683;    0.163688;    0.136091;    0.099346;    0.054151;
 70;    0.188675;    1.020166;    0.569263;    0.334291;    0.193013;    0.179200;    0.168550;    0.140600;    0.107873;    0.054642;
 71;    0.194180;    1.001638;    0.542079;    0.332654;    0.191627;    0.175219;    0.152487;    0.133229;    0.104350;    0.065796;
 72;    0.188531;    1.006667;    0.535998;    0.334687;    0.194231;    0.185991;    0.165359;    0.141551;    0.106447;    0.052754;
 73;    0.191731;    1.041312;    0.562834;    0.348867;    0.197960;    0.180953;    0.155492;    0.136291;    0.103225;    0.067449;
 74;    0.188295;    1.029041;    0.545380;    0.350371;    0.186357;    0.175119;    0.154463;    0.118431;    0.092689;    0.053020;
 75;    0.188040;    1.020559;    0.571474;    0.341312;    0.186516;    0.174146;    0.156093;    0.125019;    0.090527;    0.056960;
 76;    0.205361;    1.024633;    0.541051;    0.333765;    0.192026;    0.182429;    0.158208;    0.137111;    0.099172;    0.058855;
 77;    0.185770;    0.972488;    0.537526;    0.324237;    0.184078;    0.168915;    0.148224;    0.128051;    0.084075;    0.053119;
 78;    0.188884;    0.984457;    0.565008;    0.345103;    0.187513;    0.168922;    0.150460;    0.127484;    0.102023;    0.061183;
 79;    0.189322;    1.004962;    0.551261;    0.332705;    0.194010;    0.172267;    0.158011;    0.139573;    0.104957;    0.059589;
 80;    0.188281;    1.010649;    0.549442;    0.336635;    0.183110;    0.163263;    0.147208;    0.127545;    0.099709;    0.055427;
 81;    0.191675;    0.983409;    0.538461;    0.341872;    0.189863;    0.176178;    0.162639;    0.132307;    0.099806;    0.063681;
 82;    0.186397;    0.989233;    0.538379;    0.330423;    0.186766;    0.178571;    0.161321;    0.139289;    0.102236;    0.059156;
 83;    0.190094;    0.944687;    0.527472;    0.322894;    0.185825;    0.172588;    0.156252;    0.127740;    0.089033;    0.053860;
 84;    0.189618;    0.967573;    0.562585;    0.352199;    0.190299;    0.175303;    0.160402;    0.134992;    0.099408;    0.059666;
 85;    0.187547;    0.981645;    0.553787;    0.341215;    0.194101;    0.177220;    0.161690;    0.131096;    0.097441;    0.063616;
 86;    0.193563;    1.041835;    0.554871;    0.327634;    0.186284;    0.177068;    0.160585;    0.130712;    0.104468;    0.054286;
 87;    0.189902;    1.009541;    0.543081;    0.325563;    0.186743;    0.171170;    0.135166;    0.117072;    0.090788;    0.052428;
 88;    0.190382;    1.051142;    0.570337;    0.351226;    0.189277;    0.171497;    0.157535;    0.131113;    0.103498;    0.055866;
 89;    0.188230;    1.023286;    0.566353;    0.359740;    0.193008;    0.180924;    0.169147;    0.138838;    0.110699;    0.058556;
 90;    0.187267;    0.982269;    0.545099;    0.328457;    0.188228;    0.172784;    0.159734;    0.129778;    0.100702;    0.052054;
 91;    0.188657;    1.031168;    0.568517;    0.344553;    0.191949;    0.174876;    0.152985;    0.120725;    0.092441;    0.055098;
 92;    0.186184;    0.996203;    0.547181;    0.341569;    0.186124;    0.172612;    0.151076;    0.123254;    0.093814;    0.042151;
 93;    0.191760;    0.997981;    0.552448;    0.348315;    0.191701;    0.180804;    0.162655;    0.135836;    0.098169;    0.043898;
 94;    0.191335;    1.006106;    0.553148;    0.328422;    0.191481;    0.179268;    0.157073;    0.137048;    0.101746;    0.061233;
 95;    0.192430;    1.024583;    0.555443;    0.343932;    0.193702;    0.179312;    0.161679;    0.134663;    0.091419;    0.054093;
 96;    0.189824;    1.033108;    0.550527;    0.338225;    0.188160;    0.183221;    0.161591;    0.133618;    0.098156;    0.052695;
 97;    0.188567;    1.002673;    0.572249;    0.351842;    0.198116;    0.181057;    0.158891;    0.135817;    0.095945;    0.059840;
 98;    0.185725;    1.010194;    0.566894;    0.343954;    0.189491;    0.177325;    0.158483;    0.125669;    0.094566;    0.058616;
 99;    0.187535;    1.015531;    0.537392;    0.333434;    0.183418;    0.172446;    0.150634;    0.132091;    0.101481;    0.057439;
100;    0.189029;    0.992881;    0.533107;    0.339688;    0.185730;    0.170480;    0.158836;    0.137043;    0.101336;    0.061834;
