Simulation;Time;PC0;PC1;PC2;PC3;PC4;PC5;PC6;PC7;PC8;
Nan;Nan;0;0;0;1;0;0;0;0;0;
  0;    0.013266;    1.000000;    0.671643;    0.437329;    0.298483;    0.386220;    0.484401;    0.834129;    1.150676;    3.133529;
  1;    0.000926;    1.000000;    0.684008;    0.432582;    0.292769;    0.374590;    0.477746;    0.625425;    1.495765;    3.558351;
  2;    0.000890;    1.000000;    0.679063;    0.446211;    0.298171;    0.377753;    0.514573;    0.793150;    2.818530;   14.731199;
  3;    0.000635;    1.000000;    0.682206;    0.459106;    0.321160;    0.398200;    0.484615;    0.740632;    1.761747;  198.952879;
  4;    0.000517;    1.000000;    0.678518;    0.453074;    0.305252;    0.371825;    0.541619;    0.748649;    0.947422;    7.319773;
  5;    0.000726;    1.000000;    0.672707;    0.442395;    0.309103;    0.381673;    0.489036;    0.642214;    1.225327;13778.030249;
  6;    0.000670;    1.000000;    0.679757;    0.434192;    0.301030;    0.360488;    0.478476;    0.687288;    1.617398;    2.310405;
  7;    0.000572;    1.000000;    0.679857;    0.450880;    0.311726;    0.374529;    0.536695;    0.674441;    2.183167;   12.871621;
  8;    0.000674;    1.000000;    0.678772;    0.449454;    0.316927;    0.371896;    0.471456;    0.679647;    1.378679;    2.409340;
  9;    0.000607;    1.000000;    0.681686;    0.447129;    0.311566;    0.367388;    0.494567;    0.664076;    1.160527;  200.977121;
 10;    0.000526;    1.000000;    0.680931;    0.441791;    0.301930;    0.410535;    0.752090;    1.014560;    2.162957;   10.421546;
 11;    0.000624;    1.000000;    0.688824;    0.440805;    0.312795;    0.391483;    0.592144;    1.203788;    1.675073;    6.123961;
 12;    0.000516;    1.000000;    0.685488;    0.447493;    0.321286;    0.439944;    0.554872;    0.738327;    1.759623; 3283.298311;
 13;    0.000626;    1.000000;    0.669754;    0.444418;    0.305790;    0.394580;    0.486836;    1.256313;    1.416106;   16.615791;
 14;    0.000719;    1.000000;    0.683869;    0.447925;    0.301755;    0.364813;    0.618511;    0.775882;    1.500774;   34.246979;
 15;    0.000671;    1.000000;    0.668179;    0.440069;    0.291712;    0.359250;    0.437729;    0.852360;    1.184838;    9.933111;
 16;    0.000640;    1.000000;    0.679833;    0.454760;    0.314110;    0.384458;    0.490619;    0.896794;    1.119265;  194.828363;
 17;    0.000510;    1.000000;    0.679366;    0.470354;    0.310490;    0.372657;    0.539091;    0.664731;    1.576008;   18.203416;
 18;    0.000504;    1.000000;    0.691013;    0.459355;    0.323667;    0.385708;    0.619477;    0.855598;    1.078773;   15.011449;
 19;    0.000709;    1.000000;    0.674018;    0.439934;    0.315972;    0.377513;    0.509074;    0.616104;    1.688932;   23.012008;
 20;    0.000501;    1.000000;    0.666324;    0.433933;    0.296510;    0.378882;    0.610435;    0.855566;   72.094655;  966.335865;
 21;    0.000515;    1.000000;    0.669806;    0.436579;    0.304212;    0.418405;    0.553757;    0.788622;    2.975656;   90.740789;
 22;    0.000679;    1.000000;    0.670828;    0.440020;    0.319647;    0.534529;    0.984322;    1.164137;    2.295184;   10.889312;
 23;    0.000620;    1.000000;    0.678388;    0.442753;    0.319203;    0.376365;    0.573571;    1.384025;   41.325453;   54.122653;
 24;    0.000609;    1.000000;    0.684821;    0.440656;    0.304737;    0.372524;    0.477560;    0.959687;    1.342096;  215.212522;
 25;    0.000552;    1.000000;    0.682084;    0.444811;    0.305920;    0.384138;    0.484584;    0.926350;    5.393553;    7.470317;
 26;    0.000514;    1.000000;    0.679969;    0.447737;    0.317997;    0.426056;    0.797255;    1.515347;    3.010313;   73.043624;
 27;    0.000576;    1.000000;    0.672248;    0.444781;    0.311101;    0.379434;    0.464965;    0.690602;    1.912132;  183.765750;
 28;    0.000754;    1.000000;    0.667255;    0.438897;    0.312372;    0.405497;    0.592629;    0.983809;    1.427994;    9.766288;
 29;    0.000547;    1.000000;    0.665899;    0.435121;    0.304629;    0.360652;    0.478855;    0.685946;    2.086389;   84.140457;
 30;    0.000632;    1.000000;    0.677841;    0.442009;    0.302092;    0.358022;    0.472744;    4.084230;    4.590983; 2546.542558;
 31;    0.000656;    1.000000;    0.670514;    0.434700;    0.298821;    0.358356;    0.537699;    0.759527;    1.684379; 2233.886383;
 32;    0.000495;    1.000000;    0.724951;    0.442786;    0.311037;    0.495273;    5.487225;    9.715551;   25.386059; 2755.576232;
 33;    0.000521;    1.000000;    0.677177;    0.435574;    0.297207;    0.355232;    0.497388;    0.682268;    7.726877;  250.197299;
 34;    0.000553;    1.000000;    0.670787;    0.436042;    0.301094;    0.625630;    0.708244;    0.854959;    1.671155;    4.391744;
 35;    0.000492;    1.000000;    0.683132;    0.441553;    0.315990;    0.613773;    0.725481;    1.108250;    1.262427; 7466.273433;
 36;    0.000604;    1.000000;    0.710251;    0.456954;    0.307574;    0.368512;    0.566164;    0.913192;    1.450056;    3.070835;
 37;    0.000492;    1.000000;    0.678527;    0.439842;    0.296537;    0.356198;    0.465087;    1.367745;    2.562815; 3456.038998;
 38;    0.000507;    1.000000;    0.674955;    0.440347;    0.310190;    0.378585;    0.486133;    0.873429;    1.918865;   72.716717;
 39;    0.000512;    1.000000;    0.678280;    0.442547;    0.312365;    0.393032;    0.581274;    1.028263;    1.761302; 5687.165422;
 40;    0.000664;    1.000000;    0.683046;    0.432126;    0.293122;    0.349536;    0.427382;    0.659148;    1.014092;  176.257086;
 41;    0.000654;    1.000000;    0.674001;    0.437146;    0.310172;    0.396675;    0.499991;    0.896000;    2.023044;  411.540373;
 42;    0.000609;    1.000000;    0.668506;    0.432086;    0.292931;    0.359670;    0.439268;    0.637408;    1.253666;  731.621533;
 43;    0.000640;    1.000000;    0.671626;    0.441722;    0.308774;    0.391844;    0.655519;    0.857310;    1.471423;   10.402830;
 44;    0.000644;    1.000000;    0.688868;    0.438996;    0.311773;    0.372623;    0.580557;    0.995878;   13.020969;  683.185627;
 45;    0.000626;    1.000000;    0.675323;    0.445480;    0.314243;    0.398507;    0.490974;    1.155753;    2.399854;   26.907159;
 46;    0.000581;    1.000000;    0.677568;    0.437294;    0.305415;    0.370400;    0.469242;    0.614544;    1.218610;    6.085862;
 47;    0.000610;    1.000000;    0.672422;    0.446751;    0.308860;    0.373428;    0.469195;    0.672708;    1.137876; 5685.938511;
 48;    0.000509;    1.000000;    0.680167;    0.454489;    0.323397;    0.593110;    0.982725;    1.176110;    4.743060;  286.929827;
 49;    0.000805;    1.000000;    0.677808;    0.457438;    0.317198;    0.387815;    0.892469;    1.431505;    3.019320;    8.381938;
 50;    0.000509;    1.000000;    0.673638;    0.436637;    0.297496;    0.373918;    0.560677;    0.760429;    1.219883;    4.451282;
 51;    0.000678;    1.000000;    0.684081;    0.448115;    0.304787;    0.365802;    0.700247;    1.517587;    3.502218;  165.509806;
 52;    0.000540;    1.000000;    0.672050;    0.435410;    0.297019;    0.382428;    0.648684;    1.364221;    2.072061;  579.892627;
 53;    0.000554;    1.000000;    0.699538;    0.447700;    0.307746;    0.367999;    0.467185;    0.741752;    1.860059;   39.718513;
 54;    0.000680;    1.000000;    0.674339;    0.428282;    0.297853;    0.349557;    0.450130;    4.035643;    4.709051;   32.140217;
 55;    0.000635;    1.000000;    0.675598;    0.442641;    0.301946;    0.387986;    0.598153;    0.877896;    1.466993;   45.642286;
 56;    0.000497;    1.000000;    0.671371;    0.433020;    0.292128;    0.350724;    0.472292;    1.007440;   13.894338;  301.654453;
 57;    0.000516;    1.000000;    0.675443;    0.434028;    0.294752;    0.351410;    0.487269;    0.675159;    5.326281;  108.084248;
 58;    0.000656;    1.000000;    0.684650;    0.441534;    0.306444;    0.356567;    1.187616;    2.399877;   85.402413;  838.182543;
 59;    0.000653;    1.000000;    0.676798;    0.445419;    0.302519;    0.387953;    0.504887;    0.612524;    2.921612;   21.715417;
 60;    0.000614;    1.000000;    0.682390;    0.442991;    0.312100;    0.431361;    0.529189;    1.121448;    5.579560;   13.558888;
 61;    0.000632;    1.000000;    0.678950;    0.441626;    0.311257;    0.381662;    0.501614;    0.792729;    2.500393; 8164.638122;
 62;    0.000641;    1.000000;    0.674392;    0.448939;    0.305171;    0.363860;    0.658843;    1.031990;    1.633787;    3.867102;
 63;    0.000622;    1.000000;    0.666379;    0.425262;    0.291332;    0.418137;    0.701353;    0.923131;    1.809922;    3.512397;
 64;    0.000543;    1.000000;    0.676099;    0.444889;    0.301759;    0.445984;    0.642541;    1.084036;    3.579604;   10.521990;
 65;    0.000649;    1.000000;    0.684135;    0.443355;    0.307731;    0.381571;    0.666410;    3.677950;    4.421587;    9.920455;
 66;    0.000538;    1.000000;    0.677563;    0.445303;    0.319160;    0.390358;    1.206437;    1.544931;    3.144709;    5.145562;
 67;    0.000526;    1.000000;    0.683549;    0.455265;    0.332181;    0.400826;    0.508577;    0.834499;    2.236193;   21.795779;
 68;    0.000515;    1.000000;    0.672641;    0.438730;    0.312889;    0.595725;    0.704132;    1.349357;    1.740047; 5167.431897;
 69;    0.000532;    1.000000;    0.680293;    0.444237;    0.305147;    0.376752;    0.493398;    0.843657;    1.411460;   18.952019;
 70;    0.000514;    1.000000;    0.685261;    0.432019;    0.306119;    0.390739;    0.627345;    0.867229;    2.326637;    5.368983;
 71;    0.000539;    1.000000;    0.675397;    0.440065;    0.310507;    0.385550;    0.496564;    0.799115;    1.302786;   16.286807;
 72;    0.000517;    1.000000;    0.670659;    0.444861;    0.315008;    0.382927;    0.560130;    0.707192;    1.848234;  129.939034;
 73;    0.000635;    1.000000;    0.671392;    0.440045;    0.309265;    0.412400;    0.586244;    1.167773;    1.493375;   16.965798;
 74;    0.000542;    1.000000;    0.667217;    0.436239;    0.292797;    0.362338;    0.447749;    0.727072;    1.200142; 2386.303904;
 75;    0.000492;    1.000000;    0.684788;    0.428608;    0.292214;    0.342188;    1.158996;    2.998286;    4.225682;    6.608373;
 76;    0.000669;    1.000000;    0.669735;    0.438139;    0.307485;    0.366691;    0.471682;    0.663993;    1.130017;   36.788812;
 77;    0.000571;    1.000000;    0.670793;    0.437307;    0.304897;    0.390959;    0.532816;    0.716726;    2.473878;    5.027625;
 78;    0.000513;    1.000000;    0.679089;    0.440892;    0.300615;    0.361725;    0.460221;    0.581862;    1.178885;    2.864340;
 79;    0.000533;    1.000000;    0.675523;    0.441616;    0.309578;    0.360410;    0.442774;    0.693200;    1.145851;    8.525219;
 80;    0.000490;    1.000000;    0.670053;    0.430262;    0.289115;    0.378105;    0.473862;    0.844592;    2.096468;    5.534845;
 81;    0.000573;    1.000000;    0.673682;    0.445167;    0.313331;    0.428732;    0.764486;    1.021273;   18.545032;   36.172037;
 82;    0.000499;    1.000000;    0.671406;    0.436735;    0.307072;    0.523540;    0.676061;    0.931563;   23.079748;   26.055262;
 83;    0.000501;    1.000000;    0.677141;    0.444207;    0.316889;    0.395368;    0.515459;    1.073763;    1.599231;   40.330206;
 84;    0.000635;    1.000000;    0.713723;    0.450947;    0.307820;    0.366877;    0.462117;    0.990240;    5.491645;  548.935432;
 85;    0.000749;    1.000000;    0.679852;    0.443839;    0.318219;    0.470761;    0.677771;    0.944164;    1.758469;    5.318411;
 86;    0.000575;    1.000000;    0.673440;    0.431683;    0.291445;    0.396584;    0.485629;    0.762514;    6.796983;    9.643397;
 87;    0.000580;    1.000000;    0.665481;    0.435127;    0.298586;    0.371235;    0.565573;    0.748599;    1.112637;    4.835252;
 88;    0.000628;    1.000000;    0.667982;    0.433489;    0.288076;    0.384493;    0.543383;    0.707697;    1.668584;   56.390675;
 89;    0.000639;    1.000000;    0.678214;    0.440768;    0.301172;    0.399519;    0.483621;    0.830428;    1.274314;    5.220298;
 90;    0.000616;    1.000000;    0.687994;    0.440194;    0.304127;    0.395598;    0.516369;    0.740127;    1.179539;   15.186838;
 91;    0.000564;    1.000000;    0.671554;    0.434508;    0.296742;    0.354175;    0.537775;    0.664608;    1.158632;    7.555699;
 92;    0.000664;    1.000000;    0.670576;    0.441102;    0.298880;    0.357426;    0.458478;    0.767962;    2.393906;   34.555976;
 93;    0.000622;    1.000000;    0.678257;    0.445063;    0.305100;    0.363872;    0.647510;    0.926671;    1.579669;    7.415955;
 94;    0.000497;    1.000000;    0.674321;    0.438527;    0.308248;    0.370855;    0.470161;    0.817484;    1.596418;    3.036122;
 95;    0.000522;    1.000000;    0.673320;    0.443862;    0.301724;    0.352357;    0.458160;    0.887812;    7.349687;   21.003853;
 96;    0.000632;    1.000000;    0.672559;    0.429133;    0.296932;    0.603058;    0.750639;    0.942237;    2.372855;   30.158684;
 97;    0.000533;    1.000000;    0.679767;    0.451349;    0.314341;    0.393900;    0.536683;    0.635699;    1.346491;    4.654726;
 98;    0.000636;    1.000000;    0.678067;    0.436353;    0.298368;    0.359895;    0.441240;    0.688425;    1.238260;   36.072725;
 99;    0.000548;    1.000000;    0.666937;    0.430737;    0.293427;    0.458301;    0.647394;    1.041002;    1.486186;   25.648247;
100;    0.000647;    1.000000;    0.672555;    0.447785;    0.301912;    0.368730;    0.523549;    0.695534;    0.998542;    7.726263;
