Simulation;Time;PC0;PC1;PC2;PC3;PC4;PC5;PC6;PC7;PC8;
Nan;Nan;0;0;0;0;0;0;0;1;0;
  0;    0.197751;    0.987589;    0.816291;    0.786369;    0.762420;    0.715164;    0.602261;    0.410358;    0.163812;    0.100317;
  1;    0.187665;    1.013070;    0.837780;    0.802376;    0.754088;    0.678922;    0.580044;    0.405490;    0.163096;    0.121405;
  2;    0.197139;    1.025960;    0.858009;    0.821633;    0.760768;    0.686518;    0.566569;    0.463982;    0.175595;    0.110745;
  3;    0.212785;    1.006968;    0.848120;    0.839041;    0.773038;    0.698355;    0.593990;    0.368008;    0.173268;    0.117583;
  4;    0.192425;    1.034849;    0.861964;    0.845415;    0.787488;    0.693570;    0.538421;    0.398229;    0.169826;    0.100958;
  5;    0.209208;    0.996206;    0.823151;    0.811574;    0.794309;    0.716473;    0.605708;    0.428389;    0.168412;    0.109975;
  6;    0.196857;    1.001404;    0.830756;    0.816387;    0.764227;    0.666698;    0.595029;    0.408528;    0.160971;    0.096906;
  7;    0.209629;    1.021083;    0.848454;    0.825103;    0.774979;    0.710914;    0.581831;    0.409904;    0.178785;    0.108981;
  8;    0.187733;    0.989097;    0.823582;    0.798102;    0.771978;    0.679574;    0.613604;    0.446351;    0.173022;    0.113034;
  9;    0.187067;    1.014211;    0.847301;    0.826870;    0.804044;    0.750147;    0.626771;    0.453490;    0.166824;    0.108505;
 10;    0.187448;    1.018631;    0.848827;    0.837293;    0.790199;    0.727079;    0.589127;    0.422556;    0.163006;    0.098098;
 11;    0.187035;    0.992792;    0.829749;    0.811882;    0.761473;    0.699239;    0.561155;    0.407564;    0.163387;    0.102106;
 12;    0.187285;    0.978412;    0.825258;    0.808998;    0.777356;    0.647727;    0.527767;    0.413759;    0.172742;    0.115028;
 13;    0.189288;    1.000037;    0.820430;    0.800921;    0.763091;    0.692281;    0.573017;    0.442482;    0.168547;    0.107897;
 14;    0.188442;    0.977524;    0.814756;    0.787097;    0.748423;    0.662646;    0.531926;    0.338163;    0.161396;    0.098300;
 15;    0.186280;    1.003632;    0.814112;    0.754904;    0.693235;    0.638505;    0.569234;    0.404088;    0.162663;    0.099960;
 16;    0.190396;    1.008886;    0.846809;    0.813977;    0.762453;    0.686248;    0.610735;    0.460338;    0.181009;    0.107505;
 17;    0.195332;    0.985429;    0.823057;    0.793101;    0.747913;    0.660481;    0.530416;    0.405088;    0.161400;    0.104431;
 18;    0.185078;    0.972400;    0.820865;    0.800728;    0.694187;    0.660664;    0.582167;    0.400808;    0.166138;    0.102432;
 19;    0.188801;    0.987334;    0.814110;    0.790532;    0.758612;    0.686733;    0.541473;    0.342652;    0.164325;    0.104477;
 20;    0.191415;    1.016902;    0.830291;    0.797351;    0.781791;    0.709230;    0.635811;    0.454690;    0.160555;    0.100002;
 21;    0.186647;    1.010702;    0.825252;    0.800162;    0.770373;    0.693191;    0.570851;    0.422413;    0.157298;    0.091428;
 22;    0.192221;    1.024069;    0.845600;    0.779001;    0.726734;    0.645066;    0.565053;    0.365235;    0.166803;    0.097533;
 23;    0.186795;    0.993901;    0.825778;    0.811581;    0.746983;    0.657461;    0.550174;    0.345132;    0.170213;    0.123362;
 24;    0.189036;    1.030472;    0.855754;    0.829683;    0.782555;    0.745100;    0.631916;    0.427740;    0.171701;    0.101283;
 25;    0.191400;    0.983367;    0.822890;    0.807051;    0.759453;    0.675834;    0.572963;    0.411684;    0.175921;    0.118360;
 26;    0.223644;    1.018253;    0.848120;    0.827545;    0.749781;    0.698077;    0.578712;    0.410698;    0.169100;    0.112852;
 27;    0.186712;    1.014239;    0.831449;    0.804679;    0.768724;    0.709379;    0.584940;    0.428171;    0.165223;    0.104545;
 28;    0.190727;    1.020213;    0.835972;    0.794385;    0.746213;    0.714783;    0.599263;    0.451495;    0.171262;    0.103636;
 29;    0.187131;    1.038169;    0.842867;    0.819273;    0.768929;    0.675495;    0.570339;    0.365318;    0.171581;    0.105514;
 30;    0.187957;    1.016340;    0.838079;    0.834317;    0.792225;    0.682045;    0.570586;    0.427449;    0.164752;    0.106575;
 31;    0.187332;    1.001916;    0.827207;    0.803390;    0.747031;    0.684980;    0.594143;    0.401627;    0.169744;    0.106806;
 32;    0.184019;    0.991991;    0.835388;    0.795743;    0.705587;    0.650510;    0.572523;    0.408384;    0.170934;    0.098209;
 33;    0.189530;    1.006500;    0.821287;    0.805627;    0.752546;    0.660424;    0.577124;    0.424562;    0.169465;    0.103714;
 34;    0.186147;    1.020811;    0.836120;    0.835955;    0.785866;    0.731809;    0.594896;    0.449251;    0.178720;    0.107651;
 35;    0.190430;    1.009212;    0.841411;    0.812898;    0.735815;    0.697678;    0.599200;    0.431705;    0.169346;    0.097464;
 36;    0.187990;    0.978930;    0.830133;    0.798882;    0.768830;    0.727431;    0.629024;    0.411176;    0.164695;    0.115918;
 37;    0.188818;    0.988664;    0.825200;    0.769503;    0.750498;    0.657245;    0.549545;    0.336733;    0.165130;    0.100154;
 38;    0.186611;    1.000233;    0.824710;    0.808764;    0.749875;    0.706211;    0.570465;    0.396802;    0.166124;    0.099664;
 39;    0.187939;    0.961879;    0.804757;    0.793470;    0.714016;    0.662869;    0.560030;    0.381260;    0.160445;    0.093793;
 40;    0.186242;    1.006386;    0.835392;    0.782481;    0.754912;    0.682438;    0.579200;    0.388707;    0.167690;    0.102191;
 41;    0.191745;    0.994803;    0.826163;    0.804423;    0.734378;    0.599709;    0.500245;    0.366512;    0.172532;    0.099303;
 42;    0.189090;    1.021464;    0.828250;    0.811331;    0.748896;    0.670477;    0.553254;    0.427362;    0.161449;    0.102392;
 43;    0.192188;    1.019811;    0.839500;    0.821007;    0.747029;    0.669238;    0.564698;    0.400067;    0.171084;    0.109159;
 44;    0.190542;    1.014786;    0.844529;    0.821837;    0.793565;    0.711898;    0.531357;    0.398191;    0.161989;    0.106474;
 45;    0.191546;    0.981111;    0.811673;    0.787712;    0.753971;    0.703923;    0.553938;    0.397173;    0.167559;    0.117179;
 46;    0.190892;    1.020170;    0.836602;    0.809319;    0.795344;    0.726437;    0.580769;    0.402362;    0.164118;    0.100504;
 47;    0.189359;    1.022180;    0.839306;    0.808432;    0.786140;    0.726920;    0.556872;    0.374166;    0.173472;    0.111860;
 48;    0.191607;    0.993921;    0.831553;    0.775212;    0.752030;    0.682304;    0.544090;    0.422329;    0.164330;    0.104725;
 49;    0.190869;    0.998344;    0.831277;    0.795579;    0.749112;    0.634167;    0.537275;    0.413884;    0.163077;    0.107582;
 50;    0.189768;    1.000830;    0.823127;    0.799726;    0.753345;    0.668567;    0.560247;    0.361700;    0.164121;    0.101620;
 51;    0.188431;    1.039181;    0.857747;    0.829808;    0.797905;    0.702802;    0.541516;    0.418754;    0.168973;    0.123794;
 52;    0.192899;    0.995596;    0.824955;    0.805448;    0.749526;    0.657505;    0.540181;    0.400387;    0.170752;    0.107822;
 53;    0.188557;    0.989652;    0.844172;    0.809844;    0.778203;    0.720463;    0.559109;    0.349975;    0.160734;    0.101144;
 54;    0.194615;    1.026157;    0.849057;    0.770923;    0.743365;    0.668460;    0.545035;    0.418963;    0.168154;    0.106349;
 55;    0.194511;    0.980921;    0.805088;    0.770941;    0.725735;    0.657177;    0.577837;    0.414988;    0.162090;    0.101548;
 56;    0.193245;    0.984135;    0.810237;    0.784004;    0.722919;    0.635848;    0.551059;    0.418625;    0.174644;    0.104766;
 57;    0.189681;    1.014477;    0.838280;    0.817717;    0.765002;    0.699725;    0.616699;    0.407937;    0.162482;    0.107684;
 58;    0.215445;    1.015380;    0.840708;    0.816591;    0.783419;    0.685841;    0.551606;    0.414351;    0.168359;    0.105167;
 59;    0.190568;    0.993909;    0.829134;    0.804091;    0.726100;    0.643349;    0.580404;    0.400183;    0.164632;    0.107431;
 60;    0.188519;    1.009337;    0.836356;    0.797809;    0.733863;    0.652863;    0.546742;    0.423520;    0.162323;    0.095153;
 61;    0.191279;    0.983059;    0.815322;    0.787826;    0.748008;    0.679930;    0.557870;    0.425155;    0.171921;    0.101563;
 62;    0.192760;    0.988839;    0.817979;    0.791137;    0.739714;    0.656357;    0.563535;    0.417063;    0.162550;    0.104891;
 63;    0.185883;    1.004735;    0.818114;    0.785963;    0.726820;    0.640945;    0.565062;    0.418906;    0.157274;    0.100569;
 64;    0.190977;    1.007595;    0.834320;    0.801557;    0.705759;    0.667968;    0.581389;    0.394767;    0.166433;    0.111608;
 65;    0.188245;    0.980545;    0.817680;    0.795832;    0.762083;    0.673356;    0.486695;    0.382460;    0.152572;    0.094886;
 66;    0.190896;    1.001413;    0.835579;    0.792493;    0.717165;    0.682136;    0.577103;    0.411436;    0.170013;    0.105989;
 67;    0.189590;    0.987875;    0.830441;    0.793835;    0.743018;    0.636456;    0.496808;    0.375590;    0.185147;    0.111539;
 68;    0.188784;    1.004038;    0.829732;    0.795862;    0.756990;    0.661123;    0.573768;    0.428162;    0.154011;    0.094464;
 69;    0.187384;    0.978442;    0.820712;    0.807236;    0.755841;    0.675551;    0.566093;    0.332227;    0.159202;    0.095734;
 70;    0.191315;    1.017738;    0.845341;    0.813531;    0.765042;    0.682110;    0.587216;    0.400176;    0.165231;    0.098744;
 71;    0.191550;    1.001842;    0.826391;    0.749594;    0.712156;    0.647138;    0.552558;    0.435370;    0.166062;    0.104940;
 72;    0.193786;    1.007487;    0.828748;    0.819369;    0.748190;    0.709043;    0.612928;    0.408068;    0.170470;    0.104339;
 73;    0.187585;    1.037338;    0.855060;    0.835370;    0.805009;    0.736551;    0.585672;    0.449934;    0.170146;    0.113705;
 74;    0.191009;    1.008891;    0.820404;    0.791473;    0.736567;    0.665992;    0.529892;    0.391010;    0.154182;    0.092736;
 75;    0.211570;    0.999529;    0.826737;    0.788094;    0.746787;    0.673913;    0.553258;    0.377597;    0.160479;    0.106076;
 76;    0.189465;    1.012587;    0.827710;    0.805597;    0.766998;    0.698052;    0.575576;    0.426519;    0.165242;    0.101637;
 77;    0.189240;    0.963938;    0.799704;    0.760635;    0.734611;    0.615552;    0.525080;    0.388375;    0.166922;    0.101389;
 78;    0.189960;    0.988512;    0.829073;    0.811559;    0.761723;    0.686056;    0.582475;    0.372185;    0.160838;    0.112449;
 79;    0.190486;    1.008865;    0.836515;    0.801148;    0.767131;    0.667809;    0.587609;    0.422494;    0.170278;    0.106811;
 80;    0.190159;    0.989239;    0.809817;    0.793315;    0.754561;    0.651307;    0.540961;    0.397248;    0.152287;    0.093769;
 81;    0.187688;    0.989314;    0.820877;    0.773472;    0.736848;    0.682488;    0.588378;    0.428669;    0.168852;    0.117815;
 82;    0.188004;    0.982510;    0.811525;    0.806678;    0.724673;    0.684166;    0.573927;    0.381153;    0.162518;    0.110840;
 83;    0.195314;    0.960318;    0.802553;    0.776889;    0.749532;    0.666776;    0.545966;    0.342694;    0.158696;    0.099701;
 84;    0.188808;    0.986410;    0.835395;    0.807330;    0.768096;    0.655042;    0.542385;    0.397837;    0.169368;    0.105828;
 85;    0.193008;    1.000396;    0.840034;    0.786140;    0.771542;    0.717731;    0.593664;    0.447852;    0.167340;    0.112770;
 86;    0.185561;    1.009876;    0.821543;    0.790902;    0.749472;    0.713990;    0.571576;    0.379953;    0.156535;    0.097989;
 87;    0.191775;    0.990919;    0.810778;    0.762695;    0.727809;    0.644411;    0.554960;    0.403354;    0.161174;    0.102243;
 88;    0.189322;    1.024389;    0.836893;    0.812680;    0.762487;    0.714569;    0.621135;    0.477554;    0.155700;    0.096724;
 89;    0.191041;    1.019615;    0.846612;    0.821547;    0.752642;    0.682880;    0.579716;    0.402401;    0.169093;    0.105386;
 90;    0.224903;    0.985275;    0.820038;    0.798824;    0.771518;    0.664281;    0.516737;    0.377961;    0.162376;    0.109626;
 91;    0.188743;    1.016537;    0.838539;    0.821969;    0.786128;    0.688007;    0.559488;    0.443069;    0.169096;    0.116484;
 92;    0.188885;    0.987610;    0.816441;    0.794308;    0.713853;    0.648068;    0.537368;    0.324438;    0.161384;    0.102644;
 93;    0.192936;    1.005881;    0.835296;    0.814768;    0.766942;    0.726101;    0.593206;    0.377052;    0.159606;    0.102942;
 94;    0.192168;    1.001412;    0.829037;    0.800876;    0.749063;    0.681095;    0.608126;    0.412010;    0.169364;    0.107384;
 95;    0.191655;    1.013858;    0.835802;    0.821864;    0.762581;    0.660321;    0.550311;    0.367293;    0.173159;    0.115365;
 96;    0.192158;    1.009737;    0.823594;    0.806331;    0.786940;    0.721394;    0.595542;    0.358835;    0.157678;    0.104212;
 97;    0.186386;    1.021504;    0.860681;    0.850048;    0.796341;    0.705463;    0.600591;    0.418446;    0.178188;    0.103163;
 98;    0.188394;    1.001548;    0.832423;    0.828522;    0.775411;    0.698419;    0.534684;    0.371424;    0.165452;    0.101163;
 99;    0.191807;    0.983666;    0.800178;    0.777901;    0.735531;    0.671939;    0.561069;    0.385711;    0.165915;    0.108347;
100;    0.191453;    0.982954;    0.806727;    0.780344;    0.758210;    0.670044;    0.569610;    0.429556;    0.163800;    0.115917;
