Simulation;Time;PC0;PC1;PC2;PC3;PC4;PC5;PC6;PC7;PC8;
Nan;Nan;0;0;0;0;0;0;0;1;0;
  0;    0.009947;    0.127114;    0.126393;    0.126364;    0.126451;    0.126589;    0.126518;    0.126160;    0.125989;    0.126014;
  1;    0.011056;    0.128242;    0.127516;    0.127421;    0.127467;    0.127317;    0.127389;    0.127169;    0.127080;    0.127116;
  2;    0.008919;    0.128996;    0.128399;    0.128398;    0.128414;    0.128330;    0.128274;    0.128324;    0.128176;    0.128190;
  3;    0.008935;    0.128202;    0.127691;    0.127816;    0.127687;    0.127715;    0.127824;    0.127631;    0.127504;    0.127523;
  4;    0.009694;    0.129284;    0.128659;    0.128781;    0.128665;    0.128651;    0.128442;    0.128391;    0.128283;    0.128291;
  5;    0.009682;    0.127546;    0.126816;    0.126907;    0.127025;    0.126916;    0.126871;    0.126726;    0.126615;    0.126635;
  6;    0.010192;    0.127740;    0.127087;    0.127170;    0.127083;    0.126920;    0.126955;    0.126850;    0.126650;    0.126654;
  7;    0.009892;    0.128736;    0.128034;    0.128104;    0.128047;    0.128041;    0.127925;    0.127948;    0.127808;    0.127800;
  8;    0.009884;    0.127317;    0.126669;    0.126716;    0.126835;    0.126647;    0.126743;    0.126766;    0.126494;    0.126514;
  9;    0.009800;    0.128386;    0.127792;    0.127825;    0.127864;    0.128001;    0.127929;    0.127796;    0.127489;    0.127525;
 10;    0.011976;    0.128535;    0.127899;    0.128017;    0.127898;    0.128061;    0.127950;    0.127853;    0.127578;    0.127588;
 11;    0.008928;    0.127450;    0.126865;    0.126940;    0.126913;    0.126840;    0.126772;    0.126641;    0.126532;    0.126553;
 12;    0.008956;    0.126988;    0.126466;    0.126491;    0.126666;    0.126448;    0.126378;    0.126399;    0.126330;    0.126344;
 13;    0.011340;    0.127640;    0.126795;    0.126808;    0.126786;    0.126845;    0.126851;    0.126886;    0.126509;    0.126525;
 14;    0.009022;    0.126732;    0.126110;    0.126135;    0.126158;    0.126125;    0.126012;    0.125831;    0.125769;    0.125776;
 15;    0.008980;    0.127672;    0.126681;    0.126617;    0.126586;    0.126631;    0.126631;    0.126406;    0.126306;    0.126301;
 16;    0.010751;    0.128263;    0.127736;    0.127672;    0.127658;    0.127674;    0.127785;    0.127700;    0.127474;    0.127486;
 17;    0.009075;    0.127095;    0.126494;    0.126453;    0.126368;    0.126246;    0.126168;    0.126159;    0.126038;    0.126051;
 18;    0.009218;    0.126618;    0.126130;    0.126284;    0.126122;    0.126148;    0.126200;    0.125999;    0.125835;    0.125852;
 19;    0.009022;    0.127115;    0.126342;    0.126334;    0.126404;    0.126415;    0.126264;    0.126177;    0.126096;    0.126116;
 20;    0.010044;    0.128288;    0.127414;    0.127445;    0.127606;    0.127422;    0.127510;    0.127461;    0.127143;    0.127165;
 21;    0.011102;    0.128011;    0.127092;    0.127117;    0.127128;    0.127050;    0.127017;    0.126954;    0.126704;    0.126705;
 22;    0.010950;    0.128746;    0.128021;    0.128008;    0.128007;    0.127832;    0.127909;    0.127829;    0.127614;    0.127636;
 23;    0.008832;    0.127500;    0.126815;    0.126943;    0.126985;    0.126845;    0.126800;    0.126793;    0.126632;    0.126652;
 24;    0.012588;    0.129085;    0.128406;    0.128403;    0.128375;    0.128546;    0.128575;    0.128351;    0.128171;    0.128155;
 25;    0.008838;    0.127120;    0.126524;    0.126575;    0.126629;    0.126530;    0.126558;    0.126517;    0.126370;    0.126387;
 26;    0.011412;    0.128568;    0.127931;    0.127965;    0.127943;    0.128051;    0.127906;    0.127840;    0.127689;    0.127703;
 27;    0.008929;    0.128243;    0.127376;    0.127311;    0.127335;    0.127398;    0.127325;    0.127224;    0.127093;    0.127099;
 28;    0.009857;    0.128553;    0.127670;    0.127656;    0.127659;    0.127772;    0.127665;    0.127702;    0.127426;    0.127436;
 29;    0.010658;    0.129246;    0.128232;    0.128315;    0.128303;    0.128317;    0.128184;    0.128095;    0.127989;    0.128012;
 30;    0.008891;    0.128372;    0.127602;    0.127738;    0.127784;    0.127723;    0.127679;    0.127660;    0.127364;    0.127375;
 31;    0.008827;    0.127794;    0.127033;    0.127078;    0.127042;    0.127080;    0.127106;    0.126925;    0.126841;    0.126859;
 32;    0.009017;    0.127530;    0.126995;    0.126963;    0.126928;    0.127079;    0.127106;    0.126837;    0.126787;    0.126776;
 33;    0.009080;    0.127929;    0.126971;    0.127024;    0.126942;    0.126889;    0.127032;    0.127070;    0.126822;    0.126816;
 34;    0.009200;    0.128640;    0.127736;    0.127867;    0.127795;    0.127865;    0.127822;    0.127814;    0.127702;    0.127707;
 35;    0.008868;    0.128169;    0.127544;    0.127597;    0.127529;    0.127617;    0.127428;    0.127347;    0.127255;    0.127258;
 36;    0.009074;    0.126927;    0.126472;    0.126507;    0.126507;    0.126696;    0.126636;    0.126347;    0.126164;    0.126180;
 37;    0.010907;    0.127274;    0.126661;    0.126615;    0.126754;    0.126625;    0.126575;    0.126450;    0.126387;    0.126380;
 38;    0.008963;    0.127692;    0.126912;    0.127017;    0.126848;    0.126929;    0.126873;    0.126669;    0.126621;    0.126630;
 39;    0.008945;    0.126025;    0.125456;    0.125565;    0.125445;    0.125453;    0.125321;    0.125203;    0.125071;    0.125066;
 40;    0.008812;    0.128011;    0.127328;    0.127324;    0.127435;    0.127444;    0.127280;    0.127181;    0.127021;    0.127035;
 41;    0.009585;    0.127556;    0.126863;    0.126942;    0.126958;    0.126856;    0.126799;    0.126774;    0.126743;    0.126738;
 42;    0.011227;    0.128436;    0.127399;    0.127517;    0.127564;    0.127534;    0.127336;    0.127277;    0.127037;    0.127050;
 43;    0.009024;    0.128555;    0.127772;    0.127817;    0.127866;    0.127838;    0.127690;    0.127615;    0.127535;    0.127557;
 44;    0.011827;    0.128374;    0.127738;    0.127727;    0.127858;    0.127754;    0.127697;    0.127710;    0.127403;    0.127418;
 45;    0.010699;    0.126876;    0.126095;    0.126045;    0.126063;    0.126198;    0.126080;    0.125970;    0.125861;    0.125883;
 46;    0.009231;    0.128491;    0.127647;    0.127566;    0.127750;    0.127719;    0.127615;    0.127451;    0.127289;    0.127307;
 47;    0.009566;    0.128660;    0.127816;    0.127891;    0.128045;    0.128031;    0.127854;    0.127799;    0.127654;    0.127664;
 48;    0.009028;    0.127488;    0.126915;    0.126865;    0.126936;    0.126993;    0.126795;    0.126861;    0.126541;    0.126559;
 49;    0.009843;    0.127655;    0.126966;    0.126976;    0.126874;    0.126788;    0.126821;    0.126854;    0.126565;    0.126580;
 50;    0.009646;    0.127678;    0.126838;    0.126842;    0.126920;    0.126803;    0.126807;    0.126657;    0.126559;    0.126574;
 51;    0.008871;    0.129399;    0.128616;    0.128577;    0.128661;    0.128589;    0.128546;    0.128650;    0.128302;    0.128325;
 52;    0.008957;    0.127557;    0.126822;    0.126900;    0.126956;    0.126839;    0.126790;    0.126603;    0.126572;    0.126584;
 53;    0.009283;    0.127431;    0.127053;    0.127014;    0.127034;    0.127177;    0.126924;    0.126842;    0.126693;    0.126696;
 54;    0.008990;    0.128841;    0.128117;    0.128053;    0.128121;    0.128136;    0.128060;    0.127960;    0.127773;    0.127790;
 55;    0.009022;    0.126788;    0.125898;    0.125927;    0.125931;    0.125869;    0.125840;    0.125808;    0.125686;    0.125709;
 56;    0.008978;    0.127021;    0.126223;    0.126230;    0.126247;    0.126072;    0.126062;    0.126091;    0.126005;    0.126010;
 57;    0.009001;    0.128277;    0.127538;    0.127561;    0.127569;    0.127496;    0.127540;    0.127377;    0.127163;    0.127177;
 58;    0.009299;    0.128396;    0.127656;    0.127645;    0.127734;    0.127769;    0.127645;    0.127566;    0.127403;    0.127420;
 59;    0.009045;    0.127466;    0.126845;    0.126832;    0.126764;    0.126663;    0.126701;    0.126631;    0.126485;    0.126513;
 60;    0.009320;    0.128092;    0.127398;    0.127443;    0.127406;    0.127466;    0.127405;    0.127424;    0.127061;    0.127040;
 61;    0.008924;    0.127040;    0.126321;    0.126364;    0.126344;    0.126318;    0.126391;    0.126396;    0.126230;    0.126233;
 62;    0.009588;    0.127204;    0.126446;    0.126444;    0.126513;    0.126438;    0.126269;    0.126210;    0.126152;    0.126153;
 63;    0.008946;    0.127719;    0.126809;    0.126783;    0.126712;    0.126666;    0.126657;    0.126705;    0.126393;    0.126411;
 64;    0.009256;    0.128064;    0.127342;    0.127431;    0.127335;    0.127424;    0.127384;    0.127334;    0.127153;    0.127176;
 65;    0.009072;    0.126783;    0.126206;    0.126210;    0.126212;    0.126292;    0.126131;    0.125960;    0.125712;    0.125722;
 66;    0.011121;    0.127866;    0.127239;    0.127277;    0.127319;    0.127446;    0.127429;    0.127298;    0.127093;    0.127107;
 67;    0.009191;    0.127434;    0.126864;    0.126904;    0.126988;    0.126831;    0.126767;    0.126772;    0.126714;    0.126709;
 68;    0.009133;    0.127766;    0.127052;    0.127012;    0.127077;    0.126997;    0.126925;    0.126977;    0.126604;    0.126618;
 69;    0.009054;    0.126797;    0.126271;    0.126311;    0.126345;    0.126370;    0.126382;    0.126189;    0.125988;    0.125996;
 70;    0.009754;    0.128502;    0.127828;    0.127814;    0.127792;    0.127709;    0.127694;    0.127644;    0.127473;    0.127461;
 71;    0.008949;    0.127774;    0.127003;    0.126953;    0.127020;    0.127076;    0.127046;    0.127016;    0.126769;    0.126783;
 72;    0.008954;    0.128025;    0.127214;    0.127367;    0.127325;    0.127416;    0.127390;    0.127156;    0.127046;    0.127052;
 73;    0.009175;    0.129318;    0.128544;    0.128553;    0.128575;    0.128577;    0.128553;    0.128611;    0.128317;    0.128333;
 74;    0.009021;    0.127860;    0.126916;    0.126926;    0.126982;    0.126841;    0.126775;    0.126712;    0.126462;    0.126464;
 75;    0.010756;    0.127626;    0.126910;    0.126887;    0.126861;    0.126937;    0.126924;    0.126765;    0.126584;    0.126597;
 76;    0.008940;    0.128150;    0.127267;    0.127301;    0.127254;    0.127233;    0.127133;    0.127181;    0.126939;    0.126956;
 77;    0.009076;    0.126139;    0.125412;    0.125337;    0.125513;    0.125333;    0.125386;    0.125292;    0.125239;    0.125237;
 78;    0.009757;    0.127262;    0.126708;    0.126705;    0.126731;    0.126594;    0.126534;    0.126411;    0.126285;    0.126305;
 79;    0.009810;    0.128121;    0.127453;    0.127380;    0.127464;    0.127347;    0.127406;    0.127308;    0.127109;    0.127126;
 80;    0.009739;    0.127022;    0.126181;    0.126305;    0.126314;    0.126236;    0.126060;    0.126087;    0.125741;    0.125749;
 81;    0.008998;    0.127260;    0.126562;    0.126586;    0.126540;    0.126641;    0.126595;    0.126558;    0.126332;    0.126355;
 82;    0.009273;    0.126883;    0.126152;    0.126303;    0.126256;    0.126381;    0.126331;    0.126133;    0.125957;    0.125976;
 83;    0.009105;    0.125960;    0.125337;    0.125332;    0.125495;    0.125423;    0.125413;    0.125251;    0.125119;    0.125122;
 84;    0.009183;    0.127304;    0.126855;    0.126908;    0.126901;    0.126820;    0.126799;    0.126735;    0.126600;    0.126616;
 85;    0.008956;    0.127838;    0.127280;    0.127305;    0.127488;    0.127500;    0.127308;    0.127325;    0.127052;    0.127072;
 86;    0.009069;    0.127939;    0.126987;    0.126960;    0.126969;    0.127075;    0.126968;    0.126782;    0.126607;    0.126624;
 87;    0.008852;    0.127163;    0.126303;    0.126351;    0.126422;    0.126320;    0.126432;    0.126086;    0.125919;    0.125936;
 88;    0.009724;    0.128579;    0.127707;    0.127713;    0.127731;    0.127916;    0.128008;    0.128023;    0.127335;    0.127358;
 89;    0.009030;    0.128605;    0.127946;    0.128018;    0.127922;    0.127894;    0.127790;    0.127712;    0.127653;    0.127670;
 90;    0.009662;    0.127075;    0.126413;    0.126402;    0.126570;    0.126511;    0.126402;    0.126399;    0.126182;    0.126208;
 91;    0.008924;    0.128445;    0.127679;    0.127763;    0.127799;    0.127684;    0.127547;    0.127486;    0.127392;    0.127402;
 92;    0.009913;    0.127114;    0.126385;    0.126378;    0.126395;    0.126372;    0.126251;    0.126194;    0.126046;    0.126061;
 93;    0.009656;    0.127941;    0.127297;    0.127316;    0.127376;    0.127486;    0.127341;    0.127209;    0.126946;    0.126950;
 94;    0.009920;    0.127797;    0.127087;    0.127073;    0.127024;    0.126977;    0.126977;    0.126870;    0.126775;    0.126798;
 95;    0.009705;    0.128349;    0.127560;    0.127614;    0.127538;    0.127557;    0.127588;    0.127469;    0.127400;    0.127416;
 96;    0.008853;    0.127957;    0.127047;    0.127130;    0.127245;    0.127260;    0.127255;    0.126991;    0.126740;    0.126756;
 97;    0.009046;    0.128859;    0.128339;    0.128403;    0.128287;    0.128258;    0.128321;    0.128125;    0.128017;    0.128028;
 98;    0.009654;    0.127806;    0.127159;    0.127325;    0.127292;    0.127152;    0.127193;    0.127117;    0.126882;    0.126897;
 99;    0.008825;    0.126873;    0.125883;    0.125903;    0.125986;    0.126042;    0.126080;    0.125985;    0.125781;    0.125792;
100;    0.008878;    0.126894;    0.126029;    0.126049;    0.126195;    0.126039;    0.125983;    0.125946;    0.125763;    0.125789;
