Simulation;Time;PC0;PC1;PC2;PC3;PC4;PC5;PC6;PC7;PC8;
Nan;Nan;0;1;0;0;0;0;0;0;0;
  0;    0.187704;    0.988377;    0.552973;    0.592735;    0.627264;    0.657280;    0.656269;    0.639615;    0.611469;    0.586097;
  1;    0.167225;    1.011890;    0.566674;    0.604759;    0.645291;    0.655375;    0.653977;    0.668607;    0.637509;    0.610824;
  2;    0.164850;    1.012934;    0.583015;    0.625632;    0.677365;    0.697340;    0.680668;    0.682151;    0.662023;    0.639149;
  3;    0.166163;    0.986669;    0.575679;    0.614696;    0.662743;    0.663276;    0.681464;    0.672995;    0.643313;    0.621345;
  4;    0.176081;    1.024921;    0.583694;    0.636582;    0.663152;    0.678799;    0.677164;    0.690419;    0.655281;    0.623048;
  5;    0.163356;    1.002993;    0.559131;    0.601629;    0.631319;    0.657630;    0.667608;    0.672599;    0.654893;    0.614050;
  6;    0.167847;    0.996774;    0.561939;    0.604609;    0.632627;    0.635453;    0.646056;    0.654124;    0.634321;    0.606460;
  7;    0.179964;    1.021751;    0.576685;    0.614067;    0.646278;    0.660729;    0.685596;    0.662633;    0.641910;    0.608292;
  8;    0.165279;    0.987817;    0.559860;    0.601823;    0.636606;    0.660005;    0.669426;    0.644654;    0.641408;    0.601946;
  9;    0.164783;    0.998411;    0.573415;    0.617578;    0.653102;    0.695400;    0.705490;    0.680164;    0.664958;    0.644088;
 10;    0.165668;    1.004826;    0.573529;    0.621574;    0.650522;    0.681397;    0.680476;    0.681433;    0.668386;    0.628646;
 11;    0.165435;    0.977386;    0.561992;    0.615977;    0.648609;    0.652729;    0.673941;    0.655899;    0.654335;    0.606790;
 12;    0.165504;    0.959287;    0.561229;    0.612868;    0.639838;    0.640456;    0.657409;    0.647388;    0.621864;    0.613285;
 13;    0.166212;    1.015971;    0.556461;    0.598491;    0.625514;    0.652828;    0.665736;    0.660073;    0.649611;    0.597343;
 14;    0.165464;    0.969005;    0.551982;    0.594246;    0.626578;    0.654658;    0.660310;    0.638810;    0.610022;    0.577418;
 15;    0.167259;    1.035110;    0.551896;    0.589865;    0.616582;    0.638770;    0.650666;    0.635462;    0.619570;    0.591917;
 16;    0.165117;    0.996129;    0.574984;    0.611207;    0.643637;    0.655671;    0.680700;    0.676026;    0.659951;    0.624393;
 17;    0.165367;    0.970477;    0.557099;    0.597257;    0.618327;    0.632342;    0.641923;    0.641624;    0.619793;    0.594334;
 18;    0.166670;    0.946003;    0.555854;    0.595029;    0.622550;    0.650736;    0.663408;    0.640888;    0.650385;    0.624936;
 19;    0.166497;    0.994795;    0.552708;    0.594783;    0.627871;    0.655870;    0.656635;    0.655434;    0.631137;    0.591212;
 20;    0.165189;    1.036975;    0.562025;    0.602834;    0.655697;    0.664730;    0.678383;    0.682938;    0.666489;    0.624489;
 21;    0.165565;    1.025612;    0.557985;    0.599595;    0.633561;    0.659408;    0.660841;    0.648824;    0.638457;    0.605800;
 22;    0.167239;    1.025551;    0.573391;    0.615681;    0.643865;    0.652671;    0.656908;    0.671073;    0.658946;    0.618420;
 23;    0.166845;    0.992641;    0.561174;    0.617401;    0.664833;    0.676030;    0.655882;    0.643952;    0.641858;    0.603588;
 24;    0.169044;    1.026413;    0.580090;    0.631767;    0.664337;    0.679876;    0.690946;    0.687604;    0.678108;    0.630081;
 25;    0.164702;    0.975208;    0.559528;    0.601166;    0.638173;    0.658268;    0.672497;    0.656111;    0.628928;    0.600275;
 26;    0.189315;    1.009921;    0.574968;    0.612625;    0.647426;    0.687320;    0.700594;    0.688114;    0.651715;    0.640978;
 27;    0.166834;    1.027680;    0.563440;    0.594678;    0.629477;    0.665534;    0.688693;    0.683387;    0.646165;    0.627953;
 28;    0.167597;    1.038328;    0.567816;    0.621820;    0.643285;    0.658476;    0.659988;    0.655560;    0.650781;    0.613661;
 29;    0.166532;    1.070349;    0.572423;    0.615629;    0.650069;    0.678207;    0.696738;    0.677705;    0.648074;    0.611293;
 30;    0.165571;    1.020977;    0.567569;    0.619179;    0.650253;    0.675399;    0.683675;    0.693040;    0.672733;    0.621024;
 31;    0.165720;    1.010461;    0.561260;    0.602823;    0.643844;    0.663987;    0.677080;    0.654752;    0.643021;    0.609905;
 32;    0.163706;    0.970828;    0.567184;    0.605018;    0.636179;    0.655358;    0.651011;    0.664448;    0.640230;    0.609810;
 33;    0.164298;    1.032169;    0.558379;    0.598630;    0.633425;    0.649612;    0.653892;    0.652117;    0.656519;    0.624019;
 34;    0.162746;    1.045828;    0.569832;    0.617353;    0.638886;    0.662884;    0.679690;    0.675712;    0.655444;    0.631302;
 35;    0.166415;    0.999887;    0.570004;    0.620664;    0.650450;    0.663396;    0.669272;    0.662079;    0.653329;    0.624753;
 36;    0.166079;    0.943171;    0.561290;    0.602914;    0.638148;    0.658072;    0.678188;    0.659527;    0.645885;    0.624082;
 37;    0.166878;    0.979222;    0.559302;    0.595001;    0.622288;    0.650735;    0.656541;    0.657430;    0.636781;    0.597911;
 38;    0.164338;    1.007419;    0.559533;    0.606606;    0.634622;    0.651446;    0.671998;    0.659796;    0.652595;    0.597491;
 39;    0.166009;    0.946408;    0.544538;    0.586069;    0.623199;    0.631262;    0.638697;    0.641119;    0.605488;    0.576418;
 40;    0.163937;    1.002468;    0.565849;    0.600171;    0.640705;    0.663825;    0.678538;    0.675160;    0.637721;    0.609075;
 41;    0.166098;    0.999910;    0.561532;    0.606248;    0.633767;    0.664092;    0.654600;    0.670001;    0.645559;    0.602811;
 42;    0.167097;    1.048099;    0.560175;    0.605539;    0.645774;    0.663935;    0.661623;    0.661806;    0.651621;    0.607189;
 43;    0.165614;    1.032192;    0.569799;    0.609895;    0.651987;    0.676017;    0.681712;    0.689344;    0.652978;    0.620465;
 44;    0.167248;    1.004253;    0.571340;    0.613490;    0.656363;    0.673552;    0.689187;    0.682249;    0.658556;    0.620970;
 45;    0.168710;    0.986023;    0.551145;    0.589821;    0.622570;    0.649480;    0.660913;    0.656555;    0.624884;    0.600421;
 46;    0.167420;    1.033732;    0.566401;    0.607711;    0.638663;    0.661540;    0.678010;    0.668313;    0.643325;    0.612586;
 47;    0.165046;    1.039303;    0.570083;    0.610521;    0.656256;    0.689226;    0.671556;    0.663758;    0.667730;    0.617689;
 48;    0.167009;    0.977461;    0.562524;    0.598404;    0.633687;    0.663397;    0.667692;    0.655269;    0.648755;    0.604375;
 49;    0.167003;    0.985808;    0.562501;    0.604500;    0.633520;    0.630246;    0.645678;    0.651653;    0.643823;    0.608096;
 50;    0.166620;    1.010407;    0.557660;    0.601547;    0.631841;    0.645862;    0.649396;    0.654844;    0.629664;    0.582463;
 51;    0.166695;    1.041845;    0.581076;    0.623180;    0.659376;    0.680634;    0.681933;    0.683815;    0.658000;    0.626997;
 52;    0.170029;    0.999985;    0.560427;    0.603906;    0.631330;    0.657158;    0.651532;    0.653201;    0.635033;    0.598201;
 53;    0.170341;    0.942835;    0.569239;    0.609140;    0.657598;    0.684010;    0.680490;    0.672439;    0.648410;    0.632465;
 54;    0.169223;    1.026458;    0.574969;    0.611682;    0.647019;    0.670775;    0.684169;    0.688118;    0.652631;    0.617768;
 55;    0.166774;    0.995221;    0.546140;    0.592209;    0.624561;    0.651565;    0.652333;    0.659928;    0.641795;    0.597866;
 56;    0.166090;    1.002971;    0.551785;    0.592614;    0.632507;    0.635563;    0.643247;    0.628159;    0.620926;    0.604267;
 57;    0.164366;    1.012844;    0.566644;    0.609271;    0.645548;    0.664429;    0.666563;    0.653356;    0.638059;    0.622874;
 58;    0.186340;    1.015081;    0.569613;    0.607676;    0.653286;    0.671490;    0.673075;    0.690217;    0.666960;    0.634212;
 59;    0.167759;    0.980671;    0.560863;    0.608863;    0.620570;    0.648566;    0.653682;    0.653709;    0.645534;    0.627059;
 60;    0.168477;    1.003740;    0.565919;    0.607238;    0.642841;    0.661411;    0.678781;    0.670732;    0.647548;    0.598127;
 61;    0.168893;    0.988072;    0.555230;    0.596846;    0.627958;    0.649481;    0.659861;    0.652742;    0.637264;    0.606716;
 62;    0.169136;    0.990936;    0.554456;    0.594251;    0.625870;    0.647361;    0.653911;    0.653478;    0.626167;    0.598409;
 63;    0.169165;    1.025692;    0.553726;    0.593902;    0.619717;    0.645957;    0.645032;    0.658383;    0.648054;    0.612559;
 64;    0.180013;    1.009892;    0.566057;    0.617807;    0.636623;    0.669691;    0.674083;    0.681033;    0.671822;    0.625389;
 65;    0.174907;    0.962350;    0.551711;    0.591816;    0.630049;    0.654105;    0.660165;    0.652969;    0.625106;    0.586103;
 66;    0.168045;    0.993411;    0.567314;    0.622437;    0.650996;    0.654674;    0.687315;    0.690326;    0.664796;    0.617954;
 67;    0.168803;    0.979561;    0.566079;    0.601755;    0.633147;    0.663994;    0.662419;    0.644544;    0.625925;    0.599672;
 68;    0.168792;    0.998949;    0.559570;    0.596231;    0.638203;    0.646754;    0.673766;    0.673445;    0.638522;    0.609940;
 69;    0.167957;    0.957714;    0.555084;    0.599914;    0.638906;    0.663925;    0.690257;    0.685665;    0.652848;    0.602695;
 70;    0.168231;    1.011823;    0.571564;    0.605511;    0.647958;    0.663017;    0.664697;    0.659417;    0.641343;    0.617352;
 71;    0.169143;    1.008476;    0.560974;    0.584293;    0.618210;    0.648567;    0.658713;    0.675108;    0.651877;    0.621232;
 72;    0.167349;    1.021482;    0.563033;    0.613124;    0.638434;    0.674750;    0.668843;    0.668368;    0.646000;    0.631379;
 73;    0.164610;    1.046649;    0.579704;    0.631079;    0.660336;    0.703817;    0.722565;    0.698095;    0.684077;    0.647384;
 74;    0.165709;    1.027971;    0.553780;    0.592404;    0.625444;    0.643644;    0.653467;    0.653832;    0.635624;    0.597009;
 75;    0.174634;    0.999940;    0.559076;    0.601260;    0.635184;    0.654898;    0.667614;    0.666423;    0.639395;    0.610189;
 76;    0.168889;    1.033717;    0.561322;    0.608474;    0.620727;    0.638999;    0.652960;    0.651410;    0.647503;    0.612820;
 77;    0.166955;    0.967647;    0.543544;    0.579158;    0.610784;    0.639712;    0.652416;    0.632832;    0.624152;    0.579434;
 78;    0.167333;    0.966640;    0.560233;    0.599289;    0.640233;    0.654774;    0.660614;    0.647010;    0.631759;    0.603844;
 79;    0.166526;    1.007457;    0.567226;    0.594193;    0.635231;    0.657762;    0.666787;    0.648445;    0.644762;    0.604166;
 80;    0.168972;    0.998373;    0.546492;    0.592533;    0.633878;    0.641360;    0.641561;    0.645219;    0.639784;    0.589048;
 81;    0.166389;    0.988676;    0.557015;    0.603086;    0.630910;    0.652783;    0.665650;    0.669817;    0.650470;    0.606676;
 82;    0.169483;    0.988742;    0.550204;    0.593309;    0.633561;    0.651182;    0.661887;    0.663123;    0.635243;    0.598301;
 83;    0.166423;    0.946733;    0.543635;    0.584356;    0.610322;    0.640126;    0.658483;    0.651874;    0.628738;    0.594975;
 84;    0.167592;    0.955638;    0.566178;    0.610983;    0.640110;    0.656812;    0.679532;    0.676719;    0.634325;    0.614126;
 85;    0.167395;    0.980329;    0.568563;    0.613851;    0.661796;    0.685902;    0.681575;    0.695172;    0.666456;    0.629463;
 86;    0.165343;    1.031387;    0.555645;    0.590752;    0.623045;    0.652312;    0.672722;    0.663341;    0.627898;    0.601182;
 87;    0.173165;    1.006743;    0.549041;    0.585484;    0.623732;    0.630923;    0.645277;    0.629574;    0.620342;    0.601795;
 88;    0.167371;    1.036182;    0.565346;    0.607184;    0.637420;    0.682559;    0.694287;    0.689081;    0.670231;    0.616188;
 89;    0.165614;    1.016756;    0.574257;    0.621572;    0.644438;    0.666147;    0.681559;    0.692496;    0.659831;    0.613271;
 90;    0.196163;    0.977691;    0.555243;    0.591982;    0.632561;    0.654360;    0.676603;    0.658589;    0.648415;    0.624467;
 91;    0.167781;    1.022035;    0.569387;    0.622762;    0.657223;    0.659845;    0.667706;    0.668117;    0.642933;    0.618772;
 92;    0.169854;    0.989692;    0.553189;    0.594545;    0.629043;    0.639063;    0.659035;    0.639046;    0.644139;    0.606017;
 93;    0.167160;    0.996625;    0.565001;    0.611716;    0.647470;    0.687751;    0.701773;    0.669720;    0.644432;    0.612316;
 94;    0.166979;    1.005300;    0.563174;    0.606239;    0.629036;    0.653844;    0.664005;    0.650705;    0.639397;    0.605567;
 95;    0.167566;    1.026823;    0.568866;    0.605690;    0.647581;    0.661186;    0.669760;    0.652544;    0.635761;    0.595330;
 96;    0.169234;    1.027736;    0.557023;    0.602794;    0.642489;    0.671349;    0.691103;    0.671024;    0.640839;    0.601335;
 97;    0.168307;    0.998519;    0.584398;    0.619197;    0.652576;    0.662306;    0.691736;    0.688906;    0.648248;    0.630488;
 98;    0.166256;    0.996465;    0.563879;    0.605709;    0.648749;    0.656844;    0.685540;    0.667174;    0.654883;    0.616828;
 99;    0.167131;    1.013486;    0.544265;    0.588770;    0.629511;    0.642977;    0.661219;    0.666326;    0.628615;    0.594332;
100;    0.166655;    0.995605;    0.547256;    0.593569;    0.622752;    0.656228;    0.658869;    0.636646;    0.621462;    0.595225;
