Simulation;Time;PC0;PC1;PC2;PC3;PC4;PC5;PC6;PC7;PC8;
Nan;Nan;0;0;0;1;0;0;0;0;0;
  0;    0.192225;    0.990518;    0.853125;    0.740693;    0.647071;    0.589851;    0.549758;    0.451517;    0.332631;    0.180607;
  1;    0.196158;    1.020189;    0.886226;    0.751801;    0.656049;    0.614335;    0.529359;    0.469014;    0.356038;    0.205023;
  2;    0.192043;    1.036137;    0.903232;    0.780086;    0.677715;    0.648295;    0.564759;    0.480778;    0.341369;    0.191890;
  3;    0.197547;    1.003437;    0.877669;    0.787350;    0.685395;    0.639455;    0.577692;    0.504730;    0.388830;    0.231577;
  4;    0.191303;    1.035775;    0.900354;    0.799294;    0.681972;    0.638056;    0.542043;    0.467700;    0.374694;    0.210372;
  5;    0.210286;    0.995799;    0.858255;    0.747152;    0.661135;    0.624663;    0.559761;    0.492728;    0.372464;    0.242677;
  6;    0.189107;    1.003672;    0.871449;    0.744603;    0.658792;    0.587169;    0.535559;    0.459555;    0.349690;    0.190489;
  7;    0.197478;    1.022666;    0.887150;    0.775175;    0.684506;    0.626265;    0.564706;    0.490806;    0.360618;    0.202339;
  8;    0.197599;    0.986096;    0.854413;    0.750780;    0.669242;    0.602620;    0.575077;    0.506207;    0.385286;    0.216020;
  9;    0.186762;    1.011559;    0.881269;    0.768440;    0.680150;    0.625343;    0.575873;    0.485538;    0.336501;    0.189309;
 10;    0.195606;    1.019832;    0.886297;    0.769499;    0.671648;    0.629678;    0.556131;    0.476727;    0.365859;    0.227755;
 11;    0.191583;    0.992996;    0.870715;    0.748574;    0.661020;    0.612709;    0.553417;    0.461557;    0.351798;    0.209532;
 12;    0.192071;    0.982907;    0.871870;    0.745734;    0.664991;    0.627296;    0.572168;    0.476076;    0.337874;    0.177129;
 13;    0.185323;    0.998719;    0.854901;    0.751277;    0.656928;    0.608071;    0.556773;    0.476806;    0.356558;    0.208913;
 14;    0.189349;    0.981706;    0.855715;    0.745250;    0.646365;    0.602509;    0.543270;    0.428834;    0.293515;    0.152107;
 15;    0.185083;    1.003548;    0.848399;    0.747938;    0.645656;    0.586370;    0.520595;    0.433239;    0.351859;    0.175397;
 16;    0.206173;    1.011841;    0.891256;    0.772742;    0.679728;    0.631835;    0.559738;    0.475665;    0.384152;    0.242931;
 17;    0.187831;    0.982960;    0.856632;    0.762319;    0.653146;    0.606609;    0.519650;    0.449770;    0.353744;    0.200283;
 18;    0.183695;    0.966671;    0.848521;    0.750126;    0.664127;    0.618014;    0.524716;    0.460198;    0.339504;    0.207030;
 19;    0.186447;    0.982839;    0.843359;    0.731932;    0.662076;    0.610391;    0.566788;    0.483909;    0.374744;    0.209651;
 20;    0.189721;    1.016124;    0.865130;    0.757842;    0.659675;    0.629918;    0.578735;    0.506257;    0.383176;    0.215931;
 21;    0.183965;    1.005111;    0.855896;    0.751620;    0.659544;    0.608313;    0.538502;    0.456410;    0.342436;    0.182822;
 22;    0.187267;    1.017658;    0.875248;    0.766955;    0.681601;    0.622684;    0.568072;    0.445428;    0.348421;    0.207495;
 23;    0.190595;    0.991678;    0.859600;    0.746092;    0.671367;    0.643956;    0.562575;    0.481528;    0.360634;    0.221488;
 24;    0.185733;    1.033214;    0.900818;    0.778360;    0.680163;    0.646342;    0.579451;    0.483160;    0.368780;    0.211696;
 25;    0.192016;    0.990134;    0.866609;    0.749984;    0.658105;    0.620067;    0.550081;    0.443132;    0.327038;    0.185242;
 26;    0.192656;    1.013411;    0.880812;    0.772534;    0.683008;    0.642651;    0.584943;    0.512070;    0.379541;    0.220054;
 27;    0.200499;    1.008242;    0.861802;    0.758217;    0.671053;    0.625344;    0.548447;    0.491662;    0.372964;    0.205502;
 28;    0.192226;    1.016447;    0.868327;    0.761379;    0.675160;    0.641367;    0.596195;    0.494484;    0.379081;    0.206861;
 29;    0.185060;    1.035548;    0.877360;    0.770087;    0.678173;    0.634452;    0.575145;    0.470535;    0.346054;    0.187292;
 30;    0.186789;    1.014872;    0.871085;    0.766753;    0.671044;    0.630571;    0.562298;    0.478868;    0.378100;    0.226111;
 31;    0.190015;    1.008238;    0.869103;    0.743960;    0.658159;    0.619883;    0.564123;    0.464865;    0.364314;    0.174878;
 32;    0.187023;    1.000591;    0.888870;    0.751102;    0.661056;    0.624705;    0.515584;    0.465057;    0.367202;    0.201413;
 33;    0.184734;    1.009085;    0.858592;    0.742367;    0.660569;    0.615261;    0.563363;    0.455130;    0.341039;    0.212669;
 34;    0.188583;    1.025858;    0.875763;    0.764598;    0.671398;    0.638092;    0.555812;    0.484574;    0.361753;    0.220587;
 35;    0.188353;    1.006942;    0.878682;    0.760631;    0.673704;    0.637402;    0.554256;    0.466103;    0.347562;    0.229148;
 36;    0.196069;    0.983333;    0.874528;    0.757769;    0.655658;    0.611080;    0.548558;    0.420981;    0.328597;    0.201228;
 37;    0.192255;    0.997628;    0.870675;    0.754628;    0.646981;    0.604328;    0.528779;    0.450545;    0.322057;    0.152876;
 38;    0.189406;    0.997483;    0.857083;    0.746637;    0.664903;    0.617413;    0.545485;    0.462526;    0.347719;    0.180759;
 39;    0.186473;    0.960841;    0.840194;    0.733598;    0.640625;    0.603948;    0.525386;    0.424865;    0.327269;    0.199215;
 40;    0.190303;    1.016271;    0.887969;    0.750497;    0.654259;    0.619078;    0.576147;    0.503886;    0.368650;    0.206356;
 41;    0.188160;    0.999178;    0.868219;    0.742982;    0.667884;    0.608952;    0.516810;    0.400367;    0.285860;    0.172359;
 42;    0.192599;    1.018969;    0.859703;    0.754124;    0.657176;    0.603928;    0.540092;    0.466677;    0.359453;    0.197407;
 43;    0.185995;    1.018221;    0.873788;    0.766255;    0.673430;    0.627801;    0.560076;    0.491220;    0.378434;    0.211532;
 44;    0.191881;    1.012270;    0.882115;    0.757636;    0.677190;    0.637656;    0.587196;    0.505449;    0.377453;    0.207903;
 45;    0.188914;    0.978142;    0.842109;    0.737511;    0.654620;    0.617313;    0.567758;    0.507393;    0.367551;    0.161869;
 46;    0.186915;    1.016377;    0.869515;    0.761115;    0.670887;    0.615546;    0.549611;    0.454326;    0.340384;    0.217507;
 47;    0.191791;    1.017758;    0.870118;    0.772703;    0.681479;    0.631235;    0.566758;    0.457119;    0.363105;    0.197391;
 48;    0.223104;    0.984546;    0.856295;    0.759620;    0.673122;    0.612096;    0.555381;    0.470852;    0.341346;    0.212401;
 49;    0.192469;    0.989172;    0.854414;    0.757960;    0.671471;    0.616349;    0.543013;    0.420307;    0.352897;    0.206383;
 50;    0.188740;    1.002567;    0.859427;    0.743684;    0.656357;    0.600949;    0.553307;    0.471768;    0.358208;    0.191210;
 51;    0.189982;    1.035660;    0.888926;    0.786748;    0.688875;    0.629208;    0.568223;    0.451646;    0.348180;    0.225478;
 52;    0.189706;    1.004564;    0.870780;    0.752102;    0.650159;    0.607860;    0.551291;    0.468158;    0.337241;    0.161069;
 53;    0.189913;    0.995156;    0.895496;    0.753417;    0.663420;    0.628718;    0.544239;    0.465117;    0.298981;    0.194562;
 54;    0.185252;    1.033512;    0.903883;    0.750325;    0.672402;    0.626103;    0.560583;    0.475414;    0.375627;    0.236057;
 55;    0.187039;    0.979916;    0.836263;    0.732805;    0.647671;    0.621274;    0.541060;    0.456806;    0.337192;    0.188208;
 56;    0.189472;    0.995655;    0.856804;    0.732053;    0.641521;    0.589578;    0.520914;    0.404361;    0.310918;    0.192371;
 57;    0.191410;    1.018369;    0.879330;    0.754090;    0.659120;    0.602586;    0.541110;    0.479321;    0.353436;    0.225950;
 58;    0.188871;    1.014735;    0.877341;    0.756966;    0.676819;    0.619216;    0.562245;    0.459565;    0.369061;    0.236561;
 59;    0.186620;    0.996628;    0.868032;    0.763119;    0.653473;    0.587739;    0.539558;    0.462878;    0.343810;    0.214066;
 60;    0.191130;    1.003575;    0.867500;    0.756431;    0.674240;    0.591228;    0.533124;    0.462168;    0.315475;    0.171169;
 61;    0.190193;    0.986589;    0.854440;    0.736962;    0.659860;    0.621219;    0.569913;    0.471121;    0.350238;    0.195904;
 62;    0.190278;    0.989750;    0.853678;    0.751855;    0.650619;    0.609035;    0.543383;    0.459850;    0.344111;    0.201143;
 63;    0.189811;    1.007196;    0.855140;    0.730290;    0.646895;    0.606316;    0.534339;    0.447415;    0.355000;    0.183598;
 64;    0.186539;    1.009201;    0.870066;    0.767761;    0.663530;    0.605278;    0.561231;    0.460156;    0.364518;    0.195394;
 65;    0.192743;    0.976192;    0.850262;    0.734395;    0.652008;    0.603919;    0.534929;    0.419325;    0.298595;    0.156104;
 66;    0.190207;    0.999659;    0.869857;    0.760869;    0.675556;    0.648454;    0.575091;    0.454403;    0.361799;    0.202878;
 67;    0.188790;    0.986675;    0.864610;    0.757655;    0.678732;    0.629474;    0.574024;    0.499156;    0.375660;    0.162265;
 68;    0.186043;    0.995993;    0.857978;    0.749258;    0.662092;    0.604910;    0.517925;    0.442775;    0.346685;    0.193557;
 69;    0.189545;    0.981235;    0.858381;    0.747795;    0.648551;    0.601621;    0.571547;    0.477884;    0.363660;    0.202452;
 70;    0.186104;    1.019641;    0.890854;    0.751214;    0.669127;    0.626101;    0.584007;    0.477620;    0.359397;    0.179411;
 71;    0.190790;    0.999217;    0.857468;    0.750363;    0.667069;    0.599303;    0.533968;    0.466815;    0.374101;    0.229859;
 72;    0.191153;    1.002366;    0.857594;    0.757714;    0.674973;    0.643317;    0.562037;    0.490535;    0.371753;    0.205436;
 73;    0.185976;    1.035223;    0.889805;    0.779044;    0.687584;    0.643668;    0.590322;    0.517693;    0.384105;    0.231275;
 74;    0.193429;    1.004687;    0.850389;    0.756028;    0.648358;    0.593896;    0.520570;    0.436787;    0.333459;    0.171567;
 75;    0.188936;    1.007935;    0.877660;    0.741987;    0.646345;    0.601323;    0.543977;    0.457635;    0.330856;    0.205752;
 76;    0.207116;    1.008675;    0.859241;    0.748076;    0.667423;    0.621788;    0.546004;    0.480602;    0.356057;    0.217236;
 77;    0.189095;    0.970398;    0.842305;    0.723411;    0.637484;    0.591438;    0.526135;    0.448646;    0.315227;    0.183831;
 78;    0.192550;    0.994203;    0.869749;    0.747714;    0.650603;    0.604508;    0.554005;    0.454018;    0.352635;    0.199522;
 79;    0.190742;    1.007403;    0.868495;    0.753943;    0.673387;    0.609952;    0.548166;    0.467253;    0.354374;    0.205869;
 80;    0.213373;    0.990323;    0.844633;    0.729654;    0.637313;    0.580343;    0.523829;    0.427569;    0.337701;    0.172351;
 81;    0.196787;    0.987522;    0.855768;    0.751578;    0.658624;    0.613174;    0.553057;    0.463847;    0.376779;    0.215378;
 82;    0.192345;    0.983332;    0.846917;    0.737670;    0.648839;    0.618080;    0.562805;    0.478811;    0.345587;    0.207794;
 83;    0.187046;    0.958115;    0.833861;    0.726860;    0.643044;    0.600399;    0.548028;    0.458995;    0.338896;    0.197572;
 84;    0.187446;    0.992317;    0.882744;    0.762506;    0.665323;    0.610115;    0.560661;    0.464850;    0.322461;    0.200622;
 85;    0.187097;    0.999400;    0.873866;    0.760103;    0.672530;    0.622418;    0.578634;    0.490217;    0.382034;    0.248934;
 86;    0.191986;    1.012456;    0.860953;    0.740015;    0.645142;    0.612765;    0.558619;    0.471570;    0.379695;    0.199440;
 87;    0.190745;    0.991132;    0.844823;    0.732732;    0.647242;    0.599691;    0.514589;    0.429776;    0.346185;    0.208823;
 88;    0.190510;    1.026831;    0.874318;    0.757840;    0.658100;    0.610621;    0.570935;    0.478282;    0.359947;    0.182010;
 89;    0.188781;    1.023275;    0.886310;    0.773877;    0.671759;    0.617775;    0.580819;    0.482838;    0.383669;    0.189420;
 90;    0.191623;    0.986539;    0.856643;    0.737518;    0.658959;    0.601869;    0.544009;    0.450230;    0.361163;    0.200929;
 91;    0.192679;    1.022573;    0.879688;    0.757294;    0.664726;    0.614258;    0.547092;    0.467637;    0.354529;    0.205207;
 92;    0.186816;    0.990171;    0.852244;    0.745117;    0.647323;    0.577654;    0.530716;    0.437912;    0.333403;    0.163766;
 93;    0.191850;    1.002512;    0.864063;    0.760591;    0.668613;    0.625456;    0.551206;    0.442341;    0.319050;    0.149211;
 94;    0.190572;    1.003709;    0.868366;    0.744067;    0.666370;    0.611724;    0.537067;    0.464237;    0.352927;    0.208828;
 95;    0.190716;    1.017046;    0.871661;    0.758342;    0.673789;    0.626064;    0.574413;    0.495423;    0.326762;    0.164293;
 96;    0.192914;    1.009756;    0.860437;    0.741473;    0.655029;    0.632113;    0.550651;    0.455017;    0.312059;    0.172386;
 97;    0.186040;    1.024744;    0.905703;    0.785051;    0.685663;    0.619628;    0.557218;    0.470951;    0.355727;    0.208902;
 98;    0.186592;    1.008036;    0.876282;    0.753396;    0.657790;    0.619913;    0.553142;    0.477282;    0.370281;    0.219875;
 99;    0.195009;    0.989264;    0.839117;    0.729536;    0.638444;    0.596108;    0.529267;    0.471081;    0.364165;    0.186760;
100;    0.192587;    0.982944;    0.838963;    0.738063;    0.646399;    0.609842;    0.549904;    0.468429;    0.354278;    0.194200;
