Simulation;Time;PC0;PC1;PC2;PC3;PC4;PC5;PC6;PC7;PC8;
Nan;Nan;0;0;0;1;0;0;0;0;0;
  0;    0.082385;    0.992340;    0.700663;    0.567914;    0.460420;    0.428519;    0.410850;    0.363106;    0.322850;    0.285754;
  1;    0.076509;    1.022244;    0.723755;    0.570663;    0.467480;    0.449011;    0.406915;    0.376980;    0.337246;    0.298967;
  2;    0.079290;    1.030049;    0.741260;    0.589800;    0.483612;    0.466797;    0.419889;    0.391732;    0.350631;    0.312029;
  3;    0.080928;    0.991857;    0.715190;    0.599640;    0.487204;    0.457513;    0.428503;    0.402071;    0.357584;    0.306582;
  4;    0.079394;    1.032090;    0.735517;    0.607719;    0.487193;    0.460373;    0.419773;    0.389914;    0.356510;    0.311559;
  5;    0.076597;    0.997828;    0.700393;    0.569452;    0.471519;    0.450240;    0.415988;    0.385689;    0.347179;    0.314913;
  6;    0.075085;    1.003613;    0.712520;    0.568897;    0.466801;    0.443547;    0.414195;    0.383332;    0.331287;    0.292252;
  7;    0.076976;    1.020856;    0.723092;    0.583249;    0.487962;    0.449386;    0.418723;    0.391056;    0.342937;    0.295226;
  8;    0.076575;    0.982771;    0.694842;    0.570434;    0.474586;    0.446616;    0.433291;    0.403417;    0.357566;    0.293186;
  9;    0.071242;    1.005216;    0.718971;    0.582547;    0.481668;    0.451103;    0.433566;    0.397289;    0.350205;    0.312286;
 10;    0.084444;    1.015833;    0.724848;    0.587854;    0.476712;    0.455342;    0.425904;    0.396074;    0.352855;    0.304202;
 11;    0.085467;    0.986647;    0.706618;    0.570905;    0.470327;    0.449197;    0.422058;    0.379344;    0.342683;    0.292645;
 12;    0.083443;    0.971421;    0.704704;    0.562984;    0.473981;    0.451823;    0.414180;    0.374950;    0.329297;    0.285885;
 13;    0.079594;    1.005591;    0.697074;    0.572700;    0.468135;    0.435048;    0.412042;    0.379037;    0.341386;    0.302886;
 14;    0.076607;    0.978542;    0.699159;    0.562895;    0.459557;    0.441142;    0.417601;    0.368552;    0.321159;    0.283294;
 15;    0.071059;    1.018665;    0.696229;    0.571779;    0.461919;    0.431656;    0.397442;    0.371408;    0.349292;    0.292988;
 16;    0.089563;    1.004274;    0.721109;    0.578773;    0.482454;    0.448826;    0.413311;    0.379848;    0.347699;    0.315856;
 17;    0.079623;    0.976724;    0.699870;    0.570282;    0.464915;    0.437677;    0.401092;    0.369251;    0.332870;    0.289874;
 18;    0.073793;    0.953461;    0.691561;    0.567629;    0.471957;    0.443482;    0.406782;    0.377003;    0.331197;    0.286052;
 19;    0.070901;    0.985372;    0.688635;    0.551596;    0.470095;    0.444729;    0.422211;    0.380363;    0.349453;    0.305044;
 20;    0.073332;    1.026871;    0.709240;    0.576670;    0.469579;    0.456811;    0.429255;    0.404553;    0.359902;    0.316176;
 21;    0.075922;    1.013699;    0.699706;    0.569716;    0.469873;    0.441122;    0.414750;    0.384302;    0.338038;    0.296231;
 22;    0.073162;    1.018241;    0.714532;    0.584215;    0.485801;    0.455982;    0.428745;    0.373356;    0.339757;    0.298465;
 23;    0.072667;    0.989454;    0.700081;    0.563856;    0.477355;    0.462387;    0.422839;    0.386007;    0.338390;    0.300406;
 24;    0.073848;    1.031778;    0.733522;    0.594828;    0.484841;    0.462862;    0.430964;    0.388057;    0.356422;    0.308228;
 25;    0.076576;    0.984444;    0.704660;    0.574183;    0.468571;    0.448601;    0.413791;    0.367940;    0.328463;    0.285432;
 26;    0.075813;    1.008983;    0.717339;    0.584714;    0.485488;    0.468366;    0.437538;    0.410215;    0.358253;    0.301481;
 27;    0.078851;    1.014405;    0.701657;    0.573041;    0.476966;    0.448521;    0.416912;    0.392353;    0.350453;    0.299571;
 28;    0.071292;    1.023371;    0.707122;    0.577196;    0.480510;    0.458295;    0.436006;    0.388443;    0.351499;    0.301535;
 29;    0.076418;    1.049446;    0.716608;    0.583733;    0.485723;    0.456622;    0.428833;    0.396924;    0.348882;    0.300906;
 30;    0.076415;    1.017810;    0.714598;    0.587389;    0.477134;    0.455876;    0.426690;    0.395731;    0.359617;    0.304208;
 31;    0.070845;    1.012064;    0.712432;    0.566554;    0.468721;    0.447047;    0.423692;    0.386217;    0.355499;    0.300451;
 32;    0.080586;    0.990526;    0.716839;    0.570828;    0.472812;    0.444310;    0.406166;    0.390276;    0.350173;    0.292534;
 33;    0.076071;    1.019767;    0.702457;    0.564561;    0.470891;    0.444169;    0.421661;    0.376096;    0.342385;    0.316214;
 34;    0.075681;    1.034462;    0.714626;    0.582157;    0.480929;    0.458036;    0.413774;    0.384768;    0.351749;    0.309811;
 35;    0.070515;    1.002703;    0.714714;    0.578778;    0.479199;    0.461256;    0.423362;    0.388444;    0.347187;    0.319079;
 36;    0.079404;    0.968207;    0.712119;    0.578071;    0.466603;    0.438830;    0.418715;    0.379998;    0.338377;    0.288808;
 37;    0.070828;    0.994022;    0.712195;    0.574800;    0.461106;    0.434945;    0.404823;    0.380848;    0.337040;    0.288623;
 38;    0.073769;    1.000286;    0.699245;    0.565271;    0.473416;    0.445600;    0.415348;    0.370852;    0.334330;    0.287711;
 39;    0.070908;    0.954447;    0.685032;    0.557734;    0.456553;    0.430292;    0.389216;    0.354688;    0.317210;    0.279688;
 40;    0.078340;    1.016227;    0.722732;    0.571605;    0.466795;    0.442818;    0.419359;    0.392132;    0.339865;    0.294922;
 41;    0.081660;    0.999545;    0.705823;    0.566172;    0.473354;    0.448216;    0.413534;    0.372649;    0.329827;    0.290272;
 42;    0.072414;    1.032999;    0.704583;    0.575597;    0.467931;    0.447050;    0.416286;    0.385200;    0.346472;    0.311200;
 43;    0.077424;    1.023068;    0.713744;    0.578649;    0.480424;    0.449077;    0.422386;    0.399323;    0.359840;    0.304635;
 44;    0.073161;    1.008907;    0.718823;    0.573853;    0.480281;    0.466571;    0.444147;    0.409084;    0.362593;    0.302108;
 45;    0.073345;    0.978757;    0.685116;    0.558000;    0.465485;    0.443138;    0.421649;    0.397944;    0.345519;    0.289121;
 46;    0.074143;    1.023374;    0.707722;    0.582564;    0.475972;    0.446533;    0.421368;    0.386919;    0.343811;    0.312379;
 47;    0.079309;    1.023693;    0.709724;    0.590770;    0.483930;    0.456649;    0.438256;    0.394971;    0.351002;    0.304088;
 48;    0.084353;    0.976777;    0.696651;    0.577931;    0.477457;    0.440471;    0.410213;    0.380100;    0.342025;    0.308642;
 49;    0.070913;    0.983574;    0.698814;    0.578264;    0.476876;    0.448989;    0.406816;    0.368155;    0.341129;    0.290775;
 50;    0.074792;    1.007888;    0.704447;    0.561880;    0.466059;    0.437806;    0.416817;    0.379807;    0.342270;    0.292147;
 51;    0.078360;    1.037081;    0.726653;    0.599782;    0.489352;    0.461034;    0.429891;    0.394817;    0.355252;    0.315334;
 52;    0.071100;    1.006186;    0.713129;    0.577708;    0.464159;    0.440575;    0.415378;    0.378930;    0.334738;    0.288960;
 53;    0.075898;    0.976338;    0.726398;    0.576176;    0.470994;    0.454837;    0.417987;    0.380725;    0.336425;    0.300704;
 54;    0.071290;    1.035665;    0.734341;    0.571452;    0.477418;    0.459985;    0.424965;    0.391793;    0.347759;    0.316959;
 55;    0.071398;    0.985838;    0.682644;    0.560035;    0.461729;    0.450850;    0.410788;    0.370861;    0.334315;    0.290893;
 56;    0.078371;    1.002649;    0.701469;    0.555761;    0.458462;    0.427986;    0.395509;    0.362567;    0.329895;    0.300961;
 57;    0.075343;    1.020423;    0.721531;    0.574237;    0.468823;    0.449197;    0.414473;    0.381297;    0.337482;    0.308370;
 58;    0.074348;    1.014832;    0.716700;    0.576392;    0.480110;    0.453945;    0.420811;    0.382309;    0.353218;    0.313653;
 59;    0.080137;    0.991967;    0.711038;    0.579919;    0.465468;    0.435820;    0.410987;    0.368227;    0.331197;    0.307040;
 60;    0.075086;    1.002120;    0.706897;    0.580357;    0.476076;    0.453382;    0.424948;    0.395346;    0.336245;    0.289888;
 61;    0.076864;    0.986355;    0.694467;    0.560198;    0.470171;    0.440581;    0.418653;    0.381892;    0.332581;    0.288883;
 62;    0.077593;    0.990611;    0.696816;    0.564925;    0.464266;    0.437100;    0.407014;    0.375837;    0.334890;    0.290061;
 63;    0.073006;    1.019563;    0.704906;    0.554773;    0.460753;    0.439503;    0.405485;    0.374897;    0.349401;    0.305313;
 64;    0.071709;    1.009999;    0.711774;    0.582732;    0.473414;    0.450294;    0.428866;    0.385911;    0.357064;    0.304671;
 65;    0.082247;    0.970965;    0.695053;    0.560993;    0.460973;    0.438565;    0.415241;    0.367335;    0.324314;    0.285421;
 66;    0.071123;    0.994617;    0.707033;    0.578619;    0.479848;    0.467968;    0.431335;    0.380734;    0.352603;    0.295954;
 67;    0.076315;    0.977071;    0.699062;    0.572087;    0.484657;    0.447660;    0.421983;    0.391901;    0.354821;    0.287295;
 68;    0.079180;    0.996573;    0.702461;    0.572770;    0.470574;    0.441704;    0.408952;    0.380935;    0.345141;    0.298746;
 69;    0.076688;    0.973422;    0.702587;    0.567275;    0.461090;    0.440028;    0.426988;    0.385455;    0.342206;    0.296018;
 70;    0.077082;    1.018583;    0.725036;    0.571391;    0.477420;    0.449991;    0.429830;    0.387428;    0.350613;    0.300710;
 71;    0.073466;    1.001541;    0.701424;    0.570052;    0.474549;    0.442845;    0.410927;    0.382058;    0.350821;    0.310705;
 72;    0.076294;    1.006908;    0.699205;    0.576303;    0.479337;    0.463005;    0.422379;    0.391748;    0.349817;    0.297189;
 73;    0.071302;    1.039114;    0.726591;    0.595149;    0.488898;    0.464442;    0.432503;    0.400719;    0.356503;    0.312926;
 74;    0.073720;    1.016590;    0.698385;    0.579439;    0.461068;    0.439478;    0.409952;    0.376770;    0.346783;    0.294752;
 75;    0.072266;    1.010884;    0.717673;    0.565853;    0.461552;    0.439501;    0.414772;    0.381760;    0.336805;    0.302378;
 76;    0.087100;    1.018097;    0.701269;    0.563959;    0.475405;    0.452575;    0.412756;    0.386765;    0.341454;    0.303595;
 77;    0.078752;    0.970668;    0.687346;    0.550000;    0.455807;    0.427080;    0.392519;    0.360303;    0.322242;    0.288714;
 78;    0.072996;    0.986469;    0.713694;    0.570625;    0.462611;    0.437793;    0.409569;    0.370388;    0.331957;    0.294063;
 79;    0.078316;    1.006611;    0.711792;    0.574376;    0.477973;    0.445720;    0.421051;    0.389149;    0.343415;    0.297916;
 80;    0.083093;    0.998438;    0.696169;    0.558965;    0.452992;    0.425502;    0.400898;    0.370043;    0.338347;    0.290306;
 81;    0.079503;    0.986319;    0.697204;    0.570128;    0.468909;    0.444402;    0.415557;    0.372204;    0.342737;    0.297553;
 82;    0.079538;    0.986188;    0.692545;    0.563466;    0.462612;    0.449016;    0.418730;    0.384620;    0.334201;    0.292245;
 83;    0.072526;    0.951776;    0.681507;    0.552620;    0.459086;    0.432665;    0.405077;    0.371033;    0.323759;    0.289376;
 84;    0.072644;    0.978067;    0.716416;    0.579071;    0.472354;    0.442115;    0.414988;    0.371829;    0.323000;    0.293719;
 85;    0.074196;    0.990365;    0.712946;    0.577671;    0.478097;    0.450189;    0.426966;    0.384257;    0.344969;    0.308223;
 86;    0.077675;    1.025387;    0.705647;    0.565093;    0.461489;    0.442335;    0.413594;    0.384191;    0.359410;    0.303614;
 87;    0.076959;    0.999847;    0.694134;    0.558762;    0.460064;    0.430071;    0.395912;    0.367070;    0.329698;    0.294134;
 88;    0.076756;    1.036493;    0.722068;    0.575347;    0.468357;    0.445716;    0.432009;    0.394530;    0.363795;    0.307924;
 89;    0.077904;    1.022200;    0.725236;    0.591211;    0.478081;    0.455920;    0.437396;    0.388856;    0.354940;    0.293911;
 90;    0.074413;    0.983693;    0.699633;    0.562076;    0.466631;    0.439466;    0.416344;    0.377899;    0.348172;    0.298907;
 91;    0.077585;    1.025377;    0.722790;    0.577607;    0.474619;    0.445869;    0.409544;    0.383138;    0.345564;    0.308900;
 92;    0.076773;    0.992095;    0.699893;    0.574126;    0.459897;    0.435178;    0.406646;    0.373172;    0.339548;    0.293493;
 93;    0.072515;    1.000033;    0.709865;    0.577847;    0.473794;    0.449840;    0.422617;    0.384448;    0.342385;    0.297436;
 94;    0.077290;    1.004798;    0.709151;    0.565910;    0.473341;    0.444924;    0.412393;    0.379171;    0.336402;    0.300034;
 95;    0.071488;    1.021163;    0.714228;    0.574943;    0.479381;    0.452712;    0.424013;    0.396960;    0.340099;    0.298259;
 96;    0.078751;    1.020507;    0.703987;    0.565444;    0.464531;    0.457450;    0.420334;    0.388331;    0.346247;    0.301783;
 97;    0.076680;    1.013087;    0.735590;    0.600710;    0.487597;    0.452325;    0.420623;    0.387920;    0.339217;    0.296874;
 98;    0.072893;    1.006883;    0.718225;    0.577065;    0.468981;    0.443746;    0.411074;    0.381545;    0.344285;    0.302255;
 99;    0.073131;    1.001993;    0.687490;    0.558094;    0.455531;    0.432957;    0.404081;    0.384526;    0.349519;    0.292784;
100;    0.076140;    0.988320;    0.686262;    0.555885;    0.459555;    0.433820;    0.414377;    0.375617;    0.330605;    0.296666;
