Simulation;Time;PC0;PC1;PC2;PC3;PC4;PC5;PC6;PC7;PC8;
Nan;Nan;0;0;0;0;0;0;0;1;0;
  0;    0.009785;    0.127244;    0.123131;    0.122890;    0.122890;    0.122882;    0.122221;    0.120251;    0.115891;    0.115914;
  1;    0.009236;    0.128383;    0.124298;    0.123941;    0.123793;    0.123144;    0.122995;    0.121177;    0.116982;    0.117016;
  2;    0.009840;    0.128684;    0.124889;    0.124714;    0.124509;    0.123988;    0.123330;    0.122611;    0.118074;    0.118090;
  3;    0.009348;    0.127755;    0.124170;    0.124295;    0.123760;    0.123622;    0.123556;    0.121826;    0.117404;    0.117423;
  4;    0.009886;    0.129236;    0.125367;    0.125412;    0.124984;    0.124613;    0.123617;    0.122449;    0.118182;    0.118191;
  5;    0.009002;    0.127540;    0.123330;    0.123368;    0.123536;    0.122963;    0.122353;    0.120849;    0.116522;    0.116535;
  6;    0.011205;    0.127854;    0.123888;    0.123867;    0.123527;    0.122818;    0.122492;    0.121089;    0.116549;    0.116554;
  7;    0.011113;    0.128520;    0.124424;    0.124373;    0.124035;    0.123778;    0.122854;    0.121895;    0.117706;    0.117700;
  8;    0.009184;    0.127068;    0.123062;    0.122985;    0.123077;    0.122267;    0.122294;    0.121255;    0.116394;    0.116414;
  9;    0.009958;    0.128291;    0.124560;    0.124428;    0.124435;    0.124500;    0.123898;    0.122648;    0.117392;    0.117425;
 10;    0.010133;    0.128558;    0.124747;    0.124831;    0.124384;    0.124438;    0.123815;    0.122490;    0.117479;    0.117487;
 11;    0.009725;    0.127302;    0.123571;    0.123485;    0.123258;    0.122837;    0.122147;    0.120669;    0.116424;    0.116453;
 12;    0.009184;    0.126376;    0.122773;    0.122630;    0.122807;    0.121974;    0.121188;    0.120454;    0.116227;    0.116244;
 13;    0.008962;    0.127842;    0.123380;    0.123194;    0.123017;    0.122844;    0.122454;    0.121989;    0.116415;    0.116425;
 14;    0.010049;    0.126633;    0.122763;    0.122645;    0.122511;    0.122128;    0.121330;    0.119626;    0.115665;    0.115676;
 15;    0.008891;    0.128184;    0.123345;    0.123052;    0.122767;    0.122538;    0.122158;    0.120392;    0.116200;    0.116201;
 16;    0.011251;    0.127883;    0.124167;    0.123860;    0.123596;    0.123441;    0.123322;    0.122142;    0.117378;    0.117385;
 17;    0.009012;    0.126989;    0.123242;    0.123003;    0.122626;    0.121951;    0.121232;    0.120302;    0.115938;    0.115951;
 18;    0.008873;    0.126210;    0.122751;    0.122930;    0.122317;    0.122012;    0.121903;    0.120369;    0.115739;    0.115752;
 19;    0.008951;    0.127191;    0.122923;    0.122732;    0.122682;    0.122375;    0.121470;    0.120133;    0.115996;    0.116015;
 20;    0.008951;    0.128725;    0.124184;    0.124079;    0.124212;    0.123495;    0.123388;    0.122449;    0.117046;    0.117065;
 21;    0.008780;    0.128467;    0.123957;    0.123815;    0.123662;    0.123174;    0.122633;    0.121615;    0.116604;    0.116605;
 22;    0.009166;    0.128842;    0.124733;    0.124532;    0.124283;    0.123603;    0.123478;    0.122262;    0.117521;    0.117536;
 23;    0.009692;    0.127345;    0.123293;    0.123385;    0.123197;    0.122617;    0.122021;    0.120799;    0.116532;    0.116552;
 24;    0.011105;    0.129042;    0.125047;    0.124850;    0.124580;    0.124790;    0.124613;    0.122921;    0.118057;    0.118055;
 25;    0.009031;    0.126723;    0.122870;    0.122769;    0.122757;    0.122129;    0.121546;    0.120662;    0.116263;    0.116287;
 26;    0.009604;    0.128463;    0.124574;    0.124498;    0.124219;    0.124213;    0.123293;    0.122125;    0.117588;    0.117602;
 27;    0.009034;    0.128508;    0.124059;    0.123775;    0.123664;    0.123542;    0.122765;    0.121578;    0.116990;    0.116999;
 28;    0.009014;    0.128718;    0.124181;    0.123951;    0.123776;    0.123904;    0.123173;    0.122442;    0.117323;    0.117336;
 29;    0.009756;    0.129633;    0.124764;    0.124741;    0.124565;    0.124280;    0.123399;    0.122010;    0.117889;    0.117912;
 30;    0.009136;    0.128540;    0.124324;    0.124462;    0.124452;    0.123995;    0.123417;    0.122364;    0.117264;    0.117275;
 31;    0.009047;    0.127815;    0.123547;    0.123466;    0.123169;    0.122906;    0.122652;    0.120914;    0.116746;    0.116759;
 32;    0.008974;    0.127075;    0.123478;    0.123235;    0.122931;    0.123002;    0.122674;    0.120592;    0.116678;    0.116676;
 33;    0.009209;    0.128142;    0.123415;    0.123357;    0.122939;    0.122462;    0.122615;    0.122008;    0.116718;    0.116716;
 34;    0.008919;    0.128642;    0.123976;    0.124142;    0.123747;    0.123658;    0.122979;    0.122047;    0.117597;    0.117607;
 35;    0.009000;    0.128075;    0.124210;    0.124106;    0.123800;    0.123718;    0.122675;    0.121473;    0.117155;    0.117158;
 36;    0.011295;    0.126495;    0.123201;    0.123075;    0.122874;    0.122948;    0.122772;    0.120754;    0.116065;    0.116080;
 37;    0.008836;    0.127100;    0.123256;    0.122971;    0.123100;    0.122430;    0.121832;    0.120335;    0.116283;    0.116280;
 38;    0.008943;    0.127783;    0.123511;    0.123475;    0.122958;    0.122838;    0.121972;    0.120382;    0.116516;    0.116530;
 39;    0.008912;    0.125896;    0.122183;    0.122176;    0.121726;    0.121536;    0.120676;    0.119255;    0.114972;    0.114966;
 40;    0.008875;    0.128000;    0.124004;    0.123830;    0.123841;    0.123611;    0.122628;    0.121283;    0.116924;    0.116935;
 41;    0.011105;    0.127370;    0.123222;    0.123158;    0.123045;    0.122419;    0.121765;    0.120567;    0.116635;    0.116638;
 42;    0.009006;    0.129012;    0.124202;    0.124306;    0.124131;    0.123825;    0.122925;    0.121902;    0.116935;    0.116950;
 43;    0.011082;    0.128669;    0.124323;    0.124261;    0.124137;    0.123818;    0.122886;    0.121588;    0.117436;    0.117457;
 44;    0.009744;    0.128410;    0.124547;    0.124372;    0.124456;    0.123921;    0.123286;    0.122545;    0.117303;    0.117318;
 45;    0.008845;    0.126823;    0.122584;    0.122292;    0.122124;    0.122176;    0.121233;    0.120118;    0.115761;    0.115783;
 46;    0.008877;    0.128803;    0.124382;    0.124069;    0.124318;    0.124095;    0.123212;    0.121688;    0.117190;    0.117207;
 47;    0.009816;    0.128770;    0.124294;    0.124310;    0.124296;    0.124189;    0.123260;    0.121980;    0.117554;    0.117564;
 48;    0.009587;    0.127367;    0.123667;    0.123404;    0.123359;    0.123264;    0.122173;    0.121818;    0.116440;    0.116459;
 49;    0.009735;    0.127624;    0.123728;    0.123535;    0.123123;    0.122631;    0.122314;    0.121586;    0.116468;    0.116480;
 50;    0.009673;    0.127882;    0.123511;    0.123336;    0.123335;    0.122679;    0.122280;    0.120685;    0.116458;    0.116474;
 51;    0.008903;    0.129506;    0.125310;    0.125070;    0.125026;    0.124577;    0.124038;    0.123737;    0.118199;    0.118225;
 52;    0.009471;    0.127463;    0.123284;    0.123299;    0.123212;    0.122704;    0.121929;    0.120154;    0.116472;    0.116484;
 53;    0.011192;    0.126961;    0.123896;    0.123661;    0.123507;    0.123602;    0.122463;    0.121282;    0.116589;    0.116596;
 54;    0.009035;    0.128936;    0.124836;    0.124562;    0.124515;    0.124232;    0.123552;    0.122380;    0.117672;    0.117690;
 55;    0.010465;    0.126949;    0.122439;    0.122334;    0.122108;    0.121696;    0.121099;    0.120049;    0.115586;    0.115609;
 56;    0.009006;    0.126964;    0.122491;    0.122314;    0.122078;    0.121319;    0.120794;    0.120362;    0.115905;    0.115910;
 57;    0.009118;    0.128477;    0.124374;    0.124298;    0.124046;    0.123617;    0.123234;    0.121964;    0.117060;    0.117077;
 58;    0.009323;    0.128421;    0.124301;    0.124135;    0.124098;    0.123965;    0.123174;    0.121903;    0.117305;    0.117320;
 59;    0.009052;    0.127390;    0.123582;    0.123353;    0.123063;    0.122435;    0.122163;    0.120957;    0.116383;    0.116413;
 60;    0.009099;    0.128203;    0.124209;    0.124143;    0.123846;    0.123757;    0.123098;    0.122608;    0.116948;    0.116940;
 61;    0.009283;    0.126804;    0.122620;    0.122511;    0.122246;    0.121889;    0.121696;    0.120757;    0.116127;    0.116133;
 62;    0.009653;    0.127217;    0.123057;    0.122852;    0.122808;    0.122316;    0.121332;    0.120072;    0.116053;    0.116053;
 63;    0.009298;    0.128243;    0.123646;    0.123427;    0.123066;    0.122644;    0.122261;    0.121706;    0.116294;    0.116311;
 64;    0.011231;    0.128056;    0.123918;    0.123887;    0.123492;    0.123553;    0.122925;    0.121789;    0.117053;    0.117076;
 65;    0.009731;    0.126897;    0.123220;    0.123059;    0.122849;    0.122795;    0.121880;    0.120547;    0.115608;    0.115622;
 66;    0.010555;    0.127643;    0.123755;    0.123646;    0.123580;    0.123721;    0.123252;    0.121784;    0.116986;    0.117007;
 67;    0.008849;    0.126752;    0.122939;    0.122958;    0.122900;    0.122067;    0.121364;    0.120353;    0.116610;    0.116609;
 68;    0.009279;    0.128093;    0.124076;    0.123847;    0.123838;    0.123291;    0.122663;    0.121951;    0.116503;    0.116518;
 69;    0.008973;    0.126639;    0.123056;    0.122973;    0.122841;    0.122631;    0.122269;    0.120604;    0.115891;    0.115896;
 70;    0.009037;    0.128550;    0.124592;    0.124396;    0.124119;    0.123611;    0.123138;    0.122135;    0.117363;    0.117361;
 71;    0.011072;    0.127831;    0.123575;    0.123304;    0.123236;    0.123179;    0.122715;    0.121702;    0.116670;    0.116683;
 72;    0.009036;    0.128109;    0.123708;    0.123868;    0.123578;    0.123513;    0.122929;    0.121346;    0.116939;    0.116952;
 73;    0.010906;    0.129435;    0.125157;    0.125004;    0.124901;    0.124603;    0.124069;    0.123543;    0.118213;    0.118233;
 74;    0.009213;    0.128501;    0.123911;    0.123773;    0.123638;    0.123049;    0.122410;    0.121538;    0.116356;    0.116364;
 75;    0.010929;    0.127790;    0.123701;    0.123472;    0.123199;    0.123079;    0.122561;    0.121230;    0.116482;    0.116497;
 76;    0.008881;    0.128466;    0.123895;    0.123761;    0.123473;    0.123204;    0.122366;    0.121930;    0.116839;    0.116856;
 77;    0.009074;    0.125954;    0.121789;    0.121461;    0.121668;    0.120855;    0.120658;    0.119155;    0.115130;    0.115137;
 78;    0.009765;    0.127110;    0.123506;    0.123354;    0.123212;    0.122558;    0.121888;    0.120478;    0.116185;    0.116204;
 79;    0.009719;    0.128110;    0.124076;    0.123774;    0.123732;    0.123142;    0.122938;    0.121517;    0.117003;    0.117026;
 80;    0.010240;    0.127535;    0.123176;    0.123239;    0.123045;    0.122618;    0.121749;    0.121103;    0.115643;    0.115649;
 81;    0.008874;    0.127194;    0.123122;    0.122986;    0.122717;    0.122722;    0.122088;    0.121261;    0.116231;    0.116255;
 82;    0.011079;    0.126964;    0.122766;    0.122932;    0.122618;    0.122710;    0.122129;    0.120518;    0.115853;    0.115876;
 83;    0.008912;    0.125780;    0.121987;    0.121816;    0.122035;    0.121473;    0.121099;    0.119521;    0.115013;    0.115022;
 84;    0.011420;    0.126781;    0.123421;    0.123349;    0.123160;    0.122626;    0.121983;    0.121099;    0.116500;    0.116516;
 85;    0.008918;    0.127588;    0.123955;    0.123827;    0.124001;    0.123863;    0.122879;    0.122108;    0.116952;    0.116972;
 86;    0.009061;    0.128504;    0.123859;    0.123629;    0.123461;    0.123490;    0.122660;    0.121165;    0.116508;    0.116524;
 87;    0.008893;    0.127529;    0.123049;    0.123001;    0.122898;    0.122479;    0.121883;    0.120384;    0.115824;    0.115836;
 88;    0.009804;    0.129120;    0.124700;    0.124546;    0.124419;    0.124670;    0.124537;    0.124289;    0.117237;    0.117258;
 89;    0.008979;    0.128549;    0.124560;    0.124519;    0.124093;    0.123723;    0.122899;    0.121493;    0.117553;    0.117570;
 90;    0.010681;    0.127012;    0.123092;    0.122902;    0.123095;    0.122684;    0.121833;    0.121124;    0.116086;    0.116107;
 91;    0.009122;    0.128469;    0.124265;    0.124232;    0.124036;    0.123647;    0.122710;    0.121468;    0.117291;    0.117302;
 92;    0.009879;    0.127211;    0.123077;    0.122887;    0.122694;    0.122585;    0.121586;    0.120468;    0.115946;    0.115961;
 93;    0.009842;    0.128036;    0.124152;    0.124057;    0.124003;    0.124032;    0.123160;    0.121893;    0.116845;    0.116850;
 94;    0.009576;    0.127746;    0.123602;    0.123343;    0.123077;    0.122619;    0.122496;    0.120863;    0.116676;    0.116698;
 95;    0.010999;    0.128308;    0.123946;    0.123898;    0.123489;    0.123213;    0.122895;    0.121328;    0.117298;    0.117316;
 96;    0.008914;    0.128452;    0.123903;    0.123916;    0.124011;    0.123788;    0.123320;    0.121683;    0.116639;    0.116656;
 97;    0.008926;    0.128400;    0.124844;    0.124905;    0.124363;    0.124063;    0.123736;    0.122153;    0.117924;    0.117928;
 98;    0.009144;    0.127774;    0.123829;    0.124031;    0.123761;    0.123201;    0.122809;    0.121721;    0.116783;    0.116797;
 99;    0.009092;    0.127125;    0.122302;    0.122160;    0.122166;    0.122037;    0.121619;    0.120462;    0.115679;    0.115692;
100;    0.008767;    0.127045;    0.122618;    0.122482;    0.122586;    0.121794;    0.121261;    0.120475;    0.115665;    0.115689;
