Simulation;Time;PC0;PC1;PC2;PC3;PC4;PC5;PC6;PC7;PC8;
Nan;Nan;0;1;0;0;0;0;0;0;0;
  0;    0.187930;    0.990411;    0.196394;    0.188750;    0.181352;    0.173611;    0.152883;    0.123744;    0.087273;    0.051771;
  1;    0.188686;    1.013066;    0.201305;    0.193081;    0.184828;    0.164194;    0.144792;    0.130856;    0.099928;    0.056842;
  2;    0.191880;    1.000720;    0.207047;    0.200478;    0.198625;    0.184143;    0.158224;    0.129429;    0.088546;    0.046177;
  3;    0.209303;    0.968466;    0.204501;    0.196954;    0.192293;    0.169401;    0.158128;    0.133798;    0.092788;    0.049581;
  4;    0.186013;    1.018193;    0.207367;    0.204245;    0.192756;    0.177693;    0.154740;    0.136250;    0.098842;    0.049045;
  5;    0.187691;    1.006949;    0.198573;    0.193118;    0.182245;    0.173164;    0.155617;    0.136063;    0.103244;    0.059638;
  6;    0.196494;    0.995407;    0.199597;    0.193552;    0.181682;    0.168001;    0.147474;    0.127992;    0.087885;    0.053534;
  7;    0.207221;    1.019194;    0.204883;    0.196356;    0.186087;    0.172637;    0.160117;    0.130729;    0.101166;    0.054170;
  8;    0.189306;    0.983748;    0.198893;    0.192223;    0.184235;    0.170221;    0.151803;    0.122128;    0.099754;    0.055473;
  9;    0.188123;    0.987662;    0.203664;    0.198063;    0.190447;    0.184248;    0.166866;    0.133432;    0.097184;    0.060647;
 10;    0.187919;    0.996863;    0.203690;    0.200101;    0.189948;    0.180754;    0.160033;    0.130641;    0.101525;    0.058726;
 11;    0.186417;    0.966166;    0.199667;    0.197832;    0.188713;    0.172324;    0.157822;    0.127668;    0.102252;    0.053592;
 12;    0.186726;    0.939805;    0.199381;    0.197366;    0.188250;    0.168969;    0.156667;    0.129946;    0.093930;    0.052122;
 13;    0.186020;    1.028155;    0.197645;    0.191712;    0.182083;    0.171878;    0.150582;    0.123962;    0.100226;    0.051325;
 14;    0.183643;    0.962589;    0.196116;    0.190712;    0.179415;    0.167456;    0.144671;    0.114269;    0.081191;    0.039444;
 15;    0.186311;    1.060799;    0.195957;    0.181067;    0.167752;    0.160124;    0.148958;    0.122881;    0.093287;    0.052060;
 16;    0.191807;    0.983317;    0.204271;    0.195164;    0.184438;    0.170067;    0.154950;    0.128207;    0.097274;    0.052476;
 17;    0.194063;    0.960090;    0.197835;    0.191506;    0.179706;    0.166212;    0.150575;    0.119450;    0.086809;    0.051059;
 18;    0.187763;    0.924857;    0.197527;    0.190017;    0.181795;    0.168842;    0.153033;    0.122180;    0.104502;    0.067807;
 19;    0.182611;    1.000193;    0.196264;    0.190166;    0.183534;    0.176206;    0.157970;    0.137873;    0.103055;    0.050079;
 20;    0.186463;    1.054947;    0.199603;    0.192396;    0.189074;    0.174144;    0.161051;    0.141408;    0.110817;    0.066528;
 21;    0.186407;    1.040668;    0.198205;    0.192240;    0.184461;    0.170801;    0.150871;    0.123435;    0.100541;    0.058362;
 22;    0.185128;    1.027712;    0.203678;    0.198099;    0.186851;    0.166515;    0.147452;    0.132934;    0.103152;    0.055584;
 23;    0.191900;    0.989793;    0.199265;    0.198680;    0.194169;    0.176147;    0.147881;    0.116439;    0.086496;    0.046195;
 24;    0.186345;    1.023301;    0.205994;    0.201292;    0.191485;    0.177309;    0.164062;    0.132374;    0.104400;    0.056674;
 25;    0.189761;    0.965045;    0.198837;    0.193061;    0.186378;    0.172321;    0.157318;    0.130505;    0.093952;    0.055632;
 26;    0.215044;    1.003460;    0.204192;    0.198974;    0.188425;    0.180107;    0.161062;    0.133993;    0.098802;    0.063168;
 27;    0.182637;    1.039309;    0.200082;    0.191634;    0.179899;    0.170714;    0.156098;    0.130858;    0.092959;    0.059582;
 28;    0.189028;    1.051390;    0.201645;    0.199210;    0.186830;    0.168192;    0.150690;    0.124075;    0.099008;    0.055063;
 29;    0.184451;    1.094955;    0.203276;    0.196892;    0.188375;    0.176715;    0.162809;    0.133824;    0.100671;    0.053424;
 30;    0.185773;    1.026005;    0.201599;    0.198228;    0.189072;    0.178069;    0.162544;    0.141352;    0.103765;    0.061268;
 31;    0.194340;    1.015863;    0.199435;    0.193764;    0.187664;    0.172731;    0.156314;    0.123197;    0.099216;    0.056476;
 32;    0.186985;    0.952105;    0.201413;    0.195603;    0.184421;    0.170178;    0.152121;    0.133727;    0.101655;    0.054109;
 33;    0.183614;    1.050367;    0.198298;    0.192737;    0.182489;    0.165697;    0.149486;    0.130659;    0.107049;    0.063018;
 34;    0.188013;    1.060777;    0.202355;    0.198058;    0.183522;    0.169632;    0.158272;    0.135966;    0.099620;    0.059099;
 35;    0.188676;    0.992986;    0.202398;    0.199129;    0.185992;    0.171120;    0.147599;    0.127578;    0.102397;    0.061014;
 36;    0.186026;    0.916020;    0.199313;    0.195204;    0.185403;    0.169863;    0.156517;    0.130942;    0.101156;    0.061031;
 37;    0.188249;    0.971229;    0.198737;    0.194740;    0.183891;    0.172767;    0.153397;    0.126484;    0.088668;    0.042754;
 38;    0.186035;    1.012893;    0.198695;    0.194376;    0.184528;    0.169133;    0.154955;    0.130054;    0.101710;    0.049256;
 39;    0.186472;    0.935401;    0.193469;    0.187631;    0.179715;    0.161849;    0.146694;    0.129766;    0.091947;    0.053420;
 40;    0.190350;    0.999895;    0.201007;    0.193190;    0.187458;    0.175231;    0.159055;    0.135264;    0.099390;    0.057195;
 41;    0.188765;    1.000465;    0.199426;    0.193972;    0.185417;    0.174425;    0.147564;    0.129283;    0.090509;    0.055129;
 42;    0.192065;    1.071909;    0.199001;    0.193880;    0.188529;    0.174927;    0.155265;    0.131108;    0.103562;    0.051854;
 43;    0.191393;    1.041105;    0.202397;    0.196677;    0.189183;    0.169806;    0.152845;    0.136654;    0.099763;    0.055542;
 44;    0.190062;    0.998302;    0.202903;    0.193061;    0.185763;    0.166618;    0.151199;    0.129350;    0.098095;    0.057763;
 45;    0.190184;    0.988249;    0.195646;    0.189365;    0.178689;    0.163705;    0.146903;    0.126265;    0.092769;    0.055796;
 46;    0.189348;    1.046103;    0.201155;    0.191737;    0.183887;    0.173195;    0.160368;    0.132910;    0.098796;    0.053924;
 47;    0.190935;    1.051079;    0.202476;    0.196972;    0.191682;    0.180038;    0.152232;    0.125751;    0.102266;    0.055757;
 48;    0.192333;    0.965953;    0.199849;    0.188291;    0.179871;    0.170012;    0.148154;    0.116319;    0.086968;    0.043059;
 49;    0.189392;    0.977832;    0.199700;    0.192746;    0.183342;    0.153973;    0.141094;    0.124665;    0.101079;    0.055763;
 50;    0.189915;    1.018804;    0.197995;    0.192702;    0.179344;    0.163896;    0.147613;    0.129211;    0.096536;    0.044008;
 51;    0.194053;    1.044883;    0.206282;    0.196464;    0.189645;    0.174257;    0.151111;    0.132378;    0.103037;    0.061733;
 52;    0.190396;    1.001338;    0.198954;    0.192097;    0.181884;    0.173857;    0.156026;    0.131290;    0.094255;    0.046780;
 53;    0.190753;    0.908532;    0.202283;    0.195737;    0.192541;    0.181360;    0.159976;    0.135268;    0.097551;    0.065043;
 54;    0.188386;    1.027880;    0.204229;    0.193083;    0.187966;    0.178169;    0.166159;    0.141727;    0.101825;    0.057693;
 55;    0.189398;    1.005799;    0.193917;    0.188509;    0.175859;    0.166295;    0.147342;    0.129599;    0.098383;    0.045914;
 56;    0.186441;    1.013467;    0.195936;    0.189148;    0.181355;    0.161807;    0.139543;    0.117571;    0.095724;    0.061009;
 57;    0.187794;    1.014562;    0.201296;    0.196833;    0.189765;    0.172960;    0.152762;    0.123529;    0.083406;    0.053018;
 58;    0.209705;    1.015213;    0.202370;    0.194106;    0.189376;    0.176730;    0.157456;    0.139305;    0.102351;    0.059235;
 59;    0.190963;    0.971720;    0.199305;    0.194406;    0.179777;    0.169344;    0.147317;    0.126048;    0.102052;    0.064060;
 60;    0.189399;    1.001849;    0.201046;    0.197517;    0.187336;    0.177284;    0.158107;    0.127346;    0.097221;    0.048064;
 61;    0.191010;    0.987965;    0.197228;    0.189648;    0.181324;    0.166318;    0.152277;    0.129814;    0.103892;    0.062504;
 62;    0.190206;    0.992343;    0.196998;    0.191310;    0.184304;    0.170324;    0.150801;    0.126186;    0.092511;    0.057447;
 63;    0.188573;    1.045252;    0.196643;    0.190256;    0.177967;    0.164714;    0.140267;    0.127703;    0.101609;    0.056314;
 64;    0.192648;    1.011139;    0.200981;    0.198564;    0.186399;    0.176858;    0.161741;    0.141794;    0.109945;    0.060715;
 65;    0.195779;    0.952921;    0.196015;    0.189221;    0.181100;    0.164641;    0.150054;    0.123143;    0.085118;    0.046364;
 66;    0.188877;    0.985633;    0.201473;    0.201216;    0.192377;    0.175517;    0.167888;    0.146568;    0.109752;    0.057890;
 67;    0.188150;    0.965550;    0.201207;    0.192623;    0.180920;    0.172010;    0.151679;    0.120140;    0.091705;    0.054485;
 68;    0.188901;    1.000241;    0.198790;    0.191423;    0.184138;    0.168402;    0.157590;    0.135897;    0.095876;    0.058068;
 69;    0.188481;    0.943205;    0.197218;    0.191095;    0.187078;    0.176701;    0.163977;    0.139425;    0.102605;    0.055643;
 70;    0.190136;    1.008914;    0.203083;    0.193890;    0.188831;    0.171103;    0.145372;    0.120854;    0.093138;    0.056178;
 71;    0.191784;    1.013175;    0.199274;    0.190090;    0.181236;    0.170952;    0.151208;    0.131851;    0.099706;    0.063761;
 72;    0.187950;    1.030915;    0.199968;    0.197622;    0.187278;    0.180718;    0.157949;    0.131586;    0.102053;    0.063442;
 73;    0.191025;    1.053850;    0.205874;    0.201985;    0.191141;    0.184351;    0.167079;    0.136834;    0.110944;    0.069323;
 74;    0.187248;    1.047980;    0.196718;    0.190277;    0.181054;    0.164876;    0.144799;    0.124841;    0.093752;    0.053105;
 75;    0.191664;    1.002350;    0.198614;    0.193014;    0.184999;    0.174178;    0.155050;    0.133055;    0.097080;    0.057432;
 76;    0.187139;    1.050619;    0.199312;    0.195334;    0.183343;    0.168041;    0.154835;    0.126529;    0.096513;    0.060479;
 77;    0.189201;    0.967460;    0.193106;    0.185063;    0.175786;    0.166836;    0.152314;    0.124545;    0.097403;    0.053228;
 78;    0.193324;    0.951466;    0.199098;    0.192743;    0.184801;    0.169965;    0.148965;    0.116613;    0.085292;    0.051348;
 79;    0.191648;    1.006367;    0.201526;    0.192967;    0.185256;    0.170629;    0.154620;    0.129937;    0.097255;    0.055242;
 80;    0.191293;    1.010542;    0.194071;    0.187933;    0.183514;    0.169410;    0.145617;    0.120400;    0.093762;    0.043578;
 81;    0.188619;    0.987332;    0.197815;    0.191779;    0.181598;    0.161422;    0.150622;    0.132126;    0.098540;    0.051567;
 82;    0.192936;    0.993481;    0.195451;    0.191515;    0.187074;    0.175093;    0.156543;    0.134235;    0.098723;    0.059457;
 83;    0.190972;    0.936295;    0.193099;    0.187885;    0.180126;    0.170862;    0.157731;    0.127820;    0.086654;    0.048550;
 84;    0.187348;    0.930258;    0.201208;    0.193415;    0.185621;    0.168553;    0.155467;    0.128372;    0.088384;    0.052946;
 85;    0.190963;    0.964947;    0.201951;    0.197978;    0.193824;    0.180847;    0.162308;    0.143501;    0.107144;    0.060947;
 86;    0.186563;    1.051816;    0.197243;    0.187811;    0.179708;    0.166674;    0.151977;    0.123683;    0.078566;    0.052664;
 87;    0.209984;    1.021013;    0.195013;    0.188323;    0.180214;    0.162036;    0.147884;    0.121491;    0.093460;    0.052353;
 88;    0.190067;    1.050625;    0.200721;    0.191989;    0.182266;    0.176229;    0.162915;    0.138636;    0.105256;    0.049075;
 89;    0.188287;    1.014231;    0.203960;    0.195158;    0.182188;    0.171744;    0.155802;    0.137238;    0.099170;    0.049086;
 90;    0.217238;    0.972281;    0.197255;    0.191533;    0.184867;    0.173778;    0.162882;    0.138074;    0.107978;    0.067334;
 91;    0.190711;    1.025607;    0.202243;    0.198918;    0.189666;    0.172648;    0.150121;    0.129959;    0.090180;    0.053908;
 92;    0.189079;    0.992205;    0.196415;    0.190303;    0.181290;    0.169131;    0.152632;    0.122761;    0.099043;    0.057078;
 93;    0.187999;    0.992313;    0.200695;    0.196477;    0.189913;    0.183093;    0.165241;    0.131814;    0.096980;    0.061617;
 94;    0.189719;    1.006939;    0.199970;    0.193199;    0.182082;    0.169092;    0.150489;    0.122686;    0.096922;    0.055032;
 95;    0.190501;    1.033999;    0.201919;    0.194583;    0.189888;    0.175943;    0.158887;    0.125687;    0.095740;    0.050652;
 96;    0.186916;    1.045133;    0.197816;    0.189076;    0.183486;    0.174978;    0.160934;    0.132349;    0.096387;    0.054046;
 97;    0.188434;    0.978436;    0.207348;    0.197795;    0.183608;    0.166486;    0.157030;    0.133927;    0.091284;    0.059630;
 98;    0.189038;    0.992861;    0.200333;    0.192628;    0.187258;    0.172337;    0.162117;    0.133311;    0.103813;    0.052813;
 99;    0.189468;    1.034653;    0.193302;    0.190718;    0.185394;    0.168376;    0.156577;    0.135607;    0.096226;    0.055074;
100;    0.188855;    1.005002;    0.194436;    0.190586;    0.182055;    0.176319;    0.156453;    0.122748;    0.094406;    0.058134;
