Simulation;Time;PC0;PC1;PC2;PC3;PC4;PC5;PC6;PC7;PC8;
Nan;Nan;1;0;0;0;0;0;0;0;0;
  0;    0.183164;    0.984987;    1.062986;    1.135519;    1.208326;    1.239161;    1.228655;    1.202781;    1.145497;    1.078250;
  1;    0.165992;    1.009930;    1.091501;    1.177795;    1.217462;    1.233389;    1.212620;    1.221798;    1.168938;    1.117071;
  2;    0.164631;    1.033292;    1.119437;    1.224970;    1.287950;    1.297595;    1.264497;    1.267557;    1.206892;    1.140038;
  3;    0.164713;    1.017007;    1.100309;    1.200868;    1.225320;    1.270840;    1.251399;    1.242475;    1.178484;    1.156292;
  4;    0.183398;    1.036136;    1.135812;    1.204600;    1.252008;    1.230240;    1.276901;    1.287434;    1.206436;    1.137197;
  5;    0.166131;    0.996400;    1.082033;    1.160985;    1.216047;    1.269010;    1.284056;    1.260108;    1.209261;    1.121657;
  6;    0.184211;    0.999054;    1.093785;    1.149514;    1.193669;    1.238477;    1.241497;    1.217960;    1.183110;    1.099604;
  7;    0.169202;    1.026012;    1.101674;    1.188200;    1.242595;    1.272080;    1.275665;    1.263808;    1.186184;    1.115804;
  8;    0.164785;    0.994598;    1.079339;    1.152550;    1.230139;    1.249389;    1.226510;    1.223246;    1.201396;    1.105551;
  9;    0.165304;    1.016326;    1.099696;    1.182061;    1.266755;    1.296443;    1.274653;    1.269797;    1.223107;    1.178866;
 10;    0.166874;    1.018098;    1.125559;    1.202150;    1.228874;    1.257265;    1.272441;    1.253822;    1.216982;    1.148087;
 11;    0.167052;    0.996088;    1.097997;    1.168126;    1.202935;    1.248326;    1.254567;    1.222285;    1.179866;    1.095893;
 12;    0.163758;    0.991756;    1.088118;    1.166991;    1.192302;    1.223807;    1.184631;    1.169078;    1.165792;    1.105489;
 13;    0.167670;    0.995664;    1.080365;    1.156703;    1.202899;    1.236847;    1.239739;    1.215325;    1.197338;    1.097891;
 14;    0.165975;    0.979697;    1.065713;    1.135746;    1.184033;    1.205296;    1.199279;    1.177982;    1.118566;    1.047563;
 15;    0.166143;    0.992295;    1.076284;    1.134558;    1.159105;    1.193737;    1.206236;    1.180142;    1.144377;    1.083115;
 16;    0.166011;    1.017482;    1.096496;    1.166998;    1.204737;    1.274819;    1.287622;    1.250495;    1.226297;    1.133853;
 17;    0.164576;    0.987789;    1.079043;    1.142642;    1.159223;    1.189950;    1.212314;    1.166340;    1.154246;    1.092912;
 18;    0.167343;    0.981248;    1.063433;    1.107351;    1.150592;    1.200574;    1.188314;    1.192429;    1.177965;    1.102090;
 19;    0.166421;    0.985797;    1.072349;    1.156233;    1.205339;    1.251626;    1.243150;    1.206919;    1.187463;    1.067746;
 20;    0.166092;    1.007023;    1.115560;    1.179091;    1.243188;    1.250295;    1.270019;    1.284152;    1.242868;    1.144764;
 21;    0.164855;    1.000517;    1.081571;    1.155847;    1.198910;    1.235357;    1.252673;    1.209232;    1.154318;    1.111780;
 22;    0.171633;    1.021950;    1.105694;    1.145414;    1.179622;    1.206716;    1.235326;    1.235134;    1.197453;    1.134792;
 23;    0.165306;    0.997389;    1.106039;    1.199775;    1.242044;    1.231827;    1.247681;    1.205921;    1.185836;    1.091448;
 24;    0.165031;    1.031601;    1.135017;    1.208826;    1.250410;    1.261118;    1.285796;    1.265678;    1.248389;    1.151692;
 25;    0.165196;    0.992147;    1.083018;    1.166229;    1.206786;    1.229891;    1.210876;    1.195929;    1.166816;    1.090307;
 26;    0.201938;    1.020690;    1.114927;    1.175516;    1.241911;    1.308608;    1.300804;    1.234712;    1.223307;    1.172240;
 27;    0.163741;    1.008299;    1.096358;    1.155318;    1.200590;    1.256720;    1.255255;    1.236333;    1.188168;    1.140862;
 28;    0.164342;    1.016558;    1.124530;    1.176012;    1.215235;    1.231162;    1.238234;    1.225254;    1.177045;    1.125475;
 29;    0.164126;    1.029339;    1.116006;    1.190877;    1.228699;    1.263260;    1.288226;    1.243127;    1.195193;    1.114615;
 30;    0.174542;    1.012597;    1.120828;    1.190856;    1.243289;    1.278705;    1.268335;    1.271708;    1.233304;    1.152205;
 31;    0.166729;    1.001457;    1.087117;    1.172186;    1.240812;    1.256988;    1.261268;    1.222883;    1.177920;    1.121992;
 32;    0.163041;    1.002032;    1.075343;    1.149017;    1.199323;    1.166511;    1.197159;    1.196124;    1.170290;    1.101427;
 33;    0.166042;    1.001840;    1.099873;    1.155758;    1.210716;    1.227870;    1.226341;    1.198204;    1.196735;    1.137866;
 34;    0.165018;    1.020913;    1.124450;    1.182240;    1.211381;    1.237935;    1.264209;    1.257805;    1.205795;    1.162084;
 35;    0.167473;    1.011388;    1.118874;    1.174584;    1.227052;    1.227810;    1.246747;    1.249686;    1.205881;    1.155983;
 36;    0.165060;    0.988423;    1.065395;    1.140221;    1.185590;    1.220155;    1.223167;    1.201986;    1.158737;    1.077727;
 37;    0.164578;    0.992544;    1.057167;    1.127380;    1.193085;    1.212172;    1.223154;    1.208957;    1.156883;    1.069432;
 38;    0.165376;    0.998296;    1.093732;    1.160956;    1.208409;    1.223259;    1.237671;    1.242772;    1.210413;    1.088032;
 39;    0.167493;    0.964755;    1.049443;    1.117503;    1.133557;    1.167026;    1.194485;    1.183958;    1.119639;    1.063391;
 40;    0.165118;    1.006758;    1.098064;    1.143680;    1.201236;    1.238184;    1.244376;    1.224762;    1.189695;    1.115777;
 41;    0.165226;    0.998985;    1.089215;    1.146050;    1.210857;    1.204542;    1.228291;    1.229851;    1.163832;    1.082325;
 42;    0.169644;    1.008416;    1.082929;    1.150063;    1.219324;    1.250020;    1.238540;    1.247829;    1.190912;    1.098908;
 43;    0.170161;    1.017337;    1.104460;    1.190622;    1.253051;    1.252775;    1.260525;    1.251245;    1.196463;    1.122270;
 44;    0.167882;    1.014171;    1.110188;    1.178794;    1.242118;    1.283141;    1.258047;    1.235573;    1.218479;    1.128789;
 45;    0.169405;    0.982313;    1.064556;    1.132059;    1.187537;    1.243406;    1.240335;    1.186796;    1.139803;    1.087602;
 46;    0.166828;    1.013114;    1.094671;    1.169354;    1.234714;    1.276452;    1.282527;    1.248237;    1.193133;    1.125951;
 47;    0.166575;    1.019676;    1.107452;    1.188754;    1.253330;    1.291444;    1.252175;    1.228288;    1.208891;    1.130644;
 48;    0.167293;    0.996642;    1.056327;    1.131587;    1.204201;    1.260829;    1.235096;    1.236970;    1.190684;    1.096553;
 49;    0.167496;    0.999100;    1.074792;    1.133176;    1.147621;    1.201477;    1.219297;    1.223583;    1.186147;    1.097061;
 50;    0.167457;    0.996412;    1.095730;    1.160778;    1.188565;    1.237625;    1.239263;    1.224787;    1.193116;    1.092948;
 51;    0.167174;    1.036781;    1.130244;    1.189159;    1.239818;    1.249848;    1.259593;    1.241481;    1.213121;    1.171047;
 52;    0.167008;    0.997729;    1.082205;    1.152155;    1.229540;    1.250876;    1.228151;    1.202048;    1.182337;    1.089755;
 53;    0.168323;    1.000006;    1.076862;    1.174086;    1.219589;    1.233850;    1.224110;    1.194307;    1.146465;    1.072931;
 54;    0.167373;    1.024089;    1.088485;    1.179342;    1.228666;    1.256687;    1.293690;    1.291724;    1.203596;    1.125928;
 55;    0.166902;    0.977591;    1.056621;    1.123242;    1.164047;    1.184847;    1.213113;    1.203759;    1.156344;    1.085150;
 56;    0.168740;    0.985476;    1.072070;    1.143953;    1.189592;    1.221337;    1.190756;    1.144279;    1.145064;    1.102649;
 57;    0.168151;    1.009980;    1.101658;    1.167671;    1.226576;    1.265228;    1.277826;    1.225029;    1.168772;    1.129889;
 58;    0.174968;    1.014861;    1.098264;    1.168736;    1.222200;    1.242298;    1.285115;    1.263389;    1.216889;    1.147636;
 59;    0.168724;    0.995588;    1.100650;    1.145682;    1.177101;    1.204617;    1.225338;    1.201748;    1.166624;    1.140339;
 60;    0.168068;    1.006892;    1.097367;    1.155314;    1.208027;    1.237645;    1.246227;    1.244087;    1.175751;    1.085756;
 61;    0.167037;    0.988249;    1.076900;    1.140506;    1.204873;    1.233772;    1.218440;    1.231254;    1.169477;    1.097795;
 62;    0.168211;    0.988591;    1.067547;    1.141031;    1.200553;    1.213979;    1.221448;    1.194920;    1.162976;    1.097511;
 63;    0.166323;    0.993092;    1.071470;    1.129527;    1.167379;    1.203959;    1.193187;    1.212947;    1.185721;    1.128883;
 64;    0.170677;    1.007813;    1.091178;    1.148631;    1.222978;    1.272566;    1.253627;    1.245735;    1.196783;    1.119757;
 65;    0.169799;    0.978066;    1.059522;    1.135102;    1.186595;    1.212373;    1.238999;    1.221232;    1.127139;    1.060999;
 66;    0.167910;    1.006375;    1.103844;    1.179588;    1.202662;    1.241022;    1.272145;    1.246948;    1.204130;    1.120850;
 67;    0.169267;    1.002912;    1.081153;    1.135732;    1.194089;    1.224287;    1.191753;    1.161216;    1.166192;    1.092422;
 68;    0.167568;    0.996797;    1.070304;    1.138625;    1.179290;    1.235935;    1.248054;    1.249855;    1.187126;    1.109374;
 69;    0.165741;    0.981896;    1.072768;    1.156649;    1.207684;    1.244138;    1.263705;    1.239440;    1.159669;    1.104738;
 70;    0.169568;    1.016670;    1.086112;    1.177088;    1.239440;    1.241737;    1.234487;    1.218059;    1.196467;    1.124123;
 71;    0.168933;    1.000644;    1.053680;    1.134518;    1.186807;    1.220896;    1.230592;    1.248312;    1.211140;    1.141792;
 72;    0.166775;    1.005761;    1.114938;    1.175831;    1.219772;    1.263444;    1.269383;    1.258664;    1.178595;    1.151571;
 73;    0.168920;    1.034649;    1.133510;    1.208911;    1.286725;    1.329903;    1.339002;    1.278766;    1.247177;    1.169109;
 74;    0.170052;    0.994621;    1.095093;    1.135832;    1.194441;    1.196513;    1.225619;    1.221896;    1.168736;    1.094026;
 75;    0.173213;    0.995924;    1.069984;    1.148705;    1.211275;    1.243746;    1.264971;    1.211863;    1.159052;    1.114119;
 76;    0.166410;    1.005547;    1.107631;    1.164694;    1.220186;    1.228661;    1.253288;    1.212214;    1.187787;    1.112894;
 77;    0.168311;    0.967958;    1.041890;    1.114676;    1.177730;    1.199771;    1.203605;    1.160400;    1.121415;    1.062909;
 78;    0.165365;    0.991929;    1.080575;    1.152863;    1.193992;    1.210748;    1.206876;    1.209427;    1.146203;    1.101755;
 79;    0.169059;    1.009272;    1.088541;    1.169426;    1.228752;    1.272991;    1.236325;    1.219922;    1.201104;    1.097552;
 80;    0.164945;    0.978092;    1.065152;    1.143606;    1.192596;    1.222385;    1.192330;    1.190302;    1.160992;    1.073338;
 81;    0.167522;    0.990917;    1.074657;    1.148015;    1.186986;    1.221704;    1.259249;    1.253820;    1.198426;    1.098196;
 82;    0.168040;    0.980842;    1.073426;    1.167286;    1.230407;    1.268825;    1.256795;    1.241076;    1.177828;    1.094100;
 83;    0.165316;    0.964129;    1.038985;    1.104635;    1.158030;    1.197016;    1.197216;    1.179208;    1.143802;    1.075278;
 84;    0.167712;    0.997938;    1.090216;    1.148277;    1.195346;    1.244948;    1.230994;    1.171021;    1.146902;    1.127393;
 85;    0.168943;    1.005966;    1.082294;    1.170201;    1.227510;    1.235970;    1.278164;    1.245590;    1.222429;    1.157408;
 86;    0.167018;    0.997340;    1.075694;    1.140656;    1.199786;    1.234942;    1.261624;    1.231909;    1.163715;    1.122614;
 87;    0.166796;    0.982959;    1.068662;    1.140274;    1.183665;    1.192577;    1.187152;    1.167346;    1.149052;    1.110267;
 88;    0.168525;    1.012110;    1.099886;    1.166191;    1.204892;    1.271363;    1.282204;    1.280436;    1.233070;    1.119525;
 89;    0.166373;    1.020964;    1.113792;    1.172099;    1.247562;    1.278639;    1.268923;    1.259795;    1.225871;    1.111648;
 90;    0.195455;    0.986709;    1.068310;    1.141347;    1.205936;    1.254922;    1.250027;    1.226452;    1.180515;    1.106722;
 91;    0.168603;    1.016083;    1.102698;    1.191818;    1.221769;    1.253299;    1.240075;    1.247399;    1.201149;    1.126521;
 92;    0.168145;    0.985502;    1.073499;    1.146683;    1.209695;    1.191357;    1.206390;    1.186657;    1.150582;    1.106541;
 93;    0.169265;    1.003812;    1.101583;    1.178888;    1.248880;    1.291646;    1.281485;    1.212799;    1.165650;    1.117698;
 94;    0.168047;    1.002569;    1.086293;    1.141401;    1.201156;    1.246203;    1.239619;    1.231973;    1.185500;    1.100653;
 95;    0.168980;    1.014862;    1.106381;    1.192212;    1.243141;    1.260096;    1.243650;    1.225643;    1.177830;    1.088786;
 96;    0.167992;    0.998739;    1.078679;    1.174127;    1.244774;    1.282230;    1.286320;    1.217356;    1.166374;    1.102387;
 97;    0.166742;    1.031991;    1.101356;    1.185982;    1.232863;    1.250983;    1.266106;    1.219556;    1.199697;    1.171215;
 98;    0.167006;    1.002473;    1.085622;    1.178035;    1.223640;    1.235971;    1.240314;    1.244043;    1.223230;    1.131019;
 99;    0.168137;    0.978209;    1.051078;    1.128184;    1.167968;    1.210642;    1.230283;    1.233896;    1.152512;    1.089761;
100;    0.168206;    0.979944;    1.052760;    1.126477;    1.208934;    1.231658;    1.231716;    1.192780;    1.165329;    1.080921;
