Simulation;Time;PC0;PC1;PC2;PC3;PC4;PC5;PC6;PC7;PC8;
Nan;Nan;0;0;0;1;0;0;0;0;0;
  0;    0.039112;    0.999735;    0.689171;    0.464221;    0.334881;    0.413996;    0.510030;    0.608974;    0.717602;    0.849627;
  1;    0.024322;    1.037288;    0.728864;    0.474110;    0.342265;    0.431182;    0.523449;    0.619774;    0.741776;    0.881123;
  2;    0.022939;    1.040879;    0.732856;    0.491955;    0.350535;    0.436880;    0.532446;    0.647379;    0.775195;    0.897511;
  3;    0.022341;    0.980819;    0.685084;    0.483307;    0.347273;    0.423200;    0.503421;    0.609295;    0.721893;    0.845367;
  4;    0.021522;    1.035172;    0.721254;    0.503695;    0.353788;    0.438691;    0.546125;    0.648469;    0.758226;    0.895168;
  5;    0.020774;    0.994798;    0.680199;    0.458614;    0.337823;    0.419764;    0.507654;    0.605360;    0.722273;    0.863992;
  6;    0.019088;    1.011370;    0.705894;    0.462693;    0.338913;    0.412967;    0.507848;    0.613871;    0.724880;    0.858009;
  7;    0.022219;    1.017089;    0.702827;    0.478653;    0.348641;    0.423383;    0.521834;    0.627179;    0.748174;    0.875735;
  8;    0.024659;    0.971927;    0.667617;    0.457340;    0.337260;    0.406267;    0.506468;    0.613518;    0.727840;    0.831575;
  9;    0.019405;    1.003613;    0.701832;    0.472182;    0.345475;    0.417929;    0.517650;    0.619696;    0.735195;    0.872385;
 10;    0.022254;    1.022722;    0.717087;    0.481535;    0.346362;    0.438758;    0.533423;    0.635153;    0.763466;    0.892016;
 11;    0.022756;    0.987842;    0.698408;    0.460272;    0.339003;    0.418846;    0.515610;    0.613164;    0.729076;    0.851305;
 12;    0.020887;    0.968160;    0.687011;    0.452619;    0.337594;    0.423191;    0.507313;    0.601063;    0.723130;    0.846918;
 13;    0.019378;    1.003810;    0.680637;    0.466083;    0.337778;    0.419670;    0.510174;    0.623010;    0.724001;    0.862107;
 14;    0.020106;    0.985054;    0.691708;    0.469774;    0.333961;    0.415161;    0.511644;    0.608425;    0.718023;    0.851935;
 15;    0.018476;    1.022303;    0.683137;    0.471636;    0.335687;    0.416777;    0.507127;    0.630550;    0.748813;    0.869588;
 16;    0.018583;    1.002438;    0.706320;    0.477809;    0.346817;    0.425823;    0.514060;    0.630933;    0.731711;    0.870660;
 17;    0.020730;    0.974912;    0.681545;    0.485010;    0.336932;    0.410700;    0.504719;    0.596269;    0.715294;    0.835715;
 18;    0.022563;    0.942375;    0.665290;    0.455264;    0.333536;    0.405413;    0.492067;    0.588257;    0.682392;    0.808215;
 19;    0.019618;    0.977908;    0.663238;    0.438816;    0.332984;    0.408192;    0.500388;    0.589996;    0.713866;    0.842161;
 20;    0.018710;    1.031293;    0.695957;    0.474661;    0.341836;    0.433058;    0.532832;    0.644708;    0.757359;    0.891137;
 21;    0.022756;    1.012766;    0.682118;    0.465806;    0.339985;    0.428024;    0.522608;    0.633431;    0.755211;    0.884862;
 22;    0.022650;    1.010506;    0.685801;    0.465560;    0.348131;    0.439864;    0.538525;    0.634360;    0.741972;    0.867840;
 23;    0.022390;    0.982161;    0.675483;    0.447088;    0.338096;    0.417524;    0.512054;    0.617516;    0.736209;    0.853334;
 24;    0.019046;    1.035903;    0.728522;    0.484353;    0.351336;    0.434027;    0.530558;    0.643202;    0.766433;    0.898744;
 25;    0.020087;    0.986779;    0.693736;    0.468826;    0.337672;    0.418344;    0.506100;    0.602598;    0.711160;    0.846387;
 26;    0.018509;    1.001279;    0.693189;    0.471921;    0.347407;    0.432913;    0.534078;    0.642453;    0.747194;    0.857418;
 27;    0.027246;    1.008146;    0.681154;    0.464887;    0.342351;    0.419539;    0.504678;    0.619894;    0.744931;    0.873834;
 28;    0.019906;    1.016261;    0.681355;    0.464373;    0.344860;    0.431060;    0.530353;    0.630198;    0.740390;    0.867836;
 29;    0.018630;    1.045898;    0.695266;    0.472823;    0.348849;    0.430857;    0.527161;    0.642071;    0.761005;    0.893608;
 30;    0.019825;    1.018663;    0.698805;    0.478462;    0.344108;    0.419384;    0.517375;    0.633382;    0.746614;    0.872784;
 31;    0.021309;    1.019540;    0.701240;    0.463126;    0.339422;    0.420816;    0.528028;    0.629052;    0.757297;    0.887604;
 32;    0.018977;    0.998188;    0.735070;    0.462108;    0.340763;    0.426261;    0.537588;    0.641570;    0.749010;    0.858440;
 33;    0.018344;    1.021161;    0.691584;    0.457472;    0.337261;    0.417489;    0.518594;    0.619467;    0.756429;    0.889701;
 34;    0.022546;    1.034101;    0.697231;    0.473443;    0.345740;    0.440717;    0.534293;    0.639651;    0.768005;    0.889070;
 35;    0.022183;    0.999531;    0.697043;    0.464213;    0.344396;    0.441064;    0.531346;    0.632115;    0.729889;    0.868851;
 36;    0.022449;    0.974850;    0.714854;    0.476890;    0.337183;    0.409544;    0.499680;    0.597133;    0.710481;    0.839073;
 37;    0.022589;    1.006100;    0.708331;    0.480962;    0.338571;    0.414044;    0.512803;    0.635035;    0.750083;    0.871810;
 38;    0.018682;    0.996128;    0.678474;    0.457581;    0.338773;    0.414613;    0.501095;    0.610724;    0.728452;    0.851080;
 39;    0.019779;    0.954319;    0.668325;    0.452429;    0.329207;    0.408210;    0.497412;    0.594972;    0.707533;    0.818419;
 40;    0.019155;    1.032127;    0.730626;    0.473692;    0.341820;    0.424285;    0.518077;    0.632757;    0.746873;    0.876759;
 41;    0.022380;    0.999501;    0.691018;    0.454181;    0.339288;    0.422696;    0.509468;    0.618219;    0.736723;    0.860847;
 42;    0.021800;    1.036559;    0.693359;    0.474236;    0.341130;    0.426566;    0.513044;    0.627295;    0.757011;    0.899147;
 43;    0.019079;    1.019695;    0.691000;    0.471000;    0.345297;    0.427407;    0.530361;    0.638930;    0.754328;    0.871189;
 44;    0.022565;    1.009101;    0.707927;    0.460141;    0.344074;    0.425672;    0.529384;    0.630621;    0.749580;    0.865841;
 45;    0.021890;    0.971192;    0.661972;    0.450828;    0.332987;    0.410727;    0.502572;    0.607941;    0.717601;    0.833788;
 46;    0.018728;    1.021816;    0.695950;    0.469805;    0.343987;    0.420999;    0.514064;    0.617366;    0.734000;    0.876678;
 47;    0.018430;    1.014561;    0.684342;    0.476242;    0.345910;    0.422265;    0.519876;    0.623911;    0.741969;    0.870361;
 48;    0.023306;    0.964385;    0.668338;    0.461848;    0.339241;    0.427492;    0.515176;    0.608918;    0.713332;    0.840872;
 49;    0.022620;    0.972625;    0.669578;    0.463604;    0.338729;    0.415695;    0.505436;    0.594626;    0.708019;    0.828690;
 50;    0.019127;    1.012825;    0.694340;    0.462202;    0.336825;    0.420793;    0.519996;    0.615951;    0.737623;    0.863463;
 51;    0.019441;    1.033792;    0.712095;    0.488245;    0.351605;    0.429008;    0.528062;    0.637207;    0.755496;    0.886567;
 52;    0.018345;    1.015954;    0.705386;    0.476188;    0.339744;    0.426539;    0.540572;    0.639585;    0.746628;    0.866485;
 53;    0.022929;    0.987072;    0.739800;    0.469244;    0.339603;    0.412592;    0.494376;    0.594148;    0.718016;    0.849469;
 54;    0.019830;    1.049218;    0.732219;    0.462855;    0.345562;    0.430159;    0.521767;    0.633828;    0.754270;    0.899057;
 55;    0.019848;    0.983792;    0.667978;    0.453813;    0.330668;    0.426641;    0.517486;    0.618376;    0.723214;    0.849020;
 56;    0.021739;    1.012621;    0.694421;    0.459312;    0.332468;    0.410487;    0.503330;    0.614351;    0.734594;    0.870168;
 57;    0.019207;    1.032350;    0.718018;    0.476128;    0.343030;    0.424666;    0.515136;    0.619700;    0.748979;    0.889866;
 58;    0.018694;    1.014523;    0.703818;    0.463967;    0.343053;    0.415672;    0.518751;    0.619708;    0.740008;    0.875130;
 59;    0.022436;    0.998361;    0.698824;    0.483804;    0.339789;    0.428632;    0.520906;    0.607213;    0.728617;    0.873204;
 60;    0.019895;    0.998046;    0.689948;    0.465493;    0.342170;    0.426932;    0.517385;    0.630736;    0.741703;    0.858268;
 61;    0.018757;    0.983823;    0.677676;    0.448189;    0.335101;    0.416954;    0.512899;    0.617519;    0.735720;    0.864468;
 62;    0.018413;    0.991681;    0.680464;    0.471631;    0.336903;    0.409144;    0.517739;    0.618493;    0.723721;    0.848008;
 63;    0.019669;    1.030703;    0.696665;    0.452767;    0.334670;    0.430384;    0.521428;    0.630056;    0.753945;    0.884985;
 64;    0.018632;    1.011515;    0.696611;    0.480104;    0.342367;    0.426524;    0.524966;    0.625533;    0.752035;    0.882393;
 65;    0.021530;    0.973070;    0.682767;    0.451443;    0.331518;    0.410183;    0.508638;    0.604719;    0.715636;    0.832571;
 66;    0.021318;    0.988465;    0.683420;    0.465073;    0.343360;    0.443619;    0.535858;    0.621355;    0.734620;    0.848743;
 67;    0.019337;    0.959613;    0.666296;    0.449326;    0.340415;    0.411309;    0.498683;    0.600666;    0.716005;    0.834331;
 68;    0.021478;    0.994653;    0.680769;    0.459470;    0.339754;    0.439201;    0.525602;    0.628311;    0.733184;    0.859806;
 69;    0.018613;    0.980134;    0.691492;    0.467199;    0.335317;    0.414338;    0.518694;    0.620209;    0.725150;    0.853580;
 70;    0.020760;    1.024593;    0.718912;    0.460563;    0.344053;    0.422621;    0.523822;    0.628837;    0.754940;    0.881202;
 71;    0.022571;    0.996839;    0.677798;    0.456485;    0.338817;    0.418165;    0.505917;    0.620372;    0.740872;    0.864778;
 72;    0.018573;    0.996708;    0.669184;    0.460475;    0.341403;    0.426281;    0.512364;    0.612568;    0.731518;    0.863456;
 73;    0.021737;    1.036179;    0.705188;    0.479621;    0.352032;    0.441288;    0.536891;    0.647993;    0.758656;    0.892710;
 74;    0.018995;    1.021463;    0.686970;    0.478396;    0.338005;    0.421836;    0.510537;    0.622992;    0.745214;    0.868733;
 75;    0.018407;    1.027953;    0.725203;    0.467138;    0.338459;    0.413673;    0.528454;    0.654339;    0.772242;    0.887518;
 76;    0.023386;    1.013887;    0.680213;    0.456815;    0.340121;    0.420016;    0.506043;    0.614481;    0.727167;    0.870398;
 77;    0.021732;    0.974466;    0.674989;    0.445632;    0.328382;    0.409213;    0.500020;    0.602921;    0.732750;    0.848380;
 78;    0.019950;    0.997991;    0.706602;    0.470611;    0.337279;    0.415491;    0.506703;    0.597234;    0.721735;    0.858719;
 79;    0.023206;    1.004288;    0.688843;    0.459572;    0.341434;    0.412553;    0.502339;    0.611435;    0.731212;    0.858311;
 80;    0.019214;    1.010707;    0.691883;    0.461194;    0.331466;    0.413972;    0.505623;    0.612100;    0.733468;    0.865022;
 81;    0.020274;    0.981865;    0.675411;    0.463975;    0.337789;    0.425507;    0.527024;    0.614568;    0.731594;    0.853089;
 82;    0.018467;    0.987482;    0.674571;    0.454888;    0.333940;    0.432622;    0.517178;    0.617380;    0.726343;    0.851723;
 83;    0.021230;    0.948092;    0.660095;    0.441947;    0.328206;    0.404293;    0.489381;    0.595871;    0.698785;    0.826194;
 84;    0.018548;    0.982949;    0.718125;    0.475628;    0.339756;    0.408252;    0.500522;    0.603023;    0.717627;    0.855234;
 85;    0.018674;    0.988457;    0.692491;    0.464453;    0.343277;    0.433112;    0.525661;    0.615733;    0.731743;    0.857306;
 86;    0.018625;    1.037650;    0.704838;    0.465384;    0.337718;    0.426676;    0.519714;    0.631974;    0.757547;    0.884146;
 87;    0.019061;    1.004755;    0.680115;    0.453679;    0.332961;    0.412747;    0.512419;    0.609792;    0.720268;    0.858578;
 88;    0.022481;    1.051366;    0.716412;    0.482352;    0.343668;    0.436381;    0.538295;    0.648967;    0.779798;    0.908123;
 89;    0.020377;    1.027126;    0.713411;    0.486639;    0.347711;    0.433824;    0.526945;    0.637298;    0.758916;    0.877802;
 90;    0.020744;    0.986258;    0.691535;    0.452964;    0.333646;    0.408710;    0.501012;    0.603761;    0.725215;    0.852463;
 91;    0.020076;    1.033389;    0.712809;    0.472102;    0.343905;    0.421050;    0.521891;    0.628397;    0.752733;    0.887525;
 92;    0.023351;    0.997953;    0.685769;    0.472254;    0.335397;    0.409539;    0.504067;    0.612404;    0.741308;    0.869538;
 93;    0.022826;    1.000345;    0.691572;    0.472668;    0.340648;    0.416263;    0.517450;    0.616848;    0.727242;    0.855851;
 94;    0.019828;    1.005611;    0.693117;    0.455209;    0.339311;    0.419282;    0.508809;    0.610395;    0.731517;    0.857351;
 95;    0.020974;    1.020684;    0.695268;    0.470106;    0.343001;    0.416471;    0.514399;    0.631362;    0.747678;    0.886509;
 96;    0.018509;    1.028116;    0.699106;    0.462647;    0.338914;    0.438608;    0.529311;    0.634063;    0.761231;    0.885912;
 97;    0.022646;    1.012666;    0.720004;    0.487483;    0.352251;    0.436700;    0.534348;    0.622819;    0.745272;    0.868669;
 98;    0.018632;    1.017308;    0.712499;    0.473306;    0.341004;    0.421174;    0.506868;    0.622480;    0.743654;    0.881526;
 99;    0.019367;    1.007688;    0.676389;    0.457484;    0.331225;    0.418790;    0.511212;    0.622564;    0.741525;    0.860664;
100;    0.020558;    0.987944;    0.670047;    0.462935;    0.332258;    0.408228;    0.509465;    0.609815;    0.718428;    0.853459;
