Simulation;Time;PC0;PC1;PC2;PC3;PC4;PC5;PC6;PC7;PC8;
Nan;Nan;0;0;0;1;0;0;0;0;0;
  0;    0.194324;    0.994205;    0.841560;    0.740719;    0.690267;    0.718962;    0.751401;    0.738240;    0.722968;    0.694463;
  1;    0.170194;    1.027029;    0.882500;    0.754859;    0.701357;    0.745048;    0.746755;    0.757427;    0.744810;    0.713775;
  2;    0.166156;    1.038034;    0.894260;    0.780927;    0.722395;    0.770068;    0.774749;    0.780156;    0.766933;    0.747691;
  3;    0.166107;    0.994390;    0.859053;    0.779790;    0.728424;    0.759170;    0.784445;    0.804304;    0.788231;    0.749200;
  4;    0.170780;    1.035533;    0.884294;    0.801657;    0.729013;    0.766656;    0.764419;    0.773772;    0.774550;    0.742361;
  5;    0.178238;    0.995399;    0.841207;    0.744824;    0.704889;    0.745683;    0.762022;    0.772078;    0.759514;    0.746822;
  6;    0.164890;    1.006751;    0.858758;    0.742116;    0.704087;    0.726967;    0.748875;    0.762464;    0.740511;    0.709303;
  7;    0.166437;    1.020435;    0.871857;    0.775291;    0.727179;    0.754416;    0.770263;    0.782942;    0.755950;    0.725708;
  8;    0.177867;    0.980428;    0.836535;    0.745081;    0.710840;    0.735971;    0.776174;    0.787891;    0.777218;    0.720176;
  9;    0.165170;    1.008380;    0.866706;    0.764708;    0.723184;    0.751011;    0.782862;    0.788897;    0.765418;    0.748459;
 10;    0.168857;    1.020988;    0.876031;    0.768953;    0.716059;    0.753182;    0.770583;    0.781649;    0.769179;    0.736816;
 11;    0.164517;    0.990934;    0.857881;    0.747177;    0.706620;    0.738163;    0.763568;    0.756166;    0.739924;    0.716648;
 12;    0.165683;    0.977008;    0.852383;    0.744214;    0.707126;    0.744687;    0.764808;    0.762065;    0.739950;    0.710095;
 13;    0.167740;    1.000755;    0.839883;    0.751879;    0.699457;    0.727570;    0.754342;    0.757833;    0.741705;    0.723496;
 14;    0.164122;    0.983045;    0.842698;    0.745417;    0.692450;    0.726020;    0.746478;    0.735912;    0.712052;    0.687885;
 15;    0.166856;    1.011050;    0.839966;    0.749277;    0.687437;    0.711488;    0.725860;    0.737863;    0.747966;    0.696655;
 16;    0.173774;    1.008080;    0.872393;    0.773245;    0.722362;    0.749986;    0.757905;    0.766510;    0.766597;    0.757642;
 17;    0.166002;    0.979741;    0.840733;    0.770566;    0.700156;    0.730786;    0.733054;    0.743189;    0.740926;    0.707017;
 18;    0.164788;    0.956952;    0.834445;    0.747008;    0.703335;    0.737252;    0.745861;    0.759414;    0.742384;    0.714212;
 19;    0.164024;    0.980866;    0.825778;    0.727602;    0.702820;    0.729803;    0.759003;    0.760128;    0.753139;    0.722324;
 20;    0.163648;    1.022192;    0.851851;    0.756768;    0.703594;    0.747427;    0.769825;    0.781452;    0.763482;    0.729666;
 21;    0.167506;    1.008173;    0.839662;    0.752087;    0.703467;    0.728560;    0.756710;    0.760818;    0.740917;    0.709191;
 22;    0.167180;    1.014797;    0.856027;    0.766731;    0.722852;    0.746261;    0.774306;    0.755447;    0.752185;    0.730337;
 23;    0.164192;    0.987871;    0.842407;    0.742079;    0.710756;    0.756295;    0.762824;    0.767327;    0.751678;    0.725248;
 24;    0.166430;    1.034290;    0.891723;    0.779439;    0.725076;    0.762557;    0.780798;    0.767576;    0.770236;    0.742507;
 25;    0.165003;    0.988792;    0.853219;    0.747986;    0.702128;    0.741678;    0.751156;    0.744128;    0.731745;    0.709498;
 26;    0.167029;    1.008558;    0.864272;    0.770318;    0.725500;    0.765079;    0.786765;    0.806479;    0.780044;    0.738391;
 27;    0.168394;    1.008204;    0.846429;    0.757799;    0.712341;    0.745399;    0.760257;    0.782639;    0.768790;    0.724709;
 28;    0.165089;    1.016373;    0.847786;    0.759170;    0.717207;    0.752553;    0.786030;    0.771299;    0.761499;    0.722686;
 29;    0.166495;    1.039688;    0.861419;    0.770046;    0.719960;    0.756344;    0.771326;    0.779772;    0.760032;    0.723973;
 30;    0.166544;    1.016388;    0.859819;    0.763491;    0.714232;    0.752346;    0.768909;    0.775126;    0.772152;    0.731471;
 31;    0.167369;    1.012759;    0.856340;    0.743926;    0.702438;    0.738294;    0.764938;    0.764668;    0.764372;    0.713496;
 32;    0.166031;    0.999629;    0.896569;    0.753344;    0.703336;    0.742793;    0.747899;    0.778157;    0.767594;    0.718018;
 33;    0.165093;    1.013916;    0.851615;    0.738068;    0.701487;    0.731743;    0.762775;    0.751931;    0.735266;    0.730421;
 34;    0.164355;    1.029155;    0.863757;    0.762877;    0.713695;    0.752717;    0.748666;    0.759567;    0.759116;    0.733247;
 35;    0.165585;    1.003977;    0.862464;    0.760217;    0.718589;    0.757571;    0.761151;    0.771974;    0.764983;    0.756377;
 36;    0.166195;    0.979940;    0.871748;    0.757852;    0.701717;    0.731786;    0.761777;    0.756564;    0.745755;    0.712711;
 37;    0.168281;    1.001017;    0.860621;    0.755201;    0.692982;    0.726858;    0.740416;    0.758179;    0.737023;    0.694897;
 38;    0.166658;    0.996941;    0.839413;    0.745355;    0.708108;    0.736613;    0.755178;    0.751445;    0.741342;    0.707846;
 39;    0.165473;    0.958232;    0.822765;    0.732964;    0.681837;    0.716034;    0.720978;    0.722875;    0.708721;    0.685190;
 40;    0.165316;    1.022614;    0.882670;    0.751623;    0.699371;    0.735415;    0.762047;    0.773528;    0.744672;    0.709537;
 41;    0.164185;    0.999308;    0.850355;    0.738900;    0.710711;    0.746828;    0.752174;    0.739484;    0.732326;    0.711292;
 42;    0.165472;    1.026005;    0.849913;    0.753558;    0.701484;    0.733765;    0.751353;    0.750980;    0.739711;    0.724936;
 43;    0.168839;    1.018811;    0.858511;    0.765414;    0.714866;    0.744064;    0.764615;    0.783530;    0.769006;    0.731489;
 44;    0.165863;    1.011002;    0.871774;    0.754496;    0.718927;    0.763948;    0.789979;    0.795626;    0.773645;    0.730844;
 45;    0.166775;    0.975362;    0.823422;    0.735331;    0.697219;    0.725931;    0.757208;    0.779628;    0.754172;    0.700250;
 46;    0.167384;    1.018553;    0.856296;    0.757784;    0.716311;    0.740339;    0.762992;    0.770402;    0.756385;    0.743112;
 47;    0.168244;    1.016479;    0.855012;    0.767453;    0.722323;    0.750849;    0.787486;    0.776976;    0.764601;    0.738348;
 48;    0.177047;    0.976482;    0.836396;    0.756736;    0.715268;    0.736796;    0.755219;    0.767228;    0.753141;    0.746947;
 49;    0.169442;    0.982553;    0.836511;    0.754374;    0.714718;    0.742297;    0.753093;    0.749022;    0.758769;    0.722203;
 50;    0.169597;    1.006670;    0.851286;    0.741361;    0.696970;    0.725060;    0.760067;    0.759585;    0.748110;    0.707730;
 51;    0.168846;    1.034913;    0.879632;    0.782454;    0.733135;    0.762781;    0.785956;    0.784649;    0.773976;    0.755445;
 52;    0.169048;    1.009120;    0.858655;    0.753763;    0.695868;    0.729347;    0.748491;    0.751716;    0.732781;    0.701710;
 53;    0.168636;    0.991923;    0.921654;    0.750875;    0.707379;    0.750083;    0.754237;    0.757150;    0.735439;    0.722805;
 54;    0.169371;    1.039794;    0.888805;    0.748379;    0.715171;    0.756084;    0.767580;    0.768799;    0.760741;    0.749021;
 55;    0.168000;    0.981466;    0.825575;    0.731744;    0.689280;    0.738176;    0.739662;    0.742608;    0.727908;    0.703912;
 56;    0.169351;    1.002442;    0.847299;    0.730290;    0.685163;    0.713011;    0.724314;    0.719067;    0.712683;    0.702775;
 57;    0.166180;    1.023961;    0.869646;    0.754872;    0.706274;    0.736519;    0.753136;    0.768046;    0.745148;    0.731437;
 58;    0.168230;    1.014650;    0.867644;    0.752939;    0.718144;    0.745246;    0.770135;    0.768835;    0.768590;    0.748691;
 59;    0.169821;    0.997322;    0.851410;    0.763624;    0.702267;    0.723177;    0.752435;    0.751338;    0.738364;    0.730882;
 60;    0.165885;    1.001363;    0.852977;    0.751874;    0.718399;    0.740567;    0.765800;    0.775269;    0.740999;    0.712203;
 61;    0.169791;    0.985483;    0.840615;    0.734159;    0.699533;    0.735308;    0.766245;    0.762937;    0.738158;    0.708240;
 62;    0.167699;    0.990522;    0.838655;    0.754896;    0.694147;    0.727274;    0.738010;    0.743069;    0.726601;    0.705261;
 63;    0.169441;    1.016599;    0.845587;    0.729666;    0.688853;    0.721552;    0.733991;    0.740254;    0.744370;    0.711181;
 64;    0.167362;    1.010127;    0.859949;    0.765824;    0.705147;    0.736319;    0.768620;    0.762717;    0.767621;    0.725922;
 65;    0.168309;    0.974943;    0.837175;    0.730016;    0.694589;    0.731458;    0.753795;    0.737164;    0.721877;    0.698142;
 66;    0.167469;    0.995181;    0.848958;    0.758560;    0.719232;    0.771846;    0.780162;    0.769287;    0.769773;    0.721294;
 67;    0.167188;    0.975850;    0.846485;    0.755162;    0.716532;    0.740957;    0.770272;    0.780462;    0.775363;    0.714183;
 68;    0.167766;    0.995457;    0.838321;    0.749273;    0.707611;    0.729400;    0.740843;    0.751562;    0.746752;    0.716841;
 69;    0.167562;    0.980795;    0.847655;    0.747535;    0.690230;    0.726750;    0.770370;    0.760579;    0.743458;    0.713086;
 70;    0.169025;    1.021622;    0.878746;    0.749090;    0.714500;    0.747643;    0.786442;    0.774215;    0.762735;    0.719767;
 71;    0.167579;    0.998266;    0.844812;    0.746300;    0.706448;    0.727327;    0.750845;    0.763360;    0.758730;    0.740692;
 72;    0.166995;    1.000103;    0.837866;    0.754372;    0.715749;    0.764231;    0.772589;    0.780549;    0.764503;    0.721856;
 73;    0.165616;    1.035606;    0.871881;    0.777179;    0.732673;    0.760200;    0.785992;    0.799252;    0.781063;    0.752821;
 74;    0.167593;    1.011397;    0.838292;    0.752777;    0.695902;    0.724362;    0.744261;    0.747008;    0.749138;    0.705862;
 75;    0.166823;    1.015942;    0.874923;    0.743954;    0.690336;    0.725165;    0.745375;    0.741294;    0.722635;    0.707427;
 76;    0.175666;    1.010760;    0.842907;    0.747281;    0.710074;    0.745332;    0.754223;    0.769904;    0.746917;    0.722976;
 77;    0.169711;    0.972026;    0.828237;    0.723840;    0.678615;    0.707769;    0.716739;    0.726357;    0.706240;    0.689854;
 78;    0.169991;    0.995718;    0.857768;    0.747689;    0.696054;    0.724928;    0.751798;    0.744632;    0.732838;    0.712824;
 79;    0.167681;    1.006157;    0.851656;    0.749948;    0.716941;    0.740881;    0.767541;    0.782041;    0.764092;    0.729891;
 80;    0.179533;    0.998477;    0.836098;    0.729212;    0.680835;    0.708050;    0.731588;    0.733131;    0.734343;    0.692869;
 81;    0.169078;    0.985259;    0.837106;    0.750583;    0.701498;    0.734971;    0.756812;    0.751987;    0.755064;    0.719680;
 82;    0.165188;    0.984992;    0.831877;    0.736451;    0.689765;    0.731607;    0.750060;    0.753800;    0.730448;    0.703701;
 83;    0.166723;    0.954106;    0.819337;    0.725868;    0.682321;    0.712493;    0.734732;    0.737890;    0.720073;    0.702877;
 84;    0.167092;    0.988570;    0.880580;    0.757921;    0.706938;    0.734936;    0.755210;    0.756955;    0.731608;    0.724033;
 85;    0.168018;    0.995023;    0.855860;    0.759240;    0.715790;    0.743090;    0.772531;    0.770139;    0.762430;    0.749935;
 86;    0.169339;    1.022533;    0.853773;    0.742847;    0.691720;    0.728516;    0.750890;    0.755795;    0.758658;    0.709230;
 87;    0.167549;    0.996581;    0.832393;    0.731882;    0.687920;    0.717619;    0.720089;    0.728431;    0.722507;    0.702428;
 88;    0.167458;    1.036645;    0.864077;    0.760738;    0.703507;    0.733077;    0.772821;    0.766914;    0.763344;    0.720389;
 89;    0.167524;    1.024815;    0.875175;    0.772306;    0.717810;    0.746507;    0.780472;    0.766219;    0.771845;    0.717543;
 90;    0.167593;    0.986427;    0.849297;    0.731722;    0.699255;    0.726105;    0.750324;    0.743194;    0.747305;    0.711866;
 91;    0.167260;    1.026899;    0.869243;    0.756436;    0.708771;    0.740247;    0.754881;    0.761380;    0.755498;    0.732216;
 92;    0.169570;    0.993284;    0.835969;    0.744342;    0.693899;    0.716605;    0.733722;    0.736993;    0.730315;    0.696360;
 93;    0.167949;    1.001645;    0.851483;    0.757117;    0.711336;    0.747663;    0.767882;    0.762711;    0.742510;    0.715680;
 94;    0.168704;    1.004470;    0.853060;    0.741963;    0.708850;    0.735494;    0.747935;    0.761901;    0.739979;    0.723027;
 95;    0.164883;    1.018501;    0.858691;    0.755818;    0.716777;    0.748982;    0.773608;    0.786700;    0.743079;    0.715896;
 96;    0.166607;    1.017100;    0.849715;    0.741265;    0.699933;    0.750615;    0.752944;    0.754256;    0.736068;    0.707326;
 97;    0.168105;    1.019913;    0.888524;    0.784942;    0.731863;    0.755346;    0.775466;    0.787335;    0.767817;    0.737789;
 98;    0.168624;    1.011745;    0.864753;    0.753524;    0.702511;    0.736045;    0.751631;    0.756378;    0.742874;    0.719021;
 99;    0.166657;    0.996634;    0.829048;    0.727921;    0.680843;    0.714066;    0.734854;    0.752632;    0.742260;    0.689483;
100;    0.168903;    0.984944;    0.826461;    0.739760;    0.689728;    0.723887;    0.753804;    0.750180;    0.728567;    0.705343;
