Simulation;Time;PC 0;PC 1;PC 2;PC 3;PC 4;PC 5;PC 6;PC 7;PC 8;PC 9;PC10;PC11;PC12;PC13;PC14;PC15;PC16;PC17;
Nan;Nan;0;0;0;1;0;0;0;0;0;0;0;0;0;0;0;0;0;0;
  0;    3.932161;    0.996791;    0.563123;    0.369078;    0.235970;    0.256020;    0.276818;    0.300548;    0.346686;    0.390325;    0.433268;    0.494953;    0.570918;    0.690353;    0.943229;    1.383146;    4.191957;   11.076535;   51.102486;
  1;    2.743577;    1.029633;    0.588560;    0.370729;    0.241165;    0.260225;    0.282339;    0.307568;    0.341499;    0.382994;    0.444662;    0.513756;    0.626355;    0.811673;    1.060508;    1.535568;    2.710263;    7.944782;   24.926549;
  2;    2.784800;    1.025107;    0.594121;    0.379130;    0.242481;    0.265543;    0.286318;    0.313960;    0.340350;    0.376395;    0.415836;    0.467271;    0.550279;    0.653480;    0.818261;    1.076914;    2.658723;   10.530386;   36.551650;
  3;    3.722629;    0.975783;    0.558095;    0.384130;    0.245707;    0.267505;    0.292431;    0.324346;    0.357723;    0.400320;    0.457085;    0.524510;    0.617628;    0.718118;    0.930513;    1.448997;    2.983374;   14.283984;   54.702668;
  4;    2.937747;    1.027966;    0.583974;    0.399127;    0.246988;    0.270149;    0.295702;    0.320111;    0.352259;    0.397608;    0.447515;    0.512938;    0.638196;    0.778775;    0.968479;    1.470606;    2.310601;    4.456044;   35.424794;
  5;    2.565365;    0.999671;    0.557091;    0.367648;    0.243313;    0.268750;    0.290550;    0.321754;    0.352420;    0.398101;    0.437086;    0.487691;    0.572201;    0.724983;    0.901746;    1.199415;    1.767578;    7.061689;   31.769295;
  6;    3.263282;    1.007764;    0.574886;    0.367359;    0.241989;    0.261362;    0.286477;    0.309574;    0.338436;    0.379272;    0.429061;    0.514025;    0.626547;    0.771721;    1.051147;    1.422156;    1.911902;    6.464550;   42.372373;
  7;    3.394104;    1.013405;    0.565310;    0.364591;    0.242600;    0.263734;    0.286200;    0.320830;    0.362682;    0.398670;    0.465477;    0.543246;    0.640961;    0.810782;    1.236408;    1.564715;    3.226131;   10.243009;   44.797569;
  8;    3.415213;    0.973458;    0.543518;    0.360838;    0.239119;    0.258539;    0.281540;    0.307125;    0.341476;    0.384618;    0.443527;    0.512487;    0.602957;    0.726434;    0.864570;    1.177672;    2.532130;    9.158687;   41.994088;
  9;    3.067551;    0.998000;    0.571453;    0.372423;    0.244427;    0.266290;    0.289968;    0.320496;    0.362493;    0.410739;    0.473060;    0.554355;    0.661796;    0.853705;    1.095545;    1.394604;    2.782249;    9.254730;   51.210877;
 10;    3.880059;    1.014730;    0.583874;    0.384033;    0.245503;    0.267644;    0.296577;    0.331601;    0.363695;    0.410256;    0.466735;    0.578048;    0.694649;    0.852238;    1.106810;    1.822612;    5.095225;   14.388316;   55.709798;
 11;    2.089102;    0.985003;    0.569415;    0.371665;    0.246065;    0.264136;    0.281735;    0.311830;    0.357049;    0.412260;    0.487444;    0.574815;    0.703839;    0.845409;    1.028492;    1.311783;    1.940063;    4.409837;   24.544947;
 12;    3.155207;    0.960427;    0.558040;    0.357181;    0.241327;    0.260375;    0.281538;    0.307058;    0.335762;    0.384228;    0.426311;    0.490412;    0.585298;    0.728094;    0.955977;    1.467151;    4.260780;    8.709611;   43.361438;
 13;    3.764647;    1.012020;    0.556005;    0.370293;    0.242267;    0.260230;    0.283205;    0.307320;    0.338143;    0.379615;    0.429130;    0.494194;    0.569441;    0.745597;    0.985290;    1.377488;    3.033169;   11.333127;   49.129695;
 14;    2.952424;    0.979805;    0.560106;    0.369457;    0.238268;    0.259589;    0.283148;    0.305056;    0.350028;    0.392253;    0.462395;    0.546661;    0.648482;    0.752281;    0.979304;    1.658019;    2.589317;    4.445440;   37.704598;
 15;    2.918473;    1.031658;    0.552779;    0.372227;    0.235716;    0.255379;    0.281195;    0.316068;    0.345066;    0.389056;    0.433908;    0.516333;    0.611471;    0.739088;    0.944345;    1.290746;    1.788833;    4.888411;   36.554898;
 16;    3.293097;    0.997806;    0.575461;    0.373508;    0.248176;    0.267546;    0.288327;    0.322947;    0.359008;    0.404644;    0.459922;    0.517838;    0.599948;    0.725387;    0.903382;    1.231805;    2.331038;    7.362228;   41.613733;
 17;    4.328612;    0.970277;    0.554268;    0.367631;    0.238578;    0.255366;    0.274849;    0.298343;    0.330633;    0.365318;    0.432957;    0.499300;    0.614547;    0.759600;    0.960644;    2.089684;    4.129275;   11.776646;   55.375281;
 18;    3.214235;    0.939446;    0.541442;    0.360328;    0.242259;    0.258770;    0.281175;    0.310752;    0.343354;    0.386277;    0.445431;    0.510097;    0.598778;    0.730355;    0.908208;    1.215408;    2.037812;    7.825402;   43.472440;
 19;    3.172238;    0.985360;    0.543945;    0.347803;    0.241176;    0.262992;    0.282880;    0.315621;    0.356740;    0.412001;    0.486588;    0.596074;    0.711389;    0.944213;    1.168893;    1.669777;    3.028887;    7.125452;   43.167091;
 20;    2.550907;    1.038426;    0.568763;    0.376685;    0.243071;    0.264992;    0.290811;    0.322945;    0.362507;    0.406808;    0.475407;    0.545799;    0.633853;    0.747116;    1.064407;    1.550402;    2.618756;    4.885174;   29.281073;
 21;    2.766402;    1.022981;    0.559579;    0.370474;    0.244907;    0.263237;    0.289749;    0.314321;    0.341522;    0.381445;    0.433875;    0.496686;    0.588548;    0.724110;    0.860503;    1.224202;    3.108994;    8.879235;   40.683639;
 22;    3.220585;    1.013584;    0.561010;    0.369019;    0.245457;    0.265889;    0.292189;    0.317071;    0.355474;    0.396053;    0.447159;    0.525241;    0.616898;    0.773519;    1.171289;    2.626196;    5.519116;   19.151156;   33.498939;
 23;    3.036904;    0.986839;    0.552786;    0.358247;    0.246324;    0.264315;    0.287524;    0.317899;    0.358891;    0.407848;    0.456937;    0.526773;    0.620935;    0.793463;    1.023802;    1.444885;    3.259276;   10.961470;   36.911767;
 24;    3.091667;    1.027735;    0.577642;    0.380824;    0.242555;    0.263072;    0.289581;    0.314783;    0.345997;    0.391840;    0.445867;    0.553112;    0.705934;    0.903885;    1.327630;    1.755147;    3.025021;    9.168501;   45.501001;
 25;    4.584531;    0.979930;    0.563407;    0.372607;    0.239030;    0.257848;    0.279243;    0.309310;    0.346574;    0.387685;    0.436574;    0.527241;    0.713284;    1.090168;    1.821263;    3.196362;    6.478784;   13.575662;   58.321013;
 26;    2.905888;    1.002375;    0.564228;    0.374109;    0.248231;    0.270012;    0.293921;    0.329308;    0.369391;    0.422177;    0.485439;    0.585233;    0.698498;    0.867275;    1.368299;    2.014084;    4.663743;    8.409411;   31.387232;
 27;    3.164232;    1.016298;    0.553553;    0.359842;    0.243321;    0.265440;    0.287733;    0.313329;    0.346006;    0.397302;    0.472218;    0.580647;    0.679455;    0.834985;    1.020384;    1.417324;    3.433230;    6.517858;   40.801256;
 28;    3.204059;    1.023531;    0.555084;    0.366478;    0.241521;    0.259591;    0.282218;    0.307436;    0.331203;    0.374040;    0.419465;    0.477810;    0.550292;    0.665735;    0.849769;    1.561460;    2.355669;    8.009517;   44.759294;
 29;    3.570915;    1.054351;    0.559221;    0.365159;    0.240561;    0.260774;    0.284398;    0.313703;    0.342628;    0.389896;    0.446069;    0.505277;    0.593490;    0.699196;    0.883169;    1.244679;    2.512363;    8.934119;   43.586582;
 30;    2.912626;    1.020583;    0.565383;    0.379229;    0.244254;    0.261980;    0.285518;    0.306601;    0.329207;    0.365852;    0.411919;    0.487069;    0.597769;    0.722162;    0.957304;    1.338249;    2.836999;    6.005160;   37.950632;
 31;    3.289891;    1.020058;    0.573104;    0.366454;    0.243090;    0.261631;    0.288740;    0.319424;    0.353700;    0.387271;    0.445420;    0.509793;    0.612463;    0.835705;    1.087220;    1.405052;    2.290646;    6.934325;   54.419019;
 32;    3.099060;    0.984878;    0.578832;    0.366425;    0.242385;    0.259381;    0.290061;    0.320072;    0.357367;    0.406420;    0.463510;    0.537848;    0.641291;    0.835954;    1.284393;    1.817189;    2.828104;    8.334826;   43.284355;
 33;    3.497739;    1.026911;    0.554538;    0.360401;    0.237835;    0.255496;    0.280254;    0.306719;    0.335981;    0.383861;    0.435507;    0.512897;    0.647717;    0.865470;    1.190140;    2.156611;    4.277115;   11.342736;   45.937635;
 34;    2.500020;    1.041974;    0.570234;    0.377430;    0.246265;    0.266040;    0.292122;    0.321525;    0.361990;    0.408285;    0.456274;    0.516506;    0.625185;    0.778136;    0.970473;    1.332415;    1.938857;    4.560130;   38.638250;
 35;    2.816390;    0.995779;    0.561444;    0.367462;    0.242232;    0.260520;    0.290925;    0.315707;    0.363817;    0.415925;    0.537258;    0.616054;    0.744188;    0.899683;    1.132925;    1.643814;    2.916887;    8.088616;   27.320809;
 36;    3.310522;    0.958374;    0.565396;    0.370644;    0.239434;    0.257593;    0.282950;    0.312056;    0.342665;    0.391886;    0.439258;    0.539164;    0.664940;    0.827114;    1.034423;    1.453210;    2.545452;    7.732736;   45.937715;
 37;    3.288219;    0.996535;    0.577268;    0.384640;    0.239842;    0.263338;    0.285300;    0.309653;    0.343324;    0.388806;    0.462968;    0.537414;    0.645091;    0.789898;    1.004976;    1.403119;    2.174796;    8.523288;   42.348017;
 38;    2.839107;    1.001482;    0.553674;    0.364377;    0.242402;    0.263586;    0.282735;    0.306143;    0.340226;    0.386689;    0.438719;    0.502105;    0.594944;    0.735614;    0.999283;    1.435220;    2.225247;    5.920191;   41.584911;
 39;    4.586615;    0.953825;    0.550336;    0.368001;    0.241254;    0.260093;    0.283887;    0.314421;    0.345533;    0.382294;    0.434915;    0.506206;    0.584570;    0.772528;    1.093997;    1.678325;    3.202392;   17.963089;   53.498330;
 40;    2.984125;    1.021656;    0.588740;    0.375786;    0.240147;    0.259070;    0.281920;    0.304446;    0.335231;    0.379595;    0.436899;    0.494796;    0.590335;    0.699062;    0.872760;    1.189285;    1.737552;    6.148925;   40.159134;
 41;    1.621840;    0.999182;    0.562400;    0.361228;    0.240983;    0.258705;    0.282291;    0.305043;    0.334931;    0.371302;    0.409801;    0.471768;    0.540398;    0.657194;    0.823830;    1.127213;    1.659852;    2.992469;   11.773718;
 42;    2.952194;    1.045253;    0.564288;    0.376711;    0.240920;    0.265747;    0.292850;    0.330236;    0.375055;    0.418037;    0.466734;    0.523264;    0.614286;    0.740502;    0.860886;    1.143498;    2.094173;    8.377619;   43.681684;
 43;    3.013762;    1.023024;    0.560958;    0.364981;    0.242150;    0.265111;    0.290229;    0.313738;    0.356096;    0.401980;    0.474763;    0.559788;    0.684793;    0.801285;    0.946410;    1.340264;    2.034154;    8.926634;   45.756448;
 44;    3.266481;    1.005049;    0.568371;    0.365776;    0.244132;    0.263086;    0.286233;    0.314675;    0.345646;    0.383881;    0.440279;    0.517284;    0.635458;    0.875520;    1.255649;    2.280881;    3.880997;   11.066956;   39.029372;
 45;    3.196683;    0.978681;    0.544589;    0.359278;    0.241543;    0.263373;    0.287480;    0.314239;    0.344084;    0.385314;    0.452940;    0.554707;    0.653633;    0.888435;    1.213707;    1.857833;    3.767409;   12.792513;   42.790347;
 46;    3.171918;    1.025445;    0.560237;    0.369053;    0.239344;    0.263925;    0.288089;    0.316359;    0.358081;    0.398243;    0.451064;    0.515158;    0.632866;    0.841186;    1.064257;    1.404984;    2.316981;    7.453578;   39.550531;
 47;    4.183531;    1.025882;    0.557742;    0.379505;    0.248001;    0.273631;    0.305057;    0.335992;    0.371235;    0.405470;    0.452416;    0.521794;    0.627312;    0.722947;    0.870081;    1.360533;    2.560257;   12.727321;   56.210304;
 48;    3.345854;    0.965795;    0.548129;    0.370130;    0.243944;    0.264757;    0.292828;    0.322235;    0.364294;    0.411756;    0.466579;    0.558164;    0.669699;    0.861069;    1.292701;    1.900665;    3.029521;    9.720505;   52.242818;
 49;    3.029103;    0.974530;    0.547880;    0.368673;    0.242637;    0.264573;    0.293149;    0.328812;    0.386005;    0.441978;    0.508600;    0.580339;    0.692640;    0.880047;    1.224657;    2.057759;    3.418610;    7.589021;   29.751634;
 50;    3.642986;    1.014528;    0.564292;    0.364525;    0.240019;    0.262524;    0.282829;    0.307079;    0.352726;    0.396228;    0.454408;    0.536618;    0.664282;    0.840045;    1.169360;    1.766660;    3.222266;   10.553106;   52.982295;
 51;    4.543057;    1.031330;    0.565264;    0.382887;    0.242396;    0.261116;    0.282252;    0.312222;    0.343678;    0.394927;    0.448114;    0.521763;    0.633824;    0.799329;    1.197974;    1.983184;    5.669149;   16.648803;   48.707109;
 52;    3.721988;    1.010298;    0.570488;    0.374324;    0.238660;    0.263606;    0.285549;    0.316549;    0.355163;    0.402623;    0.468796;    0.538471;    0.611480;    0.874164;    1.253387;    2.218005;    3.390377;   10.497706;   47.461586;
 53;    2.396449;    0.963183;    0.584919;    0.371275;    0.240277;    0.258450;    0.279245;    0.308107;    0.340882;    0.379716;    0.439181;    0.514528;    0.607295;    0.775917;    0.985180;    1.383463;    2.067671;    4.958743;   25.553421;
 54;    3.425461;    1.038611;    0.590251;    0.361940;    0.239647;    0.259250;    0.288623;    0.318564;    0.350438;    0.383524;    0.428922;    0.478242;    0.589801;    0.708975;    1.060655;    2.005117;    5.313802;   11.291003;   39.195207;
 55;    2.599807;    0.991783;    0.543527;    0.357581;    0.238884;    0.263587;    0.287041;    0.312939;    0.354767;    0.399609;    0.454334;    0.535164;    0.634524;    0.746351;    0.887798;    1.470982;    2.809146;    6.069651;   34.260357;
 56;    2.951865;    1.015518;    0.568606;    0.361578;    0.239935;    0.260067;    0.284929;    0.307820;    0.336958;    0.373498;    0.426725;    0.494034;    0.585410;    0.764190;    0.930186;    1.431361;    2.405480;    8.563873;   34.314758;
 57;    4.081850;    1.028756;    0.584911;    0.380680;    0.245341;    0.263678;    0.288710;    0.323690;    0.359949;    0.396884;    0.453440;    0.511079;    0.628923;    0.778021;    1.040247;    1.755368;    3.824400;   13.657606;   63.308515;
 58;    2.972866;    1.012811;    0.565165;    0.366821;    0.242556;    0.261440;    0.281008;    0.313563;    0.346246;    0.384156;    0.429873;    0.503282;    0.590201;    0.723616;    0.939967;    1.372645;    2.627764;    7.247310;   42.190317;
 59;    3.399676;    0.990056;    0.568626;    0.379200;    0.238756;    0.254019;    0.277422;    0.303630;    0.337860;    0.375967;    0.428763;    0.502076;    0.590474;    0.713983;    0.920983;    1.232426;    4.052048;   10.500865;   46.686757;
 60;    2.580594;    0.997684;    0.559209;    0.368634;    0.242148;    0.263754;    0.286372;    0.315428;    0.353390;    0.395729;    0.458433;    0.536476;    0.622171;    0.754227;    0.940732;    1.234126;    1.857678;    7.686772;   34.827284;
 61;    4.185038;    0.989762;    0.558194;    0.362358;    0.245977;    0.264038;    0.285784;    0.315507;    0.353787;    0.410010;    0.502413;    0.625426;    0.747614;    0.936727;    1.304857;    2.125536;    5.576235;   14.740542;   56.703490;
 62;    3.152041;    0.991885;    0.555159;    0.369159;    0.238195;    0.259182;    0.281025;    0.307450;    0.340858;    0.382121;    0.442977;    0.516420;    0.604120;    0.708330;    0.897635;    1.203125;    2.464285;    9.300105;   39.794112;
 63;    3.045975;    1.036010;    0.570088;    0.359622;    0.239408;    0.257076;    0.279480;    0.309983;    0.346434;    0.386774;    0.430044;    0.494989;    0.562594;    0.658243;    0.879236;    1.204044;    2.397407;    9.047191;   49.594766;
 64;    3.116060;    1.012009;    0.568957;    0.379932;    0.244209;    0.268599;    0.292745;    0.321671;    0.360828;    0.412105;    0.479696;    0.555605;    0.663791;    0.819845;    1.180849;    1.675029;    2.845584;    6.524345;   38.003000;
 65;    3.726378;    0.968580;    0.556605;    0.359006;    0.238256;    0.259100;    0.278423;    0.304030;    0.339412;    0.384323;    0.432910;    0.496627;    0.596819;    0.732844;    0.945734;    1.675368;    2.854562;    7.273962;   56.743037;
 66;    2.909549;    0.985357;    0.557153;    0.369146;    0.241839;    0.269790;    0.294012;    0.316814;    0.356915;    0.398950;    0.439873;    0.517659;    0.594557;    0.701415;    0.897259;    1.264898;    2.602198;    6.977242;   38.080866;
 67;    3.758173;    0.961787;    0.542284;    0.359054;    0.245406;    0.263222;    0.288977;    0.311517;    0.341380;    0.376387;    0.428216;    0.482829;    0.549144;    0.688363;    0.914803;    1.516690;    3.582566;   18.450121;   53.370210;
 68;    3.360894;    0.997651;    0.556353;    0.365676;    0.243687;    0.271161;    0.302523;    0.339888;    0.375051;    0.417238;    0.479088;    0.550388;    0.635423;    0.805453;    1.039048;    1.451431;    5.715488;   13.905886;   38.717590;
 69;    3.315868;    0.974558;    0.570998;    0.378820;    0.244766;    0.264336;    0.290766;    0.318689;    0.348508;    0.392210;    0.457025;    0.548394;    0.662717;    0.824862;    1.081994;    1.425874;    2.165710;    5.718392;   42.291326;
 70;    3.656349;    1.019515;    0.578560;    0.364572;    0.244776;    0.264629;    0.289404;    0.321295;    0.362348;    0.417977;    0.469454;    0.553637;    0.642745;    0.937919;    1.326859;    1.836574;    3.294235;   13.424053;   48.437770;
 71;    3.352372;    1.000765;    0.553363;    0.363343;    0.240956;    0.262129;    0.287581;    0.311100;    0.344183;    0.391088;    0.462471;    0.559346;    0.708931;    0.892636;    1.191824;    1.512300;    3.136394;    7.284442;   50.909251;
 72;    3.625172;    1.005896;    0.546761;    0.366296;    0.243192;    0.264010;    0.288800;    0.319102;    0.358483;    0.404369;    0.464184;    0.542323;    0.674963;    0.996450;    1.430161;    1.946717;    2.817485;    9.105357;   56.294095;
 73;    3.252552;    1.038852;    0.571367;    0.379321;    0.246573;    0.270939;    0.299193;    0.328251;    0.363132;    0.393873;    0.446114;    0.561615;    0.695114;    0.801856;    1.028075;    1.580489;    3.262518;    8.517789;   46.136235;
 74;    3.927814;    1.030989;    0.563022;    0.384917;    0.241323;    0.260062;    0.286364;    0.314284;    0.341717;    0.375137;    0.410531;    0.464728;    0.555160;    0.724452;    0.996763;    1.485124;    2.378813;   13.888625;   52.965324;
 75;    3.283283;    1.017785;    0.576977;    0.365358;    0.234987;    0.264747;    0.288249;    0.317684;    0.355998;    0.394686;    0.455372;    0.531045;    0.621827;    0.828327;    1.094886;    1.903532;    3.618887;   11.281402;   42.555558;
 76;    3.532019;    1.022787;    0.553722;    0.354899;    0.240667;    0.261838;    0.283722;    0.310318;    0.350918;    0.392619;    0.450683;    0.512776;    0.594103;    0.743742;    1.067167;    1.773902;    4.402235;   10.811508;   41.796803;
 77;    3.221147;    0.973437;    0.550119;    0.352079;    0.235441;    0.256470;    0.273010;    0.294860;    0.327059;    0.390083;    0.452257;    0.557361;    0.742797;    0.941907;    1.180111;    1.781293;    3.815366;    8.626963;   42.708562;
 78;    3.116906;    0.985612;    0.578677;    0.376911;    0.239766;    0.257478;    0.283853;    0.310279;    0.339647;    0.374284;    0.420136;    0.491856;    0.607697;    0.748592;    0.923678;    1.186878;    2.301999;    9.794257;   43.949888;
 79;    3.172409;    1.004515;    0.563386;    0.364161;    0.243476;    0.263576;    0.285478;    0.309923;    0.339827;    0.382972;    0.445405;    0.513738;    0.627586;    0.869560;    1.130991;    1.541002;    3.008192;    9.285273;   37.520739;
 80;    3.041723;    1.009408;    0.562853;    0.365008;    0.232004;    0.249707;    0.273242;    0.297926;    0.328731;    0.367214;    0.406232;    0.472323;    0.551501;    0.667499;    0.848900;    1.151977;    2.187277;    6.002470;   38.483671;
 81;    3.471455;    0.982283;    0.549573;    0.363470;    0.238451;    0.258231;    0.278112;    0.301262;    0.344705;    0.393897;    0.462325;    0.564142;    0.710556;    0.892386;    1.318927;    1.819667;    3.031995;    7.622920;   47.416562;
 82;    3.385221;    0.988789;    0.551367;    0.362238;    0.235766;    0.252162;    0.273543;    0.305687;    0.347176;    0.394415;    0.474927;    0.562559;    0.721141;    0.889830;    1.093828;    1.474171;    3.557995;   11.098499;   48.558100;
 83;    2.881696;    0.948950;    0.543822;    0.357237;    0.240221;    0.257300;    0.281191;    0.305603;    0.342391;    0.390809;    0.448831;    0.537932;    0.634559;    0.748956;    1.014485;    1.474244;    2.118539;    6.142434;   43.261155;
 84;    2.663382;    0.968863;    0.571037;    0.378970;    0.242919;    0.262894;    0.282396;    0.306891;    0.336459;    0.375081;    0.434845;    0.501633;    0.586347;    0.725159;    0.903299;    1.159306;    1.951297;    3.708035;   31.425698;
 85;    2.222880;    0.981534;    0.567109;    0.371833;    0.243808;    0.264021;    0.293627;    0.324717;    0.350804;    0.407655;    0.478772;    0.563698;    0.654689;    0.816961;    1.045770;    1.313761;    1.944535;    3.437875;   24.950049;
 86;    3.370442;    1.042906;    0.573832;    0.369689;    0.240451;    0.258888;    0.282147;    0.305742;    0.332812;    0.372896;    0.414244;    0.489419;    0.596560;    0.821076;    1.127470;    1.427615;    2.865098;   12.855089;   42.173973;
 87;    3.110762;    1.012602;    0.559527;    0.364128;    0.241516;    0.263291;    0.289946;    0.315461;    0.345645;    0.388869;    0.437281;    0.512868;    0.606768;    0.779846;    1.090235;    1.643650;    4.016682;    9.384216;   41.382424;
 88;    2.528727;    1.046936;    0.580251;    0.368953;    0.235850;    0.257609;    0.280249;    0.301196;    0.333051;    0.375676;    0.429450;    0.531248;    0.650013;    0.785280;    0.961131;    1.176610;    1.912251;    3.527360;   20.849085;
 89;    2.633259;    1.019620;    0.577281;    0.381646;    0.240009;    0.260234;    0.283069;    0.307856;    0.333690;    0.382941;    0.452556;    0.523435;    0.608718;    0.741636;    0.928415;    1.242792;    2.457710;    8.308033;   25.959577;
 90;    2.612199;    0.986680;    0.565171;    0.363931;    0.245160;    0.262191;    0.285969;    0.310210;    0.341825;    0.383284;    0.429278;    0.487692;    0.595127;    0.738341;    0.937730;    1.258056;    2.151016;    6.643246;   33.137241;
 91;    3.789632;    1.028149;    0.578116;    0.370141;    0.238809;    0.256084;    0.279203;    0.308490;    0.337847;    0.395752;    0.467119;    0.550366;    0.667721;    0.795955;    1.037992;    1.623934;    3.764849;   12.653573;   49.302866;
 92;    2.830804;    0.999146;    0.563845;    0.378920;    0.241173;    0.261675;    0.292700;    0.327909;    0.371305;    0.411495;    0.461327;    0.514349;    0.570832;    0.657937;    0.882783;    1.305701;    2.252600;    8.209684;   35.536878;
 93;    3.133179;    0.999033;    0.566890;    0.375484;    0.244355;    0.263956;    0.289521;    0.321776;    0.357245;    0.402732;    0.445566;    0.536528;    0.626425;    0.788716;    0.986552;    1.545347;    2.402645;    5.561704;   45.505901;
 94;    2.932823;    1.003123;    0.561016;    0.358807;    0.238225;    0.255979;    0.279019;    0.307620;    0.340361;    0.389659;    0.449149;    0.537900;    0.628642;    0.776175;    1.102532;    1.631833;    3.116377;    6.338028;   36.369779;
 95;    3.122197;    1.023290;    0.565716;    0.366782;    0.243536;    0.260528;    0.286685;    0.314875;    0.348524;    0.402032;    0.473643;    0.559281;    0.689788;    0.973846;    1.399874;    2.227892;    4.041596;    7.726843;   31.869180;
 96;    3.158468;    1.032288;    0.567386;    0.363881;    0.238333;    0.254943;    0.282064;    0.315197;    0.354450;    0.395537;    0.443517;    0.511013;    0.592223;    0.696111;    1.019351;    1.666794;    3.669259;   10.380440;   41.155620;
 97;    3.378245;    1.001586;    0.582271;    0.385630;    0.248333;    0.271140;    0.291485;    0.315106;    0.357639;    0.407544;    0.472295;    0.557399;    0.666112;    0.841532;    1.265638;    1.842686;    3.222731;    6.879600;   45.076668;
 98;    3.265100;    1.010334;    0.577493;    0.377425;    0.241023;    0.261363;    0.281502;    0.310445;    0.351800;    0.395308;    0.440971;    0.495258;    0.619241;    0.853818;    1.099314;    1.485609;    2.334853;   10.599977;   44.466136;
 99;    3.272027;    1.019891;    0.557583;    0.367843;    0.241398;    0.275551;    0.302880;    0.337789;    0.369538;    0.407928;    0.463193;    0.551902;    0.658059;    0.797490;    1.146082;    1.725486;    3.106233;   10.460482;   46.241725;
100;    2.964548;    0.995953;    0.551625;    0.363832;    0.240771;    0.260498;    0.284688;    0.308719;    0.342353;    0.379113;    0.437579;    0.502049;    0.610763;    0.731412;    0.913237;    1.290622;    2.335425;    5.226994;   36.149036;
