Simulation;Time;PC 0;PC 1;PC 2;PC 3;PC 4;PC 5;PC 6;PC 7;PC 8;PC 9;PC10;PC11;PC12;PC13;PC14;PC15;PC16;PC17;
Nan;Nan;0;1;0;0;0;0;0;0;0;0;0;0;0;0;0;0;0;0;
  0;    0.251333;    0.986274;    0.730228;    0.785557;    0.840478;    0.895033;    0.973627;    1.089327;    1.235275;    1.370244;    1.517081;    1.743743;    2.011175;    2.346354;    3.121183;    4.113393;   10.337978;   24.329125; 1579.033485;
  1;    0.249680;    1.008790;    0.746535;    0.794066;    0.847067;    0.910113;    1.022849;    1.143982;    1.289424;    1.436036;    1.625034;    1.810343;    2.164709;    2.687384;    3.261512;    4.927185;    9.291814;   48.350116;149283.557792;
  2;    0.250172;    1.006773;    0.752032;    0.812971;    0.874019;    0.940849;    1.021432;    1.123259;    1.240923;    1.371172;    1.525258;    1.682575;    1.990358;    2.440905;    3.365761;    4.669936;    9.995272;   36.038409;34515.064990;
  3;    0.259737;    0.994215;    0.752049;    0.807238;    0.856719;    0.937191;    1.030167;    1.118900;    1.241305;    1.373153;    1.516147;    1.720214;    2.138647;    2.595272;    3.183650;    5.072830;    9.989312;   45.676874; 3108.629150;
  4;    0.248450;    1.021884;    0.761612;    0.811178;    0.874071;    0.943200;    1.011247;    1.116345;    1.270259;    1.421270;    1.621297;    1.851223;    2.213311;    2.932342;    3.874375;    5.392481;   13.095535;   97.592429;21097.756420;
  5;    0.249949;    1.004955;    0.744388;    0.796712;    0.858185;    0.929446;    1.011178;    1.117396;    1.235445;    1.379517;    1.567653;    1.789037;    2.214865;    2.771323;    4.085836;    8.933277;   17.796725;   36.859467;43234.510268;
  6;    0.248852;    1.001110;    0.745872;    0.804345;    0.860820;    0.921412;    0.999862;    1.084671;    1.200953;    1.342208;    1.554471;    1.850414;    2.219816;    2.622490;    3.261723;    4.440046;   10.598326;   42.654318;196242.297552;
  7;    0.249461;    1.008406;    0.744497;    0.786612;    0.849808;    0.909851;    0.990655;    1.077878;    1.167916;    1.321815;    1.526515;    1.783695;    2.080817;    2.836039;    4.539738;    8.982490;   15.381044;   29.610967;  901.279400;
  8;    0.254611;    0.983896;    0.731493;    0.788785;    0.847588;    0.908061;    0.965634;    1.072968;    1.221717;    1.344873;    1.485343;    1.715082;    2.046404;    2.656344;    3.473797;    4.985726;    8.536828;   15.468787;12670.124367;
  9;    0.248432;    1.002137;    0.751988;    0.806754;    0.863286;    0.941770;    1.039501;    1.164651;    1.292522;    1.454895;    1.646553;    1.902401;    2.261892;    2.729082;    3.410541;    4.890057;    8.445293;   65.967789; 2933.158481;
 10;    0.248471;    1.008578;    0.755322;    0.805492;    0.877004;    0.957020;    1.028122;    1.139652;    1.247726;    1.441131;    1.666505;    1.933808;    2.324516;    3.029312;    4.575534;    7.663575;   28.532050;   57.339472;  672.418537;
 11;    0.249977;    0.996872;    0.754317;    0.799006;    0.851036;    0.922790;    0.990356;    1.091568;    1.199562;    1.327865;    1.578775;    1.849833;    2.227101;    2.747040;    3.825270;    5.905144;   10.681020;   53.940779;346496.541683;
 12;    0.249385;    0.973781;    0.740485;    0.790771;    0.851545;    0.918959;    0.988388;    1.070895;    1.149965;    1.264501;    1.427898;    1.748728;    2.319573;    3.228988;    4.682189;    6.814924;   11.733556;   37.843560;53294.050470;
 13;    0.250943;    1.011819;    0.741807;    0.792643;    0.857233;    0.927497;    1.014953;    1.126708;    1.252961;    1.440141;    1.702905;    2.210127;    2.555210;    3.239230;    4.220065;    6.272216;   10.447345;   39.208687;24235.138512;
 14;    0.248835;    0.978008;    0.733696;    0.786450;    0.846546;    0.903450;    0.990160;    1.069019;    1.184908;    1.321782;    1.538159;    1.789890;    2.043297;    2.386657;    3.168722;    4.512054;    7.000241;   53.180338;21885.205915;
 15;    0.249123;    1.011757;    0.725716;    0.781103;    0.830383;    0.896411;    0.976093;    1.047794;    1.168832;    1.313041;    1.510801;    1.793885;    2.116337;    2.659847;    3.427790;    5.836408;   10.923186;   43.280405; 9538.660541;
 16;    0.257730;    1.007951;    0.760977;    0.815770;    0.881584;    0.949932;    1.029164;    1.110581;    1.204724;    1.338665;    1.503151;    1.692822;    1.940871;    2.368381;    3.101679;    4.255089;    7.227162;   20.909910;  458.726309;
 17;    0.249509;    0.976689;    0.733573;    0.773638;    0.830879;    0.883644;    0.966407;    1.059548;    1.156280;    1.285624;    1.504429;    1.740140;    2.116767;    2.709751;    3.825113;    5.391092;   10.175449;   67.406008;20831.285331;
 18;    0.251371;    0.967739;    0.740001;    0.789646;    0.850602;    0.936445;    1.026509;    1.114355;    1.241679;    1.369049;    1.627962;    1.893675;    2.360873;    2.915551;    4.304324;    7.442582;   21.731979;  209.021992; 9318.162855;
 19;    0.249761;    0.994136;    0.733953;    0.787351;    0.837011;    0.902838;    0.991942;    1.098735;    1.219105;    1.374839;    1.550671;    1.774879;    2.236249;    2.877688;    4.181973;    6.491910;   47.283699;   88.493467;34954.467311;
 20;    0.248667;    1.026016;    0.746406;    0.806735;    0.882469;    0.959942;    1.038868;    1.134745;    1.278998;    1.454575;    1.652647;    1.882507;    2.226771;    2.580967;    3.352197;    4.664855;    8.818623;   38.817245; 4025.412968;
 21;    0.248180;    1.023039;    0.748122;    0.793542;    0.865932;    0.946771;    1.029074;    1.128896;    1.284678;    1.460449;    1.660497;    1.915045;    2.227067;    3.010685;    3.852314;    6.306664;   11.326597;  121.329350;49874.782977;
 22;    0.248866;    1.017229;    0.750262;    0.803973;    0.871706;    0.950438;    1.061849;    1.159336;    1.277047;    1.562184;    1.794156;    2.196590;    2.644970;    3.286629;    4.110722;    6.670070;   12.942064;   37.266341; 1944.134620;
 23;    0.258239;    1.002751;    0.749981;    0.804423;    0.876186;    0.958561;    1.058625;    1.169455;    1.319247;    1.471439;    1.700358;    1.898482;    2.143892;    2.660993;    3.643281;    4.872177;   12.551632;   72.239762; 3660.928814;
 24;    0.256650;    1.012770;    0.748327;    0.803657;    0.868513;    0.945307;    1.024955;    1.113089;    1.240837;    1.430266;    1.667894;    2.047819;    2.430100;    3.089162;    4.545363;    7.475083;   11.790598;   52.631109; 4692.349298;
 25;    0.248945;    0.980305;    0.735600;    0.788550;    0.838023;    0.914603;    0.993807;    1.079986;    1.187582;    1.378911;    1.616899;    2.069368;    2.630664;    3.521267;    5.416469;    7.174943;   11.523551;   25.094650; 9792.266528;
 26;    0.249804;    1.015894;    0.760078;    0.813079;    0.868132;    0.940846;    1.027258;    1.105970;    1.206758;    1.371697;    1.557078;    1.778067;    2.068435;    2.467625;    3.075763;    4.915798;    7.052886;  168.601812; 1004.864740;
 27;    0.254244;    1.016692;    0.743025;    0.799350;    0.857276;    0.925855;    1.003088;    1.104829;    1.208979;    1.387828;    1.593640;    1.818718;    2.224726;    2.684411;    3.727518;    6.220380;   11.933451;   61.968427; 9465.031844;
 28;    0.253210;    1.019203;    0.740661;    0.793809;    0.850244;    0.934022;    1.016608;    1.104729;    1.220305;    1.357982;    1.530816;    1.923364;    2.351692;    2.802870;    3.780442;    6.332768;   10.870129;   22.466649;39643.732838;
 29;    0.250267;    1.033551;    0.737418;    0.792072;    0.848357;    0.927519;    1.002699;    1.123122;    1.250736;    1.457593;    1.686257;    1.910165;    2.211106;    2.680124;    3.201734;    4.097755;    5.664130;    7.997886; 1165.222624;
 30;    0.249363;    1.017097;    0.750392;    0.801054;    0.868511;    0.932153;    1.013415;    1.115582;    1.248232;    1.411596;    1.639632;    1.913107;    2.337108;    2.870327;    3.657609;    5.532360;    9.746649;   21.706899; 8909.212006;
 31;    0.248814;    1.012200;    0.748507;    0.800321;    0.870773;    0.948896;    1.028382;    1.132351;    1.237679;    1.425502;    1.701612;    1.930040;    2.249924;    2.800562;    3.600890;    4.898359;    7.817260;   42.492039; 2746.304304;
 32;    0.249874;    0.983304;    0.745949;    0.795766;    0.851774;    0.931285;    1.022584;    1.124216;    1.241057;    1.398788;    1.625081;    1.896147;    2.206409;    2.818530;    3.869830;    5.578469;    8.443828;   69.168417;21264.701281;
 33;    0.249450;    1.010152;    0.729754;    0.777633;    0.848010;    0.921581;    1.008750;    1.104109;    1.215710;    1.355628;    1.563383;    1.908236;    2.246310;    2.914950;    4.005395;    6.988008;   12.154358;   80.959260;203710.753440;
 34;    0.253422;    1.036237;    0.755581;    0.805157;    0.866995;    0.933639;    1.011198;    1.083704;    1.202617;    1.328519;    1.464279;    1.689803;    1.989997;    2.480185;    3.309323;    4.944696;    8.537073;   26.124875; 7255.913492;
 35;    0.248208;    0.997859;    0.744561;    0.790777;    0.851199;    0.923260;    1.018641;    1.121960;    1.231937;    1.410564;    1.631504;    1.857636;    2.182406;    2.616840;    3.731254;    5.538619;    9.354224;   21.819655; 6346.827419;
 36;    0.249847;    0.963734;    0.739786;    0.794255;    0.861340;    0.944887;    1.030450;    1.155438;    1.285321;    1.417207;    1.606104;    1.856817;    2.168985;    2.621821;    3.268789;    4.680924;    8.379125;   23.902193;  333.780948;
 37;    0.253341;    0.986947;    0.740509;    0.796700;    0.857163;    0.927397;    1.029468;    1.119849;    1.249228;    1.408998;    1.592688;    1.887513;    2.179175;    2.782035;    3.709137;    5.740283;    9.424309;   37.955489; 2418.595212;
 38;    0.253379;    1.005370;    0.742231;    0.792324;    0.849854;    0.909296;    0.988347;    1.101313;    1.228497;    1.381275;    1.581365;    1.771919;    2.082414;    2.560153;    3.416113;    4.657853;    7.022307;   14.551176;38292.458709;
 39;    0.249360;    0.971424;    0.737662;    0.789917;    0.854230;    0.918296;    0.983302;    1.081422;    1.202210;    1.358117;    1.567192;    1.863731;    2.319485;    2.922083;    4.887919;    7.343939;   15.752335;   35.256265; 3888.070100;
 40;    0.252641;    1.000229;    0.742962;    0.793082;    0.847650;    0.930382;    1.010413;    1.109284;    1.214938;    1.338460;    1.462120;    1.608796;    1.905658;    2.377030;    4.037337;    6.232928;   12.496765;   43.384238;47202.770023;
 41;    0.250126;    0.997169;    0.739047;    0.788652;    0.864154;    0.947172;    1.055686;    1.170864;    1.294330;    1.447569;    1.681630;    1.895668;    2.357596;    3.042284;    4.584132;    8.343625;   20.497194;   57.015266; 2542.059116;
 42;    0.248972;    1.026861;    0.738658;    0.791118;    0.842325;    0.924209;    1.008568;    1.092987;    1.204345;    1.348744;    1.518523;    1.858943;    2.177517;    3.144191;    4.415104;    6.756704;   12.158606;   32.687902; 4755.573255;
 43;    0.251730;    1.016095;    0.743146;    0.797911;    0.856684;    0.919091;    1.010527;    1.091774;    1.212523;    1.349625;    1.554303;    1.813757;    2.081237;    2.416253;    3.093660;    4.504715;    8.868739;   34.805332;14876.741455;
 44;    0.250331;    1.004723;    0.749542;    0.802515;    0.868881;    0.949946;    1.025097;    1.156286;    1.288959;    1.431878;    1.637437;    1.947279;    2.312418;    2.870549;    3.783784;    5.523171;   10.211978;   59.711683; 3031.614342;
 45;    0.254734;    0.993360;    0.738353;    0.782752;    0.844245;    0.902805;    0.971576;    1.092080;    1.232490;    1.350829;    1.500522;    1.766182;    2.059299;    2.395785;    3.723095;    5.625605;   12.470856;   34.750090; 2619.353394;
 46;    0.251435;    1.013497;    0.736746;    0.790697;    0.854764;    0.934092;    1.037292;    1.141836;    1.266361;    1.416810;    1.634187;    1.860208;    2.339568;    2.904911;    4.055525;    7.965198;   15.666463;   40.697832;21453.046265;
 47;    0.252948;    1.034166;    0.758236;    0.807563;    0.866418;    0.938207;    1.011011;    1.101246;    1.201639;    1.342264;    1.547820;    1.784027;    2.076862;    2.503077;    3.172328;    4.894822;   12.994422;   36.209590;103826.688738;
 48;    0.248411;    0.988569;    0.745378;    0.809602;    0.876671;    0.945697;    1.025205;    1.129882;    1.284915;    1.425094;    1.665877;    1.993185;    2.500184;    3.204978;    4.250512;    6.188237;   10.719097;  116.400990; 1679.056893;
 49;    0.250474;    0.992575;    0.743676;    0.789112;    0.851295;    0.921990;    0.990752;    1.079005;    1.166571;    1.301793;    1.495974;    1.841254;    2.215071;    2.629392;    3.434786;    4.684280;    8.974558;   18.203301;  254.460593;
 50;    0.248245;    1.004506;    0.737576;    0.802690;    0.866779;    0.949893;    1.045279;    1.141474;    1.295304;    1.431014;    1.716286;    2.043099;    2.568354;    3.133364;    4.181151;    5.962030;    8.592173;   19.723284;  291.754083;
 51;    0.252753;    1.020128;    0.746600;    0.797389;    0.860741;    0.919647;    1.011257;    1.112157;    1.258540;    1.424886;    1.592462;    1.757353;    2.007267;    2.302288;    3.029092;    4.071224;    6.930997;   19.757297;  768.320940;
 52;    0.260629;    0.994336;    0.735378;    0.784976;    0.843917;    0.914551;    0.996704;    1.096207;    1.201402;    1.360088;    1.554106;    1.847704;    2.320281;    2.982578;    4.074904;    5.407693;    8.538204;   68.434429;34740.800907;
 53;    0.250616;    0.961882;    0.742716;    0.789084;    0.849811;    0.918070;    1.010368;    1.107255;    1.214553;    1.349149;    1.507008;    1.743698;    1.980924;    2.480758;    3.378127;    4.926360;    8.124424;   31.638254;11582.852189;
 54;    0.249282;    1.009442;    0.742085;    0.784631;    0.856780;    0.924297;    0.990238;    1.076583;    1.157442;    1.288303;    1.453054;    1.771895;    2.205642;    2.782685;    3.752323;    4.943704;    8.075496;   17.359804;12812.166739;
 55;    0.248155;    0.993748;    0.729865;    0.781448;    0.831201;    0.895944;    0.979134;    1.069884;    1.185698;    1.326407;    1.507053;    1.729427;    2.081777;    2.515316;    4.078882;    6.294777;   15.246528;   36.137231; 1416.884368;
 56;    0.249956;    1.005014;    0.740318;    0.784759;    0.839110;    0.908884;    0.995486;    1.071855;    1.189742;    1.348333;    1.550700;    1.795740;    1.986148;    2.305351;    2.709044;    3.525346;    4.895091;   22.404087; 4120.044709;
 57;    0.250080;    1.017245;    0.755382;    0.808860;    0.860607;    0.942110;    1.049768;    1.165242;    1.277215;    1.456492;    1.701101;    1.975526;    2.346805;    2.803458;    3.547440;    4.576574;    8.747411;   23.979114; 8648.431986;
 58;    0.248534;    1.008032;    0.745207;    0.800851;    0.855687;    0.928778;    1.019475;    1.115377;    1.244975;    1.401498;    1.568841;    1.880050;    2.273611;    2.830122;    4.094488;    5.810556;    9.205534;   29.248201; 3672.306456;
 59;    0.252335;    0.985040;    0.738169;    0.784819;    0.859235;    0.935628;    1.022631;    1.121075;    1.236652;    1.409140;    1.604214;    1.829515;    2.127073;    2.516272;    3.094432;    4.542474;    8.666550;   29.583736; 5148.850565;
 60;    0.247967;    0.999858;    0.741541;    0.803947;    0.864619;    0.943310;    1.028710;    1.152867;    1.275362;    1.460353;    1.682437;    2.113997;    2.675077;    3.485420;    4.630326;    6.614116;   11.062507;   36.019184;53463.758880;
 61;    0.248619;    1.004418;    0.751640;    0.801084;    0.861720;    0.951762;    1.039810;    1.142009;    1.249566;    1.382553;    1.546885;    1.719899;    2.054349;    2.536052;    3.168154;    4.746216;   10.200301;   47.440782; 3315.485477;
 62;    0.249648;    0.990293;    0.732993;    0.785639;    0.836180;    0.906278;    0.990729;    1.099335;    1.204475;    1.331834;    1.574418;    1.923832;    2.411498;    3.088213;    4.561224;    6.023637;   14.818779;   90.787264;33168.739123;
 63;    0.247637;    1.015982;    0.738181;    0.793194;    0.838977;    0.900043;    0.972774;    1.073929;    1.199987;    1.328909;    1.520062;    1.710596;    2.070794;    2.556875;    3.328456;    6.961983;   12.331729;   28.631663;10143.524640;
 64;    0.248902;    1.011491;    0.750469;    0.800621;    0.856808;    0.933979;    1.023175;    1.125496;    1.247393;    1.437393;    1.652921;    1.887764;    2.385446;    2.986975;    3.615030;    4.884320;   10.279788;   37.708335;102958.551128;
 65;    0.252424;    0.973279;    0.732731;    0.790160;    0.850249;    0.915400;    1.000354;    1.095614;    1.226523;    1.348574;    1.484833;    1.706637;    2.119571;    2.650911;    3.461352;    4.974801;   10.360667;   45.991157; 8061.665249;
 66;    0.248468;    0.990609;    0.739271;    0.787095;    0.852440;    0.922932;    1.008034;    1.101980;    1.210885;    1.370517;    1.574719;    1.836612;    2.181510;    2.714571;    3.602539;    5.358162;   10.892402;  147.894729; 4982.158880;
 67;    0.251232;    0.990226;    0.747693;    0.796632;    0.865584;    0.944854;    1.044551;    1.160653;    1.251681;    1.394283;    1.549407;    1.748584;    2.028165;    2.480539;    3.587627;    6.457575;   12.735325;   64.861570;312893.295044;
 68;    0.247432;    1.002861;    0.744898;    0.803880;    0.866125;    0.945480;    1.037389;    1.115021;    1.233561;    1.379504;    1.555538;    1.752936;    1.997842;    2.377738;    3.111969;    4.433062;    8.948252;   29.736948;  986.189668;
 69;    0.248443;    0.985659;    0.751720;    0.802726;    0.862519;    0.943128;    1.031383;    1.156950;    1.298409;    1.475902;    1.665325;    1.870493;    2.183188;    2.552585;    3.330128;   13.665763;   19.445691;  190.407222; 1892.392682;
 70;    0.249400;    1.011483;    0.752254;    0.818531;    0.877317;    0.984568;    1.099210;    1.188226;    1.338417;    1.516360;    1.747603;    2.144174;    2.504975;    2.939737;    3.788686;    5.292232;    9.803450;  100.414798;11115.516315;
 71;    0.248864;    1.002288;    0.738155;    0.794069;    0.863230;    0.927101;    1.005430;    1.094678;    1.211119;    1.324093;    1.521735;    1.723112;    2.045781;    2.501802;    3.243840;    4.367838;    6.736864;   16.424439;87336.148523;
 72;    0.249025;    1.012495;    0.742219;    0.794209;    0.861547;    0.930056;    1.018228;    1.119614;    1.226043;    1.374957;    1.544774;    1.783921;    2.126131;    2.566422;    3.193943;    4.554912;    9.121849;  121.294711;32640.718340;
 73;    0.248643;    1.033237;    0.757229;    0.808958;    0.883067;    0.959047;    1.044996;    1.150650;    1.290571;    1.458786;    1.706369;    2.114171;    2.490772;    3.159282;    3.997388;    5.405628;    8.328785;  166.080382; 5400.293452;
 74;    0.256138;    1.021448;    0.742059;    0.800821;    0.867249;    0.956397;    1.042727;    1.167825;    1.289048;    1.436414;    1.620849;    1.853222;    2.166821;    2.687729;    3.447078;    4.683630;   11.807107;   52.908063;69882.682139;
 75;    0.249576;    0.988626;    0.728115;    0.804120;    0.861970;    0.934063;    1.011624;    1.105700;    1.214010;    1.352311;    1.581501;    1.841681;    2.217381;    2.656138;    3.677622;    5.456668;    9.759672;   25.184293;  787.142482;
 76;    0.249158;    1.015987;    0.736575;    0.795867;    0.854006;    0.918585;    0.998493;    1.086486;    1.208255;    1.316068;    1.491374;    1.744363;    2.101615;    2.525294;    3.458895;    5.431722;   12.313408; 2097.148991;92579.564152;
 77;    0.248362;    0.971096;    0.721642;    0.775412;    0.825794;    0.887939;    0.969084;    1.083583;    1.196709;    1.360576;    1.597590;    1.952890;    2.356355;    2.960393;    4.083385;    8.658709;   14.310492;   63.242838;93184.575740;
 78;    0.247305;    0.980799;    0.742591;    0.790672;    0.862587;    0.950528;    1.056162;    1.160539;    1.261216;    1.420525;    1.613700;    1.857151;    2.160774;    2.539628;    3.093788;    4.666706;    8.485950;   49.579182; 3017.303117;
 79;    0.247533;    1.006618;    0.747320;    0.797979;    0.853812;    0.931404;    1.015125;    1.109982;    1.211749;    1.346210;    1.499698;    1.711393;    2.147082;    2.839445;    4.017440;    5.862778;   12.484632;   72.181626;60292.101034;
 80;    0.249522;    0.985917;    0.719080;    0.771691;    0.827334;    0.910637;    0.990953;    1.081171;    1.197676;    1.321600;    1.510818;    1.780133;    2.054993;    2.610323;    3.450095;    5.984067;    9.131393;   27.557533;116629.567519;
 81;    0.249465;    0.985630;    0.731274;    0.780765;    0.831351;    0.891299;    0.976778;    1.056916;    1.162968;    1.307594;    1.470905;    1.682973;    1.973142;    2.438846;    3.003605;    4.481010;    7.810651;   24.491703; 1886.416814;
 82;    0.249971;    0.984027;    0.725890;    0.772898;    0.830345;    0.897261;    0.972815;    1.077675;    1.195920;    1.351028;    1.527290;    1.773585;    2.078594;    2.414400;    3.035996;    4.099346;    8.437610;   38.869600;  898.832955;
 83;    0.248673;    0.968614;    0.733633;    0.784516;    0.848505;    0.924165;    1.035479;    1.143146;    1.275917;    1.452740;    1.651626;    1.859750;    2.276064;    2.788071;    3.502564;    4.473249;   10.241943;   41.369158; 5786.463538;
 84;    0.249683;    0.977071;    0.749381;    0.809192;    0.854361;    0.922769;    0.999884;    1.080822;    1.227229;    1.404976;    1.608131;    1.851566;    2.153014;    2.536087;    2.995528;    4.727730;    7.454525;   16.721625; 2339.020341;
 85;    0.249387;    0.990198;    0.748244;    0.801100;    0.865816;    0.929508;    1.010649;    1.098065;    1.245311;    1.393664;    1.591861;    1.868855;    2.197947;    2.715692;    3.395896;    5.101264;    9.977787;   41.976864; 1550.219702;
 86;    0.249501;    1.021519;    0.741209;    0.785415;    0.838708;    0.909668;    0.992391;    1.086232;    1.247514;    1.386521;    1.637800;    1.958831;    2.390254;    2.932852;    3.525675;    4.709287;    9.700717;   60.216838;  543.662275;
 87;    0.249561;    1.007940;    0.738913;    0.789183;    0.849513;    0.900546;    0.978552;    1.070232;    1.198940;    1.332658;    1.550567;    1.779389;    2.127201;    2.626846;    3.146135;    4.332553;   13.577574;   31.663747;195363.207843;
 88;    0.256555;    1.011833;    0.732464;    0.775573;    0.842470;    0.907861;    0.977485;    1.085372;    1.207316;    1.361683;    1.570385;    1.848046;    2.221463;    2.895301;    3.942443;    5.508690;    8.954692;   29.089583; 4892.965748;
 89;    0.247635;    1.005608;    0.743365;    0.797487;    0.863069;    0.929217;    0.998687;    1.075732;    1.206180;    1.329857;    1.497278;    1.739850;    2.120719;    2.579636;    3.412051;    4.570889;    8.468469;   29.583984;149644.378034;
 90;    0.247150;    0.996738;    0.750276;    0.806783;    0.868676;    0.941657;    1.056236;    1.206416;    1.439631;    1.752701;    2.144558;    2.583585;    3.161364;    3.705997;    4.729771;    6.951909;   12.147057;   68.338080;30397.410884;
 91;    0.248816;    1.009090;    0.741131;    0.787176;    0.840788;    0.911111;    0.990122;    1.074184;    1.196893;    1.347053;    1.551289;    1.803388;    2.046236;    2.556742;    3.377340;    6.268060;   21.481114;   66.132554; 7305.922246;
 92;    0.249818;    0.998316;    0.742259;    0.813659;    0.881098;    0.948222;    1.035724;    1.129731;    1.256922;    1.413056;    1.587004;    1.797220;    2.204266;    2.663439;    3.355963;    4.667341;   10.312684;   18.974916;31074.588267;
 93;    0.248580;    1.003182;    0.749343;    0.802682;    0.876537;    0.948092;    1.041844;    1.137667;    1.227495;    1.370099;    1.591462;    1.874231;    2.243666;    2.716018;    3.531922;    4.890305;    9.194233;   26.252987; 1620.262154;
 94;    0.249462;    0.993768;    0.732308;    0.786620;    0.850977;    0.918939;    0.991695;    1.090374;    1.202257;    1.336286;    1.491459;    1.762418;    2.175382;    2.634631;    3.748125;    6.863670;   19.940701;  167.834671;12727787.162059;
 95;    0.249968;    1.017512;    0.747256;    0.801989;    0.862756;    0.927535;    0.999592;    1.099538;    1.205154;    1.317267;    1.469910;    1.844139;    2.314078;    3.044076;    3.989870;    7.107213;   14.632874;   60.569799; 8204.892458;
 96;    0.247719;    1.013267;    0.735443;    0.782326;    0.855412;    0.927687;    1.014073;    1.110072;    1.244013;    1.374194;    1.599162;    1.992202;    2.978684;    3.552704;    5.341472;    8.434700;   12.916201;   32.045620; 2755.068521;
 97;    0.251207;    1.008103;    0.764209;    0.815969;    0.888695;    0.986935;    1.098536;    1.193969;    1.319595;    1.468627;    1.642444;    1.897405;    2.212079;    2.653655;    4.048538;    6.322798;   10.770517;   23.038346; 8071.046310;
 98;    0.249235;    0.999359;    0.745185;    0.790707;    0.853038;    0.912437;    0.985186;    1.097242;    1.214808;    1.370319;    1.598750;    1.847956;    2.077474;    2.462805;    3.041083;    3.910516;    9.182623;   54.556271; 1790.978068;
 99;    0.248295;    1.014636;    0.739877;    0.792802;    0.839920;    0.923078;    1.021773;    1.139658;    1.301819;    1.520232;    1.846978;    2.149433;    2.498884;    3.269863;    4.782876;    8.443661;   15.365102;   85.375542;5976877.266339;
100;    0.253240;    1.000093;    0.737666;    0.792897;    0.854687;    0.934439;    1.023374;    1.116668;    1.223558;    1.326403;    1.551000;    1.822949;    2.216462;    2.715417;    3.424446;    5.331002;   10.981859;   41.489441;25531.414098;
