Simulation;Time;PC 0;PC 1;PC 2;PC 3;PC 4;PC 5;PC 6;PC 7;PC 8;PC 9;PC10;PC11;PC12;PC13;PC14;PC15;PC16;PC17;
Nan;Nan;0;0;0;0;0;0;0;0;0;0;0;0;0;1;0;0;0;0;
  0;    0.999142;    0.986510;    0.855871;    0.794652;    0.828584;    0.858734;    0.871148;    0.876093;    0.856910;    0.833746;    0.857068;    0.853339;    0.850452;    0.840849;    0.833888;    0.829548;    0.834289;    0.814138;    0.807358;
  1;    1.007870;    1.016149;    0.882028;    0.810234;    0.850998;    0.876791;    0.887909;    0.887462;    0.881143;    0.863501;    0.861541;    0.874549;    0.873828;    0.869041;    0.841697;    0.846711;    0.851589;    0.845510;    0.829768;
  2;    1.005894;    1.018825;    0.887094;    0.817840;    0.858911;    0.887415;    0.910008;    0.895459;    0.892738;    0.856839;    0.871618;    0.877612;    0.870239;    0.865651;    0.848821;    0.864072;    0.861594;    0.848752;    0.833190;
  3;    1.000552;    0.998033;    0.873018;    0.827078;    0.867450;    0.905528;    0.914588;    0.916345;    0.905074;    0.864982;    0.880863;    0.886759;    0.884695;    0.867573;    0.849624;    0.858061;    0.867247;    0.869048;    0.852596;
  4;    0.997202;    1.022613;    0.889332;    0.832057;    0.872535;    0.886901;    0.892122;    0.909576;    0.901643;    0.870638;    0.884340;    0.887648;    0.890256;    0.879686;    0.864368;    0.876150;    0.887436;    0.867012;    0.855027;
  5;    1.036390;    1.001795;    0.867834;    0.813126;    0.864123;    0.885753;    0.904516;    0.908109;    0.895890;    0.864099;    0.865188;    0.874119;    0.866033;    0.860452;    0.840450;    0.845048;    0.845115;    0.845076;    0.825022;
  6;    1.010606;    1.007098;    0.876461;    0.811446;    0.851000;    0.866861;    0.891393;    0.899420;    0.887612;    0.859402;    0.864693;    0.884695;    0.873938;    0.871169;    0.838864;    0.849302;    0.844608;    0.834971;    0.834989;
  7;    1.011388;    1.010288;    0.873058;    0.813937;    0.848136;    0.888541;    0.902447;    0.895335;    0.876736;    0.856641;    0.863117;    0.878780;    0.873663;    0.869340;    0.837938;    0.849464;    0.853023;    0.847538;    0.839466;
  8;    0.997503;    0.982342;    0.852589;    0.800491;    0.836556;    0.871990;    0.897021;    0.877388;    0.870446;    0.838788;    0.856893;    0.861129;    0.853464;    0.840767;    0.833993;    0.845164;    0.848709;    0.836641;    0.828684;
  9;    0.994170;    1.010180;    0.881270;    0.821646;    0.860964;    0.894890;    0.910308;    0.907446;    0.898534;    0.862386;    0.885419;    0.891927;    0.890132;    0.880196;    0.851402;    0.862663;    0.872766;    0.865140;    0.849039;
 10;    1.002884;    1.016526;    0.886286;    0.824219;    0.865883;    0.900222;    0.917386;    0.933724;    0.901608;    0.867464;    0.873968;    0.882457;    0.881655;    0.873610;    0.851041;    0.863916;    0.872589;    0.863580;    0.847625;
 11;    0.999382;    1.002555;    0.881493;    0.819842;    0.866173;    0.886513;    0.902108;    0.903237;    0.891900;    0.866484;    0.887637;    0.898657;    0.886397;    0.887470;    0.862337;    0.862529;    0.855065;    0.848946;    0.838748;
 12;    0.997352;    0.987273;    0.867916;    0.808003;    0.851901;    0.871737;    0.886187;    0.876287;    0.879905;    0.860294;    0.867679;    0.872693;    0.871616;    0.864879;    0.830113;    0.842279;    0.842622;    0.839804;    0.828231;
 13;    0.997564;    1.004388;    0.865014;    0.811775;    0.848421;    0.880821;    0.898579;    0.892438;    0.881604;    0.855390;    0.872099;    0.884806;    0.876825;    0.873701;    0.837167;    0.847898;    0.855502;    0.850180;    0.832558;
 14;    1.006650;    0.980514;    0.856605;    0.800278;    0.840730;    0.866766;    0.870525;    0.866113;    0.854675;    0.847519;    0.860525;    0.872437;    0.869394;    0.856137;    0.829548;    0.836555;    0.845318;    0.841734;    0.825338;
 15;    1.000439;    0.995561;    0.846597;    0.792397;    0.825876;    0.845463;    0.857026;    0.871437;    0.853733;    0.832233;    0.842549;    0.849128;    0.840502;    0.837578;    0.819314;    0.829016;    0.832654;    0.825561;    0.817480;
 16;    0.994339;    1.014622;    0.889099;    0.832304;    0.868388;    0.902871;    0.923806;    0.917256;    0.920661;    0.879123;    0.900431;    0.907819;    0.910798;    0.878403;    0.854670;    0.866250;    0.870062;    0.867264;    0.856610;
 17;    1.005878;    0.979533;    0.853887;    0.804416;    0.850127;    0.868211;    0.881129;    0.874527;    0.877202;    0.853104;    0.857492;    0.873293;    0.865931;    0.859067;    0.826519;    0.835681;    0.838165;    0.828545;    0.812770;
 18;    0.999612;    0.974161;    0.859468;    0.809890;    0.850504;    0.859618;    0.879145;    0.886770;    0.874920;    0.851806;    0.863198;    0.872739;    0.876629;    0.860038;    0.837390;    0.848859;    0.855865;    0.845713;    0.838511;
 19;    1.006362;    0.992791;    0.857781;    0.801033;    0.836668;    0.870152;    0.887498;    0.880230;    0.854455;    0.847322;    0.865579;    0.877844;    0.867473;    0.849490;    0.826584;    0.843715;    0.843237;    0.841259;    0.827712;
 20;    0.996518;    1.016962;    0.871514;    0.817002;    0.855647;    0.884530;    0.905782;    0.905153;    0.891855;    0.857965;    0.876867;    0.890803;    0.877225;    0.863707;    0.840457;    0.856665;    0.857529;    0.859766;    0.847085;
 21;    0.995317;    1.010802;    0.869262;    0.817284;    0.854377;    0.882993;    0.907290;    0.892798;    0.888290;    0.865218;    0.883374;    0.881692;    0.877311;    0.866873;    0.848136;    0.853670;    0.858680;    0.853980;    0.834733;
 22;    1.005063;    1.016881;    0.877874;    0.820262;    0.849636;    0.887087;    0.881704;    0.897081;    0.883755;    0.861398;    0.879115;    0.890301;    0.890548;    0.866590;    0.854243;    0.858248;    0.866811;    0.861936;    0.849515;
 23;    1.001387;    1.004477;    0.875296;    0.818316;    0.863053;    0.896288;    0.899488;    0.901479;    0.875753;    0.863751;    0.876099;    0.887374;    0.881368;    0.880573;    0.847966;    0.854356;    0.857610;    0.850536;    0.848346;
 24;    0.996606;    1.019413;    0.883460;    0.818577;    0.866971;    0.889642;    0.907791;    0.909274;    0.894011;    0.857820;    0.876084;    0.886253;    0.876903;    0.864994;    0.842895;    0.851073;    0.861453;    0.856529;    0.843132;
 25;    1.010084;    0.986022;    0.860129;    0.804460;    0.844495;    0.875304;    0.882059;    0.881974;    0.868760;    0.851967;    0.861211;    0.871072;    0.877239;    0.852083;    0.826623;    0.832705;    0.827605;    0.825600;    0.823108;
 26;    0.998687;    1.015662;    0.885893;    0.829721;    0.868297;    0.896065;    0.923717;    0.923767;    0.907227;    0.870438;    0.893785;    0.898635;    0.894932;    0.874858;    0.863722;    0.874121;    0.880718;    0.864074;    0.848802;
 27;    1.013888;    1.010218;    0.867683;    0.814398;    0.854044;    0.884743;    0.910723;    0.904674;    0.883797;    0.854198;    0.871038;    0.879309;    0.871874;    0.856670;    0.840873;    0.852042;    0.852922;    0.847364;    0.828639;
 28;    0.998738;    1.011316;    0.865920;    0.810139;    0.847623;    0.882628;    0.884879;    0.895486;    0.884823;    0.849354;    0.869244;    0.874013;    0.877678;    0.858855;    0.838835;    0.849232;    0.853670;    0.841644;    0.829368;
 29;    0.993764;    1.020394;    0.864591;    0.807110;    0.849473;    0.871660;    0.887347;    0.880957;    0.865600;    0.848113;    0.865034;    0.866799;    0.859964;    0.845532;    0.834829;    0.851441;    0.851913;    0.839196;    0.827707;
 30;    0.995529;    1.011272;    0.874845;    0.819446;    0.870278;    0.899313;    0.903250;    0.900739;    0.886914;    0.856634;    0.871056;    0.885625;    0.876872;    0.874002;    0.845818;    0.855837;    0.861038;    0.868888;    0.854318;
 31;    1.003749;    1.013140;    0.877926;    0.813473;    0.854951;    0.881736;    0.899832;    0.898834;    0.883684;    0.861047;    0.880417;    0.891650;    0.897178;    0.873009;    0.845382;    0.851326;    0.850890;    0.853087;    0.832936;
 32;    0.998762;    1.000189;    0.882038;    0.810824;    0.853448;    0.863738;    0.885903;    0.892781;    0.885079;    0.864549;    0.878476;    0.877434;    0.876635;    0.872585;    0.835508;    0.850618;    0.855342;    0.851689;    0.832755;
 33;    1.001512;    1.002708;    0.857500;    0.794501;    0.831353;    0.852271;    0.863154;    0.880815;    0.874593;    0.836689;    0.855078;    0.857008;    0.861076;    0.842382;    0.825055;    0.839612;    0.834273;    0.827684;    0.813905;
 34;    0.997328;    1.024869;    0.880253;    0.823610;    0.868696;    0.892500;    0.910879;    0.909907;    0.905772;    0.869349;    0.887613;    0.885890;    0.886685;    0.877521;    0.857339;    0.869880;    0.868132;    0.871061;    0.843185;
 35;    0.995178;    1.003510;    0.874400;    0.812268;    0.856675;    0.888519;    0.884499;    0.893343;    0.888267;    0.852573;    0.868047;    0.875029;    0.879063;    0.867630;    0.850660;    0.851367;    0.853939;    0.845770;    0.825764;
 36;    1.004836;    0.978590;    0.868227;    0.805876;    0.840056;    0.877582;    0.896246;    0.889839;    0.887877;    0.846627;    0.861429;    0.874651;    0.873875;    0.857773;    0.837658;    0.856652;    0.854751;    0.845749;    0.832346;
 37;    0.999295;    0.991921;    0.865746;    0.807666;    0.832000;    0.875181;    0.883995;    0.889968;    0.862541;    0.856489;    0.867936;    0.877923;    0.874731;    0.863520;    0.837144;    0.851987;    0.848454;    0.845857;    0.826990;
 38;    1.004157;    0.998595;    0.864789;    0.808510;    0.849842;    0.866534;    0.884971;    0.892628;    0.867509;    0.853115;    0.875272;    0.871084;    0.869079;    0.862977;    0.842443;    0.851780;    0.860710;    0.852077;    0.839483;
 39;    1.003289;    0.972869;    0.855404;    0.805167;    0.848963;    0.857239;    0.874990;    0.880483;    0.883182;    0.855002;    0.872783;    0.877843;    0.876132;    0.865742;    0.833479;    0.841706;    0.847031;    0.845674;    0.825219;
 40;    0.995565;    1.010063;    0.878589;    0.807618;    0.850229;    0.877243;    0.897459;    0.895340;    0.880794;    0.849609;    0.867086;    0.871600;    0.871907;    0.858770;    0.834055;    0.842957;    0.843394;    0.843916;    0.828657;
 41;    1.002199;    0.998268;    0.868300;    0.803134;    0.843491;    0.861314;    0.852956;    0.864721;    0.860420;    0.841156;    0.856830;    0.873365;    0.876757;    0.871554;    0.842819;    0.853431;    0.843931;    0.835263;    0.818116;
 42;    1.002510;    1.013626;    0.862211;    0.808101;    0.843543;    0.862774;    0.888302;    0.882613;    0.874292;    0.850377;    0.869161;    0.868397;    0.870046;    0.855262;    0.832177;    0.839591;    0.843230;    0.840676;    0.831114;
 43;    1.226982;    1.009746;    0.868983;    0.809963;    0.851143;    0.868375;    0.885342;    0.887261;    0.872049;    0.848605;    0.863315;    0.864149;    0.864027;    0.852983;    0.842486;    0.849841;    0.855399;    0.844763;    0.838146;
 44;    0.999165;    1.011180;    0.882444;    0.814364;    0.859368;    0.895272;    0.911233;    0.900243;    0.878043;    0.851839;    0.877493;    0.875474;    0.884075;    0.867570;    0.847444;    0.853244;    0.854193;    0.853894;    0.836155;
 45;    0.995507;    0.987218;    0.857095;    0.804537;    0.845623;    0.871820;    0.887749;    0.889276;    0.863816;    0.848624;    0.860204;    0.866226;    0.873964;    0.855071;    0.834398;    0.842379;    0.842839;    0.840317;    0.830681;
 46;    0.995709;    1.006933;    0.864234;    0.805010;    0.842097;    0.876488;    0.897090;    0.882315;    0.867085;    0.839129;    0.859357;    0.860396;    0.860430;    0.852425;    0.835328;    0.843720;    0.846624;    0.840396;    0.829470;
 47;    0.997842;    1.020577;    0.879002;    0.830832;    0.868895;    0.908064;    0.922451;    0.910556;    0.918966;    0.874676;    0.888869;    0.910239;    0.905813;    0.880121;    0.862163;    0.875727;    0.883806;    0.866561;    0.851534;
 48;    1.004562;    0.990377;    0.866141;    0.817372;    0.844463;    0.880953;    0.902727;    0.895422;    0.890369;    0.857989;    0.881127;    0.888855;    0.882321;    0.873576;    0.844812;    0.851902;    0.861249;    0.854111;    0.836700;
 49;    0.998741;    0.993859;    0.865297;    0.814904;    0.848612;    0.876370;    0.875128;    0.887421;    0.879383;    0.852786;    0.867727;    0.874334;    0.873369;    0.865193;    0.839325;    0.852299;    0.854110;    0.845169;    0.827399;
 50;    0.998473;    1.004288;    0.865690;    0.804742;    0.835225;    0.871917;    0.901421;    0.886426;    0.868373;    0.849238;    0.862024;    0.869100;    0.864116;    0.848714;    0.831806;    0.837502;    0.842248;    0.836067;    0.829346;
 51;    1.003607;    1.019726;    0.876545;    0.819781;    0.859952;    0.892420;    0.899046;    0.893197;    0.892118;    0.857206;    0.876895;    0.885577;    0.888630;    0.869634;    0.844645;    0.854418;    0.857843;    0.854522;    0.841182;
 52;    0.999752;    0.995711;    0.862886;    0.801066;    0.839480;    0.859847;    0.880346;    0.871599;    0.858271;    0.846743;    0.856332;    0.860386;    0.856386;    0.844961;    0.830145;    0.841912;    0.839122;    0.837915;    0.816176;
 53;    0.994963;    0.989271;    0.879523;    0.807553;    0.850381;    0.876871;    0.877786;    0.871758;    0.875372;    0.846059;    0.862396;    0.870321;    0.879899;    0.870679;    0.830198;    0.837866;    0.846903;    0.839853;    0.825877;
 54;    1.016309;    1.021744;    0.884505;    0.800949;    0.847375;    0.873686;    0.888907;    0.887486;    0.867929;    0.841446;    0.860028;    0.865336;    0.848801;    0.849689;    0.835952;    0.851193;    0.841661;    0.835259;    0.822780;
 55;    1.020895;    0.986197;    0.849205;    0.798968;    0.841511;    0.859987;    0.869969;    0.887314;    0.865932;    0.846211;    0.858490;    0.880446;    0.883322;    0.857051;    0.822632;    0.832966;    0.837040;    0.834862;    0.820426;
 56;    0.999116;    1.002593;    0.866842;    0.803593;    0.840171;    0.870603;    0.870126;    0.880172;    0.884495;    0.862189;    0.862946;    0.871331;    0.877357;    0.854403;    0.832978;    0.841738;    0.843053;    0.831273;    0.819226;
 57;    0.999355;    1.019074;    0.886004;    0.820983;    0.857759;    0.892652;    0.896791;    0.901985;    0.895172;    0.866758;    0.875346;    0.886787;    0.891120;    0.889302;    0.854372;    0.863169;    0.867689;    0.859621;    0.851248;
 58;    1.005127;    1.010914;    0.876564;    0.811244;    0.858906;    0.873694;    0.888601;    0.905919;    0.887025;    0.850386;    0.869761;    0.877622;    0.872389;    0.867955;    0.842930;    0.859124;    0.857301;    0.862327;    0.837732;
 59;    1.000674;    0.989857;    0.862538;    0.807355;    0.843342;    0.861621;    0.873190;    0.874929;    0.882405;    0.856060;    0.860113;    0.869859;    0.874752;    0.863606;    0.835028;    0.845947;    0.844376;    0.843837;    0.835114;
 60;    0.997801;    1.002084;    0.869189;    0.810852;    0.844719;    0.876571;    0.895856;    0.912933;    0.878760;    0.849845;    0.865448;    0.881512;    0.876737;    0.855998;    0.842004;    0.856765;    0.850686;    0.846774;    0.831847;
 61;    0.996852;    1.002509;    0.875507;    0.817145;    0.854532;    0.888190;    0.893263;    0.895507;    0.896708;    0.867436;    0.882344;    0.887280;    0.886432;    0.877274;    0.853158;    0.860877;    0.855515;    0.855021;    0.840797;
 62;    0.999059;    0.987658;    0.853762;    0.801862;    0.839846;    0.876373;    0.873693;    0.871124;    0.865756;    0.839389;    0.860945;    0.879635;    0.873243;    0.845144;    0.826187;    0.833408;    0.831978;    0.826930;    0.812896;
 63;    0.993666;    1.012700;    0.868448;    0.800969;    0.837245;    0.851480;    0.875998;    0.889094;    0.871529;    0.846346;    0.862035;    0.873803;    0.861298;    0.848064;    0.828406;    0.836469;    0.837401;    0.838692;    0.823181;
 64;    1.003344;    1.006818;    0.873490;    0.820691;    0.857497;    0.873556;    0.893808;    0.900031;    0.881297;    0.866215;    0.890902;    0.889670;    0.884776;    0.876621;    0.854924;    0.868186;    0.865252;    0.861276;    0.844644;
 65;    1.000634;    0.981119;    0.859867;    0.797174;    0.836605;    0.865197;    0.872054;    0.875611;    0.861909;    0.836407;    0.850233;    0.859754;    0.863756;    0.843519;    0.829305;    0.838242;    0.847774;    0.842055;    0.818359;
 66;    0.999204;    0.995699;    0.864578;    0.810822;    0.856160;    0.870931;    0.888984;    0.899671;    0.885152;    0.855129;    0.863265;    0.867258;    0.868543;    0.859272;    0.836863;    0.854920;    0.850008;    0.845749;    0.829199;
 67;    1.019119;    0.992189;    0.870385;    0.816349;    0.850161;    0.882760;    0.889185;    0.868985;    0.873445;    0.861040;    0.869115;    0.876084;    0.877352;    0.882597;    0.854318;    0.863147;    0.856118;    0.846059;    0.833919;
 68;    1.008905;    1.002536;    0.869729;    0.813697;    0.849433;    0.880299;    0.883796;    0.893348;    0.892874;    0.854490;    0.867063;    0.882351;    0.877059;    0.863956;    0.841296;    0.844319;    0.849325;    0.844344;    0.832477;
 69;    0.995101;    0.992911;    0.874907;    0.819315;    0.860503;    0.887857;    0.914528;    0.898068;    0.881354;    0.864143;    0.880493;    0.884188;    0.881831;    0.874269;    0.850825;    0.859895;    0.863590;    0.852260;    0.843745;
 70;    1.007078;    1.018856;    0.887617;    0.814621;    0.853972;    0.879763;    0.890301;    0.894946;    0.900178;    0.859118;    0.872508;    0.880651;    0.873427;    0.865631;    0.847557;    0.862393;    0.859360;    0.861691;    0.849668;
 71;    1.003944;    1.000104;    0.862495;    0.805847;    0.826358;    0.856066;    0.889017;    0.906595;    0.893885;    0.851637;    0.872775;    0.871728;    0.866355;    0.849954;    0.839445;    0.840757;    0.842604;    0.838596;    0.832166;
 72;    0.999517;    1.003743;    0.863901;    0.812740;    0.854913;    0.881571;    0.899331;    0.900911;    0.900300;    0.849875;    0.871354;    0.883215;    0.880063;    0.864547;    0.840945;    0.849239;    0.847743;    0.843262;    0.832141;
 73;    1.002813;    1.030796;    0.886580;    0.829861;    0.877893;    0.904196;    0.932654;    0.927788;    0.895790;    0.869657;    0.888486;    0.897175;    0.885598;    0.882359;    0.853655;    0.864429;    0.865514;    0.858498;    0.843996;
 74;    0.993776;    1.006229;    0.862188;    0.812109;    0.847416;    0.884802;    0.889393;    0.883263;    0.879354;    0.856951;    0.877248;    0.880533;    0.874467;    0.861297;    0.846165;    0.861226;    0.852122;    0.852888;    0.833271;
 75;    0.997720;    0.996525;    0.864674;    0.789402;    0.833475;    0.859373;    0.873556;    0.864399;    0.853860;    0.826726;    0.854355;    0.859423;    0.863110;    0.847885;    0.823424;    0.837325;    0.834638;    0.831917;    0.824907;
 76;    1.000188;    1.006807;    0.862053;    0.802815;    0.843055;    0.868895;    0.887220;    0.884200;    0.871276;    0.843580;    0.864157;    0.865948;    0.861644;    0.845488;    0.833063;    0.837795;    0.848980;    0.834500;    0.823029;
 77;    1.008966;    0.973570;    0.846487;    0.785692;    0.818007;    0.847576;    0.852490;    0.867802;    0.853766;    0.833137;    0.850919;    0.860395;    0.854025;    0.847518;    0.815636;    0.820476;    0.820484;    0.816755;    0.810808;
 78;    0.994789;    0.993402;    0.872158;    0.806825;    0.841904;    0.874592;    0.898275;    0.885787;    0.867630;    0.846253;    0.867394;    0.876290;    0.867399;    0.856267;    0.842124;    0.848176;    0.847854;    0.843491;    0.831228;
 79;    0.992407;    1.007475;    0.874728;    0.812830;    0.849853;    0.876671;    0.882925;    0.893061;    0.870341;    0.852817;    0.866877;    0.875045;    0.880025;    0.873932;    0.847809;    0.853244;    0.853110;    0.850946;    0.821966;
 80;    1.000977;    0.984024;    0.845432;    0.782958;    0.816678;    0.834759;    0.854657;    0.853286;    0.842966;    0.826317;    0.842138;    0.851965;    0.844976;    0.832500;    0.812788;    0.819383;    0.822376;    0.810625;    0.795773;
 81;    1.001133;    0.983259;    0.852983;    0.798546;    0.837334;    0.860238;    0.883050;    0.881957;    0.867528;    0.839452;    0.851130;    0.856411;    0.862223;    0.859876;    0.832736;    0.837814;    0.844416;    0.836925;    0.819672;
 82;    0.990006;    0.981842;    0.849051;    0.791744;    0.839185;    0.856738;    0.871714;    0.874775;    0.854915;    0.831041;    0.853225;    0.858645;    0.856961;    0.842009;    0.820834;    0.829516;    0.832790;    0.831363;    0.814769;
 83;    0.998117;    0.972234;    0.853394;    0.800363;    0.839579;    0.861165;    0.880356;    0.879941;    0.869043;    0.847881;    0.866530;    0.870297;    0.866557;    0.851943;    0.830833;    0.841270;    0.844628;    0.840792;    0.827535;
 84;    1.006205;    0.990472;    0.877798;    0.817756;    0.854439;    0.885297;    0.887902;    0.886330;    0.890035;    0.862914;    0.878765;    0.891427;    0.888792;    0.871541;    0.845580;    0.851092;    0.854067;    0.847050;    0.836140;
 85;    0.994808;    1.000582;    0.875837;    0.818214;    0.849764;    0.889981;    0.899316;    0.912324;    0.897805;    0.862125;    0.885559;    0.885995;    0.882326;    0.868937;    0.841539;    0.854644;    0.858743;    0.850574;    0.841146;
 86;    1.001185;    1.015969;    0.871185;    0.805317;    0.840446;    0.878139;    0.895279;    0.886126;    0.881651;    0.848616;    0.866027;    0.871808;    0.875937;    0.857122;    0.837100;    0.840733;    0.835967;    0.837068;    0.825009;
 87;    1.007068;    1.004094;    0.864550;    0.806756;    0.845800;    0.861573;    0.884138;    0.883667;    0.876282;    0.858509;    0.869908;    0.876746;    0.866672;    0.847320;    0.829462;    0.845803;    0.839679;    0.838059;    0.824988;
 88;    0.998802;    1.011721;    0.864280;    0.798130;    0.837588;    0.863967;    0.891694;    0.887271;    0.858516;    0.839278;    0.861300;    0.863374;    0.856666;    0.840205;    0.827328;    0.839098;    0.830469;    0.829405;    0.816366;
 89;    1.004437;    1.006911;    0.871995;    0.811142;    0.850901;    0.876296;    0.894397;    0.884279;    0.869297;    0.847434;    0.863053;    0.869667;    0.866491;    0.857278;    0.837194;    0.847386;    0.853063;    0.840551;    0.829646;
 90;    0.994003;    1.001571;    0.876799;    0.817651;    0.853437;    0.884957;    0.901508;    0.903576;    0.894635;    0.867244;    0.883972;    0.887627;    0.892619;    0.877251;    0.846858;    0.865017;    0.866983;    0.860287;    0.837521;
 91;    0.997630;    1.011809;    0.873506;    0.804477;    0.846445;    0.870532;    0.880816;    0.890590;    0.872427;    0.842975;    0.856288;    0.864720;    0.862983;    0.849842;    0.837164;    0.848442;    0.850414;    0.847597;    0.826568;
 92;    1.001383;    0.994151;    0.864012;    0.809507;    0.850334;    0.870480;    0.885184;    0.890157;    0.874577;    0.855749;    0.873387;    0.885113;    0.885399;    0.869424;    0.850883;    0.858824;    0.846072;    0.849179;    0.832891;
 93;    0.995192;    1.004931;    0.874028;    0.818945;    0.859082;    0.889567;    0.904914;    0.896136;    0.895516;    0.863293;    0.870423;    0.888925;    0.880266;    0.880238;    0.848081;    0.854226;    0.859634;    0.862041;    0.845451;
 94;    1.009774;    0.999556;    0.863646;    0.797822;    0.834078;    0.855758;    0.875609;    0.877860;    0.865389;    0.837509;    0.849487;    0.849401;    0.845508;    0.833362;    0.822165;    0.830603;    0.831134;    0.826987;    0.815572;
 95;    0.999312;    1.014101;    0.873979;    0.814821;    0.854901;    0.888375;    0.894417;    0.890485;    0.876556;    0.859046;    0.887157;    0.891486;    0.892863;    0.867311;    0.843437;    0.855484;    0.855891;    0.853300;    0.835867;
 96;    1.002908;    1.008290;    0.865492;    0.800709;    0.852659;    0.886214;    0.896830;    0.886127;    0.868547;    0.838312;    0.858235;    0.857610;    0.861187;    0.864093;    0.834710;    0.846108;    0.840481;    0.838327;    0.821876;
 97;    0.998550;    1.019916;    0.896675;    0.834246;    0.866828;    0.899805;    0.913341;    0.910636;    0.897994;    0.871282;    0.889213;    0.895556;    0.907783;    0.892495;    0.862738;    0.874807;    0.872313;    0.862024;    0.852567;
 98;    0.998939;    1.003536;    0.874682;    0.809476;    0.854398;    0.880875;    0.886445;    0.883040;    0.875838;    0.851918;    0.866941;    0.870430;    0.875064;    0.863100;    0.842803;    0.859890;    0.855861;    0.846385;    0.831621;
 99;    0.999970;    1.000576;    0.860225;    0.805594;    0.844101;    0.861109;    0.882040;    0.891509;    0.883292;    0.854199;    0.875521;    0.883244;    0.874827;    0.871205;    0.842587;    0.854098;    0.859615;    0.852777;    0.840999;
100;    1.004679;    0.992817;    0.857169;    0.806807;    0.851823;    0.889541;    0.892575;    0.889286;    0.888899;    0.855173;    0.864331;    0.867851;    0.860162;    0.850535;    0.834741;    0.843710;    0.851182;    0.846670;    0.822428;
