Simulation;Time;PC 0;PC 1;PC 2;PC 3;PC 4;PC 5;PC 6;PC 7;PC 8;PC 9;PC10;PC11;PC12;PC13;PC14;PC15;PC16;PC17;
Nan;Nan;0;1;0;0;0;0;0;0;0;0;0;0;0;0;0;0;0;0;
  0;    0.107654;    0.987844;    0.519721;    0.544756;    0.573040;    0.594789;    0.621944;    0.653907;    0.683345;    0.710139;    0.731344;    0.757302;    0.782990;    0.802145;    0.833933;    0.853161;    0.890861;    0.918978;    0.954883;
  1;    0.113493;    1.010236;    0.531597;    0.556423;    0.584964;    0.610200;    0.645370;    0.671397;    0.702912;    0.731397;    0.754444;    0.778187;    0.807013;    0.838431;    0.864717;    0.903250;    0.924722;    0.957497;    0.982120;
  2;    0.107376;    1.002717;    0.535289;    0.570178;    0.599019;    0.625273;    0.654082;    0.683197;    0.704007;    0.732772;    0.751890;    0.771284;    0.800011;    0.829472;    0.859370;    0.890095;    0.919444;    0.948089;    0.969961;
  3;    0.107171;    0.983391;    0.535321;    0.566785;    0.589908;    0.624203;    0.653469;    0.672612;    0.699978;    0.724473;    0.746784;    0.767473;    0.799169;    0.826801;    0.856569;    0.890757;    0.915863;    0.941264;    0.965965;
  4;    0.109031;    1.019547;    0.542060;    0.569091;    0.600457;    0.631264;    0.651044;    0.682554;    0.717317;    0.743809;    0.774598;    0.796208;    0.827573;    0.857041;    0.878747;    0.911561;    0.935167;    0.958108;    0.995024;
  5;    0.109269;    1.006278;    0.529919;    0.556924;    0.584686;    0.612538;    0.636350;    0.669707;    0.697863;    0.727074;    0.754895;    0.780185;    0.814535;    0.841399;    0.871761;    0.895271;    0.923608;    0.958065;    0.978059;
  6;    0.108356;    0.999220;    0.530933;    0.562973;    0.588599;    0.609935;    0.636176;    0.664266;    0.696063;    0.718564;    0.752628;    0.787405;    0.813986;    0.826474;    0.860180;    0.889381;    0.910536;    0.944579;    0.964961;
  7;    0.106841;    1.011001;    0.530107;    0.554612;    0.587543;    0.613990;    0.642840;    0.670766;    0.690359;    0.726554;    0.753318;    0.775785;    0.806850;    0.838481;    0.862933;    0.893120;    0.920150;    0.957520;    0.991744;
  8;    0.106350;    0.983079;    0.520579;    0.550092;    0.582023;    0.607957;    0.626154;    0.654558;    0.687400;    0.710583;    0.733535;    0.762715;    0.787882;    0.820599;    0.840612;    0.872171;    0.900829;    0.920596;    0.952790;
  9;    0.108097;    0.995954;    0.535138;    0.566048;    0.591849;    0.622892;    0.651588;    0.680892;    0.710930;    0.741053;    0.769364;    0.793631;    0.827807;    0.855266;    0.877816;    0.908775;    0.928212;    0.959886;    0.983281;
 10;    0.108120;    1.003714;    0.537505;    0.565036;    0.598127;    0.630580;    0.652411;    0.681794;    0.706404;    0.735662;    0.763030;    0.791655;    0.818352;    0.832695;    0.868842;    0.892250;    0.926971;    0.955603;    0.978423;
 11;    0.108741;    0.985961;    0.536828;    0.560499;    0.585746;    0.616344;    0.638572;    0.672487;    0.696218;    0.723988;    0.753639;    0.783566;    0.807258;    0.832425;    0.854006;    0.874038;    0.909253;    0.938505;    0.961539;
 12;    0.109200;    0.960363;    0.526919;    0.552548;    0.578842;    0.608884;    0.632673;    0.653270;    0.671621;    0.694973;    0.720706;    0.755651;    0.789756;    0.819895;    0.840061;    0.864691;    0.878517;    0.908713;    0.932499;
 13;    0.110990;    1.018807;    0.528005;    0.555544;    0.585878;    0.613650;    0.640887;    0.668104;    0.691952;    0.719118;    0.753649;    0.779520;    0.812206;    0.849530;    0.888307;    0.913066;    0.934918;    0.957060;    0.979836;
 14;    0.108051;    0.972380;    0.522056;    0.553530;    0.583123;    0.604201;    0.633462;    0.654202;    0.683227;    0.708038;    0.738098;    0.769499;    0.785340;    0.813495;    0.847781;    0.871656;    0.882830;    0.916887;    0.946955;
 15;    0.108434;    1.030662;    0.516766;    0.550995;    0.577588;    0.604804;    0.637192;    0.660393;    0.690997;    0.715615;    0.747803;    0.783715;    0.816162;    0.844750;    0.861282;    0.891392;    0.930632;    0.967952;    0.999420;
 16;    0.108248;    0.998473;    0.541624;    0.570042;    0.599358;    0.626081;    0.650452;    0.674990;    0.697690;    0.727150;    0.759622;    0.786139;    0.808898;    0.838066;    0.865701;    0.893118;    0.920476;    0.950298;    0.965964;
 17;    0.107501;    0.969968;    0.522039;    0.544565;    0.571959;    0.594084;    0.625518;    0.652094;    0.674523;    0.698006;    0.730422;    0.758561;    0.789035;    0.808735;    0.823056;    0.855499;    0.879828;    0.913813;    0.941023;
 18;    0.110334;    0.951459;    0.526581;    0.550953;    0.580062;    0.610496;    0.640699;    0.661758;    0.691110;    0.712151;    0.742879;    0.775090;    0.796300;    0.815770;    0.839412;    0.863420;    0.880074;    0.903600;    0.934566;
 19;    0.108166;    0.996895;    0.522448;    0.553680;    0.578145;    0.608609;    0.643263;    0.675191;    0.702781;    0.731175;    0.759065;    0.782940;    0.815767;    0.842250;    0.866545;    0.885696;    0.909268;    0.948030;    0.974072;
 20;    0.106844;    1.037705;    0.531413;    0.561419;    0.597930;    0.627144;    0.657826;    0.684274;    0.709888;    0.744846;    0.779002;    0.807870;    0.831486;    0.855812;    0.896261;    0.926486;    0.945371;    0.978313;    1.008786;
 21;    0.106777;    1.030944;    0.532715;    0.557887;    0.592477;    0.618103;    0.641847;    0.667772;    0.704825;    0.733178;    0.763433;    0.793868;    0.818135;    0.850026;    0.877431;    0.917575;    0.949224;    0.974394;    1.002174;
 22;    0.108909;    1.020635;    0.534015;    0.563853;    0.593842;    0.621348;    0.650378;    0.672368;    0.696276;    0.723319;    0.757110;    0.789590;    0.819398;    0.838798;    0.874765;    0.912368;    0.943455;    0.964218;    0.988064;
 23;    0.111371;    0.998506;    0.533742;    0.561165;    0.588444;    0.623083;    0.652754;    0.677642;    0.708077;    0.735590;    0.760211;    0.786136;    0.810186;    0.838159;    0.868754;    0.896201;    0.920785;    0.949892;    0.973391;
 24;    0.108064;    1.015186;    0.532750;    0.564566;    0.592991;    0.617125;    0.644068;    0.670596;    0.703270;    0.731440;    0.756399;    0.786651;    0.803812;    0.833593;    0.865325;    0.899818;    0.941648;    0.974624;    0.997462;
 25;    0.108642;    0.974010;    0.523658;    0.551139;    0.575627;    0.610888;    0.639691;    0.661076;    0.684248;    0.711266;    0.727342;    0.760281;    0.780215;    0.806925;    0.836621;    0.859525;    0.894387;    0.921632;    0.942278;
 26;    0.114432;    1.011111;    0.541013;    0.569207;    0.595624;    0.625336;    0.654940;    0.676554;    0.704078;    0.736064;    0.765021;    0.787065;    0.808817;    0.840622;    0.867653;    0.893380;    0.924376;    0.959226;    0.984606;
 27;    0.107259;    1.025369;    0.528995;    0.559844;    0.587614;    0.615994;    0.645992;    0.673073;    0.698272;    0.729608;    0.756501;    0.783777;    0.816231;    0.833693;    0.868746;    0.902305;    0.938545;    0.958721;    1.000015;
 28;    0.114314;    1.030887;    0.527369;    0.556660;    0.581514;    0.612924;    0.637392;    0.665204;    0.697542;    0.727275;    0.749323;    0.786615;    0.816548;    0.847143;    0.885319;    0.910983;    0.935687;    0.969212;    1.000875;
 29;    0.109632;    1.055782;    0.525216;    0.555195;    0.582680;    0.618643;    0.647247;    0.675929;    0.707347;    0.741401;    0.770859;    0.803260;    0.834747;    0.861971;    0.888415;    0.926093;    0.950478;    0.978568;    1.015387;
 30;    0.107625;    1.020600;    0.534140;    0.560687;    0.592760;    0.616717;    0.639063;    0.658615;    0.689567;    0.719877;    0.751919;    0.783844;    0.811520;    0.849785;    0.884540;    0.917307;    0.945486;    0.960289;    0.998534;
 31;    0.108381;    1.014276;    0.532855;    0.562855;    0.597938;    0.626554;    0.657773;    0.685795;    0.704421;    0.718643;    0.752936;    0.782178;    0.813892;    0.842484;    0.863755;    0.889509;    0.924817;    0.963545;    0.997384;
 32;    0.108403;    0.970824;    0.530996;    0.556125;    0.584271;    0.613183;    0.642437;    0.671688;    0.697246;    0.720967;    0.750976;    0.772117;    0.801205;    0.825707;    0.849206;    0.871972;    0.885700;    0.915793;    0.941540;
 33;    0.107828;    1.025108;    0.519584;    0.544211;    0.581601;    0.613808;    0.644219;    0.665561;    0.695331;    0.724689;    0.749792;    0.781322;    0.810586;    0.848129;    0.886624;    0.918094;    0.936852;    0.959476;    0.994375;
 34;    0.107652;    1.046096;    0.538065;    0.565177;    0.599029;    0.628380;    0.656726;    0.677013;    0.704981;    0.731952;    0.759507;    0.796830;    0.824423;    0.856489;    0.890383;    0.924139;    0.961081;    0.994511;    1.020846;
 35;    0.107818;    0.995152;    0.529840;    0.555550;    0.584778;    0.613868;    0.646804;    0.671651;    0.697327;    0.723160;    0.753655;    0.778746;    0.798931;    0.828125;    0.867159;    0.895558;    0.921934;    0.942784;    0.971715;
 36;    0.114926;    0.944930;    0.526502;    0.555314;    0.583421;    0.610280;    0.632599;    0.662356;    0.689071;    0.719098;    0.747170;    0.776676;    0.795751;    0.823475;    0.849940;    0.878705;    0.900417;    0.913510;    0.920638;
 37;    0.112642;    0.980933;    0.527131;    0.553678;    0.577113;    0.605153;    0.635093;    0.657006;    0.692196;    0.721721;    0.748266;    0.773688;    0.793729;    0.825723;    0.843784;    0.871298;    0.903635;    0.938156;    0.954346;
 38;    0.109859;    1.008562;    0.528286;    0.552418;    0.577243;    0.602909;    0.631357;    0.666957;    0.697702;    0.732731;    0.760117;    0.783370;    0.807146;    0.825896;    0.858175;    0.900442;    0.930327;    0.952735;    0.973610;
 39;    0.108255;    0.959035;    0.525019;    0.551515;    0.582518;    0.608184;    0.627523;    0.652973;    0.682395;    0.704604;    0.733083;    0.752721;    0.788012;    0.817160;    0.846945;    0.868369;    0.891634;    0.913148;    0.930712;
 40;    0.108328;    0.999643;    0.528911;    0.555800;    0.579670;    0.608820;    0.631388;    0.668363;    0.698525;    0.723037;    0.741373;    0.762035;    0.794579;    0.822289;    0.854442;    0.881725;    0.903066;    0.933499;    0.971783;
 41;    0.108900;    0.998216;    0.526041;    0.551655;    0.579204;    0.603727;    0.633704;    0.667786;    0.697137;    0.723320;    0.745300;    0.763077;    0.800251;    0.830064;    0.849816;    0.886909;    0.909437;    0.948186;    0.964073;
 42;    0.107902;    1.044267;    0.525915;    0.554287;    0.578381;    0.610916;    0.637697;    0.664923;    0.697163;    0.729843;    0.757615;    0.786809;    0.811985;    0.843671;    0.879855;    0.918887;    0.952355;    0.987618;    1.021670;
 43;    0.107055;    1.024939;    0.528983;    0.559717;    0.589088;    0.611540;    0.642126;    0.670034;    0.701612;    0.729066;    0.756941;    0.785074;    0.814760;    0.835531;    0.864829;    0.886101;    0.924138;    0.965856;    1.001598;
 44;    0.108728;    1.001755;    0.533627;    0.561714;    0.591690;    0.620568;    0.642256;    0.675928;    0.707560;    0.732359;    0.755281;    0.776517;    0.812484;    0.838306;    0.868637;    0.889738;    0.914335;    0.944778;    0.978705;
 45;    0.108212;    0.992324;    0.525452;    0.548339;    0.579139;    0.600931;    0.623648;    0.649108;    0.684594;    0.709642;    0.737349;    0.773392;    0.800570;    0.819795;    0.859254;    0.892163;    0.922980;    0.943287;    0.958401;
 46;    0.108410;    1.025170;    0.524475;    0.550401;    0.581482;    0.606245;    0.637944;    0.669804;    0.699948;    0.727167;    0.757048;    0.776877;    0.806857;    0.838841;    0.868099;    0.892748;    0.929620;    0.961674;    0.998495;
 47;    0.112085;    1.041242;    0.539843;    0.569310;    0.598349;    0.632389;    0.663840;    0.693018;    0.717540;    0.744094;    0.781362;    0.806947;    0.828030;    0.860614;    0.884100;    0.916619;    0.944945;    0.979445;    1.018167;
 48;    0.112373;    0.979915;    0.530481;    0.563191;    0.592567;    0.615563;    0.647292;    0.670863;    0.701215;    0.721737;    0.752976;    0.783433;    0.809970;    0.838836;    0.860840;    0.880721;    0.907375;    0.937038;    0.954656;
 49;    0.107200;    0.986844;    0.529456;    0.556421;    0.586430;    0.615941;    0.640462;    0.663546;    0.681581;    0.708319;    0.732853;    0.763678;    0.786453;    0.812548;    0.843805;    0.869715;    0.901669;    0.922970;    0.949973;
 50;    0.108643;    1.010190;    0.525087;    0.557583;    0.586925;    0.616787;    0.640151;    0.666399;    0.694504;    0.724023;    0.762083;    0.792567;    0.820235;    0.841733;    0.864272;    0.893736;    0.909122;    0.940977;    0.979763;
 51;    0.111570;    1.027780;    0.531625;    0.561530;    0.591705;    0.614803;    0.651457;    0.679256;    0.714182;    0.734481;    0.762713;    0.784325;    0.814100;    0.837882;    0.875761;    0.902635;    0.934829;    0.956964;    0.989014;
 52;    0.109915;    0.996595;    0.523450;    0.549841;    0.578692;    0.607401;    0.634346;    0.663246;    0.688047;    0.720494;    0.744047;    0.775368;    0.800696;    0.836000;    0.860975;    0.875068;    0.909210;    0.933895;    0.962303;
 53;    0.107691;    0.940105;    0.528555;    0.553581;    0.583621;    0.608928;    0.639266;    0.665345;    0.687369;    0.711976;    0.733507;    0.764692;    0.781189;    0.809559;    0.838728;    0.857134;    0.885198;    0.904979;    0.915476;
 54;    0.108965;    1.014981;    0.528227;    0.551111;    0.586298;    0.614650;    0.637116;    0.663386;    0.685752;    0.717004;    0.744168;    0.779430;    0.806642;    0.825191;    0.861129;    0.892422;    0.908004;    0.938609;    0.985993;
 55;    0.107929;    0.999206;    0.519646;    0.547311;    0.570599;    0.595496;    0.627016;    0.650073;    0.685365;    0.718407;    0.743366;    0.779969;    0.810184;    0.834735;    0.863684;    0.898241;    0.929126;    0.961762;    0.980931;
 56;    0.108633;    1.009429;    0.526863;    0.552460;    0.576652;    0.603720;    0.634651;    0.660511;    0.693343;    0.720862;    0.753281;    0.779096;    0.795741;    0.824855;    0.851746;    0.883147;    0.910943;    0.945708;    0.981678;
 57;    0.108126;    1.016805;    0.537688;    0.566408;    0.590328;    0.621059;    0.651949;    0.680946;    0.705469;    0.733814;    0.762386;    0.785065;    0.818907;    0.843216;    0.865620;    0.892749;    0.931940;    0.966202;    0.995553;
 58;    0.107187;    1.010109;    0.530585;    0.559555;    0.585645;    0.617838;    0.649289;    0.680338;    0.713485;    0.738599;    0.765525;    0.802687;    0.838211;    0.862594;    0.892584;    0.916358;    0.946147;    0.966147;    0.986443;
 59;    0.108087;    0.979529;    0.525480;    0.550381;    0.581410;    0.606535;    0.637476;    0.661764;    0.682661;    0.702806;    0.737046;    0.762882;    0.789845;    0.813912;    0.837386;    0.869722;    0.902199;    0.929481;    0.958799;
 60;    0.110416;    1.000066;    0.527995;    0.559072;    0.587317;    0.616959;    0.644089;    0.674687;    0.701095;    0.725954;    0.758182;    0.796393;    0.824804;    0.854002;    0.878418;    0.896905;    0.927771;    0.958597;    0.975908;
 61;    0.108724;    0.999697;    0.535155;    0.561890;    0.589899;    0.622842;    0.649856;    0.675274;    0.701675;    0.727258;    0.756008;    0.777048;    0.807087;    0.833734;    0.869280;    0.900043;    0.919377;    0.944925;    0.970930;
 62;    0.107198;    0.991147;    0.521877;    0.549045;    0.573156;    0.600388;    0.627758;    0.654785;    0.675616;    0.696234;    0.730118;    0.761721;    0.789317;    0.815156;    0.846352;    0.863360;    0.897825;    0.925817;    0.958267;
 63;    0.109956;    1.028071;    0.525580;    0.553045;    0.576526;    0.604008;    0.632679;    0.665095;    0.697765;    0.723368;    0.757514;    0.780253;    0.806465;    0.842773;    0.870386;    0.910657;    0.951268;    0.982872;    1.008592;
 64;    0.109230;    1.011628;    0.534300;    0.561887;    0.591051;    0.623997;    0.652674;    0.674306;    0.710909;    0.745628;    0.772279;    0.787574;    0.810973;    0.843939;    0.867529;    0.895018;    0.935462;    0.960973;    0.989346;
 65;    0.108863;    0.965666;    0.521516;    0.551381;    0.577537;    0.601926;    0.634274;    0.660719;    0.688111;    0.710895;    0.734506;    0.756794;    0.782891;    0.815408;    0.844371;    0.867834;    0.896136;    0.907557;    0.932718;
 66;    0.108998;    0.987706;    0.526224;    0.550667;    0.579201;    0.602162;    0.633664;    0.660221;    0.679782;    0.713248;    0.737761;    0.765417;    0.792989;    0.820181;    0.844851;    0.875420;    0.908521;    0.935386;    0.971695;
 67;    0.108245;    0.980507;    0.531989;    0.555990;    0.589476;    0.612860;    0.643398;    0.671158;    0.693434;    0.721331;    0.738376;    0.762115;    0.788599;    0.811673;    0.838083;    0.865864;    0.896111;    0.922354;    0.949128;
 68;    0.112701;    1.002358;    0.530356;    0.560441;    0.588751;    0.623885;    0.650954;    0.673533;    0.709362;    0.736323;    0.769480;    0.794986;    0.823512;    0.845563;    0.871049;    0.898248;    0.918074;    0.935207;    0.972503;
 69;    0.108446;    0.970766;    0.534910;    0.560102;    0.587174;    0.619953;    0.651244;    0.680665;    0.709633;    0.736852;    0.761103;    0.776768;    0.807803;    0.822996;    0.852002;    0.874825;    0.905078;    0.919889;    0.944926;
 70;    0.112901;    1.010195;    0.535523;    0.565347;    0.592441;    0.618633;    0.643483;    0.674039;    0.703860;    0.732883;    0.757850;    0.789787;    0.815114;    0.842058;    0.877992;    0.903377;    0.914279;    0.947913;    0.989533;
 71;    0.107204;    1.006294;    0.525521;    0.553927;    0.581129;    0.602292;    0.630224;    0.659651;    0.690717;    0.713795;    0.751251;    0.776905;    0.797676;    0.829879;    0.860785;    0.888677;    0.916767;    0.948587;    0.981451;
 72;    0.108328;    1.019554;    0.528375;    0.555290;    0.587534;    0.618900;    0.648310;    0.680408;    0.707716;    0.735448;    0.756842;    0.788879;    0.819890;    0.852741;    0.870464;    0.894087;    0.928554;    0.958034;    0.995228;
 73;    0.110521;    1.040498;    0.539065;    0.569016;    0.603626;    0.632900;    0.662588;    0.688538;    0.716892;    0.740114;    0.778757;    0.812883;    0.837604;    0.855474;    0.890868;    0.924729;    0.940450;    0.977170;    1.009809;
 74;    0.108191;    1.032840;    0.528391;    0.555311;    0.587662;    0.621324;    0.646865;    0.677928;    0.700222;    0.720983;    0.758810;    0.789466;    0.818190;    0.852341;    0.885704;    0.906896;    0.944579;    0.971308;    0.993885;
 75;    0.106787;    0.993007;    0.518236;    0.547241;    0.574433;    0.602707;    0.629171;    0.662994;    0.688952;    0.714660;    0.742727;    0.773607;    0.804154;    0.821482;    0.854625;    0.884759;    0.921821;    0.943657;    0.970811;
 76;    0.108834;    1.029101;    0.524384;    0.558115;    0.584336;    0.610794;    0.634888;    0.668236;    0.694904;    0.714992;    0.744346;    0.785301;    0.822129;    0.852344;    0.882629;    0.914171;    0.939176;    0.970061;    1.004198;
 77;    0.108331;    0.970021;    0.513670;    0.546205;    0.569197;    0.592875;    0.616759;    0.640009;    0.668883;    0.694029;    0.725585;    0.756652;    0.781801;    0.800527;    0.829882;    0.853231;    0.877091;    0.911160;    0.939936;
 78;    0.108768;    0.969528;    0.528549;    0.552228;    0.580258;    0.611160;    0.647809;    0.673821;    0.695448;    0.725918;    0.756366;    0.778657;    0.800703;    0.817883;    0.827780;    0.854740;    0.891137;    0.919030;    0.943532;
 79;    0.107578;    1.006339;    0.531811;    0.556752;    0.583492;    0.610915;    0.641338;    0.667057;    0.695872;    0.726319;    0.749416;    0.767821;    0.798793;    0.835943;    0.868246;    0.891268;    0.919710;    0.939059;    0.982973;
 80;    0.107335;    0.995270;    0.511838;    0.542018;    0.569309;    0.602110;    0.625390;    0.652943;    0.680885;    0.703428;    0.728824;    0.757702;    0.775076;    0.811558;    0.834955;    0.862483;    0.893939;    0.923025;    0.964439;
 81;    0.109241;    0.985860;    0.520548;    0.547081;    0.570739;    0.593604;    0.621090;    0.647084;    0.679172;    0.710544;    0.741792;    0.769784;    0.795147;    0.821565;    0.842507;    0.873962;    0.910507;    0.947988;    0.972039;
 82;    0.108764;    0.987631;    0.516694;    0.540876;    0.569198;    0.598538;    0.626288;    0.661802;    0.691949;    0.721319;    0.741780;    0.771093;    0.796734;    0.823503;    0.846995;    0.872785;    0.916038;    0.946782;    0.971144;
 83;    0.107992;    0.957392;    0.522156;    0.547535;    0.578070;    0.604090;    0.636961;    0.662895;    0.690908;    0.720525;    0.745313;    0.760594;    0.791260;    0.813393;    0.840068;    0.850806;    0.877540;    0.911022;    0.936728;
 84;    0.108193;    0.958861;    0.533277;    0.565565;    0.585086;    0.612358;    0.639413;    0.662559;    0.699302;    0.728051;    0.753703;    0.783709;    0.812174;    0.833597;    0.836641;    0.859885;    0.883640;    0.903457;    0.928236;
 85;    0.108985;    0.980054;    0.532477;    0.562916;    0.594366;    0.618305;    0.645531;    0.670212;    0.701360;    0.731127;    0.756023;    0.778465;    0.805331;    0.827380;    0.847776;    0.876157;    0.904030;    0.927076;    0.953138;
 86;    0.108971;    1.034067;    0.527651;    0.554066;    0.581009;    0.611500;    0.636305;    0.659951;    0.696571;    0.719034;    0.750905;    0.789857;    0.819659;    0.845058;    0.874641;    0.903589;    0.939533;    0.961865;    0.995664;
 87;    0.108595;    1.014393;    0.526204;    0.554863;    0.584487;    0.606464;    0.641168;    0.671823;    0.702247;    0.725938;    0.755857;    0.774021;    0.809612;    0.837927;    0.860289;    0.887382;    0.923454;    0.959761;    0.989773;
 88;    0.108220;    1.025667;    0.521534;    0.544917;    0.578459;    0.603156;    0.627516;    0.665541;    0.698187;    0.728794;    0.761740;    0.789224;    0.816531;    0.845792;    0.871943;    0.885209;    0.924431;    0.962349;    0.996769;
 89;    0.107787;    1.007590;    0.529383;    0.558183;    0.585237;    0.615315;    0.639551;    0.662582;    0.694489;    0.715365;    0.751795;    0.782131;    0.811090;    0.831562;    0.858620;    0.876761;    0.901299;    0.936225;    0.970948;
 90;    0.110008;    0.988720;    0.534059;    0.562808;    0.585818;    0.612695;    0.640939;    0.672148;    0.701352;    0.734036;    0.758183;    0.777111;    0.809246;    0.835343;    0.857833;    0.891248;    0.913585;    0.941983;    0.960124;
 91;    0.107754;    1.014489;    0.527479;    0.553932;    0.580140;    0.610707;    0.640107;    0.663947;    0.691397;    0.722609;    0.747541;    0.779272;    0.808683;    0.842254;    0.863268;    0.897928;    0.927357;    0.962352;    0.979880;
 92;    0.108730;    0.997049;    0.528315;    0.555379;    0.582647;    0.610911;    0.642358;    0.668433;    0.705221;    0.734672;    0.759010;    0.774851;    0.804115;    0.821687;    0.855279;    0.878498;    0.897453;    0.925845;    0.968639;
 93;    0.108016;    0.999256;    0.533414;    0.561336;    0.594065;    0.622664;    0.653687;    0.678820;    0.694189;    0.721841;    0.750610;    0.792837;    0.824350;    0.855710;    0.880628;    0.903897;    0.925318;    0.937744;    0.971084;
 94;    0.107549;    0.997844;    0.521303;    0.548668;    0.572858;    0.598768;    0.624164;    0.650907;    0.679614;    0.704932;    0.726687;    0.757203;    0.792615;    0.817165;    0.852607;    0.881058;    0.909739;    0.945921;    0.964190;
 95;    0.108897;    1.023590;    0.532021;    0.563303;    0.595233;    0.626634;    0.655123;    0.684737;    0.712541;    0.730081;    0.757723;    0.796323;    0.830461;    0.865724;    0.891299;    0.915726;    0.933250;    0.954589;    0.991486;
 96;    0.107431;    1.025685;    0.523595;    0.547966;    0.583836;    0.614052;    0.649100;    0.681250;    0.712805;    0.734768;    0.773524;    0.803462;    0.826759;    0.843143;    0.878784;    0.908542;    0.940861;    0.964094;    1.002758;
 97;    0.107841;    0.995801;    0.543955;    0.571599;    0.596845;    0.619137;    0.645412;    0.676232;    0.711218;    0.738535;    0.769152;    0.797583;    0.819159;    0.830740;    0.864283;    0.897067;    0.929078;    0.945499;    0.974491;
 98;    0.110478;    0.996816;    0.530426;    0.557107;    0.589961;    0.612401;    0.638907;    0.673231;    0.705714;    0.732600;    0.756662;    0.789543;    0.813948;    0.841299;    0.856054;    0.879693;    0.917585;    0.949865;    0.976353;
 99;    0.108776;    1.024387;    0.526787;    0.553464;    0.575095;    0.611040;    0.638206;    0.667117;    0.698524;    0.728904;    0.755795;    0.784356;    0.815916;    0.844047;    0.882506;    0.913792;    0.943479;    0.970542;    0.996785;
100;    0.107544;    1.003285;    0.525096;    0.556162;    0.587329;    0.622716;    0.652375;    0.679397;    0.702432;    0.717463;    0.751556;    0.779002;    0.811122;    0.840436;    0.868630;    0.890333;    0.922475;    0.952742;    0.979811;
