Simulation;Time;PC 0;PC 1;PC 2;PC 3;PC 4;PC 5;PC 6;PC 7;PC 8;PC 9;PC10;PC11;PC12;PC13;PC14;PC15;PC16;PC17;
Nan;Nan;0;0;0;0;0;0;0;0;0;0;0;1;0;0;0;0;0;0;
  0;    0.304380;    1.415127;    1.225192;    1.098061;    1.037767;    1.035410;    1.028866;    1.013544;    1.013996;    1.010154;    1.002224;    0.995027;    0.975863;    0.975955;    0.976433;    0.977352;    0.976724;    0.977107;    0.977282;
  1;    0.302223;    1.430988;    1.243936;    1.106766;    1.046718;    1.047484;    1.038711;    1.026192;    1.033893;    1.036881;    1.043203;    1.031102;    0.988300;    0.988409;    0.989272;    0.988783;    0.989281;    0.989274;    0.989429;
  2;    0.311332;    1.430852;    1.249112;    1.115889;    1.052796;    1.054919;    1.047082;    1.032262;    1.035104;    1.033248;    1.025008;    1.018153;    0.991175;    0.991911;    0.991715;    0.991220;    0.991258;    0.991427;    0.991502;
  3;    0.305960;    1.410983;    1.229442;    1.120550;    1.060333;    1.061572;    1.055174;    1.037813;    1.039834;    1.043245;    1.041396;    1.024562;    0.995681;    0.996017;    0.996386;    0.996475;    0.997102;    0.997432;    0.997567;
  4;    0.301188;    1.432436;    1.246134;    1.127508;    1.063025;    1.060652;    1.050857;    1.037290;    1.038679;    1.034595;    1.034819;    1.029048;    0.999183;    0.999837;    1.000596;    1.001748;    1.002240;    1.001511;    1.001767;
  5;    0.306726;    1.420366;    1.229026;    1.107400;    1.055694;    1.056531;    1.052295;    1.038032;    1.040969;    1.031981;    1.037087;    1.015903;    0.990233;    0.990860;    0.991076;    0.992086;    0.992545;    0.992015;    0.992161;
  6;    0.305571;    1.422993;    1.237224;    1.104379;    1.048868;    1.046906;    1.044666;    1.024634;    1.028085;    1.031532;    1.024117;    1.010027;    0.988693;    0.989376;    0.990186;    0.989971;    0.990692;    0.990448;    0.990698;
  7;    0.301402;    1.426590;    1.235914;    1.112293;    1.058047;    1.052918;    1.047447;    1.038810;    1.032837;    1.032586;    1.037492;    1.023236;    0.988379;    0.989103;    0.989885;    0.990210;    0.990674;    0.990721;    0.990924;
  8;    0.301739;    1.406975;    1.216188;    1.098056;    1.045032;    1.041344;    1.035050;    1.022664;    1.023509;    1.027431;    1.020446;    1.002649;    0.981855;    0.983068;    0.982389;    0.982834;    0.983314;    0.983653;    0.983819;
  9;    0.308169;    1.421398;    1.238334;    1.114159;    1.060091;    1.058132;    1.059338;    1.036931;    1.040157;    1.042105;    1.044248;    1.026862;    0.997031;    0.997886;    0.997708;    0.998376;    0.998663;    0.998675;    0.998846;
 10;    0.300206;    1.426870;    1.243591;    1.117578;    1.057393;    1.056469;    1.058354;    1.034923;    1.037895;    1.042971;    1.033849;    1.029987;    0.995640;    0.995831;    0.996292;    0.997393;    0.997478;    0.997198;    0.997385;
 11;    0.307672;    1.415151;    1.235028;    1.108684;    1.055596;    1.053281;    1.056427;    1.032816;    1.036229;    1.039888;    1.032939;    1.032430;    0.996889;    0.996725;    0.996315;    0.997355;    0.996690;    0.997297;    0.997429;
 12;    0.311077;    1.405962;    1.229912;    1.100840;    1.052004;    1.051191;    1.044834;    1.032391;    1.029986;    1.028494;    1.020594;    1.007546;    0.985401;    0.985843;    0.985980;    0.986835;    0.987465;    0.987573;    0.987571;
 13;    0.302670;    1.422920;    1.225205;    1.104709;    1.049634;    1.047811;    1.042159;    1.028631;    1.026248;    1.024977;    1.023935;    1.013953;    0.988478;    0.988586;    0.989155;    0.989875;    0.990034;    0.990441;    0.990478;
 14;    0.301660;    1.409141;    1.225838;    1.102933;    1.042264;    1.043004;    1.037756;    1.017075;    1.020459;    1.014472;    1.010828;    1.003315;    0.980492;    0.980761;    0.981635;    0.982239;    0.982985;    0.983105;    0.982973;
 15;    0.301714;    1.427405;    1.220036;    1.100876;    1.037950;    1.035341;    1.031256;    1.021438;    1.026498;    1.025079;    1.012490;    1.005591;    0.975327;    0.975696;    0.975899;    0.976497;    0.976714;    0.977189;    0.977223;
 16;    0.300822;    1.421816;    1.241612;    1.118278;    1.063898;    1.059454;    1.055085;    1.042471;    1.046314;    1.041860;    1.036493;    1.035501;    0.999298;    0.999715;    1.001006;    1.000720;    1.001167;    1.001569;    1.001751;
 17;    0.302325;    1.405832;    1.222517;    1.107513;    1.045515;    1.043788;    1.033373;    1.024606;    1.024349;    1.023273;    1.022896;    1.022364;    0.980887;    0.981181;    0.981650;    0.981723;    0.981895;    0.981587;    0.981689;
 18;    0.310479;    1.394903;    1.217781;    1.102068;    1.050002;    1.049010;    1.047148;    1.031291;    1.029738;    1.026940;    1.024916;    1.022673;    0.989279;    0.990395;    0.990412;    0.990662;    0.990947;    0.991378;    0.991472;
 19;    0.303958;    1.413839;    1.219683;    1.091574;    1.048459;    1.045241;    1.038101;    1.026775;    1.030453;    1.025873;    1.024389;    1.021669;    0.985896;    0.986841;    0.987300;    0.987403;    0.987664;    0.987844;    0.988051;
 20;    0.308658;    1.432756;    1.232760;    1.111375;    1.051126;    1.052248;    1.045062;    1.030195;    1.027763;    1.027644;    1.024684;    1.023703;    0.990671;    0.991818;    0.991972;    0.992526;    0.992454;    0.992902;    0.993153;
 21;    0.300970;    1.427504;    1.228102;    1.109680;    1.053945;    1.049120;    1.046872;    1.030944;    1.035671;    1.029914;    1.030436;    1.008835;    0.992379;    0.992717;    0.992880;    0.992914;    0.993364;    0.993830;    0.993620;
 22;    0.303794;    1.426648;    1.232744;    1.110383;    1.060118;    1.054424;    1.046873;    1.036311;    1.038332;    1.034515;    1.031482;    1.024462;    0.994980;    0.995136;    0.995700;    0.995534;    0.995930;    0.996198;    0.996417;
 23;    0.305077;    1.416459;    1.228607;    1.102824;    1.058371;    1.056869;    1.052453;    1.036509;    1.036518;    1.036981;    1.035151;    1.031370;    0.995729;    0.995560;    0.995917;    0.996316;    0.996766;    0.997126;    0.997542;
 24;    0.305469;    1.432480;    1.243972;    1.117071;    1.057880;    1.057778;    1.048074;    1.035356;    1.033365;    1.038167;    1.025179;    1.020481;    0.990616;    0.991285;    0.991392;    0.991646;    0.992221;    0.992418;    0.992602;
 25;    0.305479;    1.410190;    1.227538;    1.105114;    1.044609;    1.040456;    1.039181;    1.024441;    1.027252;    1.018068;    1.016483;    1.006491;    0.982540;    0.982481;    0.981957;    0.981966;    0.982161;    0.982405;    0.982696;
 26;    0.312833;    1.422709;    1.235583;    1.117128;    1.063308;    1.064054;    1.058066;    1.042150;    1.043714;    1.043368;    1.047161;    1.030189;    1.000832;    1.001797;    1.001719;    1.002134;    1.001410;    1.001821;    1.002023;
 27;    0.303032;    1.425724;    1.226056;    1.106049;    1.054324;    1.053130;    1.042994;    1.032202;    1.034227;    1.031056;    1.032073;    1.012576;    0.990586;    0.991220;    0.991491;    0.992151;    0.991668;    0.992023;    0.991995;
 28;    0.302775;    1.429195;    1.227738;    1.106643;    1.054932;    1.053588;    1.047425;    1.031045;    1.031181;    1.028036;    1.030374;    1.015254;    0.987721;    0.987982;    0.988904;    0.988639;    0.988688;    0.989184;    0.989047;
 29;    0.304178;    1.439968;    1.230371;    1.107523;    1.052689;    1.049112;    1.042050;    1.029260;    1.027575;    1.023156;    1.021684;    1.008138;    0.983441;    0.984606;    0.985390;    0.986048;    0.985700;    0.986118;    0.986269;
 30;    0.304237;    1.427188;    1.233535;    1.115477;    1.055438;    1.054692;    1.048497;    1.033198;    1.031282;    1.031977;    1.029552;    1.029801;    0.990821;    0.991933;    0.991905;    0.992481;    0.993172;    0.993278;    0.993589;
 31;    0.314238;    1.427841;    1.237837;    1.106090;    1.051431;    1.051057;    1.047163;    1.031947;    1.031974;    1.036559;    1.040109;    1.019624;    0.992169;    0.992217;    0.992537;    0.992284;    0.992716;    0.993454;    0.993127;
 32;    0.301617;    1.415420;    1.239941;    1.102863;    1.049463;    1.046861;    1.041903;    1.030959;    1.032051;    1.030436;    1.035539;    1.024811;    0.989219;    0.988889;    0.989853;    0.989737;    0.990174;    0.990622;    0.990505;
 33;    0.302912;    1.428257;    1.225046;    1.095633;    1.042896;    1.039213;    1.036293;    1.025071;    1.026833;    1.025876;    1.019060;    1.015621;    0.980545;    0.981820;    0.981511;    0.980789;    0.981645;    0.981591;    0.981845;
 34;    0.301315;    1.435710;    1.235388;    1.113273;    1.056033;    1.055693;    1.051322;    1.040984;    1.047885;    1.042380;    1.036168;    1.026262;    0.997310;    0.997515;    0.997947;    0.998185;    0.998028;    0.998263;    0.998410;
 35;    0.306136;    1.419335;    1.232780;    1.106418;    1.054543;    1.052958;    1.044215;    1.029832;    1.029302;    1.028552;    1.033628;    1.019169;    0.991091;    0.991447;    0.992693;    0.992626;    0.992834;    0.993088;    0.993015;
 36;    0.314008;    1.402821;    1.232291;    1.108466;    1.046483;    1.050943;    1.039608;    1.025732;    1.032111;    1.028194;    1.021016;    1.014910;    0.986597;    0.987597;    0.987776;    0.987981;    0.988177;    0.988531;    0.988870;
 37;    0.303096;    1.416402;    1.235012;    1.112296;    1.043943;    1.043726;    1.036745;    1.025942;    1.031898;    1.024922;    1.018835;    1.016542;    0.984649;    0.986171;    0.985289;    0.985848;    0.986860;    0.987004;    0.986372;
 38;    0.305840;    1.419140;    1.224694;    1.101835;    1.050618;    1.047429;    1.046784;    1.024435;    1.023912;    1.022424;    1.018131;    1.017436;    0.987434;    0.988044;    0.988435;    0.989034;    0.989801;    0.990343;    0.990080;
 39;    0.304275;    1.398673;    1.218918;    1.099924;    1.043058;    1.041435;    1.032937;    1.020780;    1.021777;    1.022712;    1.023175;    1.004255;    0.984624;    0.985216;    0.985596;    0.986118;    0.986496;    0.986901;    0.986644;
 40;    0.303416;    1.428059;    1.243789;    1.106831;    1.045793;    1.045568;    1.040044;    1.024863;    1.029747;    1.024328;    1.022555;    1.009996;    0.983156;    0.983152;    0.984143;    0.983919;    0.984414;    0.984762;    0.985032;
 41;    0.302448;    1.418573;    1.229204;    1.097978;    1.047606;    1.045081;    1.035454;    1.023356;    1.021795;    1.020238;    1.025005;    1.009615;    0.985198;    0.986255;    0.986296;    0.986713;    0.987500;    0.987704;    0.987310;
 42;    0.301299;    1.434447;    1.228010;    1.108067;    1.046502;    1.050126;    1.043325;    1.026119;    1.022648;    1.020919;    1.024159;    1.008612;    0.984752;    0.984708;    0.985414;    0.986291;    0.985963;    0.986163;    0.986500;
 43;    0.306745;    1.428341;    1.230713;    1.108240;    1.052938;    1.047661;    1.045216;    1.033891;    1.038526;    1.040375;    1.034000;    1.017427;    0.987666;    0.989258;    0.989284;    0.988581;    0.989790;    0.989300;    0.989599;
 44;    0.303927;    1.423355;    1.237089;    1.104891;    1.054756;    1.058706;    1.051604;    1.029457;    1.030616;    1.030266;    1.027791;    1.017386;    0.992771;    0.993494;    0.993502;    0.993949;    0.994693;    0.994768;    0.995014;
 45;    0.299627;    1.409746;    1.217576;    1.098665;    1.047768;    1.046492;    1.043415;    1.024762;    1.023926;    1.024050;    1.024565;    1.014332;    0.986587;    0.987147;    0.987198;    0.987888;    0.987924;    0.988012;    0.988108;
 46;    0.302275;    1.428782;    1.228305;    1.106950;    1.051046;    1.045913;    1.042061;    1.023656;    1.025635;    1.024275;    1.025205;    1.012203;    0.983486;    0.983920;    0.984634;    0.984943;    0.984740;    0.985283;    0.985661;
 47;    0.304261;    1.429191;    1.229377;    1.117647;    1.060633;    1.063255;    1.057591;    1.043214;    1.039451;    1.041213;    1.041925;    1.029288;    1.000849;    1.002698;    1.002160;    1.001795;    1.001789;    1.002055;    1.002327;
 48;    0.301402;    1.407150;    1.223027;    1.108763;    1.057778;    1.054653;    1.050392;    1.032733;    1.035168;    1.036230;    1.036774;    1.019204;    0.993745;    0.994471;    0.994923;    0.996117;    0.995975;    0.996578;    0.996492;
 49;    0.309740;    1.410110;    1.222931;    1.106730;    1.054967;    1.051848;    1.042628;    1.030581;    1.029985;    1.023158;    1.024650;    1.016101;    0.988754;    0.989396;    0.990230;    0.989944;    0.990557;    0.990384;    0.990364;
 50;    0.303017;    1.424355;    1.230364;    1.101188;    1.045910;    1.048400;    1.041408;    1.027678;    1.030948;    1.030424;    1.025012;    1.012208;    0.984773;    0.985240;    0.986075;    0.986084;    0.986287;    0.986363;    0.986538;
 51;    0.307094;    1.433790;    1.237441;    1.120336;    1.061062;    1.058123;    1.050979;    1.037613;    1.037944;    1.036467;    1.030165;    1.030862;    0.991314;    0.991899;    0.992257;    0.992205;    0.992647;    0.992333;    0.992546;
 52;    0.302997;    1.421305;    1.232486;    1.106019;    1.041524;    1.038372;    1.032742;    1.019963;    1.016804;    1.012907;    1.013753;    1.013708;    0.980097;    0.981202;    0.981241;    0.981836;    0.981704;    0.982060;    0.981956;
 53;    0.309283;    1.407474;    1.244054;    1.107270;    1.049042;    1.047647;    1.042177;    1.028523;    1.027206;    1.027985;    1.021101;    1.020597;    0.985363;    0.985706;    0.986038;    0.987000;    0.986803;    0.987095;    0.987060;
 54;    0.303384;    1.436111;    1.248108;    1.098208;    1.047247;    1.045413;    1.038419;    1.024410;    1.027717;    1.026201;    1.018425;    1.008498;    0.983056;    0.982808;    0.983624;    0.983869;    0.983996;    0.984353;    0.984464;
 55;    0.306303;    1.413140;    1.215034;    1.094999;    1.041038;    1.039088;    1.031789;    1.022967;    1.021547;    1.018793;    1.022763;    1.016261;    0.981534;    0.982307;    0.982479;    0.982880;    0.982292;    0.982658;    0.982884;
 56;    0.304783;    1.423029;    1.230140;    1.096797;    1.039171;    1.038029;    1.034445;    1.022666;    1.022265;    1.026211;    1.024163;    1.015866;    0.984116;    0.984729;    0.984722;    0.985056;    0.985116;    0.985339;    0.985476;
 57;    0.302812;    1.431686;    1.244794;    1.115482;    1.055592;    1.053617;    1.051755;    1.035216;    1.032596;    1.032455;    1.026982;    1.018768;    0.994580;    0.994767;    0.996304;    0.996728;    0.996642;    0.996960;    0.996940;
 58;    0.304581;    1.425531;    1.234512;    1.104321;    1.053115;    1.057304;    1.043717;    1.030210;    1.036600;    1.039002;    1.031214;    1.018686;    0.991777;    0.992837;    0.993388;    0.993808;    0.994263;    0.994254;    0.994244;
 59;    0.307818;    1.414569;    1.231993;    1.111973;    1.046828;    1.042623;    1.037221;    1.021742;    1.023043;    1.025376;    1.020569;    1.010519;    0.982969;    0.984611;    0.984589;    0.984528;    0.984399;    0.984942;    0.984850;
 60;    0.302735;    1.419084;    1.228602;    1.107119;    1.053594;    1.050168;    1.043748;    1.029841;    1.030764;    1.028746;    1.025146;    1.009867;    0.990159;    0.991078;    0.991974;    0.992439;    0.992341;    0.992204;    0.992476;
 61;    0.303713;    1.415121;    1.226619;    1.099839;    1.051858;    1.053126;    1.047633;    1.033105;    1.032020;    1.030896;    1.028325;    1.026762;    0.995763;    0.996425;    0.996437;    0.996872;    0.997408;    0.997234;    0.997194;
 62;    0.305383;    1.413932;    1.222454;    1.103958;    1.043432;    1.047913;    1.030750;    1.021027;    1.022727;    1.025949;    1.016943;    1.012285;    0.980195;    0.980150;    0.980790;    0.980512;    0.980730;    0.981150;    0.980727;
 63;    0.309210;    1.432254;    1.233642;    1.095702;    1.043387;    1.040051;    1.036768;    1.022530;    1.020436;    1.017360;    1.016804;    1.016977;    0.982931;    0.984374;    0.983592;    0.983913;    0.984467;    0.984916;    0.985072;
 64;    0.309186;    1.422562;    1.231771;    1.114271;    1.050348;    1.051829;    1.048282;    1.034913;    1.036975;    1.037779;    1.033412;    1.022038;    0.994689;    0.996068;    0.997234;    0.996905;    0.996605;    0.996861;    0.997053;
 65;    0.304302;    1.405524;    1.223697;    1.094961;    1.042019;    1.043180;    1.031409;    1.016363;    1.017913;    1.015401;    1.016992;    1.006490;    0.980306;    0.980789;    0.981500;    0.982310;    0.982312;    0.982362;    0.982582;
 66;    0.308324;    1.414737;    1.227896;    1.107297;    1.054560;    1.052800;    1.044600;    1.029979;    1.033291;    1.027803;    1.016899;    1.011850;    0.985952;    0.986484;    0.987214;    0.988241;    0.987703;    0.988010;    0.988211;
 67;    0.302779;    1.405037;    1.220283;    1.099524;    1.054259;    1.050909;    1.043508;    1.034496;    1.032250;    1.029622;    1.027738;    1.017157;    0.993427;    0.994096;    0.994251;    0.994446;    0.994553;    0.994710;    0.994999;
 68;    0.306715;    1.419157;    1.229022;    1.106397;    1.054611;    1.051622;    1.048658;    1.028583;    1.026429;    1.031282;    1.024229;    1.017094;    0.991175;    0.991907;    0.992151;    0.992289;    0.993424;    0.992955;    0.992953;
 69;    0.307931;    1.408838;    1.232694;    1.110865;    1.050080;    1.049248;    1.044741;    1.033842;    1.035207;    1.040200;    1.030090;    1.030050;    0.994480;    0.994857;    0.995696;    0.995608;    0.995765;    0.995949;    0.996015;
 70;    0.303513;    1.430249;    1.244846;    1.106643;    1.056355;    1.056037;    1.052738;    1.034546;    1.037658;    1.031661;    1.033805;    1.017165;    0.993684;    0.995096;    0.995186;    0.994925;    0.995751;    0.995793;    0.995810;
 71;    0.312923;    1.419304;    1.224625;    1.101008;    1.048810;    1.049357;    1.049576;    1.032006;    1.030675;    1.032963;    1.028176;    1.012458;    0.986379;    0.986195;    0.986931;    0.986559;    0.986747;    0.987398;    0.987267;
 72;    0.308279;    1.421592;    1.222204;    1.104989;    1.054349;    1.054530;    1.050871;    1.030899;    1.038483;    1.038117;    1.031423;    1.012320;    0.990845;    0.991404;    0.992548;    0.992087;    0.992060;    0.991948;    0.992087;
 73;    0.301585;    1.437071;    1.241152;    1.119817;    1.065086;    1.060924;    1.057550;    1.039298;    1.038844;    1.038860;    1.033657;    1.024931;    0.998303;    0.999499;    0.999706;    1.000119;    1.000119;    1.000629;    1.000712;
 74;    0.305464;    1.428520;    1.226578;    1.113150;    1.047982;    1.046430;    1.039926;    1.027070;    1.032433;    1.024699;    1.024568;    1.009223;    0.988422;    0.990007;    0.990265;    0.991232;    0.990987;    0.990493;    0.990694;
 75;    0.305766;    1.424637;    1.236807;    1.097791;    1.037150;    1.037817;    1.028251;    1.015211;    1.017411;    1.012867;    1.008890;    1.006110;    0.975011;    0.976450;    0.977052;    0.976581;    0.976926;    0.977412;    0.977443;
 76;    0.303956;    1.427337;    1.224767;    1.098172;    1.048695;    1.046150;    1.044453;    1.024864;    1.024321;    1.025665;    1.014642;    1.007049;    0.985003;    0.985521;    0.985813;    0.986231;    0.986462;    0.986903;    0.987040;
 77;    0.303198;    1.406029;    1.218764;    1.088213;    1.034604;    1.032316;    1.025390;    1.014656;    1.013565;    1.017844;    1.021780;    0.995129;    0.973975;    0.973966;    0.974275;    0.974162;    0.974103;    0.974441;    0.974653;
 78;    0.300709;    1.413780;    1.237561;    1.106200;    1.045273;    1.044680;    1.041483;    1.022392;    1.026967;    1.021732;    1.018234;    1.010305;    0.986299;    0.986728;    0.987676;    0.987703;    0.987675;    0.988005;    0.988185;
 79;    0.304471;    1.423095;    1.233544;    1.106103;    1.055926;    1.051401;    1.051837;    1.031894;    1.034379;    1.030850;    1.028116;    1.013324;    0.990931;    0.991452;    0.991851;    0.992404;    0.992843;    0.993291;    0.992495;
 80;    0.302053;    1.419617;    1.224531;    1.095248;    1.033981;    1.028716;    1.024171;    1.011629;    1.011570;    1.016190;    1.017110;    0.995702;    0.968614;    0.969611;    0.969203;    0.969889;    0.969607;    0.969783;    0.970160;
 81;    0.302330;    1.409833;    1.219129;    1.099732;    1.042401;    1.039396;    1.037170;    1.019109;    1.019330;    1.020205;    1.017043;    1.018613;    0.981113;    0.982270;    0.981751;    0.982020;    0.982308;    0.982801;    0.982984;
 82;    0.300090;    1.411938;    1.219191;    1.094681;    1.038701;    1.036885;    1.030192;    1.018742;    1.024737;    1.019341;    1.019729;    1.006629;    0.977208;    0.977377;    0.978512;    0.978610;    0.978884;    0.979068;    0.979275;
 83;    0.303347;    1.396710;    1.215529;    1.092833;    1.041334;    1.039951;    1.031677;    1.023967;    1.020923;    1.021496;    1.019339;    1.011764;    0.984123;    0.985038;    0.985604;    0.985949;    0.986099;    0.986507;    0.986658;
 84;    0.304016;    1.407643;    1.235599;    1.112913;    1.050844;    1.049874;    1.049723;    1.032731;    1.032719;    1.039341;    1.043026;    1.021200;    0.991342;    0.991496;    0.991635;    0.992730;    0.992918;    0.992642;    0.992758;
 85;    0.305071;    1.414589;    1.235111;    1.110014;    1.057450;    1.054331;    1.048160;    1.034466;    1.037282;    1.034345;    1.030070;    1.025610;    0.992942;    0.993425;    0.994221;    0.995315;    0.995445;    0.994697;    0.994911;
 86;    0.300924;    1.434647;    1.234205;    1.100289;    1.044443;    1.043267;    1.040658;    1.022368;    1.024838;    1.020032;    1.017264;    1.020422;    0.984583;    0.985575;    0.985484;    0.985584;    0.985891;    0.986120;    0.986320;
 87;    0.302061;    1.423278;    1.227433;    1.099540;    1.047477;    1.041937;    1.039240;    1.026684;    1.026737;    1.028832;    1.014758;    1.005417;    0.984860;    0.985175;    0.985559;    0.986540;    0.986279;    0.986456;    0.986711;
 88;    0.312126;    1.436686;    1.239503;    1.107642;    1.045380;    1.046263;    1.042843;    1.020918;    1.024358;    1.023871;    1.015080;    1.006535;    0.979106;    0.979491;    0.979628;    0.979717;    0.980158;    0.979907;    0.980210;
 89;    0.305629;    1.426286;    1.237088;    1.115012;    1.049494;    1.049288;    1.036651;    1.026816;    1.027453;    1.030790;    1.023448;    1.016120;    0.983557;    0.983820;    0.984943;    0.984942;    0.985179;    0.985252;    0.985585;
 90;    0.304424;    1.415153;    1.232223;    1.104282;    1.052855;    1.049180;    1.045524;    1.036508;    1.039063;    1.037071;    1.032932;    1.021157;    0.994644;    0.995505;    0.996692;    0.996429;    0.996636;    0.996952;    0.996817;
 91;    0.304741;    1.430321;    1.239060;    1.105840;    1.047718;    1.046515;    1.044964;    1.026233;    1.025420;    1.026613;    1.023660;    1.021523;    0.985222;    0.985890;    0.986250;    0.986671;    0.987233;    0.986756;    0.986886;
 92;    0.301435;    1.417269;    1.228482;    1.109227;    1.047472;    1.045180;    1.040144;    1.024433;    1.029108;    1.020862;    1.020679;    1.010282;    0.987460;    0.988312;    0.987848;    0.989277;    0.988788;    0.989033;    0.989225;
 93;    0.301647;    1.419221;    1.232421;    1.111444;    1.053996;    1.054762;    1.049400;    1.031504;    1.034140;    1.036332;    1.031408;    1.014860;    0.993281;    0.993196;    0.993735;    0.994244;    0.994938;    0.994923;    0.995194;
 94;    0.305161;    1.422143;    1.231888;    1.098728;    1.049936;    1.046338;    1.041314;    1.025313;    1.029310;    1.029793;    1.022462;    1.013803;    0.979183;    0.979254;    0.980502;    0.980435;    0.980850;    0.981180;    0.981283;
 95;    0.307401;    1.428907;    1.233703;    1.108120;    1.053866;    1.051094;    1.043974;    1.033920;    1.038453;    1.036427;    1.030424;    1.029261;    0.992109;    0.993099;    0.992869;    0.993608;    0.993395;    0.993579;    0.993464;
 96;    0.309816;    1.430441;    1.230495;    1.100171;    1.044502;    1.051774;    1.042385;    1.018599;    1.021543;    1.024490;    1.021827;    1.012851;    0.983851;    0.983412;    0.984017;    0.984301;    0.984997;    0.984875;    0.985209;
 97;    0.303952;    1.424141;    1.247377;    1.123624;    1.065339;    1.062649;    1.054946;    1.040761;    1.037999;    1.040982;    1.037641;    1.029187;    1.000783;    1.001215;    1.002257;    1.002444;    1.003108;    1.002138;    1.002400;
 98;    0.357423;    1.423760;    1.239159;    1.109363;    1.049269;    1.050757;    1.040481;    1.025587;    1.023574;    1.024601;    1.024821;    1.016327;    0.987443;    0.988167;    0.989225;    0.989904;    0.989529;    0.990035;    0.990156;
 99;    0.303526;    1.423453;    1.222224;    1.099986;    1.041072;    1.042036;    1.035574;    1.024502;    1.030807;    1.034160;    1.028804;    1.015764;    0.987036;    0.987881;    0.988624;    0.988910;    0.989140;    0.988926;    0.989170;
100;    0.302431;    1.416034;    1.220317;    1.101881;    1.045932;    1.048509;    1.039281;    1.027991;    1.028673;    1.026922;    1.022629;    1.012837;    0.986548;    0.987341;    0.987526;    0.988336;    0.989027;    0.989410;    0.988817;
