Simulation;Time;PC 0;PC 1;PC 2;PC 3;PC 4;PC 5;PC 6;PC 7;PC 8;PC 9;PC10;PC11;PC12;PC13;PC14;PC15;PC16;PC17;
Nan;Nan;0;0;0;0;0;0;0;0;0;0;0;1;0;0;0;0;0;0;
  0;    0.023766;    0.254694;    0.228647;    0.212048;    0.203650;    0.202679;    0.201306;    0.199606;    0.199106;    0.198091;    0.196853;    0.195483;    0.194126;    0.194126;    0.194165;    0.194246;    0.194195;    0.194227;    0.194241;
  1;    0.022932;    0.257537;    0.231956;    0.213796;    0.205573;    0.204795;    0.203263;    0.201896;    0.201998;    0.201420;    0.201120;    0.199556;    0.196309;    0.196317;    0.196387;    0.196344;    0.196387;    0.196381;    0.196393;
  2;    0.023234;    0.257455;    0.232765;    0.215163;    0.206519;    0.205963;    0.204522;    0.202967;    0.202575;    0.201716;    0.200458;    0.198864;    0.196814;    0.196893;    0.196873;    0.196832;    0.196836;    0.196848;    0.196852;
  3;    0.026863;    0.253896;    0.229189;    0.215119;    0.206776;    0.205964;    0.204572;    0.202929;    0.202518;    0.202169;    0.201052;    0.198916;    0.196645;    0.196672;    0.196705;    0.196714;    0.196764;    0.196790;    0.196800;
  4;    0.022937;    0.257754;    0.232281;    0.216889;    0.207932;    0.206780;    0.205242;    0.203669;    0.203312;    0.202267;    0.201521;    0.200260;    0.197925;    0.197989;    0.198053;    0.198144;    0.198181;    0.198125;    0.198145;
  5;    0.023144;    0.255708;    0.229487;    0.213487;    0.206300;    0.205575;    0.204443;    0.202943;    0.202520;    0.200800;    0.200412;    0.198124;    0.196007;    0.196062;    0.196082;    0.196165;    0.196204;    0.196162;    0.196172;
  6;    0.022364;    0.256122;    0.230756;    0.213303;    0.205543;    0.204387;    0.203504;    0.201550;    0.201285;    0.200953;    0.199506;    0.197835;    0.196089;    0.196143;    0.196214;    0.196197;    0.196248;    0.196228;    0.196249;
  7;    0.025548;    0.256793;    0.230688;    0.214389;    0.206859;    0.205561;    0.204306;    0.203204;    0.201959;    0.201160;    0.200521;    0.198370;    0.195984;    0.196049;    0.196116;    0.196143;    0.196181;    0.196185;    0.196202;
  8;    0.022542;    0.253283;    0.227114;    0.211710;    0.204268;    0.203077;    0.201867;    0.200452;    0.199926;    0.199474;    0.197965;    0.195956;    0.194347;    0.194456;    0.194401;    0.194442;    0.194483;    0.194509;    0.194521;
  9;    0.024694;    0.255816;    0.230908;    0.214642;    0.207067;    0.205847;    0.205374;    0.203141;    0.202770;    0.202115;    0.201358;    0.199424;    0.196948;    0.197019;    0.197007;    0.197063;    0.197088;    0.197090;    0.197103;
 10;    0.021956;    0.256763;    0.231787;    0.215317;    0.206977;    0.206062;    0.205450;    0.203139;    0.202772;    0.202524;    0.201005;    0.199912;    0.197245;    0.197263;    0.197301;    0.197397;    0.197407;    0.197381;    0.197395;
 11;    0.023077;    0.254686;    0.230181;    0.213666;    0.206242;    0.205180;    0.204726;    0.202379;    0.202123;    0.201790;    0.200430;    0.199705;    0.196916;    0.196908;    0.196878;    0.196967;    0.196914;    0.196961;    0.196971;
 12;    0.023349;    0.253034;    0.229247;    0.212227;    0.205391;    0.204498;    0.203093;    0.201665;    0.200758;    0.199802;    0.198301;    0.196590;    0.195000;    0.195034;    0.195039;    0.195114;    0.195162;    0.195171;    0.195170;
 13;    0.022937;    0.256186;    0.228883;    0.213121;    0.205504;    0.204445;    0.203362;    0.201840;    0.200984;    0.200144;    0.199165;    0.197711;    0.195862;    0.195882;    0.195927;    0.195986;    0.195998;    0.196035;    0.196037;
 14;    0.021749;    0.253562;    0.228545;    0.212586;    0.204113;    0.203292;    0.201905;    0.199928;    0.199610;    0.198330;    0.197372;    0.196207;    0.194477;    0.194511;    0.194585;    0.194638;    0.194700;    0.194707;    0.194698;
 15;    0.022401;    0.257007;    0.228181;    0.212513;    0.204005;    0.203057;    0.202023;    0.200797;    0.200502;    0.199651;    0.197831;    0.196210;    0.194117;    0.194151;    0.194166;    0.194215;    0.194236;    0.194274;    0.194278;
 16;    0.022287;    0.255878;    0.231401;    0.215211;    0.207688;    0.206327;    0.205191;    0.203860;    0.203586;    0.202615;    0.201322;    0.200447;    0.197616;    0.197656;    0.197775;    0.197749;    0.197787;    0.197821;    0.197833;
 17;    0.021834;    0.252965;    0.227976;    0.212959;    0.204454;    0.203317;    0.201683;    0.200710;    0.200065;    0.199291;    0.198455;    0.197658;    0.194367;    0.194399;    0.194432;    0.194440;    0.194451;    0.194423;    0.194432;
 18;    0.022229;    0.251030;    0.227019;    0.211886;    0.204711;    0.203712;    0.202894;    0.201245;    0.200482;    0.199496;    0.198540;    0.197379;    0.195070;    0.195167;    0.195169;    0.195190;    0.195208;    0.195242;    0.195250;
 19;    0.021156;    0.254600;    0.227937;    0.211025;    0.204921;    0.203645;    0.202494;    0.201209;    0.200928;    0.199891;    0.198917;    0.197878;    0.194948;    0.195043;    0.195076;    0.195087;    0.195109;    0.195124;    0.195140;
 20;    0.022459;    0.257940;    0.230278;    0.214437;    0.206135;    0.205380;    0.204048;    0.202512;    0.201672;    0.200996;    0.200068;    0.198986;    0.196629;    0.196734;    0.196750;    0.196790;    0.196784;    0.196820;    0.196840;
 21;    0.022951;    0.257009;    0.229429;    0.214027;    0.206270;    0.205023;    0.204090;    0.202391;    0.202238;    0.201013;    0.200392;    0.198260;    0.196640;    0.196683;    0.196701;    0.196700;    0.196733;    0.196765;    0.196751;
 22;    0.021775;    0.256855;    0.230223;    0.214186;    0.207126;    0.205556;    0.204283;    0.203083;    0.202578;    0.201472;    0.200566;    0.199128;    0.196820;    0.196839;    0.196886;    0.196877;    0.196909;    0.196931;    0.196950;
 23;    0.022277;    0.255026;    0.229349;    0.212770;    0.206496;    0.205624;    0.204591;    0.202795;    0.202106;    0.201412;    0.200478;    0.199313;    0.196599;    0.196588;    0.196622;    0.196657;    0.196694;    0.196723;    0.196756;
 24;    0.022395;    0.257813;    0.232012;    0.215410;    0.207141;    0.206176;    0.204529;    0.203189;    0.202464;    0.202109;    0.200072;    0.198947;    0.196560;    0.196616;    0.196628;    0.196650;    0.196699;    0.196716;    0.196729;
 25;    0.023385;    0.253761;    0.228888;    0.212883;    0.204555;    0.203287;    0.202616;    0.201044;    0.200791;    0.199250;    0.198216;    0.196627;    0.194770;    0.194777;    0.194743;    0.194740;    0.194752;    0.194773;    0.194795;
 26;    0.022180;    0.256088;    0.230495;    0.215004;    0.207570;    0.206804;    0.205456;    0.203940;    0.203431;    0.202704;    0.202121;    0.199893;    0.197721;    0.197802;    0.197795;    0.197839;    0.197771;    0.197801;    0.197818;
 27;    0.023297;    0.256713;    0.229121;    0.213419;    0.206184;    0.205166;    0.203598;    0.202360;    0.201962;    0.201058;    0.200516;    0.198167;    0.196129;    0.196186;    0.196208;    0.196263;    0.196222;    0.196253;    0.196251;
 28;    0.022537;    0.257354;    0.229515;    0.213673;    0.206394;    0.205315;    0.203937;    0.202411;    0.201719;    0.200597;    0.199917;    0.197958;    0.195843;    0.195868;    0.195950;    0.195926;    0.195931;    0.195971;    0.195960;
 29;    0.023226;    0.259320;    0.230171;    0.214087;    0.206412;    0.205096;    0.203844;    0.202290;    0.201406;    0.200240;    0.199435;    0.197750;    0.195653;    0.195761;    0.195830;    0.195883;    0.195855;    0.195889;    0.195901;
 30;    0.021920;    0.256889;    0.230232;    0.214879;    0.206590;    0.205657;    0.204492;    0.202877;    0.201972;    0.201255;    0.200219;    0.199422;    0.196637;    0.196737;    0.196731;    0.196780;    0.196838;    0.196847;    0.196872;
 31;    0.023436;    0.257026;    0.230995;    0.213616;    0.206057;    0.205216;    0.204209;    0.202561;    0.201934;    0.201642;    0.201078;    0.198611;    0.196618;    0.196631;    0.196668;    0.196645;    0.196679;    0.196738;    0.196711;
 32;    0.022884;    0.254695;    0.230937;    0.212786;    0.205457;    0.204367;    0.203234;    0.202019;    0.201463;    0.200668;    0.200207;    0.198617;    0.195842;    0.195819;    0.195904;    0.195895;    0.195935;    0.195972;    0.195961;
 33;    0.021917;    0.257189;    0.229040;    0.211943;    0.204669;    0.203509;    0.202732;    0.201359;    0.200842;    0.199904;    0.198504;    0.197362;    0.194721;    0.194840;    0.194821;    0.194757;    0.194830;    0.194824;    0.194845;
 34;    0.022434;    0.258498;    0.230795;    0.214729;    0.206944;    0.206246;    0.205218;    0.204014;    0.204024;    0.202713;    0.201380;    0.199659;    0.197612;    0.197635;    0.197667;    0.197691;    0.197677;    0.197699;    0.197710;
 35;    0.022415;    0.255482;    0.229991;    0.213472;    0.206095;    0.204911;    0.203443;    0.201883;    0.201215;    0.200476;    0.200142;    0.198392;    0.196016;    0.196034;    0.196141;    0.196127;    0.196139;    0.196158;    0.196151;
 36;    0.022846;    0.252328;    0.229331;    0.213188;    0.204655;    0.204391;    0.202518;    0.200964;    0.200934;    0.199947;    0.198659;    0.197390;    0.195078;    0.195164;    0.195173;    0.195187;    0.195205;    0.195235;    0.195261;
 37;    0.023111;    0.254824;    0.230145;    0.214084;    0.204784;    0.203904;    0.202728;    0.201464;    0.201354;    0.200118;    0.198986;    0.198038;    0.195354;    0.195491;    0.195407;    0.195449;    0.195530;    0.195544;    0.195491;
 38;    0.022406;    0.255498;    0.228733;    0.212691;    0.205479;    0.204083;    0.203283;    0.201219;    0.200592;    0.199774;    0.198832;    0.198030;    0.195707;    0.195757;    0.195789;    0.195840;    0.195901;    0.195943;    0.195921;
 39;    0.022339;    0.251698;    0.227245;    0.211759;    0.203897;    0.202878;    0.201529;    0.200087;    0.199529;    0.198926;    0.198374;    0.196419;    0.194757;    0.194812;    0.194846;    0.194892;    0.194921;    0.194954;    0.194933;
 40;    0.023335;    0.256984;    0.231861;    0.213761;    0.205374;    0.204420;    0.203173;    0.201774;    0.201622;    0.200480;    0.199567;    0.197871;    0.195658;    0.195662;    0.195744;    0.195727;    0.195767;    0.195793;    0.195815;
 41;    0.023117;    0.255376;    0.229440;    0.212200;    0.205104;    0.203942;    0.202397;    0.200995;    0.200197;    0.199454;    0.199157;    0.197310;    0.195347;    0.195434;    0.195435;    0.195469;    0.195535;    0.195547;    0.195513;
 42;    0.021857;    0.258269;    0.229567;    0.213938;    0.205451;    0.204927;    0.203422;    0.201885;    0.200875;    0.199990;    0.199659;    0.197875;    0.195716;    0.195724;    0.195780;    0.195855;    0.195831;    0.195843;    0.195870;
 43;    0.022331;    0.257157;    0.229928;    0.213831;    0.206179;    0.204915;    0.204001;    0.202737;    0.202609;    0.202015;    0.200655;    0.198389;    0.195969;    0.196113;    0.196104;    0.196041;    0.196142;    0.196100;    0.196121;
 44;    0.023858;    0.256212;    0.230756;    0.213396;    0.206312;    0.205906;    0.204472;    0.202233;    0.201793;    0.201031;    0.200073;    0.198397;    0.196555;    0.196620;    0.196618;    0.196651;    0.196708;    0.196715;    0.196736;
 45;    0.022386;    0.253802;    0.227392;    0.211863;    0.204743;    0.203613;    0.202510;    0.200884;    0.200171;    0.199401;    0.198826;    0.197363;    0.195095;    0.195152;    0.195159;    0.195219;    0.195223;    0.195229;    0.195235;
 46;    0.034463;    0.257238;    0.229492;    0.213749;    0.205834;    0.204410;    0.203374;    0.201344;    0.200827;    0.199990;    0.199323;    0.197633;    0.195320;    0.195369;    0.195423;    0.195451;    0.195434;    0.195478;    0.195508;
 47;    0.023259;    0.257316;    0.229663;    0.215140;    0.207333;    0.206742;    0.205386;    0.204056;    0.203040;    0.202342;    0.201557;    0.200123;    0.197877;    0.198039;    0.197992;    0.197957;    0.197957;    0.197979;    0.198000;
 48;    0.021985;    0.253281;    0.228171;    0.213344;    0.206142;    0.204879;    0.203811;    0.201907;    0.201433;    0.200836;    0.200006;    0.198111;    0.195972;    0.196035;    0.196069;    0.196169;    0.196157;    0.196203;    0.196195;
 49;    0.021444;    0.253825;    0.228234;    0.213110;    0.205851;    0.204465;    0.202980;    0.201780;    0.201031;    0.199788;    0.199150;    0.197618;    0.195577;    0.195634;    0.195695;    0.195677;    0.195727;    0.195713;    0.195710;
 50;    0.022630;    0.256419;    0.229755;    0.212671;    0.205079;    0.204486;    0.202995;    0.201641;    0.201259;    0.200632;    0.199332;    0.197614;    0.195377;    0.195419;    0.195495;    0.195496;    0.195515;    0.195521;    0.195533;
 51;    0.023210;    0.258087;    0.231023;    0.215807;    0.207552;    0.206268;    0.204963;    0.203456;    0.202835;    0.201862;    0.200651;    0.199830;    0.196506;    0.196554;    0.196590;    0.196589;    0.196625;    0.196596;    0.196612;
 52;    0.022487;    0.255780;    0.229911;    0.213374;    0.204482;    0.203458;    0.202076;    0.200744;    0.199769;    0.198764;    0.198034;    0.197145;    0.194886;    0.194987;    0.194991;    0.195048;    0.195039;    0.195066;    0.195057;
 53;    0.021734;    0.253159;    0.231379;    0.213274;    0.205218;    0.204167;    0.203083;    0.201579;    0.200803;    0.200075;    0.198822;    0.197988;    0.195188;    0.195216;    0.195249;    0.195330;    0.195311;    0.195334;    0.195331;
 54;    0.027901;    0.258517;    0.232867;    0.212870;    0.205725;    0.204581;    0.203132;    0.201824;    0.201455;    0.200641;    0.199181;    0.197695;    0.195689;    0.195675;    0.195739;    0.195759;    0.195771;    0.195800;    0.195808;
 55;    0.022466;    0.254422;    0.227047;    0.211343;    0.203922;    0.202897;    0.201647;    0.200485;    0.199869;    0.198857;    0.198380;    0.197034;    0.194461;    0.194532;    0.194544;    0.194579;    0.194531;    0.194558;    0.194576;
 56;    0.022010;    0.256175;    0.229659;    0.211968;    0.204147;    0.203390;    0.202450;    0.201131;    0.200489;    0.200139;    0.199225;    0.197781;    0.195439;    0.195488;    0.195489;    0.195518;    0.195521;    0.195535;    0.195546;
 57;    0.023451;    0.257658;    0.232113;    0.215104;    0.206851;    0.205865;    0.204777;    0.203284;    0.202290;    0.201554;    0.200391;    0.199153;    0.197279;    0.197301;    0.197437;    0.197466;    0.197456;    0.197481;    0.197480;
 58;    0.021662;    0.256627;    0.230425;    0.213292;    0.206116;    0.205656;    0.203636;    0.202168;    0.202158;    0.201593;    0.200039;    0.198296;    0.196351;    0.196447;    0.196494;    0.196530;    0.196567;    0.196564;    0.196565;
 59;    0.022107;    0.254517;    0.229648;    0.214076;    0.205007;    0.203524;    0.202087;    0.200788;    0.200404;    0.199909;    0.198631;    0.197069;    0.195038;    0.195177;    0.195156;    0.195153;    0.195148;    0.195194;    0.195187;
 60;    0.022545;    0.255446;    0.229322;    0.213498;    0.205945;    0.204844;    0.203407;    0.201894;    0.201305;    0.200422;    0.199135;    0.197624;    0.195842;    0.195918;    0.195999;    0.196038;    0.196030;    0.196018;    0.196040;
 61;    0.022108;    0.254765;    0.228916;    0.212246;    0.205606;    0.204924;    0.203603;    0.202281;    0.201578;    0.200745;    0.199801;    0.198954;    0.196749;    0.196799;    0.196793;    0.196826;    0.196870;    0.196850;    0.196850;
 62;    0.022518;    0.254483;    0.228188;    0.212726;    0.204403;    0.204093;    0.201759;    0.200555;    0.200071;    0.199627;    0.198056;    0.196940;    0.194523;    0.194527;    0.194591;    0.194565;    0.194584;    0.194617;    0.194584;
 63;    0.023096;    0.257888;    0.230498;    0.212216;    0.204926;    0.203842;    0.202992;    0.201387;    0.200561;    0.199653;    0.198652;    0.197972;    0.195452;    0.195567;    0.195502;    0.195522;    0.195566;    0.195601;    0.195614;
 64;    0.023248;    0.256027;    0.229817;    0.214495;    0.205833;    0.205241;    0.204282;    0.202891;    0.202480;    0.201826;    0.200569;    0.199080;    0.196883;    0.197004;    0.197103;    0.197072;    0.197047;    0.197066;    0.197081;
 65;    0.025279;    0.252959;    0.228210;    0.211379;    0.203929;    0.203118;    0.201273;    0.199615;    0.199209;    0.198477;    0.197826;    0.196241;    0.194308;    0.194353;    0.194417;    0.194480;    0.194479;    0.194484;    0.194502;
 66;    0.023005;    0.254645;    0.229137;    0.213411;    0.205955;    0.204830;    0.203393;    0.201790;    0.201415;    0.199994;    0.198268;    0.197065;    0.195262;    0.195310;    0.195376;    0.195458;    0.195412;    0.195435;    0.195452;
 67;    0.022501;    0.252950;    0.227722;    0.211874;    0.205535;    0.204480;    0.203115;    0.201991;    0.201134;    0.200325;    0.199175;    0.197841;    0.195981;    0.196050;    0.196055;    0.196062;    0.196072;    0.196084;    0.196107;
 68;    0.024797;    0.255466;    0.229408;    0.213452;    0.206074;    0.204700;    0.203709;    0.201693;    0.200901;    0.200739;    0.199316;    0.197996;    0.196124;    0.196193;    0.196217;    0.196224;    0.196313;    0.196274;    0.196273;
 69;    0.022811;    0.253475;    0.229601;    0.213659;    0.205381;    0.204555;    0.203577;    0.202370;    0.201885;    0.201593;    0.199877;    0.199103;    0.196510;    0.196550;    0.196624;    0.196618;    0.196632;    0.196646;    0.196650;
 70;    0.022765;    0.257456;    0.232188;    0.213876;    0.206817;    0.205846;    0.204816;    0.203081;    0.202666;    0.201496;    0.200872;    0.198846;    0.196891;    0.197017;    0.197023;    0.197000;    0.197066;    0.197068;    0.197068;
 71;    0.023244;    0.255535;    0.228782;    0.212457;    0.205288;    0.204580;    0.203911;    0.202091;    0.201212;    0.200592;    0.199366;    0.197438;    0.195359;    0.195337;    0.195408;    0.195376;    0.195393;    0.195441;    0.195432;
 72;    0.027575;    0.255979;    0.228441;    0.213163;    0.206050;    0.205245;    0.204124;    0.202133;    0.202193;    0.201470;    0.200067;    0.197808;    0.196014;    0.196066;    0.196174;    0.196134;    0.196129;    0.196120;    0.196133;
 73;    0.022397;    0.258715;    0.231743;    0.215913;    0.208219;    0.207013;    0.205901;    0.204012;    0.203268;    0.202501;    0.201218;    0.199911;    0.197755;    0.197861;    0.197882;    0.197919;    0.197911;    0.197953;    0.197958;
 74;    0.022992;    0.257151;    0.229139;    0.214495;    0.205500;    0.204439;    0.203009;    0.201813;    0.201691;    0.200194;    0.199565;    0.197955;    0.196083;    0.196225;    0.196244;    0.196334;    0.196313;    0.196272;    0.196288;
 75;    0.022092;    0.256390;    0.230698;    0.212354;    0.203951;    0.203174;    0.201646;    0.200203;    0.199768;    0.198617;    0.197629;    0.196774;    0.194152;    0.194285;    0.194337;    0.194302;    0.194326;    0.194364;    0.194368;
 76;    0.021943;    0.257037;    0.229004;    0.212355;    0.205400;    0.204363;    0.203428;    0.201349;    0.200560;    0.200079;    0.198461;    0.197091;    0.195356;    0.195400;    0.195430;    0.195464;    0.195481;    0.195518;    0.195529;
 77;    0.022949;    0.253091;    0.227498;    0.210280;    0.202834;    0.201736;    0.200520;    0.199240;    0.198498;    0.198143;    0.197645;    0.195111;    0.193240;    0.193240;    0.193271;    0.193263;    0.193259;    0.193285;    0.193302;
 78;    0.022179;    0.254361;    0.230521;    0.213272;    0.204838;    0.203876;    0.202767;    0.200955;    0.200843;    0.199689;    0.198575;    0.197191;    0.195495;    0.195529;    0.195612;    0.195614;    0.195605;    0.195628;    0.195644;
 79;    0.022113;    0.256192;    0.230267;    0.213519;    0.206431;    0.205001;    0.204322;    0.202196;    0.201840;    0.200894;    0.200048;    0.198190;    0.196260;    0.196311;    0.196338;    0.196385;    0.196419;    0.196452;    0.196384;
 80;    0.022165;    0.255528;    0.228696;    0.211739;    0.203228;    0.201873;    0.200756;    0.199345;    0.198642;    0.198323;    0.197471;    0.194817;    0.193058;    0.193158;    0.193117;    0.193176;    0.193146;    0.193155;    0.193184;
 81;    0.023118;    0.253768;    0.227593;    0.212061;    0.204070;    0.202836;    0.201704;    0.200152;    0.199600;    0.198943;    0.198034;    0.197277;    0.194400;    0.194499;    0.194460;    0.194489;    0.194514;    0.194554;    0.194571;
 82;    0.022459;    0.254168;    0.227697;    0.211363;    0.203622;    0.202587;    0.201431;    0.200055;    0.200004;    0.198699;    0.197802;    0.196065;    0.193895;    0.193921;    0.194017;    0.194022;    0.194045;    0.194062;    0.194079;
 83;    0.022260;    0.251387;    0.226727;    0.210633;    0.203536;    0.202582;    0.201248;    0.200288;    0.199452;    0.198827;    0.197813;    0.196486;    0.194430;    0.194508;    0.194552;    0.194581;    0.194590;    0.194624;    0.194635;
 84;    0.022452;    0.253221;    0.229985;    0.213924;    0.205496;    0.204644;    0.203954;    0.202130;    0.201487;    0.201345;    0.200852;    0.198307;    0.196114;    0.196139;    0.196153;    0.196250;    0.196266;    0.196247;    0.196256;
 85;    0.025941;    0.254576;    0.230237;    0.213843;    0.206446;    0.205152;    0.203992;    0.202459;    0.202119;    0.201259;    0.200249;    0.199094;    0.196285;    0.196325;    0.196395;    0.196485;    0.196494;    0.196426;    0.196443;
 86;    0.023072;    0.258298;    0.230555;    0.212898;    0.205157;    0.204342;    0.203364;    0.201423;    0.201097;    0.199993;    0.199044;    0.198496;    0.195832;    0.195914;    0.195905;    0.195915;    0.195941;    0.195961;    0.195978;
 87;    0.021813;    0.256254;    0.229288;    0.212425;    0.205201;    0.203911;    0.202737;    0.201528;    0.200953;    0.200445;    0.198407;    0.197093;    0.195467;    0.195497;    0.195529;    0.195620;    0.195599;    0.195614;    0.195634;
 88;    0.022592;    0.258599;    0.231459;    0.214118;    0.205457;    0.204518;    0.203326;    0.201372;    0.201025;    0.200135;    0.198564;    0.197063;    0.194993;    0.195035;    0.195035;    0.195040;    0.195076;    0.195057;    0.195083;
 89;    0.021830;    0.256668;    0.230751;    0.214838;    0.205813;    0.205006;    0.203133;    0.201932;    0.201330;    0.200846;    0.199383;    0.197995;    0.195696;    0.195721;    0.195815;    0.195814;    0.195834;    0.195839;    0.195868;
 90;    0.022955;    0.254721;    0.229796;    0.212894;    0.205844;    0.204731;    0.203864;    0.202729;    0.202362;    0.201431;    0.200451;    0.198791;    0.196563;    0.196632;    0.196739;    0.196716;    0.196732;    0.196756;    0.196746;
 91;    0.022513;    0.257455;    0.231239;    0.213676;    0.205592;    0.204637;    0.203696;    0.201854;    0.201254;    0.200685;    0.199604;    0.198713;    0.195727;    0.195785;    0.195812;    0.195850;    0.195893;    0.195859;    0.195869;
 92;    0.023486;    0.255064;    0.229182;    0.213710;    0.205142;    0.203953;    0.202657;    0.201184;    0.201031;    0.199607;    0.199028;    0.197433;    0.195712;    0.195791;    0.195740;    0.195862;    0.195822;    0.195838;    0.195853;
 93;    0.023293;    0.255430;    0.229887;    0.214102;    0.206132;    0.205219;    0.204044;    0.202306;    0.201910;    0.201450;    0.200207;    0.198195;    0.196567;    0.196562;    0.196602;    0.196642;    0.196701;    0.196701;    0.196725;
 94;    0.021960;    0.256031;    0.230034;    0.212383;    0.205489;    0.204269;    0.202929;    0.201361;    0.200998;    0.200230;    0.198728;    0.197194;    0.194486;    0.194492;    0.194600;    0.194588;    0.194619;    0.194648;    0.194656;
 95;    0.022067;    0.257248;    0.230388;    0.213879;    0.206371;    0.205302;    0.203941;    0.202739;    0.202536;    0.201685;    0.200491;    0.199500;    0.196580;    0.196674;    0.196658;    0.196722;    0.196699;    0.196713;    0.196702;
 96;    0.023116;    0.257538;    0.229876;    0.212845;    0.205006;    0.204725;    0.203048;    0.200751;    0.200430;    0.200001;    0.198960;    0.197497;    0.195357;    0.195325;    0.195382;    0.195407;    0.195471;    0.195452;    0.195477;
 97;    0.021993;    0.256248;    0.232310;    0.216144;    0.208011;    0.206839;    0.205319;    0.203783;    0.202883;    0.202383;    0.201329;    0.200026;    0.197953;    0.197990;    0.198089;    0.198096;    0.198152;    0.198064;    0.198084;
 98;    0.023210;    0.256216;    0.231030;    0.214030;    0.205686;    0.204931;    0.203227;    0.201748;    0.200882;    0.200219;    0.199586;    0.198274;    0.195985;    0.196048;    0.196145;    0.196204;    0.196167;    0.196208;    0.196217;
 99;    0.022398;    0.256291;    0.228399;    0.212372;    0.204402;    0.203724;    0.202490;    0.201295;    0.201249;    0.200922;    0.199710;    0.198127;    0.195761;    0.195836;    0.195901;    0.195927;    0.195947;    0.195930;    0.195950;
100;    0.022313;    0.254922;    0.227944;    0.212408;    0.204781;    0.204211;    0.202808;    0.201473;    0.200831;    0.199927;    0.198859;    0.197598;    0.195340;    0.195404;    0.195418;    0.195487;    0.195546;    0.195578;    0.195528;
