Simulation;Time;PC 0;PC 1;PC 2;PC 3;PC 4;PC 5;PC 6;PC 7;PC 8;PC 9;PC10;PC11;PC12;PC13;PC14;PC15;PC16;PC17;
Nan;Nan;0;1;0;0;0;0;0;0;0;0;0;0;0;0;0;0;0;0;
  0;    0.351515;    0.990198;    0.197116;    0.197508;    0.198803;    0.198796;    0.200059;    0.202805;    0.206509;    0.208905;    0.209069;    0.210974;    0.213261;    0.215300;    0.220268;    0.222294;    0.229005;    0.233520;    0.241266;
  1;    0.349161;    1.012405;    0.201586;    0.200825;    0.201692;    0.202120;    0.205939;    0.207202;    0.210137;    0.211869;    0.213628;    0.215197;    0.219296;    0.224280;    0.227779;    0.235224;    0.239082;    0.244790;    0.248475;
  2;    0.353205;    0.996633;    0.203017;    0.204987;    0.205662;    0.205749;    0.207070;    0.209298;    0.208737;    0.211574;    0.211573;    0.211514;    0.214809;    0.219817;    0.224833;    0.229239;    0.234570;    0.239914;    0.243296;
  3;    0.351666;    0.967155;    0.203032;    0.205349;    0.204567;    0.207582;    0.209259;    0.208906;    0.211306;    0.212200;    0.213246;    0.213813;    0.217845;    0.220487;    0.224364;    0.230049;    0.233263;    0.237605;    0.240429;
  4;    0.358172;    1.016043;    0.205586;    0.206053;    0.207080;    0.208164;    0.207535;    0.210073;    0.213833;    0.216974;    0.219897;    0.220810;    0.224430;    0.229975;    0.231710;    0.236466;    0.239881;    0.242612;    0.249417;
  5;    0.354148;    1.008263;    0.200989;    0.201286;    0.202170;    0.203782;    0.203865;    0.208139;    0.210118;    0.212750;    0.214492;    0.216744;    0.222244;    0.225561;    0.230795;    0.233999;    0.237670;    0.243574;    0.246384;
  6;    0.364140;    0.996385;    0.201363;    0.203256;    0.203381;    0.203059;    0.204688;    0.205928;    0.209518;    0.210061;    0.214160;    0.219571;    0.221684;    0.220709;    0.226384;    0.230724;    0.232113;    0.239577;    0.241650;
  7;    0.361019;    1.014894;    0.201049;    0.200234;    0.203079;    0.203223;    0.205726;    0.207181;    0.206169;    0.211011;    0.214274;    0.215705;    0.219369;    0.224779;    0.227247;    0.231430;    0.236969;    0.244546;    0.251508;
  8;    0.359567;    0.981853;    0.197454;    0.199470;    0.200913;    0.201959;    0.200394;    0.202624;    0.207109;    0.208297;    0.209385;    0.213235;    0.214967;    0.219905;    0.221679;    0.226919;    0.231264;    0.233664;    0.239248;
  9;    0.354032;    0.986679;    0.202958;    0.204405;    0.204385;    0.206551;    0.208218;    0.210352;    0.213088;    0.216729;    0.218663;    0.220460;    0.225281;    0.229228;    0.231013;    0.235651;    0.237135;    0.242598;    0.246146;
 10;    0.354982;    0.996418;    0.203862;    0.203967;    0.206222;    0.208940;    0.208696;    0.210933;    0.211980;    0.215843;    0.217572;    0.220955;    0.223338;    0.222375;    0.227627;    0.231040;    0.237319;    0.241262;    0.244401;
 11;    0.361321;    0.969595;    0.203592;    0.202863;    0.202637;    0.205081;    0.204389;    0.207513;    0.208761;    0.210552;    0.213527;    0.215994;    0.217911;    0.220338;    0.223078;    0.225214;    0.230708;    0.234822;    0.237817;
 12;    0.357345;    0.940236;    0.199849;    0.200079;    0.200519;    0.202131;    0.202158;    0.201264;    0.200648;    0.201748;    0.203732;    0.208594;    0.214190;    0.218058;    0.220388;    0.222968;    0.222535;    0.227435;    0.230442;
 13;    0.349825;    1.029289;    0.200251;    0.201067;    0.204526;    0.205504;    0.206755;    0.208084;    0.208019;    0.210242;    0.214656;    0.216956;    0.221644;    0.228315;    0.234432;    0.238294;    0.241552;    0.244937;    0.248735;
 14;    0.352339;    0.963939;    0.198004;    0.200358;    0.202276;    0.201166;    0.202635;    0.202321;    0.205372;    0.207376;    0.211231;    0.213948;    0.213956;    0.217482;    0.223344;    0.225771;    0.225996;    0.231664;    0.237007;
 15;    0.358146;    1.059020;    0.195976;    0.199417;    0.198724;    0.201274;    0.205031;    0.205022;    0.208574;    0.210447;    0.214315;    0.220141;    0.224857;    0.228789;    0.229073;    0.234110;    0.242641;    0.252067;    0.258634;
 16;    0.351511;    0.984254;    0.205428;    0.206292;    0.207596;    0.207713;    0.208140;    0.207700;    0.208546;    0.212060;    0.215651;    0.218602;    0.219601;    0.223279;    0.226495;    0.229812;    0.234422;    0.239108;    0.240178;
 17;    0.355247;    0.959886;    0.198023;    0.196828;    0.197463;    0.196284;    0.199152;    0.201069;    0.201694;    0.203079;    0.206999;    0.209692;    0.214386;    0.216319;    0.216416;    0.220688;    0.224085;    0.230096;    0.234914;
 18;    0.353588;    0.927039;    0.199712;    0.199300;    0.201010;    0.203352;    0.205638;    0.204442;    0.206830;    0.206385;    0.209636;    0.213902;    0.215897;    0.216848;    0.219591;    0.222052;    0.222529;    0.224928;    0.229874;
 19;    0.360712;    1.001033;    0.198147;    0.200698;    0.200868;    0.202438;    0.206386;    0.209423;    0.211210;    0.214151;    0.217183;    0.219027;    0.224257;    0.227815;    0.230977;    0.232621;    0.235516;    0.242379;    0.246375;
 20;    0.356511;    1.055239;    0.201551;    0.203038;    0.207735;    0.209709;    0.210746;    0.211941;    0.213023;    0.219240;    0.224293;    0.227909;    0.229937;    0.232244;    0.239758;    0.244167;    0.245421;    0.251919;    0.258246;
 21;    0.349533;    1.042801;    0.202044;    0.201393;    0.204271;    0.204562;    0.204971;    0.206261;    0.212232;    0.214433;    0.218434;    0.221874;    0.223888;    0.228319;    0.232516;    0.239959;    0.246066;    0.249855;    0.255426;
 22;    0.351792;    1.025745;    0.202542;    0.203945;    0.205713;    0.206635;    0.208068;    0.208450;    0.210710;    0.212668;    0.217000;    0.221401;    0.225943;    0.226659;    0.232159;    0.238273;    0.243427;    0.245833;    0.249444;
 23;    0.449751;    0.992139;    0.202447;    0.202316;    0.203473;    0.207429;    0.208831;    0.209551;    0.212941;    0.215673;    0.217877;    0.219650;    0.220996;    0.223960;    0.228602;    0.232148;    0.235100;    0.240194;    0.243195;
 24;    0.348861;    1.018810;    0.202062;    0.204229;    0.205302;    0.205539;    0.206986;    0.208019;    0.210808;    0.212792;    0.214132;    0.218389;    0.218620;    0.222926;    0.227354;    0.233866;    0.242834;    0.248629;    0.252587;
 25;    0.353770;    0.964566;    0.198593;    0.198938;    0.198607;    0.202504;    0.204591;    0.204705;    0.205181;    0.207708;    0.207373;    0.211947;    0.212745;    0.216211;    0.219796;    0.221598;    0.227585;    0.231804;    0.234496;
 26;    0.354263;    1.003936;    0.205177;    0.206021;    0.206289;    0.207710;    0.209848;    0.209161;    0.210803;    0.214674;    0.217811;    0.218363;    0.219041;    0.223774;    0.226662;    0.229748;    0.234506;    0.241866;    0.246599;
 27;    0.357346;    1.038385;    0.200635;    0.202467;    0.203756;    0.204872;    0.207059;    0.209782;    0.211174;    0.215057;    0.217801;    0.220044;    0.224841;    0.226515;    0.231852;    0.237370;    0.243474;    0.246473;    0.255278;
 28;    0.356024;    1.048414;    0.199989;    0.200952;    0.201457;    0.204520;    0.206477;    0.207499;    0.211002;    0.213289;    0.214547;    0.220249;    0.224051;    0.227763;    0.235231;    0.238993;    0.243130;    0.250250;    0.255561;
 29;    0.357351;    1.089128;    0.199178;    0.200904;    0.201355;    0.205486;    0.206414;    0.207902;    0.212153;    0.217273;    0.220767;    0.225208;    0.229668;    0.233101;    0.236543;    0.244277;    0.248584;    0.253873;    0.262239;
 30;    0.356262;    1.025854;    0.202572;    0.202815;    0.205304;    0.205259;    0.204710;    0.203598;    0.206643;    0.210525;    0.215401;    0.219750;    0.222880;    0.230093;    0.236207;    0.241421;    0.244589;    0.245689;    0.252844;
 31;    0.356890;    1.017389;    0.202085;    0.203048;    0.206261;    0.207934;    0.209335;    0.211969;    0.211482;    0.209934;    0.213661;    0.216841;    0.221388;    0.225341;    0.226238;    0.230417;    0.237296;    0.245463;    0.251908;
 32;    0.353771;    0.952104;    0.201405;    0.200755;    0.200684;    0.202645;    0.204765;    0.206658;    0.208688;    0.209779;    0.213445;    0.214253;    0.217330;    0.219868;    0.222517;    0.224939;    0.223641;    0.228969;    0.232999;
 33;    0.360217;    1.047543;    0.197063;    0.196826;    0.201185;    0.203187;    0.206043;    0.206596;    0.209195;    0.212230;    0.214117;    0.219035;    0.223219;    0.230002;    0.236985;    0.242075;    0.244399;    0.248202;    0.255337;
 34;    0.350259;    1.060884;    0.204058;    0.204331;    0.206435;    0.207877;    0.209546;    0.208770;    0.210822;    0.212520;    0.215237;    0.220475;    0.224075;    0.230106;    0.236174;    0.242149;    0.249301;    0.255409;    0.260680;
 35;    0.349919;    0.991092;    0.200948;    0.200730;    0.202039;    0.203027;    0.206341;    0.206708;    0.208514;    0.210628;    0.213659;    0.216286;    0.216966;    0.221223;    0.228164;    0.232928;    0.237653;    0.239519;    0.244247;
 36;    0.354759;    0.916724;    0.199682;    0.200750;    0.201983;    0.202733;    0.201985;    0.204099;    0.205480;    0.208562;    0.211141;    0.213488;    0.214128;    0.217939;    0.220355;    0.224621;    0.226839;    0.226439;    0.225318;
 37;    0.352545;    0.971914;    0.199890;    0.199937;    0.199314;    0.200315;    0.202586;    0.202818;    0.207106;    0.210023;    0.212701;    0.214659;    0.216116;    0.220434;    0.221516;    0.224805;    0.229512;    0.236203;    0.237963;
 38;    0.355907;    1.013350;    0.200373;    0.199752;    0.199860;    0.200363;    0.202612;    0.207417;    0.211216;    0.214820;    0.216746;    0.218173;    0.220355;    0.221365;    0.226597;    0.235006;    0.239664;    0.243255;    0.246622;
 39;    0.353156;    0.940451;    0.199097;    0.199108;    0.201794;    0.202280;    0.201103;    0.201044;    0.204137;    0.204909;    0.207278;    0.207364;    0.212832;    0.216317;    0.220654;    0.222690;    0.225265;    0.227416;    0.229495;
 40;    0.354053;    0.998765;    0.200580;    0.200913;    0.200065;    0.201829;    0.202170;    0.206354;    0.209856;    0.210711;    0.210057;    0.211262;    0.216163;    0.219551;    0.225089;    0.229257;    0.231218;    0.236688;    0.244529;
 41;    0.358619;    0.999788;    0.199531;    0.199263;    0.200182;    0.200699;    0.203641;    0.207977;    0.211190;    0.212445;    0.213019;    0.212619;    0.218764;    0.222844;    0.224309;    0.231257;    0.234833;    0.242276;    0.243341;
 42;    0.355952;    1.070376;    0.199476;    0.200679;    0.200029;    0.202363;    0.203981;    0.205945;    0.209620;    0.214122;    0.216806;    0.220871;    0.223601;    0.228421;    0.234739;    0.242391;    0.248881;    0.256247;    0.263204;
 43;    0.356148;    1.038204;    0.200627;    0.201949;    0.203189;    0.202539;    0.205393;    0.206385;    0.209862;    0.211744;    0.214500;    0.218335;    0.222870;    0.224599;    0.228434;    0.231032;    0.238355;    0.247133;    0.254813;
 44;    0.350033;    0.997303;    0.202376;    0.203098;    0.204886;    0.206730;    0.206411;    0.210345;    0.212745;    0.214063;    0.215363;    0.215693;    0.221787;    0.224492;    0.229179;    0.231527;    0.234192;    0.239261;    0.245832;
 45;    0.353817;    0.990770;    0.199304;    0.198058;    0.200359;    0.200366;    0.199133;    0.200472;    0.205042;    0.206509;    0.210428;    0.216763;    0.219408;    0.219823;    0.227287;    0.233078;    0.238731;    0.240838;    0.241788;
 46;    0.359864;    1.042678;    0.198920;    0.198580;    0.200761;    0.201339;    0.204185;    0.208236;    0.211520;    0.214136;    0.217189;    0.218106;    0.221562;    0.227050;    0.231329;    0.234495;    0.241085;    0.247461;    0.255528;
 47;    0.357409;    1.051855;    0.204737;    0.205538;    0.207603;    0.209942;    0.212335;    0.214611;    0.215656;    0.216963;    0.222936;    0.225654;    0.226174;    0.231859;    0.234795;    0.239840;    0.245011;    0.250375;    0.258679;
 48;    0.353521;    0.966934;    0.201183;    0.204038;    0.205762;    0.205155;    0.207457;    0.208329;    0.211077;    0.211330;    0.215540;    0.219942;    0.222434;    0.225008;    0.226487;    0.227523;    0.231437;    0.235679;    0.237393;
 49;    0.349163;    0.978247;    0.200794;    0.200382;    0.202165;    0.203911;    0.204078;    0.204472;    0.203726;    0.205342;    0.206805;    0.210572;    0.212531;    0.215263;    0.220587;    0.224205;    0.229399;    0.231951;    0.237324;
 50;    0.362184;    1.018717;    0.199151;    0.201808;    0.203876;    0.205486;    0.206321;    0.206607;    0.208913;    0.212492;    0.218661;    0.222594;    0.225619;    0.227468;    0.230543;    0.234957;    0.235132;    0.241517;    0.249249;
 51;    0.353457;    1.039258;    0.201615;    0.202399;    0.203909;    0.203938;    0.207886;    0.209184;    0.213892;    0.214975;    0.218020;    0.219692;    0.224103;    0.226742;    0.233818;    0.237584;    0.242977;    0.246601;    0.252751;
 52;    0.353409;    0.999982;    0.198524;    0.198369;    0.199549;    0.201250;    0.202512;    0.205414;    0.206922;    0.211164;    0.213006;    0.217391;    0.219989;    0.225144;    0.228739;    0.229046;    0.234779;    0.238311;    0.243374;
 53;    0.359687;    0.907440;    0.200445;    0.200159;    0.201443;    0.201962;    0.204329;    0.206135;    0.206062;    0.207216;    0.207606;    0.210664;    0.210252;    0.213611;    0.217606;    0.218687;    0.222176;    0.224048;    0.223324;
 54;    0.357044;    1.023289;    0.200325;    0.199268;    0.202945;    0.204851;    0.204270;    0.205649;    0.205952;    0.210164;    0.212239;    0.217499;    0.220645;    0.220898;    0.227564;    0.232666;    0.233674;    0.239990;    0.250070;
 55;    0.353213;    1.007393;    0.197062;    0.197845;    0.197448;    0.198212;    0.200827;    0.201439;    0.205446;    0.209034;    0.210683;    0.216370;    0.220313;    0.222719;    0.227027;    0.233585;    0.239273;    0.245588;    0.249025;
 56;    0.358416;    1.016051;    0.199853;    0.199110;    0.199488;    0.201080;    0.203959;    0.205216;    0.208656;    0.210736;    0.213815;    0.217189;    0.216961;    0.220696;    0.223935;    0.230032;    0.234060;    0.241341;    0.248955;
 57;    0.353093;    1.016147;    0.203930;    0.204965;    0.204273;    0.206257;    0.208637;    0.210752;    0.211506;    0.214499;    0.218183;    0.219313;    0.224264;    0.226688;    0.228885;    0.232244;    0.239686;    0.246112;    0.251041;
 58;    0.350771;    1.013224;    0.201237;    0.202835;    0.203239;    0.205787;    0.208917;    0.212102;    0.215378;    0.216484;    0.219215;    0.225252;    0.230511;    0.232796;    0.236391;    0.240044;    0.245066;    0.246982;    0.249155;
 59;    0.361120;    0.971263;    0.199285;    0.198932;    0.201489;    0.202635;    0.204718;    0.205066;    0.205318;    0.204118;    0.208843;    0.211621;    0.214339;    0.216875;    0.219661;    0.224498;    0.229934;    0.234368;    0.239359;
 60;    0.350781;    1.000379;    0.200237;    0.202383;    0.203675;    0.205568;    0.206328;    0.209266;    0.210500;    0.211643;    0.215809;    0.222080;    0.226441;    0.230629;    0.232730;    0.233535;    0.238939;    0.244185;    0.245292;
 61;    0.351967;    0.992615;    0.202940;    0.203140;    0.203523;    0.206634;    0.207548;    0.208021;    0.209381;    0.211398;    0.213940;    0.214784;    0.217729;    0.220991;    0.226801;    0.231485;    0.233820;    0.238493;    0.243018;
 62;    0.353638;    0.992427;    0.197922;    0.199017;    0.198583;    0.200529;    0.202165;    0.203892;    0.203049;    0.203191;    0.207169;    0.211429;    0.214997;    0.218049;    0.222374;    0.222905;    0.229179;    0.233600;    0.240777;
 63;    0.352765;    1.046204;    0.199328;    0.199693;    0.198436;    0.199144;    0.201514;    0.205851;    0.208939;    0.211119;    0.215086;    0.216495;    0.220563;    0.226948;    0.231070;    0.239371;    0.247685;    0.254119;    0.258314;
 64;    0.351730;    1.011833;    0.202649;    0.203273;    0.204013;    0.207632;    0.209747;    0.209678;    0.215022;    0.219430;    0.222380;    0.221112;    0.222560;    0.227884;    0.231116;    0.234585;    0.241324;    0.245276;    0.249407;
 65;    0.348990;    0.954247;    0.197797;    0.199409;    0.200016;    0.199607;    0.202324;    0.203322;    0.205068;    0.206327;    0.207424;    0.209175;    0.211262;    0.215898;    0.220185;    0.222399;    0.227062;    0.227427;    0.231415;
 66;    0.354559;    0.983351;    0.199568;    0.199830;    0.201696;    0.201079;    0.203922;    0.204607;    0.204279;    0.207927;    0.209140;    0.211740;    0.215485;    0.218859;    0.221382;    0.226726;    0.232685;    0.237790;    0.244145;
 67;    0.351168;    0.965928;    0.201802;    0.201190;    0.203457;    0.203799;    0.206715;    0.207619;    0.207019;    0.209020;    0.208958;    0.210706;    0.213694;    0.215657;    0.218918;    0.222399;    0.227759;    0.231477;    0.235681;
 68;    0.351232;    1.001604;    0.201126;    0.202873;    0.203604;    0.206451;    0.208518;    0.207926;    0.211336;    0.213710;    0.217240;    0.218782;    0.222547;    0.224242;    0.228036;    0.232864;    0.235471;    0.236816;    0.245150;
 69;    0.351008;    0.948426;    0.202865;    0.202409;    0.202603;    0.205546;    0.208024;    0.211082;    0.213253;    0.214533;    0.216040;    0.214936;    0.218215;    0.218019;    0.221843;    0.223924;    0.228265;    0.229077;    0.232665;
 70;    0.354448;    1.008263;    0.203110;    0.204002;    0.204582;    0.205749;    0.206069;    0.208956;    0.211011;    0.213292;    0.214328;    0.219457;    0.221806;    0.224362;    0.230491;    0.233422;    0.233346;    0.240141;    0.248536;
 71;    0.358741;    1.012302;    0.199295;    0.200741;    0.202652;    0.201359;    0.202934;    0.204334;    0.207484;    0.208937;    0.214138;    0.216617;    0.217775;    0.222236;    0.226848;    0.231739;    0.236090;    0.242122;    0.248087;
 72;    0.358859;    1.030144;    0.200398;    0.200903;    0.204371;    0.206391;    0.209121;    0.212232;    0.214165;    0.216257;    0.217068;    0.220544;    0.224877;    0.229936;    0.231501;    0.234583;    0.241075;    0.245496;    0.253282;
 73;    0.363515;    1.051389;    0.204453;    0.205767;    0.208887;    0.210515;    0.212214;    0.213330;    0.215696;    0.216321;    0.222246;    0.226993;    0.229698;    0.231474;    0.237659;    0.242804;    0.243277;    0.250509;    0.256799;
 74;    0.355728;    1.049928;    0.200405;    0.201443;    0.203845;    0.207130;    0.207530;    0.211200;    0.211455;    0.211718;    0.217687;    0.221293;    0.225164;    0.230826;    0.236618;    0.238917;    0.246010;    0.250653;    0.254258;
 75;    0.352223;    0.999577;    0.196552;    0.198513;    0.199205;    0.200602;    0.202292;    0.204938;    0.206773;    0.208861;    0.211657;    0.214720;    0.219260;    0.220568;    0.225594;    0.230962;    0.238322;    0.240989;    0.246434;
 76;    0.353922;    1.048773;    0.198903;    0.201850;    0.202928;    0.202951;    0.204384;    0.207802;    0.209238;    0.209146;    0.213384;    0.220310;    0.226527;    0.230467;    0.235626;    0.240851;    0.244744;    0.250754;    0.257678;
 77;    0.350459;    0.968410;    0.194843;    0.197412;    0.197136;    0.196359;    0.197291;    0.198250;    0.200930;    0.202914;    0.207072;    0.211124;    0.213770;    0.214849;    0.219456;    0.222151;    0.225990;    0.231577;    0.236549;
 78;    0.355739;    0.952621;    0.200467;    0.199622;    0.200517;    0.203756;    0.207943;    0.209341;    0.209043;    0.212082;    0.215303;    0.216366;    0.217555;    0.217282;    0.215990;    0.220068;    0.226580;    0.230105;    0.234090;
 79;    0.350650;    1.005920;    0.201721;    0.201547;    0.202364;    0.203287;    0.205334;    0.206546;    0.209402;    0.213124;    0.213449;    0.214453;    0.218996;    0.224886;    0.229343;    0.232780;    0.237158;    0.238865;    0.247998;
 80;    0.359457;    1.009301;    0.194152;    0.196061;    0.196710;    0.199519;    0.199699;    0.202141;    0.204202;    0.204910;    0.207387;    0.211018;    0.211136;    0.218148;    0.221183;    0.225654;    0.231875;    0.237498;    0.246530;
 81;    0.353848;    0.986206;    0.197427;    0.198117;    0.197751;    0.197607;    0.199474;    0.200669;    0.204500;    0.207896;    0.212177;    0.215409;    0.217325;    0.220468;    0.221983;    0.227885;    0.234551;    0.241306;    0.244892;
 82;    0.356804;    0.993037;    0.195968;    0.195403;    0.196349;    0.198103;    0.199367;    0.204300;    0.207229;    0.210435;    0.211372;    0.214982;    0.218486;    0.221168;    0.223986;    0.228714;    0.237672;    0.243105;    0.246737;
 83;    0.348754;    0.940558;    0.198024;    0.197794;    0.200300;    0.200519;    0.203512;    0.205111;    0.206987;    0.210296;    0.212158;    0.210725;    0.215361;    0.217042;    0.220048;    0.218787;    0.222709;    0.228467;    0.232755;
 84;    0.355437;    0.931547;    0.202243;    0.204764;    0.202426;    0.202975;    0.204131;    0.203582;    0.208273;    0.210740;    0.211951;    0.215953;    0.218652;    0.219265;    0.215782;    0.218763;    0.221465;    0.224274;    0.227766;
 85;    0.357272;    0.964837;    0.201985;    0.202977;    0.205049;    0.205203;    0.206105;    0.206823;    0.209463;    0.212227;    0.213846;    0.215420;    0.219197;    0.220609;    0.221571;    0.225293;    0.229407;    0.232534;    0.236545;
 86;    0.356087;    1.052888;    0.200140;    0.199805;    0.200393;    0.203347;    0.204015;    0.204578;    0.209089;    0.209791;    0.213974;    0.220920;    0.225293;    0.227310;    0.232429;    0.237429;    0.244745;    0.248428;    0.254794;
 87;    0.358593;    1.024073;    0.199561;    0.200663;    0.202490;    0.201125;    0.204502;    0.207003;    0.210306;    0.211956;    0.215540;    0.215298;    0.221032;    0.225125;    0.227089;    0.232056;    0.238850;    0.246021;    0.252067;
 88;    0.359664;    1.046419;    0.197818;    0.197013;    0.200146;    0.200573;    0.200914;    0.206128;    0.210018;    0.214084;    0.219618;    0.222575;    0.225819;    0.230800;    0.234212;    0.234128;    0.242497;    0.250010;    0.255995;
 89;    0.352904;    1.010565;    0.200745;    0.201463;    0.201926;    0.203492;    0.203738;    0.204026;    0.207045;    0.207066;    0.212632;    0.216368;    0.219720;    0.221863;    0.225518;    0.227782;    0.231297;    0.239130;    0.244911;
 90;    0.356166;    0.976692;    0.202547;    0.203329;    0.202678;    0.204172;    0.206342;    0.208645;    0.210336;    0.213782;    0.215679;    0.215460;    0.220436;    0.223204;    0.225232;    0.230274;    0.232406;    0.236789;    0.239307;
 91;    0.353281;    1.022588;    0.200084;    0.200375;    0.200710;    0.203549;    0.206219;    0.206918;    0.209555;    0.212384;    0.214386;    0.218964;    0.222401;    0.227729;    0.229184;    0.234554;    0.239140;    0.245539;    0.247991;
 92;    0.353012;    0.995148;    0.200394;    0.201169;    0.201962;    0.203701;    0.206351;    0.207590;    0.212244;    0.215516;    0.216807;    0.216347;    0.219569;    0.219925;    0.225460;    0.228519;    0.229657;    0.234950;    0.243582;
 93;    0.358517;    0.993365;    0.202324;    0.202809;    0.205312;    0.207405;    0.209623;    0.210147;    0.208236;    0.210297;    0.213801;    0.220908;    0.224979;    0.229699;    0.232563;    0.234914;    0.237432;    0.237169;    0.243045;
 94;    0.356779;    1.003957;    0.197710;    0.199021;    0.199023;    0.200510;    0.201306;    0.202590;    0.205040;    0.206602;    0.207490;    0.210869;    0.215985;    0.218966;    0.225537;    0.230556;    0.235428;    0.242215;    0.243976;
 95;    0.354535;    1.032706;    0.201761;    0.203028;    0.204379;    0.206343;    0.207934;    0.210696;    0.213156;    0.212842;    0.214522;    0.220246;    0.225469;    0.230810;    0.234898;    0.238574;    0.239792;    0.243706;    0.251451;
 96;    0.351627;    1.044313;    0.198562;    0.198510;    0.201882;    0.204235;    0.208084;    0.211325;    0.214345;    0.215004;    0.220546;    0.223764;    0.226315;    0.226392;    0.232220;    0.237293;    0.243874;    0.247503;    0.256182;
 97;    0.356365;    0.977349;    0.206297;    0.206721;    0.206440;    0.205277;    0.206195;    0.208584;    0.212786;    0.214747;    0.217480;    0.219999;    0.220728;    0.218946;    0.223663;    0.228668;    0.234064;    0.236104;    0.240659;
 98;    0.352517;    0.993001;    0.201163;    0.201111;    0.203384;    0.203007;    0.204403;    0.208467;    0.211500;    0.212845;    0.213936;    0.217932;    0.220087;    0.223680;    0.223519;    0.226945;    0.234173;    0.241040;    0.245201;
 99;    0.360276;    1.039013;    0.199809;    0.199592;    0.198804;    0.202929;    0.204461;    0.206521;    0.209627;    0.214219;    0.216360;    0.219603;    0.224087;    0.227827;    0.235085;    0.240404;    0.245590;    0.250002;    0.254588;
100;    0.353024;    1.008074;    0.199143;    0.201175;    0.202583;    0.206377;    0.209110;    0.210532;    0.211154;    0.209641;    0.214039;    0.217854;    0.221621;    0.225224;    0.228595;    0.230993;    0.237494;    0.243521;    0.248364;
