Simulation;Time;PC 0;PC 1;PC 2;PC 3;PC 4;PC 5;PC 6;PC 7;PC 8;PC 9;PC10;PC11;PC12;PC13;PC14;PC15;PC16;PC17;
Nan;Nan;0;0;0;0;0;0;0;0;0;0;0;0;0;1;0;0;0;0;
  0;    0.362199;    0.982272;    0.816715;    0.804769;    0.789932;    0.777864;    0.758260;    0.722111;    0.685814;    0.629663;    0.569237;    0.509431;    0.455500;    0.398425;    0.338666;    0.321950;    0.310457;    0.284287;    0.269499;
  1;    0.350651;    1.008500;    0.838339;    0.823581;    0.803078;    0.793990;    0.757686;    0.728678;    0.692978;    0.637519;    0.600372;    0.540401;    0.474366;    0.425244;    0.342485;    0.326803;    0.313700;    0.296050;    0.274123;
  2;    0.353773;    1.011455;    0.844775;    0.841186;    0.817877;    0.801578;    0.762363;    0.735224;    0.698524;    0.649483;    0.598895;    0.546720;    0.488661;    0.422683;    0.343812;    0.334621;    0.316488;    0.292277;    0.271310;
  3;    0.351803;    1.005830;    0.846745;    0.837336;    0.834337;    0.818113;    0.788398;    0.738433;    0.699801;    0.663210;    0.602324;    0.551855;    0.490089;    0.411092;    0.341995;    0.328660;    0.317773;    0.303871;    0.280462;
  4;    0.362036;    1.023317;    0.854062;    0.847861;    0.830702;    0.804296;    0.756344;    0.725377;    0.696235;    0.658358;    0.601734;    0.548633;    0.482993;    0.421206;    0.350834;    0.340282;    0.331538;    0.303134;    0.282664;
  5;    0.351420;    1.004432;    0.835600;    0.828300;    0.803310;    0.787004;    0.760030;    0.720962;    0.695646;    0.644497;    0.595063;    0.536699;    0.481699;    0.412857;    0.341746;    0.327283;    0.311670;    0.297516;    0.271101;
  6;    0.359302;    1.003459;    0.837638;    0.831979;    0.803295;    0.779352;    0.759324;    0.730728;    0.697857;    0.653194;    0.597871;    0.544723;    0.489295;    0.413842;    0.341577;    0.330856;    0.311078;    0.288611;    0.276100;
  7;    0.359416;    1.010214;    0.838684;    0.819691;    0.812858;    0.788347;    0.770576;    0.740265;    0.701734;    0.642316;    0.593185;    0.539789;    0.481634;    0.406837;    0.338796;    0.327844;    0.316113;    0.295504;    0.278880;
  8;    0.361615;    0.984592;    0.820572;    0.815295;    0.802393;    0.786697;    0.757516;    0.717077;    0.689340;    0.636128;    0.582708;    0.523685;    0.462410;    0.395332;    0.335639;    0.323264;    0.310764;    0.291115;    0.274985;
  9;    0.349757;    1.009646;    0.845646;    0.835433;    0.821254;    0.793568;    0.780744;    0.754976;    0.712358;    0.670452;    0.624051;    0.563578;    0.515549;    0.433153;    0.344429;    0.331930;    0.322084;    0.302326;    0.279043;
 10;    0.359600;    1.014367;    0.848991;    0.830295;    0.819419;    0.808856;    0.777999;    0.743366;    0.721146;    0.681397;    0.621653;    0.548024;    0.496617;    0.420703;    0.345010;    0.334010;    0.323070;    0.300189;    0.277987;
 11;    0.363273;    1.000841;    0.842286;    0.835244;    0.831416;    0.812349;    0.788354;    0.742790;    0.717621;    0.675082;    0.604678;    0.563621;    0.493700;    0.416850;    0.351594;    0.333319;    0.312025;    0.292867;    0.273697;
 12;    0.357079;    0.987196;    0.833245;    0.824173;    0.805570;    0.786775;    0.756384;    0.714060;    0.673664;    0.637081;    0.592135;    0.539496;    0.460429;    0.394646;    0.336373;    0.325990;    0.308929;    0.292724;    0.272860;
 13;    0.355664;    1.007434;    0.833026;    0.825104;    0.809821;    0.792571;    0.762261;    0.737899;    0.688177;    0.650109;    0.597636;    0.532932;    0.484724;    0.405462;    0.340851;    0.327643;    0.318760;    0.301242;    0.276046;
 14;    0.353827;    0.981697;    0.822452;    0.813001;    0.804221;    0.781139;    0.749408;    0.722368;    0.687148;    0.652270;    0.595549;    0.522977;    0.468988;    0.406130;    0.337634;    0.323464;    0.312429;    0.296920;    0.271958;
 15;    0.356875;    0.996681;    0.813725;    0.810016;    0.785719;    0.753886;    0.724045;    0.701677;    0.664075;    0.610752;    0.567623;    0.521619;    0.468960;    0.406083;    0.334453;    0.322699;    0.307675;    0.289971;    0.274823;
 16;    0.353097;    1.017829;    0.856109;    0.842424;    0.831419;    0.814160;    0.777610;    0.743264;    0.706846;    0.668753;    0.620428;    0.555186;    0.484238;    0.423054;    0.346413;    0.333899;    0.319587;    0.303163;    0.282857;
 17;    0.360666;    0.985487;    0.826034;    0.811057;    0.798792;    0.771183;    0.739205;    0.711374;    0.678939;    0.634163;    0.587288;    0.519280;    0.465696;    0.405971;    0.333872;    0.320966;    0.305300;    0.285735;    0.264519;
 18;    0.357751;    0.979126;    0.829259;    0.814364;    0.804473;    0.786158;    0.750972;    0.725532;    0.689654;    0.641682;    0.597246;    0.539850;    0.491133;    0.426978;    0.341649;    0.330408;    0.316936;    0.293951;    0.276379;
 19;    0.351157;    0.993298;    0.824440;    0.818438;    0.806535;    0.798489;    0.776151;    0.734891;    0.692163;    0.655153;    0.606096;    0.541193;    0.464889;    0.404430;    0.336327;    0.328439;    0.311008;    0.295625;    0.274169;
 20;    0.358545;    1.019173;    0.839392;    0.831474;    0.827430;    0.803612;    0.770226;    0.731147;    0.703040;    0.659132;    0.604993;    0.560299;    0.498834;    0.417638;    0.341340;    0.333382;    0.316042;    0.303261;    0.286716;
 21;    0.355389;    1.014563;    0.837357;    0.825787;    0.812396;    0.786973;    0.766809;    0.740363;    0.700283;    0.652591;    0.596936;    0.546691;    0.483225;    0.416036;    0.346404;    0.330366;    0.315728;    0.299119;    0.275367;
 22;    0.356963;    1.016080;    0.842907;    0.830963;    0.807848;    0.784794;    0.761468;    0.736379;    0.693930;    0.651658;    0.591673;    0.544063;    0.494525;    0.422584;    0.344139;    0.328910;    0.318191;    0.301465;    0.281662;
 23;    0.358987;    1.005115;    0.840643;    0.832350;    0.820748;    0.809567;    0.781706;    0.748198;    0.692826;    0.646871;    0.589816;    0.542208;    0.474638;    0.412575;    0.345829;    0.330964;    0.315395;    0.295922;    0.280852;
 24;    0.350312;    1.016648;    0.844280;    0.842604;    0.819480;    0.805620;    0.791569;    0.766058;    0.718676;    0.654993;    0.613833;    0.557029;    0.477007;    0.414246;    0.338624;    0.325106;    0.315820;    0.300076;    0.278963;
 25;    0.359393;    0.988406;    0.828012;    0.820917;    0.815410;    0.791798;    0.755731;    0.719022;    0.687409;    0.648335;    0.594226;    0.537738;    0.461651;    0.399559;    0.334018;    0.319647;    0.300103;    0.283815;    0.269740;
 26;    0.352661;    1.017029;    0.850679;    0.845005;    0.824915;    0.798984;    0.786508;    0.752319;    0.705133;    0.659861;    0.598365;    0.542117;    0.477892;    0.426840;    0.351026;    0.339446;    0.325097;    0.300526;    0.277389;
 27;    0.354251;    1.012918;    0.836011;    0.827752;    0.812817;    0.795717;    0.768417;    0.725140;    0.698518;    0.649100;    0.605671;    0.543369;    0.475948;    0.405767;    0.339900;    0.329455;    0.314594;    0.295080;    0.272484;
 28;    0.359420;    1.011039;    0.831425;    0.823036;    0.806803;    0.782478;    0.758520;    0.729881;    0.697333;    0.646313;    0.593334;    0.547039;    0.484295;    0.407497;    0.339910;    0.328777;    0.317221;    0.293233;    0.274202;
 29;    0.361818;    1.019747;    0.830098;    0.821813;    0.800854;    0.782822;    0.765952;    0.729700;    0.687542;    0.642107;    0.575138;    0.520186;    0.454030;    0.398782;    0.337214;    0.331588;    0.316160;    0.293698;    0.276658;
 30;    0.351689;    1.011891;    0.839644;    0.841611;    0.830445;    0.805662;    0.766537;    0.724214;    0.686725;    0.647908;    0.597155;    0.550844;    0.482223;    0.416670;    0.345290;    0.333199;    0.321476;    0.308537;    0.287983;
 31;    0.357533;    1.009855;    0.839174;    0.835216;    0.822497;    0.807409;    0.779034;    0.737798;    0.696570;    0.664742;    0.606872;    0.561671;    0.490256;    0.412800;    0.345071;    0.329282;    0.312941;    0.297818;    0.274029;
 32;    0.352296;    0.996074;    0.839836;    0.827234;    0.802630;    0.792075;    0.754523;    0.712753;    0.683051;    0.644495;    0.601966;    0.546090;    0.473319;    0.403058;    0.339009;    0.328749;    0.315178;    0.297203;    0.272918;
 33;    0.358794;    0.998217;    0.818131;    0.807022;    0.797900;    0.785432;    0.753653;    0.705129;    0.672909;    0.635858;    0.595179;    0.541975;    0.481835;    0.408521;    0.336682;    0.329366;    0.308466;    0.289058;    0.269890;
 34;    0.350960;    1.025661;    0.845148;    0.839322;    0.828714;    0.812758;    0.772710;    0.724374;    0.698072;    0.659177;    0.607946;    0.567169;    0.500715;    0.430748;    0.349918;    0.340005;    0.323031;    0.310337;    0.279447;
 35;    0.351383;    1.000058;    0.835255;    0.828224;    0.809548;    0.787498;    0.764347;    0.733656;    0.683099;    0.635477;    0.592619;    0.552395;    0.495640;    0.425570;    0.343382;    0.327046;    0.312067;    0.292444;    0.268384;
 36;    0.350063;    0.975975;    0.828192;    0.825380;    0.807114;    0.785365;    0.762308;    0.735853;    0.699983;    0.653852;    0.600319;    0.547165;    0.496457;    0.433668;    0.342242;    0.334820;    0.313901;    0.292461;    0.269549;
 37;    0.357972;    0.992607;    0.831568;    0.826727;    0.809074;    0.784126;    0.758544;    0.729301;    0.684866;    0.642170;    0.578416;    0.524649;    0.470695;    0.406180;    0.339650;    0.332061;    0.311655;    0.297674;    0.271828;
 38;    0.361183;    0.998355;    0.828740;    0.819547;    0.801721;    0.786714;    0.759004;    0.733182;    0.698518;    0.641654;    0.598926;    0.540613;    0.481759;    0.409224;    0.345001;    0.331793;    0.319857;    0.301460;    0.281998;
 39;    0.432147;    0.978131;    0.825334;    0.825516;    0.808019;    0.770500;    0.744632;    0.717540;    0.678136;    0.630630;    0.586086;    0.533683;    0.463372;    0.405298;    0.341891;    0.328435;    0.315277;    0.295830;    0.269008;
 40;    0.362905;    1.003916;    0.836393;    0.829820;    0.805920;    0.790036;    0.772259;    0.737011;    0.694032;    0.642393;    0.585333;    0.535313;    0.473409;    0.404539;    0.337559;    0.326829;    0.310512;    0.297267;    0.276489;
 41;    0.353600;    0.992500;    0.826110;    0.820791;    0.796031;    0.781862;    0.758044;    0.707657;    0.680000;    0.636134;    0.590441;    0.535749;    0.481927;    0.412758;    0.343840;    0.334728;    0.311758;    0.290521;    0.268559;
 42;    0.360799;    1.015856;    0.830573;    0.821052;    0.801111;    0.784642;    0.755952;    0.714730;    0.677918;    0.644026;    0.605004;    0.542192;    0.479457;    0.413049;    0.337708;    0.324463;    0.311780;    0.296681;    0.276934;
 43;    0.355296;    1.008147;    0.832760;    0.825638;    0.818067;    0.799293;    0.754800;    0.727551;    0.696065;    0.652625;    0.591417;    0.532786;    0.479358;    0.404973;    0.341499;    0.331114;    0.316794;    0.293667;    0.277930;
 44;    0.362595;    1.004900;    0.839231;    0.835361;    0.830278;    0.818169;    0.792057;    0.753978;    0.713070;    0.648138;    0.588904;    0.529635;    0.480257;    0.413139;    0.347124;    0.332104;    0.315255;    0.299845;    0.275346;
 45;    0.352052;    0.991182;    0.825773;    0.811252;    0.794026;    0.771924;    0.756660;    0.730148;    0.702868;    0.657316;    0.605180;    0.538889;    0.477482;    0.406499;    0.341965;    0.328389;    0.312015;    0.294618;    0.277304;
 46;    0.355163;    1.004864;    0.826767;    0.812016;    0.798694;    0.784233;    0.760238;    0.727422;    0.684843;    0.635034;    0.586018;    0.530674;    0.465523;    0.405243;    0.339425;    0.327922;    0.313282;    0.295773;    0.277398;
 47;    0.362292;    1.027100;    0.849268;    0.837836;    0.823500;    0.810412;    0.779976;    0.748818;    0.718482;    0.662111;    0.622440;    0.569917;    0.491782;    0.418674;    0.349708;    0.338961;    0.326356;    0.303079;    0.280028;
 48;    0.362400;    0.996003;    0.836889;    0.826282;    0.811348;    0.795285;    0.774282;    0.739398;    0.699627;    0.651383;    0.600205;    0.538816;    0.479970;    0.416156;    0.342421;    0.328035;    0.318000;    0.296963;    0.272018;
 49;    0.354169;    0.998392;    0.835543;    0.822482;    0.815544;    0.793361;    0.754256;    0.717403;    0.663242;    0.624967;    0.592484;    0.535712;    0.485488;    0.409821;    0.339710;    0.330568;    0.314073;    0.293887;    0.269011;
 50;    0.354264;    1.002209;    0.829168;    0.826141;    0.822872;    0.801111;    0.766495;    0.730222;    0.698068;    0.637925;    0.590451;    0.534380;    0.458018;    0.409243;    0.337471;    0.324237;    0.309295;    0.291928;    0.277511;
 51;    0.362414;    1.020823;    0.843081;    0.838682;    0.814763;    0.791871;    0.775339;    0.735686;    0.697110;    0.652375;    0.610106;    0.550894;    0.481670;    0.421808;    0.337808;    0.327799;    0.313571;    0.296579;    0.277161;
 52;    0.360534;    0.992674;    0.825073;    0.813600;    0.798986;    0.773889;    0.757985;    0.720788;    0.672474;    0.633583;    0.573305;    0.527905;    0.463269;    0.402187;    0.338505;    0.328359;    0.310687;    0.294389;    0.267952;
 53;    0.346818;    0.982371;    0.836477;    0.819905;    0.805793;    0.797359;    0.775986;    0.734202;    0.690669;    0.646475;    0.609963;    0.566045;    0.508854;    0.435610;    0.337170;    0.322898;    0.312203;    0.291064;    0.268420;
 54;    0.349318;    1.005892;    0.833041;    0.807240;    0.797266;    0.783006;    0.748893;    0.728271;    0.690297;    0.636442;    0.573633;    0.519139;    0.463526;    0.404942;    0.340271;    0.332176;    0.310676;    0.291255;    0.275277;
 55;    0.352092;    0.991035;    0.820068;    0.810622;    0.795058;    0.775639;    0.748511;    0.715850;    0.679731;    0.643218;    0.600471;    0.546832;    0.470367;    0.416494;    0.333763;    0.321370;    0.306171;    0.289962;    0.269977;
 56;    0.353310;    1.000451;    0.829550;    0.816313;    0.795077;    0.774192;    0.747309;    0.716977;    0.665160;    0.617710;    0.572366;    0.520213;    0.468876;    0.411434;    0.341380;    0.328921;    0.311649;    0.290086;    0.271821;
 57;    0.369942;    1.014933;    0.845347;    0.837807;    0.818637;    0.800971;    0.767494;    0.736763;    0.701465;    0.642323;    0.591538;    0.554139;    0.493980;    0.429126;    0.349978;    0.336522;    0.323603;    0.302165;    0.284851;
 58;    0.358334;    1.005895;    0.835704;    0.825417;    0.813950;    0.790428;    0.770125;    0.743482;    0.700732;    0.661611;    0.615401;    0.544391;    0.486117;    0.427364;    0.344057;    0.336920;    0.317469;    0.305549;    0.276809;
 59;    0.351905;    0.990979;    0.829685;    0.818584;    0.805662;    0.768935;    0.742966;    0.707219;    0.683208;    0.636415;    0.588952;    0.542959;    0.484093;    0.415792;    0.337183;    0.327310;    0.307712;    0.294601;    0.276967;
 60;    0.359293;    1.001101;    0.833185;    0.837360;    0.811032;    0.785290;    0.766050;    0.743658;    0.710385;    0.659539;    0.606512;    0.546272;    0.471542;    0.401446;    0.340817;    0.332710;    0.311917;    0.295759;    0.272617;
 61;    0.351860;    1.002610;    0.838859;    0.834907;    0.822965;    0.806476;    0.780419;    0.734494;    0.696717;    0.655839;    0.611633;    0.554913;    0.485823;    0.423919;    0.349416;    0.334938;    0.316248;    0.299846;    0.279126;
 62;    0.356780;    0.991272;    0.823608;    0.822620;    0.810405;    0.784738;    0.750308;    0.716754;    0.683497;    0.629720;    0.581284;    0.531824;    0.467937;    0.406228;    0.334689;    0.320437;    0.304467;    0.286618;    0.267343;
 63;    0.362854;    1.007094;    0.828512;    0.820879;    0.799144;    0.781025;    0.749293;    0.712728;    0.677181;    0.627200;    0.593755;    0.539613;    0.478871;    0.425512;    0.338580;    0.326512;    0.308838;    0.297284;    0.276173;
 64;    0.361092;    1.009577;    0.840603;    0.830655;    0.816856;    0.800359;    0.768417;    0.740033;    0.712594;    0.670867;    0.620780;    0.547346;    0.496999;    0.417011;    0.347177;    0.336753;    0.317542;    0.301536;    0.276438;
 65;    0.351501;    0.976413;    0.819895;    0.812168;    0.803438;    0.776493;    0.744336;    0.714194;    0.677601;    0.637548;    0.584729;    0.526063;    0.478449;    0.405264;    0.338950;    0.327142;    0.318596;    0.299170;    0.270172;
 66;    0.387267;    0.998143;    0.833734;    0.818707;    0.809047;    0.790577;    0.764380;    0.724376;    0.685864;    0.645941;    0.590040;    0.533259;    0.465823;    0.405283;    0.335474;    0.329898;    0.308458;    0.292421;    0.271290;
 67;    0.357580;    0.994421;    0.836099;    0.820929;    0.812180;    0.790595;    0.754774;    0.711541;    0.674833;    0.628877;    0.586596;    0.528674;    0.469331;    0.412068;    0.347845;    0.333605;    0.313910;    0.293643;    0.272299;
 68;    0.357369;    1.003355;    0.835836;    0.829325;    0.811002;    0.785029;    0.760099;    0.728046;    0.687706;    0.653676;    0.602573;    0.552650;    0.488553;    0.414488;    0.342352;    0.325443;    0.310856;    0.292533;    0.272690;
 69;    0.360137;    0.995041;    0.841433;    0.834265;    0.819295;    0.806330;    0.782432;    0.744941;    0.701569;    0.670844;    0.625284;    0.570763;    0.486635;    0.425616;    0.346618;    0.332609;    0.317077;    0.294613;    0.275611;
 70;    0.358076;    1.010679;    0.842571;    0.826570;    0.814787;    0.789869;    0.762717;    0.726289;    0.685855;    0.650385;    0.583087;    0.529937;    0.476835;    0.414679;    0.348206;    0.340926;    0.320134;    0.305727;    0.286858;
 71;    0.351134;    1.000395;    0.828933;    0.818926;    0.792504;    0.773467;    0.742077;    0.711906;    0.686187;    0.643741;    0.586944;    0.531816;    0.463146;    0.410093;    0.339456;    0.323842;    0.308759;    0.292743;    0.277397;
 72;    0.354046;    1.006314;    0.832131;    0.824760;    0.818315;    0.795936;    0.770292;    0.743759;    0.712116;    0.669245;    0.607622;    0.556054;    0.476273;    0.420471;    0.341245;    0.330000;    0.311105;    0.292852;    0.273945;
 73;    0.357055;    1.032183;    0.853339;    0.846735;    0.840994;    0.809696;    0.777323;    0.756156;    0.721401;    0.665461;    0.605542;    0.553525;    0.483988;    0.416336;    0.344298;    0.333025;    0.317277;    0.299603;    0.279091;
 74;    0.351051;    1.010723;    0.830843;    0.822513;    0.809921;    0.796654;    0.759276;    0.727628;    0.687062;    0.640467;    0.604143;    0.551487;    0.491257;    0.413166;    0.344083;    0.337101;    0.315532;    0.300519;    0.275918;
 75;    0.360761;    0.985249;    0.816776;    0.800943;    0.797088;    0.768033;    0.747452;    0.713397;    0.683111;    0.634013;    0.574197;    0.523314;    0.479312;    0.415119;    0.335347;    0.328252;    0.308608;    0.292827;    0.277811;
 76;    0.353750;    1.005633;    0.826349;    0.825966;    0.813653;    0.789486;    0.746892;    0.711713;    0.680373;    0.632569;    0.585797;    0.526290;    0.466638;    0.412593;    0.339936;    0.325928;    0.316698;    0.292361;    0.275012;
 77;    0.358459;    0.971737;    0.809627;    0.799325;    0.784141;    0.759188;    0.739240;    0.719692;    0.678255;    0.616191;    0.577220;    0.531244;    0.474102;    0.396431;    0.333149;    0.316715;    0.299860;    0.283921;    0.269753;
 78;    0.355802;    0.988519;    0.832438;    0.822842;    0.815108;    0.796158;    0.766166;    0.739187;    0.694129;    0.655297;    0.602338;    0.529687;    0.467490;    0.406545;    0.343201;    0.327982;    0.310923;    0.291747;    0.270852;
 79;    0.349439;    1.003624;    0.835736;    0.821464;    0.803737;    0.788266;    0.760789;    0.719035;    0.689280;    0.651870;    0.596101;    0.548214;    0.492341;    0.412180;    0.346301;    0.333523;    0.316215;    0.299348;    0.270137;
 80;    0.359566;    0.979793;    0.807616;    0.801041;    0.782869;    0.763027;    0.739336;    0.696581;    0.660894;    0.617450;    0.569568;    0.523585;    0.447948;    0.397336;    0.329322;    0.316731;    0.302860;    0.282735;    0.262394;
 81;    0.360638;    0.984970;    0.819920;    0.808653;    0.790472;    0.764840;    0.749648;    0.718945;    0.686839;    0.638291;    0.588742;    0.534392;    0.476010;    0.419531;    0.337153;    0.323573;    0.311272;    0.293050;    0.270191;
 82;    0.365379;    0.980784;    0.813986;    0.806713;    0.799233;    0.784707;    0.768317;    0.729058;    0.691572;    0.644966;    0.596070;    0.533083;    0.477627;    0.417359;    0.333615;    0.321432;    0.307531;    0.291813;    0.271202;
 83;    0.360586;    0.975248;    0.821208;    0.811277;    0.803761;    0.776979;    0.751819;    0.730943;    0.686474;    0.645889;    0.596427;    0.534016;    0.470544;    0.404025;    0.339774;    0.327233;    0.313426;    0.293117;    0.271851;
 84;    0.353745;    0.990193;    0.840060;    0.834676;    0.822349;    0.792804;    0.768494;    0.737386;    0.710525;    0.657416;    0.601349;    0.545580;    0.476950;    0.413329;    0.344901;    0.328883;    0.313845;    0.292825;    0.272592;
 85;    0.353902;    1.000885;    0.841760;    0.829218;    0.820311;    0.804790;    0.771789;    0.746007;    0.705773;    0.666554;    0.614804;    0.565983;    0.495110;    0.428573;    0.340907;    0.330216;    0.314799;    0.293575;    0.276330;
 86;    0.351287;    1.011036;    0.830846;    0.821137;    0.801882;    0.777972;    0.744751;    0.716530;    0.690251;    0.642446;    0.599402;    0.545037;    0.490841;    0.411418;    0.342084;    0.326491;    0.309104;    0.296456;    0.276119;
 87;    0.353096;    1.004903;    0.830861;    0.826470;    0.800201;    0.784006;    0.756825;    0.723851;    0.687456;    0.647692;    0.594531;    0.522237;    0.466173;    0.403863;    0.337559;    0.332192;    0.310560;    0.294562;    0.274500;
 88;    0.352027;    1.005884;    0.825727;    0.811176;    0.808842;    0.790297;    0.762176;    0.737140;    0.702014;    0.654228;    0.594065;    0.517396;    0.465639;    0.398003;    0.332449;    0.322144;    0.303966;    0.290350;    0.268820;
 89;    0.358174;    1.004284;    0.834251;    0.830630;    0.809604;    0.787313;    0.761532;    0.726905;    0.680986;    0.632397;    0.595325;    0.527068;    0.475656;    0.402721;    0.339690;    0.327653;    0.314090;    0.293416;    0.276332;
 90;    0.355560;    1.001747;    0.840685;    0.827168;    0.810974;    0.788880;    0.770970;    0.747118;    0.710700;    0.644767;    0.611214;    0.538831;    0.490268;    0.419958;    0.346301;    0.339164;    0.321813;    0.303227;    0.272987;
 91;    0.355585;    1.004771;    0.831054;    0.814599;    0.798745;    0.785416;    0.749748;    0.722352;    0.698676;    0.653015;    0.594744;    0.542093;    0.473124;    0.399341;    0.341393;    0.330353;    0.315366;    0.299634;    0.274771;
 92;    0.350910;    0.994942;    0.829251;    0.821164;    0.808468;    0.791354;    0.762440;    0.723189;    0.687588;    0.651852;    0.596125;    0.534448;    0.481738;    0.405744;    0.346623;    0.334673;    0.310438;    0.297777;    0.273586;
 93;    0.354468;    1.006497;    0.841051;    0.830531;    0.814869;    0.800626;    0.773595;    0.745275;    0.705378;    0.659541;    0.604371;    0.542845;    0.475835;    0.421519;    0.344621;    0.330708;    0.316878;    0.304117;    0.279679;
 94;    0.356950;    0.994834;    0.825090;    0.821296;    0.802550;    0.770570;    0.734337;    0.710820;    0.671305;    0.614595;    0.564199;    0.527761;    0.480133;    0.407224;    0.333062;    0.320696;    0.306708;    0.289175;    0.269733;
 95;    0.352685;    1.013371;    0.838666;    0.829068;    0.822245;    0.803282;    0.777286;    0.741633;    0.702854;    0.660381;    0.600154;    0.556864;    0.496646;    0.406251;    0.343200;    0.331975;    0.315226;    0.297996;    0.274781;
 96;    0.356518;    1.002879;    0.824415;    0.818617;    0.805424;    0.792797;    0.769631;    0.730501;    0.692481;    0.645883;    0.597449;    0.545013;    0.478197;    0.417813;    0.340027;    0.326193;    0.310372;    0.295914;    0.273320;
 97;    0.357247;    1.018057;    0.857811;    0.842170;    0.822413;    0.802557;    0.763646;    0.743327;    0.703030;    0.654811;    0.603512;    0.562868;    0.497334;    0.431432;    0.351321;    0.340521;    0.320837;    0.297911;    0.278266;
 98;    0.352988;    0.999372;    0.834362;    0.820402;    0.815509;    0.798083;    0.761866;    0.739119;    0.696233;    0.659102;    0.593341;    0.546929;    0.489210;    0.425910;    0.344324;    0.337189;    0.319176;    0.296345;    0.273497;
 99;    0.351699;    1.001527;    0.825410;    0.821892;    0.798254;    0.788007;    0.758108;    0.732891;    0.691138;    0.648675;    0.603383;    0.556561;    0.500503;    0.426734;    0.346130;    0.337954;    0.320209;    0.304010;    0.281911;
100;    0.355165;    0.997481;    0.827384;    0.823677;    0.819915;    0.801981;    0.778609;    0.741835;    0.682025;    0.644989;    0.598695;    0.530219;    0.478356;    0.411244;    0.340328;    0.327415;    0.316665;    0.298397;    0.270251;
