Simulation;Time;PC 0;PC 1;PC 2;PC 3;PC 4;PC 5;PC 6;PC 7;PC 8;PC 9;PC10;PC11;PC12;PC13;PC14;PC15;PC16;PC17;
Nan;Nan;0;0;0;0;0;0;0;0;0;0;0;0;0;1;0;0;0;0;
  0;    0.108236;    0.982931;    0.921851;    0.961216;    0.993238;    1.027916;    1.057178;    1.064825;    1.075505;    1.061729;    1.036795;    1.010569;    1.002232;    0.990244;    0.975130;    0.967890;    0.983565;    0.978533;    0.987141;
  1;    0.112234;    1.007748;    0.943360;    0.981418;    1.010471;    1.050005;    1.060896;    1.080027;    1.087663;    1.071470;    1.083520;    1.062429;    1.031035;    1.029298;    0.985451;    0.987631;    0.996328;    1.001975;    1.004458;
  2;    0.108062;    1.012016;    0.949505;    1.001170;    1.029874;    1.066453;    1.075615;    1.095366;    1.091373;    1.086684;    1.079564;    1.067596;    1.053808;    1.034303;    0.985075;    0.998551;    1.002184;    0.997920;    1.002590;
  3;    0.107785;    1.007678;    0.950849;    0.995448;    1.043321;    1.075372;    1.098887;    1.093324;    1.100382;    1.105120;    1.084992;    1.078302;    1.049873;    1.010149;    0.980068;    0.990058;    1.007095;    1.022284;    1.016751;
  4;    0.109346;    1.024145;    0.961721;    1.007963;    1.043431;    1.068804;    1.066810;    1.081643;    1.099520;    1.104862;    1.095283;    1.077826;    1.050698;    1.030988;    1.004134;    1.018463;    1.037967;    1.030423;    1.038235;
  5;    0.112998;    1.003847;    0.940450;    0.986275;    1.012350;    1.045837;    1.064282;    1.068401;    1.092255;    1.079459;    1.074218;    1.053444;    1.039369;    1.010081;    0.978406;    0.989423;    0.998992;    1.011783;    1.001900;
  6;    0.108461;    1.003653;    0.942109;    0.990753;    1.013103;    1.036554;    1.065886;    1.078391;    1.093503;    1.091989;    1.080449;    1.061873;    1.054027;    1.018239;    0.978472;    0.989614;    0.993222;    0.992271;    1.010424;
  7;    0.107432;    1.007934;    0.941082;    0.973945;    1.020040;    1.045130;    1.077000;    1.087576;    1.094713;    1.077778;    1.068742;    1.059256;    1.043039;    1.000782;    0.970999;    0.984318;    0.997522;    1.001860;    1.013779;
  8;    0.108568;    0.984804;    0.923613;    0.970402;    1.010190;    1.040459;    1.055610;    1.062548;    1.081445;    1.066103;    1.054528;    1.028513;    1.006799;    0.981351;    0.961113;    0.983285;    0.989437;    0.984393;    0.993636;
  9;    0.108566;    1.010352;    0.950148;    0.993884;    1.029635;    1.051450;    1.091485;    1.111548;    1.110945;    1.111377;    1.109748;    1.090361;    1.089308;    1.043617;    0.987839;    0.994670;    1.013232;    1.017449;    1.018140;
 10;    0.112792;    1.014970;    0.954394;    0.989637;    1.030943;    1.071989;    1.089692;    1.100012;    1.127809;    1.133310;    1.119350;    1.074925;    1.068342;    1.028610;    0.987964;    1.002981;    1.020095;    1.016058;    1.015193;
 11;    0.108123;    1.005800;    0.951762;    0.998702;    1.043401;    1.066645;    1.095673;    1.097927;    1.120322;    1.128376;    1.098237;    1.095245;    1.064934;    1.024046;    1.008584;    1.001037;    0.999207;    1.002580;    1.010899;
 12;    0.110401;    0.989881;    0.935513;    0.977308;    1.009737;    1.043104;    1.057362;    1.059438;    1.064320;    1.070184;    1.067603;    1.056526;    1.010973;    0.983119;    0.965778;    0.979286;    0.986032;    0.993514;    0.994903;
 13;    0.106943;    1.004995;    0.937493;    0.980279;    1.017852;    1.049636;    1.069758;    1.090857;    1.080915;    1.084112;    1.074444;    1.052889;    1.041677;    0.998501;    0.977088;    0.984591;    1.005701;    1.010718;    1.007226;
 14;    0.107537;    0.983598;    0.926440;    0.969733;    1.014071;    1.037755;    1.048683;    1.067397;    1.077057;    1.086265;    1.070779;    1.036010;    1.025252;    1.000179;    0.967849;    0.972268;    0.984274;    0.993393;    0.989793;
 15;    0.109242;    0.991368;    0.916939;    0.967184;    0.992537;    1.006940;    1.022771;    1.047647;    1.053165;    1.038875;    1.041125;    1.026901;    1.012535;    0.991800;    0.959474;    0.967974;    0.974716;    0.984541;    0.996532;
 16;    0.107313;    1.019565;    0.961893;    1.003100;    1.043386;    1.076996;    1.089971;    1.099328;    1.112804;    1.115794;    1.107971;    1.080952;    1.046053;    1.032093;    0.992483;    1.003983;    1.018413;    1.022927;    1.029309;
 17;    0.106722;    0.986001;    0.927091;    0.964086;    1.004070;    1.021004;    1.037085;    1.052518;    1.062233;    1.066143;    1.058475;    1.025639;    1.013302;    1.001101;    0.960379;    0.966644;    0.973838;    0.974720;    0.981026;
 18;    0.106968;    0.984339;    0.934680;    0.971310;    1.011871;    1.046851;    1.056298;    1.075959;    1.080633;    1.078625;    1.075487;    1.061769;    1.054962;    1.024453;    0.976297;    0.986263;    1.003100;    0.993426;    1.001166;
 19;    0.114455;    0.991978;    0.927272;    0.973775;    1.012558;    1.054125;    1.079185;    1.084482;    1.086727;    1.091916;    1.083743;    1.059879;    1.019331;    0.992287;    0.963076;    0.979038;    0.987616;    0.998712;    0.996000;
 20;    0.111457;    1.014897;    0.943550;    0.987957;    1.036282;    1.063675;    1.075929;    1.083549;    1.098690;    1.101749;    1.085842;    1.081280;    1.062898;    1.016759;    0.976983;    0.996413;    1.002811;    1.019637;    1.026337;
 21;    0.109228;    1.013210;    0.945104;    0.986615;    1.023482;    1.042446;    1.073590;    1.097079;    1.097070;    1.095232;    1.081556;    1.073259;    1.048443;    1.024338;    0.993727;    0.992450;    0.998495;    1.007854;    1.009525;
 22;    0.108472;    1.014496;    0.947789;    0.989761;    1.020894;    1.047290;    1.074196;    1.093778;    1.099440;    1.099098;    1.075957;    1.069258;    1.063525;    1.028160;    0.988309;    0.990557;    1.005769;    1.014466;    1.025581;
 23;    0.108440;    1.006716;    0.947155;    0.989838;    1.029225;    1.068791;    1.090487;    1.103862;    1.090354;    1.091593;    1.069167;    1.063287;    1.036862;    1.025631;    0.992803;    0.998296;    1.002224;    1.005152;    1.015316;
 24;    0.108640;    1.013647;    0.945923;    0.999175;    1.026638;    1.064121;    1.103418;    1.123049;    1.119457;    1.097541;    1.095858;    1.084360;    1.032484;    1.008582;    0.973512;    0.985298;    1.007463;    1.012039;    1.016630;
 25;    0.108232;    0.988943;    0.929192;    0.976570;    1.014840;    1.040202;    1.055269;    1.065379;    1.080135;    1.079536;    1.068490;    1.055831;    1.004969;    0.984183;    0.960317;    0.967776;    0.971281;    0.975190;    0.981938;
 26;    0.113865;    1.019445;    0.959573;    1.008193;    1.037503;    1.064413;    1.100196;    1.119381;    1.103232;    1.107615;    1.084487;    1.068894;    1.043482;    1.040744;    1.003911;    1.013717;    1.022356;    1.016117;    1.019562;
 27;    0.107523;    1.009221;    0.939170;    0.983942;    1.020240;    1.052657;    1.073415;    1.075940;    1.095148;    1.083989;    1.083212;    1.059140;    1.029487;    1.001302;    0.976614;    0.994842;    1.000677;    0.999838;    1.004166;
 28;    0.106972;    1.007294;    0.935665;    0.979691;    1.014153;    1.039697;    1.060605;    1.086029;    1.093669;    1.081747;    1.081166;    1.057345;    1.034258;    0.999179;    0.973925;    0.988230;    1.000648;    0.998107;    1.003023;
 29;    0.108901;    1.011930;    0.932245;    0.976056;    1.006256;    1.040747;    1.069721;    1.078848;    1.080256;    1.079179;    1.051594;    1.035888;    1.006188;    0.993445;    0.970587;    0.992912;    1.003571;    1.002064;    1.005920;
 30;    0.106447;    1.011872;    0.947482;    1.004260;    1.039122;    1.065112;    1.070440;    1.068174;    1.075586;    1.083888;    1.072347;    1.072088;    1.049167;    1.011551;    0.983670;    0.994518;    1.011257;    1.033025;    1.037763;
 31;    0.109127;    1.009548;    0.945449;    0.995842;    1.034219;    1.068138;    1.088483;    1.092253;    1.091598;    1.110237;    1.104967;    1.087101;    1.051959;    1.011236;    0.992795;    0.989030;    0.996020;    1.014297;    1.006346;
 32;    0.108310;    0.998454;    0.942934;    0.983038;    1.008563;    1.052597;    1.063672;    1.073016;    1.072614;    1.081411;    1.083304;    1.068942;    1.034224;    0.995413;    0.972315;    0.986457;    1.000621;    1.005515;    0.998236;
 33;    0.108696;    0.994017;    0.921716;    0.961015;    1.003094;    1.040507;    1.055428;    1.050602;    1.059338;    1.069071;    1.065119;    1.056553;    1.039251;    1.001596;    0.964631;    0.980081;    0.980974;    0.981166;    0.988199;
 34;    0.108925;    1.023976;    0.954319;    1.002975;    1.046441;    1.075136;    1.083246;    1.077253;    1.097082;    1.102529;    1.098892;    1.091540;    1.067551;    1.037607;    0.998745;    1.013398;    1.019402;    1.029526;    1.026165;
 35;    0.108628;    1.000802;    0.940681;    0.983463;    1.017845;    1.044459;    1.069361;    1.086287;    1.077706;    1.072756;    1.072365;    1.076470;    1.063966;    1.039607;    0.990645;    0.990366;    0.993045;    0.998215;    0.996510;
 36;    0.108993;    0.982361;    0.934504;    0.985122;    1.020514;    1.041336;    1.065333;    1.084660;    1.091683;    1.090768;    1.079417;    1.066685;    1.062849;    1.037874;    0.977441;    0.994596;    0.991433;    0.988783;    0.990206;
 37;    0.107325;    0.993951;    0.935422;    0.984342;    1.012561;    1.037212;    1.060931;    1.074836;    1.078568;    1.077568;    1.051934;    1.043018;    1.024641;    0.996637;    0.971898;    0.989169;    0.997385;    1.007054;    0.999023;
 38;    0.108632;    0.999246;    0.937130;    0.983418;    1.008711;    1.033477;    1.056070;    1.079741;    1.091751;    1.077832;    1.068765;    1.058547;    1.041016;    1.004841;    0.983590;    0.995945;    1.008685;    1.007635;    1.011596;
 39;    0.125060;    0.982882;    0.931695;    0.983507;    1.016632;    1.026037;    1.043896;    1.063331;    1.069253;    1.061655;    1.059053;    1.047875;    1.016703;    0.997665;    0.978307;    0.986234;    0.996334;    1.000739;    0.986026;
 40;    0.108261;    1.002792;    0.939423;    0.983558;    1.010529;    1.044659;    1.075170;    1.088087;    1.090012;    1.075460;    1.054998;    1.049184;    1.026032;    0.993241;    0.970215;    0.984061;    0.991728;    1.005251;    1.004427;
 41;    0.107354;    0.993739;    0.933471;    0.982091;    1.004270;    1.038928;    1.064961;    1.058271;    1.077028;    1.073178;    1.071645;    1.054282;    1.046431;    1.016228;    0.985812;    1.002674;    0.993249;    0.989790;    0.990238;
 42;    0.107752;    1.009815;    0.933723;    0.977822;    1.006103;    1.039886;    1.057694;    1.060977;    1.067629;    1.079439;    1.081589;    1.056738;    1.035384;    1.009752;    0.968692;    0.978524;    0.994957;    1.005823;    1.011596;
 43;    0.110800;    1.006020;    0.938758;    0.986173;    1.028939;    1.058973;    1.062569;    1.076290;    1.083931;    1.085252;    1.067867;    1.052858;    1.037177;    0.997337;    0.975567;    0.990680;    0.996187;    0.995342;    1.013112;
 44;    0.107498;    1.006610;    0.946725;    0.995477;    1.043381;    1.079083;    1.095117;    1.109297;    1.111291;    1.087517;    1.068073;    1.049084;    1.044552;    1.017341;    0.994400;    0.998528;    1.004637;    1.020027;    1.013172;
 45;    0.108758;    0.992675;    0.932440;    0.968286;    1.001338;    1.026628;    1.055214;    1.072871;    1.091446;    1.096231;    1.080369;    1.056854;    1.027965;    1.000478;    0.977665;    0.982642;    0.990313;    0.995946;    1.009523;
 46;    0.107873;    1.001314;    0.930922;    0.968886;    1.005019;    1.040078;    1.064691;    1.075152;    1.075091;    1.067327;    1.061586;    1.044847;    1.016084;    0.995452;    0.974200;    0.982633;    0.995187;    0.998561;    1.007450;
 47;    0.107135;    1.025681;    0.957783;    0.998706;    1.035616;    1.072892;    1.089992;    1.110599;    1.125622;    1.114337;    1.113517;    1.100432;    1.067163;    1.024712;    0.999256;    1.009220;    1.024335;    1.023875;    1.023274;
 48;    0.107708;    0.998221;    0.941853;    0.984852;    1.020622;    1.053800;    1.079760;    1.095203;    1.096617;    1.088656;    1.080118;    1.057441;    1.038015;    1.019535;    0.980721;    0.990206;    1.003409;    1.004658;    1.001252;
 49;    0.107441;    0.999504;    0.939859;    0.979261;    1.024160;    1.054258;    1.072773;    1.068424;    1.056114;    1.061689;    1.061448;    1.049173;    1.037000;    1.003631;    0.971835;    0.989236;    0.990307;    1.004528;    0.992633;
 50;    0.106875;    0.999717;    0.932175;    0.981569;    1.030317;    1.058846;    1.070449;    1.077825;    1.092764;    1.070679;    1.065785;    1.054120;    1.007687;    1.000080;    0.969110;    0.983018;    0.989194;    0.994122;    1.007951;
 51;    0.111959;    1.015954;    0.944368;    0.993294;    1.022128;    1.047441;    1.081365;    1.086978;    1.096610;    1.090151;    1.094554;    1.078627;    1.037689;    1.017096;    0.972455;    0.992640;    0.999196;    1.004977;    1.012598;
 52;    0.109642;    0.991984;    0.929192;    0.970495;    1.005660;    1.029503;    1.060246;    1.064878;    1.059439;    1.063948;    1.039979;    1.036966;    1.010360;    0.990735;    0.973334;    0.986903;    0.991954;    1.000373;    0.986644;
 53;    0.108201;    0.987242;    0.938607;    0.975351;    1.011664;    1.053845;    1.082221;    1.086333;    1.087878;    1.081954;    1.089885;    1.089776;    1.065866;    1.035832;    0.965943;    0.973440;    0.991973;    0.991859;    0.989373;
 54;    0.109008;    1.003989;    0.937871;    0.964253;    1.007289;    1.039869;    1.055821;    1.079666;    1.082541;    1.067558;    1.046335;    1.034830;    1.021447;    0.999804;    0.977965;    0.992863;    0.988462;    0.991837;    1.008403;
 55;    0.108324;    0.988845;    0.922498;    0.967931;    1.000619;    1.026143;    1.047822;    1.060410;    1.066519;    1.072880;    1.073744;    1.060429;    1.018062;    1.004710;    0.955675;    0.967562;    0.974845;    0.985019;    0.990996;
 56;    0.108417;    0.999627;    0.935251;    0.973665;    1.002309;    1.030368;    1.046821;    1.063729;    1.058022;    1.050416;    1.049581;    1.036356;    1.020040;    1.005288;    0.983575;    0.992689;    0.994591;    0.993215;    1.000573;
 57;    0.110960;    1.016121;    0.953868;    0.999535;    1.028955;    1.058578;    1.075535;    1.091202;    1.099940;    1.082166;    1.080194;    1.083156;    1.067015;    1.041662;    1.000251;    1.006420;    1.017189;    1.021384;    1.031845;
 58;    0.108580;    1.005503;    0.941588;    0.983408;    1.024530;    1.047567;    1.075576;    1.096420;    1.097030;    1.102433;    1.100059;    1.066845;    1.050660;    1.033211;    0.983794;    1.004102;    1.010104;    1.024011;    1.010204;
 59;    0.108016;    0.991910;    0.932567;    0.973345;    1.012638;    1.022614;    1.046743;    1.055550;    1.078786;    1.074393;    1.062396;    1.059152;    1.039607;    1.009028;    0.967057;    0.984642;    0.979864;    0.997509;    1.006265;
 60;    0.107532;    1.000479;    0.936957;    0.995208;    1.019359;    1.042473;    1.071624;    1.098539;    1.110455;    1.095446;    1.087413;    1.063943;    1.026316;    0.996328;    0.976181;    0.996657;    0.993614;    1.002939;    1.001434;
 61;    0.107316;    1.006166;    0.949156;    0.996984;    1.039080;    1.069301;    1.093205;    1.088055;    1.101028;    1.102777;    1.099465;    1.079200;    1.052064;    1.026386;    0.999211;    1.008133;    1.004108;    1.011547;    1.010737;
 62;    0.107210;    0.990368;    0.926281;    0.977478;    1.009557;    1.036034;    1.049621;    1.061820;    1.073235;    1.056739;    1.047404;    1.044098;    1.013237;    0.999079;    0.958942;    0.964463;    0.973100;    0.978955;    0.984925;
 63;    0.110914;    1.003396;    0.932493;    0.978957;    1.004570;    1.035364;    1.051683;    1.061271;    1.063550;    1.062909;    1.061682;    1.052555;    1.032320;    1.018457;    0.970969;    0.980387;    0.983288;    1.010457;    1.005655;
 64;    0.108574;    1.010260;    0.948376;    0.989957;    1.027798;    1.063096;    1.079477;    1.096980;    1.112485;    1.121817;    1.112114;    1.071988;    1.057805;    1.020920;    0.996707;    1.006923;    1.011008;    1.024579;    1.014954;
 65;    0.106707;    0.979727;    0.925370;    0.971368;    1.012234;    1.028402;    1.046685;    1.057111;    1.068152;    1.075311;    1.065370;    1.035039;    1.033277;    0.998787;    0.964924;    0.980709;    0.999008;    0.999427;    0.987133;
 66;    0.106693;    0.996871;    0.934569;    0.970985;    1.011286;    1.042504;    1.062995;    1.071261;    1.074265;    1.077387;    1.063073;    1.048507;    1.018155;    0.994110;    0.965940;    0.986949;    0.983458;    0.993795;    0.999278;
 67;    0.107715;    0.998574;    0.944703;    0.982798;    1.023268;    1.050725;    1.058950;    1.063863;    1.068849;    1.070063;    1.071142;    1.051884;    1.030696;    1.023215;    1.002825;    1.005710;    0.999305;    1.002543;    1.002255;
 68;    0.108494;    1.003459;    0.941163;    0.987696;    1.020283;    1.044738;    1.064935;    1.079368;    1.083841;    1.095422;    1.083916;    1.073390;    1.056669;    1.016085;    0.980878;    0.981891;    0.989275;    0.993860;    0.999419;
 69;    0.111241;    1.000224;    0.949018;    0.994537;    1.030429;    1.067375;    1.094537;    1.104408;    1.106918;    1.118924;    1.117220;    1.103691;    1.052636;    1.027706;    0.990878;    0.993746;    0.999466;    0.997577;    1.005504;
 70;    0.107501;    1.011773;    0.950257;    0.986999;    1.025602;    1.049170;    1.072091;    1.077388;    1.081208;    1.089997;    1.062177;    1.053151;    1.038973;    1.018339;    0.999158;    1.014435;    1.016727;    1.034209;    1.032570;
 71;    0.107832;    0.998749;    0.932305;    0.975540;    0.999827;    1.030252;    1.044207;    1.057818;    1.075258;    1.076017;    1.062564;    1.046400;    1.014374;    1.006601;    0.985126;    0.975872;    0.984662;    0.997279;    1.008626;
 72;    0.108195;    1.004551;    0.937662;    0.981163;    1.026174;    1.050420;    1.076731;    1.099098;    1.107116;    1.113667;    1.094620;    1.074909;    1.030026;    1.017974;    0.976182;    0.987924;    0.990453;    0.995974;    1.003903;
 73;    0.109250;    1.028248;    0.957306;    1.005100;    1.052048;    1.070565;    1.086577;    1.116643;    1.125872;    1.111306;    1.096544;    1.078261;    1.052363;    1.021613;    0.989663;    1.002134;    1.013707;    1.027524;    1.027743;
 74;    0.107162;    1.008178;    0.937319;    0.982094;    1.018651;    1.058785;    1.065437;    1.077812;    1.077223;    1.075161;    1.088777;    1.080275;    1.058887;    1.012952;    0.985117;    0.996132;    0.999173;    1.007671;    1.004326;
 75;    0.108654;    0.983972;    0.919881;    0.955942;    1.002810;    1.019844;    1.043589;    1.059267;    1.073615;    1.068515;    1.049284;    1.027894;    1.025373;    1.000869;    0.958730;    0.973294;    0.975768;    0.987052;    0.997543;
 76;    0.108507;    1.001906;    0.930768;    0.981554;    1.019553;    1.044497;    1.047019;    1.056260;    1.070224;    1.060844;    1.058391;    1.040023;    1.018675;    1.009124;    0.975278;    0.980900;    0.999235;    0.993657;    1.003704;
 77;    0.111632;    0.972125;    0.911638;    0.954316;    0.985401;    1.007565;    1.035283;    1.062348;    1.062547;    1.041321;    1.046980;    1.032823;    1.021939;    0.980309;    0.958348;    0.957772;    0.955211;    0.963133;    0.980130;
 78;    0.108023;    0.992193;    0.937839;    0.979280;    1.019830;    1.050996;    1.070146;    1.088340;    1.088139;    1.095103;    1.086195;    1.041417;    1.020326;    1.006530;    0.987360;    0.989123;    0.990564;    0.988977;    0.991562;
 79;    0.108306;    1.004989;    0.943868;    0.982376;    1.014683;    1.051160;    1.068847;    1.069211;    1.085843;    1.088825;    1.076037;    1.068000;    1.056411;    1.014570;    0.991527;    1.003095;    1.006138;    1.013977;    1.002683;
 80;    0.107471;    0.976630;    0.908355;    0.953267;    0.984252;    1.012676;    1.037225;    1.036889;    1.047142;    1.040144;    1.032374;    1.020975;    0.985635;    0.971700;    0.945980;    0.953916;    0.969709;    0.967276;    0.967307;
 81;    0.108945;    0.985096;    0.923707;    0.963918;    0.996767;    1.015370;    1.048695;    1.066003;    1.061948;    1.063024;    1.060026;    1.039344;    1.024005;    1.003568;    0.963006;    0.974280;    0.984486;    0.989970;    0.988698;
 82;    0.106997;    0.979919;    0.917129;    0.959955;    1.000627;    1.033867;    1.066066;    1.073004;    1.079821;    1.073512;    1.064951;    1.036667;    1.021674;    1.002504;    0.953331;    0.967816;    0.973035;    0.990036;    0.987522;
 83;    0.108886;    0.979328;    0.926306;    0.967209;    1.008853;    1.029553;    1.053964;    1.078952;    1.081739;    1.079005;    1.068839;    1.048971;    1.018420;    0.992136;    0.970125;    0.981506;    0.985092;    0.990441;    0.988955;
 84;    0.109027;    0.995870;    0.946541;    0.993997;    1.032264;    1.051921;    1.078605;    1.085362;    1.108472;    1.093619;    1.088734;    1.068567;    1.041274;    1.014460;    0.985503;    0.989241;    0.999630;    0.996494;    0.997455;
 85;    0.106998;    1.002697;    0.945738;    0.985892;    1.029782;    1.064379;    1.080127;    1.098423;    1.109676;    1.105263;    1.099846;    1.097766;    1.055255;    1.034001;    0.977614;    0.994390;    0.999897;    0.996198;    1.008209;
 86;    0.106680;    1.007701;    0.936574;    0.976197;    1.008491;    1.035970;    1.045716;    1.062589;    1.083667;    1.083965;    1.083287;    1.059735;    1.042552;    1.005933;    0.980658;    0.983792;    0.990255;    1.003100;    1.004481;
 87;    0.107434;    1.002246;    0.934355;    0.984350;    1.007804;    1.038054;    1.060643;    1.077090;    1.089854;    1.088690;    1.072910;    1.035918;    1.017853;    0.993860;    0.968006;    0.992911;    0.995479;    1.008659;    1.008452;
 88;    0.107634;    0.999963;    0.926130;    0.962516;    1.012329;    1.040865;    1.059392;    1.083618;    1.091918;    1.086749;    1.067403;    1.026512;    1.014305;    0.986112;    0.958011;    0.977250;    0.979114;    0.986967;    0.989824;
 89;    0.107667;    1.003624;    0.939231;    0.985726;    1.019519;    1.047294;    1.064559;    1.079047;    1.075765;    1.064332;    1.072729;    1.044660;    1.039044;    0.994092;    0.971303;    0.983427;    1.000860;    0.995284;    1.008975;
 90;    0.111977;    1.004554;    0.947571;    0.987042;    1.020895;    1.047819;    1.078007;    1.106316;    1.115394;    1.088138;    1.095317;    1.058948;    1.052666;    1.023044;    0.991438;    1.012062;    1.013333;    1.015891;    1.002164;
 91;    0.107817;    1.003259;    0.936214;    0.971446;    1.004356;    1.039314;    1.048233;    1.069672;    1.090098;    1.086150;    1.067073;    1.058350;    1.025557;    0.990535;    0.981144;    0.993275;    0.996808;    1.010860;    1.007440;
 92;    0.106864;    0.997052;    0.937070;    0.982214;    1.019808;    1.050783;    1.070926;    1.076856;    1.085810;    1.098321;    1.075529;    1.064227;    1.048465;    1.007009;    0.997431;    1.002563;    0.993885;    1.004855;    0.996559;
 93;    0.108644;    1.007527;    0.946854;    0.988222;    1.025095;    1.064015;    1.085930;    1.100216;    1.105757;    1.101898;    1.087087;    1.064167;    1.038687;    1.028502;    0.985891;    0.996180;    1.013494;    1.019702;    1.014364;
 94;    0.108615;    0.991962;    0.925746;    0.973031;    1.002656;    1.023833;    1.030987;    1.054120;    1.057757;    1.038547;    1.031273;    1.036880;    1.027520;    0.992716;    0.959662;    0.967434;    0.979501;    0.986435;    0.987903;
 95;    0.109036;    1.011381;    0.943962;    0.987056;    1.031967;    1.063844;    1.085085;    1.096181;    1.109033;    1.098316;    1.078751;    1.082535;    1.062075;    1.003212;    0.980994;    0.993715;    1.001004;    1.004867;    1.007051;
 96;    0.107631;    0.999583;    0.929408;    0.972622;    1.011851;    1.050503;    1.075314;    1.083266;    1.087154;    1.098207;    1.085954;    1.062565;    1.036645;    1.012255;    0.970328;    0.987381;    0.995778;    1.004035;    1.002605;
 97;    0.109833;    1.021456;    0.965652;    1.004863;    1.035953;    1.066495;    1.071781;    1.097747;    1.103827;    1.105129;    1.095994;    1.096534;    1.068661;    1.047056;    1.008278;    1.022915;    1.021546;    1.016501;    1.023040;
 98;    0.107200;    1.000893;    0.941205;    0.979593;    1.025800;    1.054683;    1.066911;    1.090676;    1.092555;    1.097990;    1.072606;    1.067296;    1.052137;    1.025654;    0.982568;    1.006515;    1.012751;    1.002184;    1.005188;
 99;    0.108048;    1.000920;    0.934086;    0.980107;    1.005058;    1.043247;    1.059144;    1.079317;    1.081573;    1.081248;    1.084377;    1.078807;    1.057639;    1.031960;    0.984497;    0.998562;    1.009158;    1.012975;    1.013536;
100;    0.108229;    0.996610;    0.932140;    0.980249;    1.030654;    1.062389;    1.087782;    1.094478;    1.073008;    1.074317;    1.075068;    1.047466;    1.034451;    1.003877;    0.975380;    0.984201;    0.999905;    1.010273;    0.995425;
