Simulation;Time;PC 0;PC 1;PC 2;PC 3;PC 4;PC 5;PC 6;PC 7;PC 8;PC 9;PC10;PC11;PC12;PC13;PC14;PC15;PC16;PC17;
Nan;Nan;0;0;0;1;0;0;0;0;0;0;0;0;0;0;0;0;0;0;
  0;    0.248351;    0.994203;    0.425263;    0.313698;    0.236517;    0.255729;    0.273888;    0.295761;    0.338496;    0.384663;    0.440736;    0.526264;    0.672062;    0.881993;    1.192427;    1.455392;    2.599959;    5.313945;  487.323539;
  1;    0.249683;    1.022855;    0.442295;    0.316483;    0.241047;    0.261836;    0.281908;    0.307055;    0.339974;    0.381848;    0.442901;    0.505826;    0.593412;    0.732222;    0.893957;    1.177603;    1.790229;    6.027887;  401.459282;
  2;    0.249308;    1.013917;    0.446615;    0.322042;    0.243070;    0.263097;    0.283039;    0.311725;    0.343906;    0.381132;    0.420025;    0.486294;    0.628122;    0.802473;    1.065022;    1.642562;    2.601813;    7.752356; 5736.849110;
  3;    0.248970;    0.972410;    0.425222;    0.326394;    0.245447;    0.266374;    0.285760;    0.314752;    0.348491;    0.394063;    0.446100;    0.531441;    0.660315;    0.821064;    1.082004;    1.576992;    3.211230;    8.378194;  564.346741;
  4;    0.249269;    1.023296;    0.442261;    0.335057;    0.246891;    0.271666;    0.294596;    0.317270;    0.350615;    0.401888;    0.457102;    0.553883;    0.696931;    0.882211;    1.149663;    1.693919;    2.367506;   33.516354; 9433.360233;
  5;    0.249429;    1.003044;    0.423196;    0.314471;    0.242865;    0.262202;    0.284551;    0.315472;    0.350066;    0.394726;    0.440535;    0.546206;    0.682474;    0.853920;    1.106217;    1.647988;    2.943814;    7.550998; 4051.017259;
  6;    0.251155;    1.003284;    0.433891;    0.314590;    0.242286;    0.261245;    0.286980;    0.311849;    0.344915;    0.404874;    0.466085;    0.549964;    0.677030;    0.829986;    1.036984;    1.492324;    2.414573;   47.556861;326384.064930;
  7;    0.248176;    1.013990;    0.429073;    0.313346;    0.241835;    0.259372;    0.281713;    0.308418;    0.341059;    0.374130;    0.429425;    0.492612;    0.628276;    0.790551;    1.113503;    1.438284;    3.131618;   18.039064;49462.355335;
  8;    0.257012;    0.976759;    0.413438;    0.308983;    0.238922;    0.258793;    0.282784;    0.308617;    0.348506;    0.390111;    0.450433;    0.526323;    0.616301;    0.761534;    1.012463;    1.613819;    3.091552;   23.071787; 6688.293441;
  9;    0.248875;    0.993550;    0.432474;    0.318243;    0.244589;    0.266407;    0.290225;    0.314057;    0.341629;    0.393991;    0.447477;    0.516999;    0.594655;    0.748061;    0.968680;    1.252267;    2.905385;    6.724901; 1475.594536;
 10;    0.248686;    1.007537;    0.440496;    0.325757;    0.244198;    0.265271;    0.289941;    0.329241;    0.364034;    0.407275;    0.463262;    0.527487;    0.604174;    0.716490;    1.010986;    1.580394;    2.783506;    9.143722;1381982.137614;
 11;    0.248731;    0.978943;    0.431332;    0.317681;    0.246288;    0.263885;    0.283113;    0.315041;    0.348258;    0.387866;    0.444227;    0.523885;    0.669221;    0.868305;    1.093967;    1.556698;    2.056380;    7.898973;  638.490458;
 12;    0.251263;    0.952480;    0.423663;    0.307345;    0.241426;    0.259591;    0.280989;    0.304036;    0.331562;    0.368661;    0.404817;    0.456570;    0.561511;    0.709767;    0.912556;    1.339762;    3.334545;   33.967633; 3462.844918;
 13;    0.248107;    1.018808;    0.422070;    0.315733;    0.241911;    0.261902;    0.285353;    0.311136;    0.344056;    0.381216;    0.432833;    0.505389;    0.642763;    0.897477;    1.263215;    2.076445;    4.282577;   16.737121; 4551.879233;
 14;    0.249260;    0.973579;    0.424784;    0.314169;    0.238544;    0.261134;    0.286856;    0.310372;    0.337922;    0.374150;    0.428498;    0.505744;    0.608512;    0.715143;    1.067980;    1.593866;    2.542023;    5.740347;42243.171500;
 15;    0.249917;    1.042420;    0.419135;    0.315029;    0.235101;    0.254865;    0.279823;    0.308711;    0.339885;    0.383298;    0.434890;    0.516405;    0.643948;    0.807902;    1.155013;    1.593132;    2.693771;   23.873091;  898.148859;
 16;    0.251319;    0.992481;    0.435870;    0.320166;    0.247938;    0.267046;    0.289099;    0.319143;    0.349281;    0.384297;    0.432293;    0.489259;    0.568449;    0.676541;    0.843874;    1.103889;    1.960942;    6.087420;  449.159102;
 17;    0.249510;    0.966210;    0.420638;    0.313666;    0.239044;    0.256337;    0.278650;    0.310755;    0.354487;    0.390650;    0.470406;    0.541034;    0.646265;    0.808928;    1.051646;    1.651537;    2.504095;    5.555626;  871.889199;
 18;    0.253389;    0.934572;    0.414039;    0.310232;    0.242604;    0.259145;    0.282713;    0.309961;    0.342483;    0.390875;    0.453963;    0.524261;    0.629299;    0.796705;    1.046435;    1.488600;    3.004629;   12.137024; 4591.134102;
 19;    0.257232;    0.991502;    0.413961;    0.301100;    0.240544;    0.263472;    0.283103;    0.313414;    0.345435;    0.384669;    0.439465;    0.514097;    0.603622;    0.730159;    0.884920;    1.292498;    2.941991;    7.503739;  341.630738;
 20;    0.248891;    1.045039;    0.430570;    0.320501;    0.242647;    0.265234;    0.291997;    0.321303;    0.353031;    0.385298;    0.454331;    0.527630;    0.608924;    0.743292;    1.022261;    1.534179;    2.785433;    7.896562; 1048.047015;
 21;    0.253644;    1.030775;    0.425179;    0.317065;    0.244959;    0.262333;    0.288797;    0.317188;    0.346143;    0.396925;    0.448921;    0.517283;    0.609462;    0.721776;    0.897621;    1.372523;    3.581062;   39.256544; 3750.320841;
 22;    0.247961;    1.018358;    0.426298;    0.316118;    0.244812;    0.263072;    0.286974;    0.311379;    0.350493;    0.392549;    0.442771;    0.530670;    0.624446;    0.804569;    1.049088;    1.451721;    3.002249;   17.210869; 8482.324560;
 23;    0.256718;    0.988906;    0.421792;    0.309231;    0.245876;    0.262784;    0.283694;    0.315076;    0.352986;    0.395649;    0.450099;    0.517749;    0.594956;    0.716477;    0.852003;    1.386648;    2.700115;    6.221741;55150.611851;
 24;    0.247432;    1.024229;    0.437538;    0.322868;    0.242448;    0.268104;    0.308916;    0.348899;    0.387524;    0.451007;    0.522991;    0.591128;    0.680095;    0.825205;    1.004606;    1.345902;    2.541350;   14.871049; 5868.251933;
 25;    0.248640;    0.973898;    0.425856;    0.316507;    0.239165;    0.259669;    0.284313;    0.330957;    0.385145;    0.459297;    0.520032;    0.634638;    0.808557;    1.000852;    1.398495;    2.065865;    3.568375;    9.328604;  625.262246;
 26;    0.246665;    1.002990;    0.429783;    0.320617;    0.248494;    0.269906;    0.290099;    0.323468;    0.358369;    0.402966;    0.452596;    0.525741;    0.609542;    0.705749;    0.938605;    1.246934;    2.576248;    4.642653;  531.250237;
 27;    0.248086;    1.024976;    0.420936;    0.310675;    0.242835;    0.264316;    0.286268;    0.310895;    0.343840;    0.377414;    0.428962;    0.483120;    0.576251;    0.715851;    0.897095;    1.257717;    3.543008;   16.037894; 7951.651756;
 28;    0.248279;    1.033306;    0.421600;    0.313112;    0.241618;    0.259952;    0.283550;    0.309093;    0.331908;    0.376613;    0.423606;    0.491993;    0.578426;    0.748879;    1.040704;    1.461845;    2.696043;    7.035052;  195.965628;
 29;    0.247117;    1.068017;    0.424474;    0.312564;    0.240548;    0.260143;    0.285007;    0.317714;    0.355653;    0.407869;    0.483191;    0.585205;    0.726004;    0.867678;    1.079421;    1.373266;    3.017666;    7.904662;  728.190035;
 30;    0.252291;    1.022663;    0.430125;    0.322958;    0.244007;    0.260785;    0.284544;    0.308564;    0.336143;    0.370010;    0.449338;    0.526019;    0.630110;    0.755642;    0.972386;    1.363912;    2.503979;    8.709821;  275.223236;
 31;    0.249459;    1.019001;    0.433787;    0.314214;    0.243209;    0.262303;    0.287721;    0.316999;    0.351919;    0.383266;    0.442226;    0.534127;    0.647392;    0.794941;    0.934792;    1.155499;    1.954648;    6.709448;  487.679321;
 32;    0.247427;    0.971985;    0.436220;    0.312974;    0.241846;    0.259005;    0.286550;    0.317163;    0.351942;    0.396276;    0.472354;    0.557425;    0.652340;    0.780687;    0.948681;    1.210587;    1.705055;   21.568993; 4893.837583;
 33;    0.250389;    1.035008;    0.421005;    0.307762;    0.237575;    0.255374;    0.281783;    0.312278;    0.346389;    0.421648;    0.490947;    0.570371;    0.676687;    0.897845;    1.105525;    1.941402;    3.338049;    9.992732; 4903.357367;
 34;    0.257776;    1.049405;    0.432347;    0.321582;    0.246577;    0.264880;    0.291394;    0.325297;    0.364362;    0.408927;    0.456174;    0.498514;    0.598337;    0.788829;    1.129990;    1.559166;    2.733200;   18.958886;10297.990629;
 35;    0.251895;    0.993931;    0.426850;    0.314486;    0.241818;    0.261419;    0.286286;    0.309257;    0.351468;    0.402681;    0.456482;    0.528795;    0.604578;    0.767260;    1.026914;    1.564487;    2.652289;   12.546808;31241.349766;
 36;    0.249280;    0.942015;    0.429581;    0.317013;    0.239886;    0.258558;    0.281804;    0.311184;    0.340310;    0.389861;    0.448917;    0.528443;    0.656345;    0.845342;    1.061936;    1.826339;    2.918666;   11.417011; 2025.791870;
 37;    0.250729;    0.986873;    0.435190;    0.324040;    0.239731;    0.261808;    0.282229;    0.305651;    0.333001;    0.375935;    0.428408;    0.501062;    0.606624;    0.744856;    1.033911;    2.334007;   12.551543;   49.836926; 1583.927757;
 38;    0.249048;    1.006144;    0.421239;    0.312155;    0.242670;    0.262848;    0.282242;    0.311148;    0.342873;    0.383745;    0.437506;    0.510002;    0.627263;    0.809453;    1.089002;    1.469775;    2.354640;    4.119823;  299.386113;
 39;    0.254075;    0.948575;    0.418563;    0.314089;    0.241073;    0.259248;    0.281767;    0.308333;    0.339981;    0.370903;    0.420780;    0.492112;    0.592259;    0.719819;    0.983919;    1.427563;    2.866429;   17.372242;  286.479286;
 40;    0.248757;    1.012655;    0.441761;    0.318340;    0.239773;    0.264965;    0.287508;    0.317523;    0.353199;    0.399811;    0.448361;    0.541947;    0.660319;    0.858827;    1.070652;    1.662570;    2.519256;    8.638566; 6842.047481;
 41;    0.250867;    0.999410;    0.425466;    0.309527;    0.241001;    0.258863;    0.280988;    0.303714;    0.337402;    0.378803;    0.428381;    0.526868;    0.639208;    0.795578;    1.092494;    2.893720;    8.401445;   43.177810;  346.326800;
 42;    0.250685;    1.055134;    0.426813;    0.319291;    0.240385;    0.268154;    0.295321;    0.344802;    0.374176;    0.426904;    0.494596;    0.577120;    0.680433;    0.828403;    1.094282;    1.836225;    5.037586;   16.759102;  824.534404;
 43;    0.249128;    1.028989;    0.425806;    0.313510;    0.242055;    0.262206;    0.288165;    0.309883;    0.349162;    0.387082;    0.434376;    0.497108;    0.575536;    0.696461;    0.922833;    1.327365;    2.186284;    5.292358;15405.236582;
 44;    0.255532;    1.001993;    0.431579;    0.313286;    0.244209;    0.263682;    0.285725;    0.316782;    0.351104;    0.393625;    0.454060;    0.532792;    0.653697;    0.823837;    1.154185;    1.615406;    3.497325;   36.354589;  971.664561;
 45;    0.248889;    0.983431;    0.414692;    0.308431;    0.241510;    0.261801;    0.283914;    0.305288;    0.342623;    0.387186;    0.437818;    0.514403;    0.630234;    0.855814;    1.186413;    1.631528;    2.551156;   12.791903; 1099.942465;
 46;    0.251769;    1.032219;    0.424001;    0.314885;    0.239276;    0.257105;    0.278869;    0.302872;    0.336106;    0.376517;    0.422910;    0.477476;    0.553120;    0.659573;    0.799353;    1.006422;    1.866916;    6.621192;170871.926200;
 47;    0.251674;    1.036099;    0.425528;    0.324154;    0.248259;    0.267299;    0.292581;    0.321529;    0.359350;    0.404791;    0.450246;    0.508481;    0.603310;    0.715595;    0.951267;    1.610930;    3.029837;   16.448832; 1343.983587;
 48;    0.250655;    0.966247;    0.417615;    0.316178;    0.244073;    0.265444;    0.295572;    0.323823;    0.364541;    0.417501;    0.497743;    0.588857;    1.017587;    1.330919;    1.946299;    2.689562;    4.852356;   38.197748; 1381.363927;
 49;    0.252158;    0.975994;    0.417746;    0.315045;    0.243627;    0.266470;    0.289599;    0.316408;    0.345685;    0.376908;    0.438706;    0.515306;    0.609659;    0.745424;    1.085072;    2.098242;    4.890108;   18.888144; 1819.265082;
 50;    0.249634;    1.016167;    0.427068;    0.311497;    0.239592;    0.261502;    0.287556;    0.311906;    0.348656;    0.385774;    0.446509;    0.521960;    0.621421;    0.782042;    1.217798;    1.993129;    3.334825;    6.031580;  441.010790;
 51;    0.253939;    1.034454;    0.430117;    0.324014;    0.242369;    0.261185;    0.283853;    0.312829;    0.341124;    0.385268;    0.433728;    0.496284;    0.579896;    0.678561;    0.980470;    1.301127;    1.891182;    3.026655;  433.459652;
 52;    0.250356;    1.006250;    0.431234;    0.317951;    0.238138;    0.257864;    0.280993;    0.306405;    0.341868;    0.379784;    0.425520;    0.486240;    0.563243;    0.726885;    0.935363;    1.214902;    1.655297;    4.405490;257975.587521;
 53;    0.249095;    0.941270;    0.439858;    0.316010;    0.240125;    0.258387;    0.280247;    0.306412;    0.341203;    0.392988;    0.459108;    0.573379;    0.739996;    1.052355;    1.427424;    1.926719;    4.237518;    9.888101;  661.853382;
 54;    0.250195;    1.032564;    0.442873;    0.309344;    0.239603;    0.258462;    0.286088;    0.332283;    0.374221;    0.418197;    0.481843;    0.554031;    0.663431;    0.780773;    1.126002;    1.481233;    1.947864;    6.319785;  311.818253;
 55;    0.248341;    0.997918;    0.413476;    0.307532;    0.238829;    0.258080;    0.282258;    0.311348;    0.350662;    0.391275;    0.448938;    0.554319;    0.701649;    0.983839;    1.430912;    1.932107;    3.859850;   10.739735; 3798.414813;
 56;    0.248533;    1.015718;    0.429744;    0.310563;    0.239850;    0.255986;    0.280697;    0.306174;    0.341409;    0.376662;    0.436045;    0.508185;    0.605140;    0.776989;    1.007095;    1.500244;    2.547193;   10.712623; 1655.633732;
 57;    0.251285;    1.023801;    0.441678;    0.323324;    0.244390;    0.262404;    0.291573;    0.323326;    0.356109;    0.391710;    0.446913;    0.540329;    0.678283;    0.851290;    1.059452;    1.321085;    2.095945;   10.357714;  356.822066;
 58;    0.247503;    1.012963;    0.429207;    0.313370;    0.243159;    0.263846;    0.287778;    0.321204;    0.361464;    0.406556;    0.453317;    0.530792;    0.636218;    0.796543;    1.027395;    1.398083;    2.164367;    6.938126;  893.176612;
 59;    0.248210;    0.982684;    0.430127;    0.320988;    0.239350;    0.263598;    0.286816;    0.312190;    0.341119;    0.376390;    0.429824;    0.510880;    0.605580;    0.739841;    0.925638;    1.265991;    1.868152;    6.903390; 2992.776338;
 60;    0.248928;    0.998743;    0.423960;    0.315041;    0.241797;    0.263589;    0.297715;    0.327172;    0.362220;    0.403661;    0.470431;    0.548429;    0.676417;    0.854950;    1.103964;    1.527110;    2.726686;   12.161895;  509.775708;
 61;    0.250069;    0.990872;    0.424242;    0.311652;    0.246654;    0.264933;    0.288050;    0.319294;    0.355265;    0.393957;    0.452188;    0.565517;    0.670977;    0.824249;    1.084942;    1.548218;    7.403527;   18.321037; 1853.668831;
 62;    0.247916;    0.992108;    0.421183;    0.314081;    0.238303;    0.258540;    0.276999;    0.299788;    0.325888;    0.356475;    0.423486;    0.501180;    0.599822;    0.733122;    0.940551;    1.503843;    2.910971;   11.693711;28964.453544;
 63;    0.255390;    1.039999;    0.430455;    0.308121;    0.240105;    0.258537;    0.278972;    0.304736;    0.349640;    0.405061;    0.458566;    0.553751;    0.643854;    0.807368;    1.102531;    1.465900;    2.174035;    7.265657;  721.831882;
 64;    0.250705;    1.011952;    0.431223;    0.323523;    0.244050;    0.265675;    0.288022;    0.313012;    0.348691;    0.396091;    0.456590;    0.518840;    0.593291;    0.692788;    0.915139;    1.397507;    2.640785;    7.674398; 2446.038700;
 65;    0.248947;    0.962941;    0.421429;    0.307936;    0.238727;    0.258695;    0.277420;    0.305264;    0.338710;    0.375319;    0.421298;    0.477686;    0.548590;    0.739088;    0.921495;    1.223319;    1.949131;    3.301602; 1053.025265;
 66;    0.246447;    0.984569;    0.422471;    0.314477;    0.241520;    0.260003;    0.287799;    0.314234;    0.353651;    0.412590;    0.474819;    0.558511;    0.659612;    0.856690;    1.125095;    1.612100;    3.154061;    8.951087; 5266.599774;
 67;    0.248228;    0.963405;    0.415115;    0.309530;    0.245435;    0.262032;    0.290908;    0.316906;    0.353069;    0.388891;    0.434119;    0.484740;    0.530060;    0.647502;    0.806204;    1.173766;    1.701992;    8.235413;55897.096769;
 68;    0.255910;    0.999203;    0.423585;    0.314084;    0.243076;    0.268774;    0.297457;    0.327299;    0.361002;    0.406957;    0.462901;    0.530766;    0.615271;    0.745791;    0.911205;    1.190479;    1.874382;    4.655293;  118.009754;
 69;    0.250426;    0.964296;    0.432404;    0.322002;    0.244467;    0.264539;    0.293656;    0.318762;    0.349368;    0.388786;    0.442524;    0.512435;    0.602007;    0.715563;    0.920269;    1.268659;    1.932004;    3.792793; 5148.863355;
 70;    0.248122;    1.015075;    0.437903;    0.313302;    0.244060;    0.265434;    0.288364;    0.315842;    0.351569;    0.394837;    0.441684;    0.504160;    0.570885;    0.710224;    0.964705;    1.294709;    2.392650;    5.066696; 3041.564915;
 71;    0.246755;    1.005293;    0.420435;    0.311115;    0.240483;    0.262757;    0.288898;    0.312362;    0.348091;    0.401910;    0.468709;    0.537158;    0.614799;    0.734580;    0.925713;    1.332699;    2.001411;    9.909656;  599.350377;
 72;    0.247902;    1.015424;    0.417165;    0.313420;    0.243081;    0.264353;    0.292093;    0.325473;    0.364292;    0.404210;    0.457152;    0.520547;    0.606710;    0.729707;    0.864731;    1.142269;    1.842182;    5.760629;19497.876075;
 73;    0.256193;    1.043780;    0.434006;    0.323049;    0.247002;    0.271504;    0.298864;    0.329116;    0.365795;    0.401568;    0.458170;    0.516774;    0.607523;    0.721138;    0.937681;    1.525332;   14.107650;   26.342673; 1572.938143;
 74;    0.249302;    1.038450;    0.426498;    0.325028;    0.241483;    0.261677;    0.290607;    0.320879;    0.351184;    0.391088;    0.433812;    0.489256;    0.588441;    0.712221;    1.051396;    1.465334;    2.273028;    6.037366; 6543.297014;
 75;    0.248625;    1.010622;    0.434618;    0.311010;    0.234682;    0.255798;    0.278563;    0.305127;    0.338385;    0.376073;    0.525690;    0.637683;    0.730990;    0.985623;    1.219680;    1.613925;    3.409598;   39.951627; 2257.284574;
 76;    0.246910;    1.032991;    0.420218;    0.305934;    0.240301;    0.262296;    0.285414;    0.308399;    0.344745;    0.388521;    0.448395;    0.538520;    0.688345;    0.979992;    1.276242;    1.900208;    9.237352;   30.086615; 1565.849603;
 77;    0.253722;    0.971454;    0.416749;    0.302604;    0.234506;    0.255428;    0.272857;    0.299054;    0.329214;    0.369350;    0.417834;    0.486649;    0.579603;    0.716292;    0.916411;    1.125972;    1.931154;    6.566434;  253.335845;
 78;    0.264011;    0.972647;    0.436111;    0.319000;    0.240238;    0.260015;    0.287377;    0.317665;    0.348822;    0.388479;    0.446192;    0.519604;    0.618668;    0.759231;    0.977519;    1.240178;    1.728831;   15.661447; 4882.597536;
 79;    0.249136;    1.005058;    0.427577;    0.312478;    0.243752;    0.261614;    0.282271;    0.304964;    0.338260;    0.379802;    0.425013;    0.468917;    0.556795;    0.700389;    0.888221;    1.396359;    2.000973;    3.270703;   22.669931;
 80;    0.253366;    1.009367;    0.423676;    0.309411;    0.232723;    0.250690;    0.274628;    0.299983;    0.329716;    0.362838;    0.405346;    0.478298;    0.575028;    0.711289;    0.992129;    1.461129;    2.875711;   11.852549; 3659.376557;
 81;    0.248777;    0.983830;    0.417454;    0.310971;    0.238198;    0.260186;    0.280716;    0.304834;    0.338567;    0.377067;    0.445052;    0.514095;    0.594591;    0.715317;    0.935168;    1.482792;    2.854833;   22.131207;  720.757498;
 82;    0.247259;    0.990458;    0.417710;    0.309073;    0.235785;    0.252634;    0.272422;    0.304680;    0.340027;    0.379737;    0.434577;    0.495962;    0.585282;    0.727184;    0.908197;    1.314851;    2.335900;   22.662721; 2232.744083;
 83;    0.248640;    0.945649;    0.414119;    0.306963;    0.240310;    0.257458;    0.281124;    0.309548;    0.343639;    0.394909;    0.448605;    0.517203;    0.598819;    0.749019;    0.979362;    1.305742;    2.028998;    6.343371;  742.672680;
 84;    0.249241;    0.954205;    0.433714;    0.322187;    0.243166;    0.264713;    0.285037;    0.311276;    0.340035;    0.380943;    0.442716;    0.509997;    0.598183;    0.728047;    0.973444;    1.488504;    3.702578;   12.795971;43972.550169;
 85;    0.248682;    0.974969;    0.429578;    0.317121;    0.243921;    0.262432;    0.294936;    0.323537;    0.351943;    0.399564;    0.457817;    0.534656;    0.625809;    0.752295;    1.129335;    1.623606;    4.623165;   21.621976; 1381.910481;
 86;    0.251205;    1.046820;    0.432686;    0.314210;    0.240835;    0.260490;    0.291799;    0.318779;    0.346805;    0.400369;    0.452223;    0.538234;    0.665831;    0.931812;    1.213661;    1.918792;    5.289132;   14.877426; 1241.134261;
 87;    0.247673;    1.017102;    0.424126;    0.311507;    0.241391;    0.262594;    0.285601;    0.312799;    0.339688;    0.379070;    0.432897;    0.498487;    0.597483;    0.747978;    0.922058;    1.249903;    2.659620;    6.083954;  221.543283;
 88;    0.254406;    1.046734;    0.436251;    0.314492;    0.235973;    0.257411;    0.279559;    0.303068;    0.332635;    0.383207;    0.445158;    0.561171;    0.718726;    0.932719;    1.218935;    1.514510;    2.669956;    9.229639;  841.670202;
 89;    0.248372;    1.016073;    0.435373;    0.323126;    0.240552;    0.261488;    0.283402;    0.306780;    0.331966;    0.371082;    0.410945;    0.479939;    0.564378;    0.669620;    0.896696;    1.393691;    2.127032;   37.226153; 1162.624431;
 90;    0.252309;    0.982745;    0.428453;    0.312920;    0.245402;    0.263454;    0.294209;    0.320904;    0.358603;    0.400575;    0.451126;    0.514600;    0.630234;    0.786023;    1.018297;    1.365716;    2.968810;    6.144261; 4064.293964;
 91;    0.248136;    1.025958;    0.435646;    0.314953;    0.239611;    0.258082;    0.282790;    0.311240;    0.339670;    0.391400;    0.445220;    0.514295;    0.662479;    0.789095;    1.026372;    1.434061;    6.300166;   20.442111; 6690.677200;
 92;    0.246604;    0.997585;    0.427304;    0.321244;    0.241871;    0.263237;    0.291254;    0.322240;    0.362368;    0.418122;    0.481297;    0.564566;    0.700313;    0.837260;    1.076333;    1.500113;    2.201150;    3.551500; 4506.102482;
 93;    0.255594;    0.996810;    0.429719;    0.320182;    0.244355;    0.265391;    0.288754;    0.320691;    0.393148;    0.491641;    0.610704;    0.710538;    0.838468;    0.981048;    1.206042;    1.597032;    2.436563;    5.289187;32978.760005;
 94;    0.249863;    1.003436;    0.424469;    0.306688;    0.238211;    0.255641;    0.277969;    0.303134;    0.346462;    0.394785;    0.438069;    0.511373;    0.627973;    0.776614;    1.013206;    1.335739;    2.198299;    7.027881;  351.392287;
 95;    0.247167;    1.026987;    0.429261;    0.314310;    0.243718;    0.262292;    0.289156;    0.317878;    0.348981;    0.384869;    0.428651;    0.478015;    0.579014;    0.761852;    1.059443;    1.498008;    2.293056;   25.037135; 1064.308401;
 96;    0.257262;    1.037008;    0.428068;    0.311156;    0.238885;    0.260713;    0.292577;    0.323489;    0.359966;    0.400795;    0.460310;    0.533620;    0.632109;    0.743296;    1.003735;    1.554571;    3.435389;   12.468650;84089.439419;
 97;    0.248122;    0.992066;    0.441378;    0.328054;    0.247877;    0.272498;    0.294537;    0.317611;    0.363258;    0.408817;    0.462999;    0.535055;    0.612044;    0.705917;    0.858318;    1.147025;    1.657024;    9.830569;  866.829189;
 98;    0.247178;    1.003523;    0.436407;    0.320147;    0.241135;    0.258052;    0.277661;    0.305794;    0.339345;    0.378981;    0.426396;    0.484375;    0.607324;    0.764093;    1.101949;    1.597552;    3.758795;   27.814181; 6637.119760;
 99;    0.251469;    1.027406;    0.422924;    0.314019;    0.241761;    0.263121;    0.287392;    0.328030;    0.362404;    0.409836;    0.476977;    0.547595;    0.631901;    0.731687;    1.065408;    1.494828;    2.896307;   20.596234; 5767.508963;
100;    0.252593;    1.000720;    0.418872;    0.311522;    0.241538;    0.262736;    0.291634;    0.319169;    0.364635;    0.425367;    0.478990;    0.547673;    0.649344;    0.793845;    1.100785;    1.599333;    3.981298;   20.309255; 4738.096559;
