Simulation;Time;PC 0;PC 1;PC 2;PC 3;PC 4;PC 5;PC 6;PC 7;PC 8;PC 9;PC10;PC11;PC12;PC13;PC14;PC15;PC16;PC17;
Nan;Nan;0;0;0;1;0;0;0;0;0;0;0;0;0;0;0;0;0;0;
  0;    1.110867;    0.999522;    0.662355;    0.405627;    0.236435;    0.245981;    0.253509;    0.258734;    0.269470;    0.274832;    0.277184;    0.282256;    0.282358;    0.277061;    0.276230;    0.268651;    0.267918;    0.255824;    0.247771;
  1;    1.003649;    1.036627;    0.695894;    0.412472;    0.240792;    0.251446;    0.259665;    0.268123;    0.271468;    0.277209;    0.283813;    0.286248;    0.287009;    0.282439;    0.281776;    0.280929;    0.274201;    0.269446;    0.256480;
  2;    0.999778;    1.036792;    0.699917;    0.422768;    0.242334;    0.253527;    0.261516;    0.271750;    0.277181;    0.282327;    0.283775;    0.282731;    0.285001;    0.287105;    0.286608;    0.277666;    0.274809;    0.268740;    0.255432;
  3;    0.997103;    0.979508;    0.656311;    0.423129;    0.244386;    0.256542;    0.264616;    0.274057;    0.279883;    0.283980;    0.287810;    0.289643;    0.289716;    0.289266;    0.287340;    0.287699;    0.285332;    0.273154;    0.262041;
  4;    1.010293;    1.033022;    0.689495;    0.436977;    0.246403;    0.258662;    0.267902;    0.274208;    0.281137;    0.289099;    0.290472;    0.291864;    0.295461;    0.295617;    0.291000;    0.289727;    0.282251;    0.275223;    0.264923;
  5;    1.002363;    0.996112;    0.653866;    0.401306;    0.242735;    0.253366;    0.261260;    0.268981;    0.277244;    0.284663;    0.284637;    0.288880;    0.290012;    0.291231;    0.287683;    0.284223;    0.274971;    0.269151;    0.258194;
  6;    0.998670;    1.012348;    0.677564;    0.404734;    0.241206;    0.251256;    0.262242;    0.268506;    0.274437;    0.281939;    0.283730;    0.290136;    0.292906;    0.288613;    0.284279;    0.280226;    0.271038;    0.267848;    0.255562;
  7;    1.002242;    1.012789;    0.667889;    0.410324;    0.241669;    0.249918;    0.260256;    0.269338;    0.275585;    0.277128;    0.284709;    0.288609;    0.291367;    0.289184;    0.283680;    0.280128;    0.275728;    0.272828;    0.258606;
  8;    0.998129;    0.970031;    0.637517;    0.396730;    0.237944;    0.249428;    0.260050;    0.266056;    0.273754;    0.279843;    0.284789;    0.287709;    0.285442;    0.285783;    0.283139;    0.280863;    0.270765;    0.264883;    0.251519;
  9;    1.005072;    1.002630;    0.672115;    0.410662;    0.243488;    0.255773;    0.265590;    0.272928;    0.277550;    0.288906;    0.296128;    0.297966;    0.300251;    0.299621;    0.295382;    0.287731;    0.284587;    0.275191;    0.266294;
 10;    1.000874;    1.022277;    0.687765;    0.420869;    0.243731;    0.255193;    0.264754;    0.274675;    0.281955;    0.287719;    0.291276;    0.294131;    0.293000;    0.288749;    0.289068;    0.285382;    0.281604;    0.274850;    0.261584;
 11;    1.001554;    0.991272;    0.670739;    0.406460;    0.245638;    0.254265;    0.261326;    0.270913;    0.275505;    0.283970;    0.289774;    0.291619;    0.295656;    0.294940;    0.290713;    0.284765;    0.282344;    0.275835;    0.264531;
 12;    0.994230;    0.968590;    0.658767;    0.393818;    0.240942;    0.250953;    0.259530;    0.267176;    0.272067;    0.279337;    0.281832;    0.282074;    0.289567;    0.293456;    0.290275;    0.285524;    0.277320;    0.264486;    0.254309;
 13;    1.002935;    1.004944;    0.653687;    0.406905;    0.240992;    0.250710;    0.261482;    0.267170;    0.273604;    0.279717;    0.282422;    0.287541;    0.287062;    0.291527;    0.295381;    0.293046;    0.286054;    0.272506;    0.256123;
 14;    1.003374;    0.986404;    0.663574;    0.412229;    0.237827;    0.249976;    0.259310;    0.263120;    0.269387;    0.275911;    0.282863;    0.287542;    0.288329;    0.283245;    0.283724;    0.281068;    0.269032;    0.261235;    0.252999;
 15;    1.000803;    1.020523;    0.651365;    0.409377;    0.234911;    0.244799;    0.256096;    0.263997;    0.267291;    0.275405;    0.276712;    0.282197;    0.285072;    0.284504;    0.281290;    0.272728;    0.262967;    0.258883;    0.251106;
 16;    1.001426;    1.003376;    0.678190;    0.417163;    0.246834;    0.257902;    0.265988;    0.275657;    0.280701;    0.284985;    0.290471;    0.289488;    0.295310;    0.295556;    0.292097;    0.286819;    0.282077;    0.273145;    0.259576;
 17;    0.997859;    0.974708;    0.653484;    0.421660;    0.237549;    0.246290;    0.254304;    0.261913;    0.268270;    0.272750;    0.278635;    0.282235;    0.286410;    0.285827;    0.278824;    0.274382;    0.269640;    0.257368;    0.249967;
 18;    0.998996;    0.944558;    0.638316;    0.399049;    0.242011;    0.251052;    0.261325;    0.270614;    0.276923;    0.285378;    0.290445;    0.288798;    0.292907;    0.295014;    0.294526;    0.288047;    0.282692;    0.270411;    0.257637;
 19;    0.997622;    0.978748;    0.636851;    0.381219;    0.239485;    0.252455;    0.258845;    0.270736;    0.278854;    0.283385;    0.288960;    0.293883;    0.294964;    0.293666;    0.289943;    0.288305;    0.279644;    0.267324;    0.255647;
 20;    1.020446;    1.031585;    0.668587;    0.416237;    0.241727;    0.251926;    0.264055;    0.272701;    0.279632;    0.280789;    0.287889;    0.290776;    0.290273;    0.288759;    0.292306;    0.289210;    0.281896;    0.269260;    0.257711;
 21;    0.992961;    1.014899;    0.655867;    0.410979;    0.243892;    0.253064;    0.264326;    0.270554;    0.274224;    0.280555;    0.285926;    0.290073;    0.291855;    0.288514;    0.286595;    0.284748;    0.280469;    0.269865;    0.261081;
 22;    1.005455;    1.008539;    0.657406;    0.403821;    0.243908;    0.254226;    0.265071;    0.272692;    0.281208;    0.281984;    0.285961;    0.292051;    0.291048;    0.290267;    0.290476;    0.283477;    0.279035;    0.272450;    0.258768;
 23;    1.000267;    0.984507;    0.649777;    0.391366;    0.244845;    0.254050;    0.262629;    0.273516;    0.281727;    0.287635;    0.292236;    0.295642;    0.292416;    0.291029;    0.287616;    0.288277;    0.283300;    0.276761;    0.261909;
 24;    1.001400;    1.031412;    0.690649;    0.417875;    0.241380;    0.251811;    0.261686;    0.268940;    0.274872;    0.281604;    0.283851;    0.289451;    0.288046;    0.288216;    0.282555;    0.279395;    0.281724;    0.278289;    0.264108;
 25;    1.004659;    0.986299;    0.663999;    0.410179;    0.238064;    0.247522;    0.256877;    0.267111;    0.273988;    0.275953;    0.277331;    0.280332;    0.283461;    0.280670;    0.279125;    0.271912;    0.270569;    0.263131;    0.249322;
 26;    1.010917;    1.001755;    0.664290;    0.413363;    0.247473;    0.259169;    0.267712;    0.277375;    0.283511;    0.291426;    0.295261;    0.297321;    0.297866;    0.290738;    0.291705;    0.285796;    0.283016;    0.272477;    0.262426;
 27;    1.000569;    1.007222;    0.650873;    0.403611;    0.241491;    0.253932;    0.263498;    0.270366;    0.277309;    0.282618;    0.288725;    0.287896;    0.288364;    0.288846;    0.284206;    0.279690;    0.275442;    0.263057;    0.258837;
 28;    1.001196;    1.013285;    0.650855;    0.400757;    0.240949;    0.251135;    0.261208;    0.269774;    0.273183;    0.281418;    0.285416;    0.287617;    0.286862;    0.286170;    0.285922;    0.280712;    0.274456;    0.268511;    0.255657;
 29;    1.012328;    1.040071;    0.659880;    0.404810;    0.239229;    0.249967;    0.257459;    0.267537;    0.271820;    0.280363;    0.286661;    0.288687;    0.292005;    0.287942;    0.284094;    0.278795;    0.272597;    0.260208;    0.251242;
 30;    1.045881;    1.018512;    0.668257;    0.418674;    0.243905;    0.252779;    0.263970;    0.269564;    0.272691;    0.278746;    0.283012;    0.289211;    0.294195;    0.294303;    0.291462;    0.285735;    0.277537;    0.266674;    0.260653;
 31;    1.000788;    1.021066;    0.675209;    0.405141;    0.242502;    0.252680;    0.263593;    0.273235;    0.279890;    0.282743;    0.289763;    0.293346;    0.293064;    0.293856;    0.287966;    0.280531;    0.278368;    0.269562;    0.261344;
 32;    1.003507;    0.998186;    0.693083;    0.401450;    0.241057;    0.250408;    0.262976;    0.271894;    0.278340;    0.284021;    0.287330;    0.291338;    0.294672;    0.293936;    0.287359;    0.282475;    0.274838;    0.270305;    0.257513;
 33;    0.998452;    1.018336;    0.656126;    0.393020;    0.236983;    0.246348;    0.259502;    0.268539;    0.273300;    0.280673;    0.282976;    0.284219;    0.282148;    0.282550;    0.281513;    0.281218;    0.272711;    0.264587;    0.253150;
 34;    1.002757;    1.034208;    0.667779;    0.412731;    0.246193;    0.255703;    0.267480;    0.275895;    0.283451;    0.287747;    0.291539;    0.289500;    0.289223;    0.288984;    0.289380;    0.284715;    0.282715;    0.270887;    0.262567;
 35;    1.018075;    0.997637;    0.665075;    0.402648;    0.241480;    0.251559;    0.262681;    0.269241;    0.277867;    0.283029;    0.288305;    0.292608;    0.289825;    0.292821;    0.287655;    0.285547;    0.278292;    0.272577;    0.257142;
 36;    0.999101;    0.975554;    0.679244;    0.416552;    0.239361;    0.249883;    0.259876;    0.269284;    0.274446;    0.282764;    0.284748;    0.290896;    0.293525;    0.290886;    0.286386;    0.287326;    0.285308;    0.275641;    0.255399;
 37;    1.021439;    1.006785;    0.680561;    0.424446;    0.238549;    0.250481;    0.258092;    0.264489;    0.270585;    0.278527;    0.284038;    0.289034;    0.291558;    0.287673;    0.284461;    0.277142;    0.275531;    0.271159;    0.253745;
 38;    1.005307;    0.996585;    0.649989;    0.399579;    0.242576;    0.251445;    0.258765;    0.266182;    0.273675;    0.282453;    0.286796;    0.287373;    0.287089;    0.286436;    0.285202;    0.279439;    0.276365;    0.266481;    0.257507;
 39;    1.002759;    0.959369;    0.646989;    0.403726;    0.240762;    0.251197;    0.261077;    0.269835;    0.276511;    0.277461;    0.283401;    0.283834;    0.282400;    0.286967;    0.283750;    0.281376;    0.274383;    0.266584;    0.253555;
 40;    1.011500;    1.030997;    0.697396;    0.412203;    0.239054;    0.248360;    0.258145;    0.264097;    0.269591;    0.275519;    0.278658;    0.280394;    0.284986;    0.283350;    0.281063;    0.279189;    0.269928;    0.261595;    0.255683;
 41;    1.004795;    0.998824;    0.661604;    0.394639;    0.240444;    0.250118;    0.259934;    0.266249;    0.273547;    0.281160;    0.282745;    0.285440;    0.285897;    0.287252;    0.282912;    0.280093;    0.274787;    0.266107;    0.252300;
 42;    1.003228;    1.035026;    0.662226;    0.413579;    0.238982;    0.251285;    0.257807;    0.266125;    0.271689;    0.280295;    0.285065;    0.285759;    0.287656;    0.285286;    0.281770;    0.278159;    0.274875;    0.268024;    0.260042;
 43;    1.009540;    1.016794;    0.659331;    0.406782;    0.241697;    0.252478;    0.262903;    0.268129;    0.277492;    0.282754;    0.284060;    0.286777;    0.286975;    0.286131;    0.282851;    0.278469;    0.273107;    0.268631;    0.261242;
 44;    0.997354;    1.008102;    0.674388;    0.399339;    0.243272;    0.252852;    0.262768;    0.273359;    0.281400;    0.287031;    0.292654;    0.294373;    0.292036;    0.294502;    0.295903;    0.292497;    0.284831;    0.268467;    0.259537;
 45;    1.012455;    0.973712;    0.637062;    0.396074;    0.240829;    0.252819;    0.262838;    0.268585;    0.272619;    0.280092;    0.286072;    0.290734;    0.290549;    0.291589;    0.286150;    0.285432;    0.281770;    0.272663;    0.260403;
 46;    1.010412;    1.018392;    0.660315;    0.406251;    0.238793;    0.248044;    0.257574;    0.264750;    0.273055;    0.280623;    0.285622;    0.286364;    0.289762;    0.286838;    0.283181;    0.276834;    0.273509;    0.263790;    0.256545;
 47;    1.047224;    1.015336;    0.655738;    0.417794;    0.247091;    0.257614;    0.270003;    0.278867;    0.285911;    0.288482;    0.292509;    0.295399;    0.296380;    0.293203;    0.290315;    0.289761;    0.280193;    0.270173;    0.262467;
 48;    1.009876;    0.965367;    0.642039;    0.404788;    0.242928;    0.253997;    0.265442;    0.273101;    0.280465;    0.286121;    0.287771;    0.293597;    0.295387;    0.296758;    0.297354;    0.290321;    0.280685;    0.275541;    0.260065;
 49;    1.000450;    0.973039;    0.643017;    0.403835;    0.242091;    0.252448;    0.262950;    0.271321;    0.275648;    0.278102;    0.281223;    0.285145;    0.287695;    0.284503;    0.282160;    0.282205;    0.275175;    0.264001;    0.255713;
 50;    1.003373;    1.012738;    0.664731;    0.401255;    0.239120;    0.249922;    0.258286;    0.264492;    0.274366;    0.279003;    0.286894;    0.290207;    0.289976;    0.287549;    0.284267;    0.280857;    0.270824;    0.264147;    0.254978;
 51;    1.000727;    1.028167;    0.672857;    0.419109;    0.241220;    0.251436;    0.260225;    0.270291;    0.275769;    0.283943;    0.286602;    0.289648;    0.288313;    0.285448;    0.286515;    0.284265;    0.275925;    0.263904;    0.255095;
 52;    1.003664;    1.014598;    0.676067;    0.415721;    0.237135;    0.246733;    0.255426;    0.263614;    0.272244;    0.277608;    0.280463;    0.284858;    0.283951;    0.287523;    0.284795;    0.277595;    0.266240;    0.259492;    0.252739;
 53;    1.002025;    0.985981;    0.701106;    0.408027;    0.239270;    0.249447;    0.258304;    0.266973;    0.274008;    0.277388;    0.282815;    0.290392;    0.291623;    0.288997;    0.285506;    0.282162;    0.277361;    0.267962;    0.252934;
 54;    1.003516;    1.044627;    0.697102;    0.394017;    0.239264;    0.249718;    0.260804;    0.266057;    0.272417;    0.276755;    0.281889;    0.282972;    0.284583;    0.280278;    0.279166;    0.277728;    0.265846;    0.262828;    0.253099;
 55;    0.996998;    0.985386;    0.639664;    0.396286;    0.237833;    0.248273;    0.257060;    0.265106;    0.270954;    0.276332;    0.278151;    0.283935;    0.284749;    0.285978;    0.282161;    0.282092;    0.278943;    0.267614;    0.253237;
 56;    1.006008;    1.015204;    0.668379;    0.402452;    0.239507;    0.247635;    0.259380;    0.266736;    0.272367;    0.274895;    0.281844;    0.286935;    0.286489;    0.286425;    0.281652;    0.276972;    0.271705;    0.263368;    0.253364;
 57;    0.995056;    1.033935;    0.690016;    0.418669;    0.244345;    0.253633;    0.262232;    0.271182;    0.278984;    0.282430;    0.288121;    0.288694;    0.292398;    0.292641;    0.287154;    0.283140;    0.280234;    0.273729;    0.261648;
 58;    1.013728;    1.012534;    0.669529;    0.400568;    0.241979;    0.252776;    0.261142;    0.273284;    0.282426;    0.288316;    0.290751;    0.296523;    0.298179;    0.299244;    0.294516;    0.291102;    0.284557;    0.272004;    0.260306;
 59;    1.003567;    0.997905;    0.671100;    0.423724;    0.238153;    0.247000;    0.255804;    0.265704;    0.272099;    0.274162;    0.279799;    0.285088;    0.285707;    0.282723;    0.282166;    0.276410;    0.269247;    0.267071;    0.259089;
 60;    1.003166;    0.996577;    0.658186;    0.405271;    0.240395;    0.252436;    0.262034;    0.270147;    0.276946;    0.281638;    0.288044;    0.293354;    0.297661;    0.298096;    0.294787;    0.284257;    0.282647;    0.271445;    0.256690;
 61;    1.005406;    0.988473;    0.653967;    0.394920;    0.245885;    0.255441;    0.263713;    0.272352;    0.280395;    0.285590;    0.289880;    0.293844;    0.290461;    0.293158;    0.287829;    0.286080;    0.279309;    0.271613;    0.259837;
 62;    1.003639;    0.991766;    0.653071;    0.411796;    0.237349;    0.248999;    0.256865;    0.264589;    0.271087;    0.271834;    0.278183;    0.282495;    0.285548;    0.284821;    0.282688;    0.275489;    0.267251;    0.259334;    0.251649;
 63;    1.007394;    1.031654;    0.669816;    0.394450;    0.238889;    0.247848;    0.255736;    0.262865;    0.272041;    0.279152;    0.280680;    0.285323;    0.284665;    0.281868;    0.284618;    0.279339;    0.277600;    0.272891;    0.258298;
 64;    1.051949;    1.012209;    0.668536;    0.422225;    0.243431;    0.255947;    0.264870;    0.271532;    0.280297;    0.287297;    0.293730;    0.295746;    0.295747;    0.292960;    0.287470;    0.286717;    0.284160;    0.273678;    0.261834;
 65;    1.000996;    0.974396;    0.655356;    0.395493;    0.237707;    0.249466;    0.256513;    0.263343;    0.271061;    0.276183;    0.280498;    0.283563;    0.284097;    0.284042;    0.283863;    0.279243;    0.273315;    0.258612;    0.251022;
 66;    1.009107;    0.986183;    0.653831;    0.403880;    0.239967;    0.249380;    0.259964;    0.265841;    0.273655;    0.279197;    0.278705;    0.282811;    0.282936;    0.282866;    0.281081;    0.278224;    0.275265;    0.266035;    0.260417;
 67;    1.006899;    0.959991;    0.637981;    0.390414;    0.245155;    0.254331;    0.265270;    0.271976;    0.279056;    0.284229;    0.289277;    0.291331;    0.287252;    0.289892;    0.286670;    0.280796;    0.276562;    0.268971;    0.263751;
 68;    0.999399;    0.996017;    0.655467;    0.404023;    0.241790;    0.254177;    0.261832;    0.271604;    0.278440;    0.283368;    0.289539;    0.292954;    0.293441;    0.296122;    0.291885;    0.284687;    0.276796;    0.265883;    0.256236;
 69;    1.006819;    0.985354;    0.670445;    0.417186;    0.243324;    0.253622;    0.264772;    0.273190;    0.278704;    0.286088;    0.289809;    0.292851;    0.293481;    0.290195;    0.289709;    0.286374;    0.280880;    0.270708;    0.258100;
 70;    1.003083;    1.023942;    0.685944;    0.399418;    0.243603;    0.254235;    0.263910;    0.273115;    0.280037;    0.288906;    0.291914;    0.296309;    0.293855;    0.294537;    0.296719;    0.289264;    0.278221;    0.269406;    0.262702;
 71;    1.000608;    0.995966;    0.648730;    0.396753;    0.239815;    0.250771;    0.260752;    0.264893;    0.269630;    0.276622;    0.283353;    0.286867;    0.286356;    0.288255;    0.284432;    0.280562;    0.274671;    0.266988;    0.257986;
 72;    1.001404;    0.995937;    0.641429;    0.400229;    0.241966;    0.253082;    0.265173;    0.275111;    0.282134;    0.286465;    0.291516;    0.291581;    0.287869;    0.289100;    0.287530;    0.282818;    0.273180;    0.265304;    0.258258;
 73;    0.994315;    1.033719;    0.674059;    0.415980;    0.245576;    0.257784;    0.269552;    0.278118;    0.284760;    0.284808;    0.291099;    0.293558;    0.295847;    0.290194;    0.293705;    0.290633;    0.280018;    0.271297;    0.265098;
 74;    0.998014;    1.023410;    0.660921;    0.423636;    0.240260;    0.250784;    0.263654;    0.272865;    0.276479;    0.281926;    0.282429;    0.286980;    0.289525;    0.292315;    0.295234;    0.290331;    0.279733;    0.268840;    0.253287;
 75;    1.000568;    1.025180;    0.689628;    0.404181;    0.234264;    0.245414;    0.255199;    0.262736;    0.270898;    0.272837;    0.279004;    0.281662;    0.277438;    0.276145;    0.277046;    0.275936;    0.274873;    0.265160;    0.251136;
 76;    0.998141;    1.012041;    0.649477;    0.394233;    0.239614;    0.251573;    0.260650;    0.267463;    0.276997;    0.282204;    0.281913;    0.284450;    0.290535;    0.291434;    0.291712;    0.288036;    0.282681;    0.268681;    0.253687;
 77;    1.002723;    0.975416;    0.649136;    0.389089;    0.234331;    0.247291;    0.252755;    0.259148;    0.264454;    0.270766;    0.276408;    0.282009;    0.281895;    0.280662;    0.273974;    0.269767;    0.264963;    0.256805;    0.250338;
 78;    1.002007;    0.999147;    0.680748;    0.412918;    0.239464;    0.249220;    0.262523;    0.272855;    0.279386;    0.284562;    0.287349;    0.290686;    0.291425;    0.287071;    0.283104;    0.277341;    0.271525;    0.266094;    0.254623;
 79;    0.994003;    1.003841;    0.660572;    0.399191;    0.242890;    0.252417;    0.260772;    0.267590;    0.274780;    0.281591;    0.288028;    0.285911;    0.291031;    0.292410;    0.286953;    0.282128;    0.276824;    0.267248;    0.258002;
 80;    1.008864;    1.009466;    0.662930;    0.402032;    0.231721;    0.241264;    0.252797;    0.260983;    0.266380;    0.271416;    0.273621;    0.277904;    0.275753;    0.273988;    0.273328;    0.265533;    0.260293;    0.252400;    0.246362;
 81;    1.001150;    0.980739;    0.646803;    0.404621;    0.237538;    0.249131;    0.256252;    0.262983;    0.270467;    0.275360;    0.283846;    0.288702;    0.287576;    0.283884;    0.280373;    0.278497;    0.272818;    0.270586;    0.256897;
 82;    1.007053;    0.987038;    0.647431;    0.397222;    0.235668;    0.244977;    0.254252;    0.264417;    0.271850;    0.277904;    0.282598;    0.283464;    0.281200;    0.282457;    0.280379;    0.273742;    0.271793;    0.265186;    0.254728;
 83;    1.001643;    0.952355;    0.638791;    0.392064;    0.239156;    0.248605;    0.258796;    0.266953;    0.275532;    0.282036;    0.286911;    0.288856;    0.286899;    0.289893;    0.289470;    0.281459;    0.270517;    0.266570;    0.258841;
 84;    1.001084;    0.984238;    0.682674;    0.418277;    0.242670;    0.255182;    0.262544;    0.270598;    0.276488;    0.283219;    0.291066;    0.295019;    0.296821;    0.296881;    0.290015;    0.279389;    0.274015;    0.264187;    0.254987;
 85;    1.004249;    0.988347;    0.665625;    0.406034;    0.242860;    0.253171;    0.263851;    0.273419;    0.277820;    0.286028;    0.291662;    0.294280;    0.289240;    0.291517;    0.291828;    0.285693;    0.280402;    0.266387;    0.256993;
 86;    1.003296;    1.038721;    0.675518;    0.405192;    0.239781;    0.249245;    0.260450;    0.267189;    0.271336;    0.278627;    0.280514;    0.282745;    0.288507;    0.287271;    0.281114;    0.276975;    0.277320;    0.268280;    0.252862;
 87;    0.998969;    1.007815;    0.657521;    0.398343;    0.239926;    0.250586;    0.258969;    0.264179;    0.271348;    0.277495;    0.281791;    0.284605;    0.282996;    0.284596;    0.281103;    0.274804;    0.273562;    0.267119;    0.255378;
 88;    1.510289;    1.047160;    0.683957;    0.415416;    0.235428;    0.248040;    0.257072;    0.262904;    0.268304;    0.273755;    0.277556;    0.281862;    0.281960;    0.283404;    0.280913;    0.268686;    0.267442;    0.260820;    0.251450;
 89;    1.005720;    1.023459;    0.679962;    0.423203;    0.239669;    0.249855;    0.258679;    0.266140;    0.271606;    0.278377;    0.280203;    0.287348;    0.287960;    0.281833;    0.283596;    0.275399;    0.267653;    0.260161;    0.251072;
 90;    0.999429;    0.990669;    0.665006;    0.399701;    0.244081;    0.253072;    0.264082;    0.271186;    0.280284;    0.287185;    0.288935;    0.290659;    0.295684;    0.298561;    0.296268;    0.286650;    0.278930;    0.272883;    0.262626;
 91;    1.003972;    1.030371;    0.681114;    0.407091;    0.239429;    0.248981;    0.257844;    0.268040;    0.273101;    0.282871;    0.286100;    0.284087;    0.286987;    0.289200;    0.285500;    0.282683;    0.275149;    0.270273;    0.253688;
 92;    0.999536;    1.000896;    0.662498;    0.417618;    0.240903;    0.249318;    0.259678;    0.268061;    0.274430;    0.282194;    0.285980;    0.288068;    0.286105;    0.284875;    0.287039;    0.283062;    0.271226;    0.261124;    0.256872;
 93;    1.007297;    1.001397;    0.664858;    0.413916;    0.243217;    0.253463;    0.263727;    0.273524;    0.279910;    0.286799;    0.287572;    0.290571;    0.296626;    0.298912;    0.296737;    0.292013;    0.282227;    0.265983;    0.258195;
 94;    1.002089;    1.002628;    0.661856;    0.390684;    0.237127;    0.246217;    0.255659;    0.262737;    0.269829;    0.272598;    0.275162;    0.279274;    0.279197;    0.283066;    0.280536;    0.273611;    0.266597;    0.264341;    0.249392;
 95;    1.003248;    1.019391;    0.665283;    0.407015;    0.242473;    0.252765;    0.265547;    0.273758;    0.278965;    0.283887;    0.288537;    0.288838;    0.293085;    0.294427;    0.290157;    0.286778;    0.277082;    0.264912;    0.255816;
 96;    1.004404;    1.027296;    0.668287;    0.402695;    0.237779;    0.245898;    0.257794;    0.269505;    0.278746;    0.283754;    0.288559;    0.290975;    0.290103;    0.282736;    0.284838;    0.279823;    0.275959;    0.269508;    0.254755;
 97;    0.997176;    1.011579;    0.690462;    0.424832;    0.246776;    0.259077;    0.266177;    0.271604;    0.282948;    0.290598;    0.297239;    0.299311;    0.298206;    0.293600;    0.291612;    0.288555;    0.279060;    0.272867;    0.261136;
 98;    0.999714;    1.017448;    0.683640;    0.414067;    0.240757;    0.250063;    0.258499;    0.267725;    0.278578;    0.286863;    0.289993;    0.288700;    0.292341;    0.295598;    0.291847;    0.282399;    0.273238;    0.269774;    0.257629;
 99;    1.013007;    1.012049;    0.653399;    0.405056;    0.240737;    0.249666;    0.260180;    0.271034;    0.273633;    0.279767;    0.285669;    0.288650;    0.289840;    0.288740;    0.288693;    0.287103;    0.280747;    0.272644;    0.260012;
100;    0.991987;    0.991016;    0.645831;    0.406248;    0.240378;    0.251874;    0.263090;    0.270862;    0.278344;    0.282732;    0.286512;    0.287491;    0.290558;    0.289877;    0.286520;    0.279647;    0.276977;    0.270565;    0.255210;
