Simulation;Time;PC 0;PC 1;PC 2;PC 3;PC 4;PC 5;PC 6;PC 7;PC 8;PC 9;PC10;PC11;PC12;PC13;PC14;PC15;PC16;PC17;
Nan;Nan;1;0;0;0;0;0;0;0;0;0;0;0;0;0;0;0;0;0;
  0;    1.004155;    0.983920;    1.029304;    1.076909;    1.110533;    1.144778;    1.185845;    1.225940;    1.245017;    1.258912;    1.267174;    1.251205;    1.249569;    1.226880;    1.210871;    1.167297;    1.147705;    1.100914;    1.055991;
  1;    1.005139;    1.006621;    1.053560;    1.092344;    1.136959;    1.183037;    1.216065;    1.227077;    1.252570;    1.272804;    1.288074;    1.283553;    1.267536;    1.270991;    1.255581;    1.246188;    1.189081;    1.165408;    1.095325;
  2;    1.003576;    1.012857;    1.071126;    1.120493;    1.160252;    1.204495;    1.237579;    1.257464;    1.267244;    1.276312;    1.270494;    1.249668;    1.253343;    1.251655;    1.244592;    1.243613;    1.212635;    1.152491;    1.087656;
  3;    1.009970;    1.010451;    1.064243;    1.111218;    1.151425;    1.199083;    1.215678;    1.240596;    1.252387;    1.269911;    1.278994;    1.291541;    1.292249;    1.292554;    1.265865;    1.242234;    1.225018;    1.177612;    1.114442;
  4;    0.999325;    1.025388;    1.076104;    1.127609;    1.177036;    1.200685;    1.225050;    1.252969;    1.279713;    1.305262;    1.297383;    1.314423;    1.325388;    1.322056;    1.293850;    1.266835;    1.218179;    1.162426;    1.112062;
  5;    1.043850;    1.002971;    1.051988;    1.096846;    1.131807;    1.165938;    1.211110;    1.241246;    1.261710;    1.289719;    1.295545;    1.290773;    1.296766;    1.281505;    1.271435;    1.235535;    1.193214;    1.157449;    1.092525;
  6;    1.041700;    1.003945;    1.063120;    1.107499;    1.139954;    1.175855;    1.211444;    1.233449;    1.253845;    1.279632;    1.297081;    1.307618;    1.289805;    1.269741;    1.260756;    1.230243;    1.181900;    1.153201;    1.078424;
  7;    1.003899;    1.004513;    1.046815;    1.106661;    1.145051;    1.183201;    1.215516;    1.225788;    1.248122;    1.261872;    1.282278;    1.273420;    1.282474;    1.274626;    1.256334;    1.222695;    1.182999;    1.162451;    1.116006;
  8;    1.000298;    0.985122;    1.041260;    1.092934;    1.130234;    1.154232;    1.196630;    1.223404;    1.250006;    1.262245;    1.256003;    1.265963;    1.273645;    1.269552;    1.231636;    1.211450;    1.177221;    1.112956;    1.060447;
  9;    0.998638;    1.011411;    1.068692;    1.114667;    1.145814;    1.193800;    1.235896;    1.258073;    1.298267;    1.313653;    1.328469;    1.316764;    1.320633;    1.302162;    1.302801;    1.273664;    1.242219;    1.191588;    1.131853;
 10;    0.995710;    1.015874;    1.063558;    1.119972;    1.169711;    1.197787;    1.226254;    1.266056;    1.278535;    1.294859;    1.315252;    1.320140;    1.299045;    1.297774;    1.265761;    1.246104;    1.221266;    1.187994;    1.113580;
 11;    1.000013;    1.013237;    1.054043;    1.097430;    1.147275;    1.180468;    1.206395;    1.243558;    1.269826;    1.291929;    1.309508;    1.315673;    1.301070;    1.292206;    1.255471;    1.235823;    1.196361;    1.154554;    1.108251;
 12;    1.034118;    0.993908;    1.043807;    1.087247;    1.137958;    1.169906;    1.182131;    1.205665;    1.222595;    1.228893;    1.243497;    1.271911;    1.278068;    1.271621;    1.250885;    1.203291;    1.159657;    1.139117;    1.078408;
 13;    1.006313;    1.001336;    1.052302;    1.095171;    1.139433;    1.183750;    1.214842;    1.239045;    1.252471;    1.272769;    1.284452;    1.283708;    1.274531;    1.290286;    1.291956;    1.261252;    1.212005;    1.139475;    1.077771;
 14;    1.004541;    0.986449;    1.037667;    1.083629;    1.121856;    1.160242;    1.180448;    1.213227;    1.238551;    1.252532;    1.270481;    1.260875;    1.261155;    1.263312;    1.257448;    1.215841;    1.158155;    1.121898;    1.070340;
 15;    1.026021;    0.983399;    1.039034;    1.089696;    1.118071;    1.160918;    1.192986;    1.200328;    1.223731;    1.228594;    1.240334;    1.253919;    1.250259;    1.225243;    1.207307;    1.175389;    1.151963;    1.124590;    1.064578;
 16;    1.002747;    1.022170;    1.075172;    1.125938;    1.163301;    1.195318;    1.225516;    1.248208;    1.259645;    1.293118;    1.312483;    1.320644;    1.305303;    1.299279;    1.277985;    1.259463;    1.214912;    1.179124;    1.104475;
 17;    1.003169;    0.986771;    1.030030;    1.077790;    1.111389;    1.144312;    1.170136;    1.206586;    1.220051;    1.240806;    1.262986;    1.261472;    1.259564;    1.236129;    1.207240;    1.169211;    1.149964;    1.121408;    1.071685;
 18;    1.001004;    0.992159;    1.037462;    1.087266;    1.138768;    1.180556;    1.199946;    1.230927;    1.256025;    1.254800;    1.274356;    1.276966;    1.276031;    1.279194;    1.255691;    1.215661;    1.182747;    1.129286;    1.075277;
 19;    0.995515;    0.989998;    1.047902;    1.089785;    1.142546;    1.170770;    1.218932;    1.252339;    1.277305;    1.292354;    1.297741;    1.290898;    1.287194;    1.274464;    1.227858;    1.211793;    1.183384;    1.148028;    1.087297;
 20;    0.998262;    1.008482;    1.061624;    1.124471;    1.172143;    1.212116;    1.242639;    1.257066;    1.271998;    1.303132;    1.317506;    1.323340;    1.304670;    1.282719;    1.284862;    1.257653;    1.201133;    1.156496;    1.102093;
 21;    1.006656;    1.011182;    1.054765;    1.107204;    1.150800;    1.187678;    1.207882;    1.228564;    1.263526;    1.277168;    1.283397;    1.281420;    1.281021;    1.270811;    1.259420;    1.239289;    1.191584;    1.168376;    1.105965;
 22;    1.000285;    1.012118;    1.069962;    1.114863;    1.155567;    1.184015;    1.208177;    1.226510;    1.255559;    1.274891;    1.289821;    1.303122;    1.303633;    1.285180;    1.274285;    1.254465;    1.229074;    1.161077;    1.089111;
 23;    1.000864;    1.009118;    1.056778;    1.098499;    1.154425;    1.194367;    1.225662;    1.260672;    1.285393;    1.300261;    1.305587;    1.294424;    1.282968;    1.286281;    1.281342;    1.247275;    1.196196;    1.167414;    1.095069;
 24;    0.998533;    1.009146;    1.065347;    1.115834;    1.157272;    1.186200;    1.227492;    1.237442;    1.256961;    1.265743;    1.287993;    1.296640;    1.267729;    1.266276;    1.244233;    1.240761;    1.231592;    1.190455;    1.133110;
 25;    1.008163;    0.989749;    1.043585;    1.078991;    1.125901;    1.165731;    1.198766;    1.223557;    1.232021;    1.233923;    1.249514;    1.236763;    1.235213;    1.234340;    1.210624;    1.189509;    1.172721;    1.125017;    1.053844;
 26;    1.004164;    1.023070;    1.070072;    1.116538;    1.161177;    1.206726;    1.231440;    1.252356;    1.287530;    1.313969;    1.314792;    1.310014;    1.274679;    1.273476;    1.253713;    1.226148;    1.215931;    1.180809;    1.121707;
 27;    0.994015;    1.003677;    1.062806;    1.111548;    1.153668;    1.195141;    1.226796;    1.246311;    1.273912;    1.288395;    1.288761;    1.290960;    1.287545;    1.249295;    1.244753;    1.227167;    1.188781;    1.124350;    1.091472;
 28;    1.004862;    1.001676;    1.050458;    1.096184;    1.140632;    1.178680;    1.213562;    1.237746;    1.257020;    1.271349;    1.263609;    1.285228;    1.274924;    1.275815;    1.258311;    1.236866;    1.193156;    1.147082;    1.083893;
 29;    1.013873;    1.000205;    1.055089;    1.093352;    1.136123;    1.179792;    1.215737;    1.237349;    1.266322;    1.291457;    1.295478;    1.292217;    1.289617;    1.266231;    1.246085;    1.230450;    1.175689;    1.114126;    1.071346;
 30;    0.999829;    1.011843;    1.059448;    1.115071;    1.154719;    1.186847;    1.213077;    1.229660;    1.255451;    1.269267;    1.283041;    1.301080;    1.289406;    1.291727;    1.282008;    1.267830;    1.215513;    1.149834;    1.106932;
 31;    1.000706;    1.009087;    1.060739;    1.119380;    1.167409;    1.197799;    1.241130;    1.257557;    1.259116;    1.268614;    1.293459;    1.303834;    1.295111;    1.274660;    1.250733;    1.218224;    1.191201;    1.165408;    1.114212;
 32;    1.005095;    1.002024;    1.047885;    1.086936;    1.130687;    1.175453;    1.206637;    1.236204;    1.256466;    1.265044;    1.277319;    1.286525;    1.278477;    1.279912;    1.263007;    1.220834;    1.156122;    1.118901;    1.078816;
 33;    1.008541;    0.987718;    1.032687;    1.087234;    1.129697;    1.174504;    1.209413;    1.221429;    1.239692;    1.248079;    1.266424;    1.264187;    1.264789;    1.263227;    1.262759;    1.238973;    1.176761;    1.121363;    1.077462;
 34;    1.001897;    1.021449;    1.069829;    1.118960;    1.168635;    1.199065;    1.234515;    1.249532;    1.271507;    1.276390;    1.275134;    1.294603;    1.292827;    1.286147;    1.267712;    1.268613;    1.236074;    1.190192;    1.117928;
 35;    1.001390;    1.001919;    1.046710;    1.097244;    1.147965;    1.180596;    1.211798;    1.244973;    1.259255;    1.277244;    1.290933;    1.273079;    1.282962;    1.270358;    1.271704;    1.240657;    1.214830;    1.152519;    1.112495;
 36;    1.004940;    0.991940;    1.048391;    1.087041;    1.133149;    1.163313;    1.197934;    1.229043;    1.259685;    1.271323;    1.290989;    1.295385;    1.293009;    1.281254;    1.273170;    1.252207;    1.205511;    1.120080;    1.072219;
 37;    1.099561;    0.995967;    1.044463;    1.086023;    1.128404;    1.160651;    1.193519;    1.235563;    1.255143;    1.276378;    1.297532;    1.279008;    1.275814;    1.275541;    1.244032;    1.204797;    1.179096;    1.150074;    1.083410;
 38;    1.002164;    1.000581;    1.044461;    1.084989;    1.123399;    1.158474;    1.201368;    1.237787;    1.277226;    1.294151;    1.301305;    1.302913;    1.288433;    1.253841;    1.245068;    1.249325;    1.212965;    1.147456;    1.076109;
 39;    1.003610;    0.990008;    1.038904;    1.091796;    1.130975;    1.159378;    1.186715;    1.219921;    1.241045;    1.260476;    1.267327;    1.249559;    1.264374;    1.255386;    1.246962;    1.216586;    1.187245;    1.118892;    1.069646;
 40;    0.997289;    1.001107;    1.048737;    1.099527;    1.127154;    1.166279;    1.194107;    1.230804;    1.253043;    1.254117;    1.253606;    1.268235;    1.260616;    1.269026;    1.249051;    1.226975;    1.170591;    1.129806;    1.095051;
 41;    1.002472;    0.995597;    1.044656;    1.089427;    1.126253;    1.170555;    1.207295;    1.243843;    1.269837;    1.275095;    1.273582;    1.275159;    1.285693;    1.278393;    1.235585;    1.225182;    1.175953;    1.155061;    1.070620;
 42;    1.009217;    1.000753;    1.054647;    1.094760;    1.127692;    1.172331;    1.197039;    1.219378;    1.235875;    1.256322;    1.269815;    1.266362;    1.269764;    1.256416;    1.238660;    1.224162;    1.196879;    1.157146;    1.094497;
 43;    1.005385;    1.002830;    1.056847;    1.107135;    1.142017;    1.180815;    1.212815;    1.251390;    1.272551;    1.286148;    1.282035;    1.283012;    1.280503;    1.252118;    1.232465;    1.192709;    1.172447;    1.153414;    1.107836;
 44;    1.017864;    1.009175;    1.059589;    1.108084;    1.152643;    1.181015;    1.232103;    1.267513;    1.286445;    1.301524;    1.303056;    1.292916;    1.301655;    1.277900;    1.264875;    1.229338;    1.198973;    1.154023;    1.112818;
 45;    1.004109;    0.994915;    1.035991;    1.089408;    1.130198;    1.163074;    1.189693;    1.208382;    1.238209;    1.245836;    1.276718;    1.287917;    1.274631;    1.272769;    1.266220;    1.245691;    1.202815;    1.137204;    1.060457;
 46;    1.002116;    0.995989;    1.045028;    1.095962;    1.135047;    1.166991;    1.212992;    1.247733;    1.271711;    1.284643;    1.290637;    1.275572;    1.266652;    1.261330;    1.237872;    1.202633;    1.179530;    1.138591;    1.094845;
 47;    1.004887;    1.023553;    1.078834;    1.127707;    1.179442;    1.216229;    1.248713;    1.269367;    1.298603;    1.316971;    1.327782;    1.325508;    1.310183;    1.305046;    1.272011;    1.240502;    1.199729;    1.157750;    1.123933;
 48;    1.003229;    1.001549;    1.056449;    1.109629;    1.144864;    1.177911;    1.212375;    1.250223;    1.266969;    1.288988;    1.307047;    1.308839;    1.300920;    1.298966;    1.273665;    1.228657;    1.191305;    1.162513;    1.099893;
 49;    0.999641;    1.001173;    1.047063;    1.098824;    1.142144;    1.176050;    1.205604;    1.218892;    1.231505;    1.246806;    1.245588;    1.248248;    1.246819;    1.249747;    1.235231;    1.203385;    1.176035;    1.110046;    1.070844;
 50;    1.005933;    0.995979;    1.044549;    1.094490;    1.143961;    1.179378;    1.201566;    1.235778;    1.262535;    1.277810;    1.299352;    1.311418;    1.303331;    1.276360;    1.237493;    1.211024;    1.164431;    1.132202;    1.086384;
 51;    1.006474;    1.008651;    1.064373;    1.103823;    1.144957;    1.177980;    1.217174;    1.247321;    1.268090;    1.281908;    1.291611;    1.277511;    1.272792;    1.266454;    1.254701;    1.234005;    1.201680;    1.134407;    1.083291;
 52;    1.005151;    0.990948;    1.037494;    1.086360;    1.134061;    1.165532;    1.212904;    1.246467;    1.261433;    1.273511;    1.264979;    1.278893;    1.264253;    1.267467;    1.235805;    1.190998;    1.176493;    1.119086;    1.066425;
 53;    1.002533;    0.994547;    1.041402;    1.086593;    1.133450;    1.170313;    1.208112;    1.234066;    1.247338;    1.259863;    1.281504;    1.263454;    1.269756;    1.265250;    1.249881;    1.209292;    1.176734;    1.130481;    1.068718;
 54;    1.004167;    1.001134;    1.044508;    1.095562;    1.141301;    1.169682;    1.197463;    1.220707;    1.244346;    1.258779;    1.270092;    1.269647;    1.257588;    1.253165;    1.252120;    1.224517;    1.157442;    1.116292;    1.092170;
 55;    1.004153;    0.985561;    1.041551;    1.077169;    1.118813;    1.163562;    1.196403;    1.204918;    1.235687;    1.251640;    1.252046;    1.269210;    1.258667;    1.249122;    1.245005;    1.222968;    1.175784;    1.135086;    1.071312;
 56;    1.007073;    0.998393;    1.044107;    1.087066;    1.132250;    1.168363;    1.202304;    1.223637;    1.237015;    1.249426;    1.272012;    1.275196;    1.248489;    1.245928;    1.222385;    1.204955;    1.162747;    1.128675;    1.092222;
 57;    1.002899;    1.017903;    1.068334;    1.112607;    1.158773;    1.195151;    1.225727;    1.252339;    1.277394;    1.300523;    1.309739;    1.301397;    1.295872;    1.283978;    1.269113;    1.234005;    1.221322;    1.171349;    1.119561;
 58;    1.001536;    1.004917;    1.056873;    1.103011;    1.143218;    1.196321;    1.234198;    1.256839;    1.295279;    1.308792;    1.310915;    1.324162;    1.314469;    1.310319;    1.297728;    1.278192;    1.225366;    1.167653;    1.103777;
 59;    1.003114;    0.993306;    1.039489;    1.091846;    1.133975;    1.175492;    1.204817;    1.212863;    1.231085;    1.250499;    1.258258;    1.265025;    1.259457;    1.250475;    1.224911;    1.193351;    1.186157;    1.133147;    1.094682;
 60;    1.002556;    0.999545;    1.058603;    1.110204;    1.156571;    1.182568;    1.219940;    1.249044;    1.271590;    1.277888;    1.289859;    1.307123;    1.310071;    1.295799;    1.266855;    1.248774;    1.206210;    1.152502;    1.093722;
 61;    1.003241;    1.011501;    1.060120;    1.107417;    1.145825;    1.187011;    1.222628;    1.239698;    1.262983;    1.282363;    1.287128;    1.288530;    1.269301;    1.286506;    1.285063;    1.246841;    1.219139;    1.155946;    1.093839;
 62;    1.002168;    0.989013;    1.031737;    1.074321;    1.117683;    1.158092;    1.195230;    1.219711;    1.241187;    1.233003;    1.259357;    1.266465;    1.248175;    1.244337;    1.210548;    1.189814;    1.143006;    1.105961;    1.057268;
 63;    1.014291;    0.997849;    1.045594;    1.084182;    1.123038;    1.155458;    1.191607;    1.225061;    1.252946;    1.262637;    1.268054;    1.269815;    1.255639;    1.257718;    1.236969;    1.227691;    1.210826;    1.169295;    1.105932;
 64;    1.010206;    1.011285;    1.063262;    1.106767;    1.153738;    1.199416;    1.230623;    1.253056;    1.290734;    1.309369;    1.307667;    1.311065;    1.308814;    1.297206;    1.277905;    1.240212;    1.224207;    1.180251;    1.122790;
 65;    1.003420;    0.984698;    1.043324;    1.083708;    1.119981;    1.168446;    1.208375;    1.238688;    1.249434;    1.259512;    1.251055;    1.256136;    1.274688;    1.269336;    1.248188;    1.206337;    1.178827;    1.112169;    1.052275;
 66;    1.005456;    0.994965;    1.038455;    1.089083;    1.122113;    1.167711;    1.202149;    1.224918;    1.246025;    1.253403;    1.267804;    1.274183;    1.270510;    1.260237;    1.227548;    1.200259;    1.176786;    1.136116;    1.105486;
 67;    1.004645;    1.004804;    1.051418;    1.094205;    1.136217;    1.181091;    1.215231;    1.220091;    1.248164;    1.258823;    1.262784;    1.287906;    1.286369;    1.250941;    1.214066;    1.213386;    1.184651;    1.129048;    1.089463;
 68;    1.002878;    1.003615;    1.062575;    1.100905;    1.154642;    1.191554;    1.212306;    1.247660;    1.279305;    1.297920;    1.311243;    1.306087;    1.296064;    1.279912;    1.277147;    1.248321;    1.188316;    1.126251;    1.096083;
 69;    1.004727;    1.007999;    1.056388;    1.099315;    1.151255;    1.195156;    1.235927;    1.269698;    1.291860;    1.310406;    1.304027;    1.292056;    1.282577;    1.270892;    1.263489;    1.238308;    1.206903;    1.152682;    1.095682;
 70;    1.012357;    1.013415;    1.065145;    1.108942;    1.147441;    1.185723;    1.221679;    1.245328;    1.280598;    1.300360;    1.286700;    1.292981;    1.298177;    1.274823;    1.268065;    1.231094;    1.185379;    1.145794;    1.114834;
 71;    1.006176;    0.996280;    1.047556;    1.092121;    1.122860;    1.159799;    1.186778;    1.222128;    1.244435;    1.246861;    1.273011;    1.266572;    1.272575;    1.255111;    1.234999;    1.213290;    1.175550;    1.134860;    1.083600;
 72;    1.009840;    1.001906;    1.052559;    1.103880;    1.154216;    1.195542;    1.220659;    1.254556;    1.274922;    1.279248;    1.299521;    1.300949;    1.310254;    1.294112;    1.247893;    1.213492;    1.183681;    1.133188;    1.099795;
 73;    0.999510;    1.022346;    1.077703;    1.124793;    1.171263;    1.211217;    1.236044;    1.272569;    1.291336;    1.315677;    1.336293;    1.346434;    1.329651;    1.287497;    1.289087;    1.268117;    1.213739;    1.167393;    1.115550;
 74;    1.006406;    1.004360;    1.048565;    1.096514;    1.139462;    1.178201;    1.225445;    1.256146;    1.262734;    1.258726;    1.280634;    1.280275;    1.298864;    1.296501;    1.270416;    1.239109;    1.198438;    1.161942;    1.080259;
 75;    1.003892;    0.982056;    1.031954;    1.080173;    1.113655;    1.152840;    1.192946;    1.229570;    1.244744;    1.252562;    1.250243;    1.265233;    1.252346;    1.255836;    1.237306;    1.216672;    1.203464;    1.137198;    1.085332;
 76;    1.225050;    0.996316;    1.050844;    1.100148;    1.142074;    1.183112;    1.210242;    1.245876;    1.247158;    1.248818;    1.262294;    1.285204;    1.287473;    1.276152;    1.256445;    1.217345;    1.165288;    1.144984;    1.091189;
 77;    0.995666;    0.972707;    1.022568;    1.065511;    1.100445;    1.136448;    1.163269;    1.185477;    1.201126;    1.238815;    1.257333;    1.251596;    1.237757;    1.222472;    1.197948;    1.187963;    1.148419;    1.111098;    1.051494;
 78;    1.002642;    0.997705;    1.041037;    1.086855;    1.132295;    1.182344;    1.222807;    1.246684;    1.261331;    1.283173;    1.291680;    1.286661;    1.267403;    1.231133;    1.218259;    1.207635;    1.173422;    1.149064;    1.085594;
 79;    1.002101;    1.007037;    1.054661;    1.103636;    1.132115;    1.178953;    1.210566;    1.246857;    1.265977;    1.277599;    1.278196;    1.278064;    1.274962;    1.283615;    1.272388;    1.224139;    1.175434;    1.126680;    1.100794;
 80;    1.004264;    0.971886;    1.019641;    1.069983;    1.116023;    1.159288;    1.185924;    1.217397;    1.230343;    1.225845;    1.248508;    1.245496;    1.220893;    1.221152;    1.188431;    1.162145;    1.127296;    1.088762;    1.053631;
 81;    1.004359;    0.985285;    1.031423;    1.075136;    1.109288;    1.151340;    1.178506;    1.200637;    1.228530;    1.258610;    1.282131;    1.285680;    1.272466;    1.254074;    1.224364;    1.208174;    1.185491;    1.159392;    1.099987;
 82;    1.003468;    0.978621;    1.024800;    1.073410;    1.119190;    1.156660;    1.186866;    1.222222;    1.249303;    1.263344;    1.279586;    1.281519;    1.276781;    1.255453;    1.228564;    1.201320;    1.199050;    1.155899;    1.088137;
 83;    0.999399;    0.985448;    1.031481;    1.086614;    1.120086;    1.165121;    1.204906;    1.231895;    1.243781;    1.264671;    1.256154;    1.267112;    1.270843;    1.264744;    1.231737;    1.216274;    1.162226;    1.132920;    1.083519;
 84;    1.002702;    1.004385;    1.065401;    1.099780;    1.136406;    1.170879;    1.197568;    1.239399;    1.266741;    1.290095;    1.303907;    1.313041;    1.301152;    1.258242;    1.234883;    1.211721;    1.190208;    1.134096;    1.079904;
 85;    1.007686;    1.005414;    1.054280;    1.111951;    1.154667;    1.187064;    1.224908;    1.240239;    1.265870;    1.290264;    1.297493;    1.303069;    1.288652;    1.273813;    1.272225;    1.229363;    1.210473;    1.150539;    1.092587;
 86;    1.004184;    1.002698;    1.048017;    1.097720;    1.132676;    1.164374;    1.194633;    1.213579;    1.238015;    1.254671;    1.259740;    1.275434;    1.264806;    1.268359;    1.237265;    1.229719;    1.202732;    1.141742;    1.078324;
 87;    1.005011;    0.998260;    1.048962;    1.096706;    1.128222;    1.162554;    1.202589;    1.235666;    1.255233;    1.255748;    1.251892;    1.266868;    1.275057;    1.265306;    1.221424;    1.197073;    1.171751;    1.137194;    1.097452;
 88;    1.004449;    0.991081;    1.034421;    1.089077;    1.132931;    1.169661;    1.186485;    1.227396;    1.250034;    1.268798;    1.286294;    1.288015;    1.266469;    1.265136;    1.225930;    1.173620;    1.159310;    1.128165;    1.080501;
 89;    1.002091;    1.002634;    1.052636;    1.098452;    1.142046;    1.178292;    1.200211;    1.237183;    1.250479;    1.252814;    1.271587;    1.274020;    1.271624;    1.255350;    1.228785;    1.194924;    1.147437;    1.117344;    1.077584;
 90;    1.000691;    1.008765;    1.059469;    1.103718;    1.145678;    1.191725;    1.227990;    1.252372;    1.288278;    1.302981;    1.308191;    1.304861;    1.305973;    1.289227;    1.256093;    1.237303;    1.187860;    1.143873;    1.110858;
 91;    0.994943;    1.000990;    1.051879;    1.083087;    1.127654;    1.178588;    1.210414;    1.215509;    1.251072;    1.271903;    1.269569;    1.264716;    1.284030;    1.274187;    1.244008;    1.236893;    1.198207;    1.150259;    1.064442;
 92;    1.006284;    1.000216;    1.048625;    1.097159;    1.140719;    1.176271;    1.210583;    1.252516;    1.281835;    1.293173;    1.287080;    1.282854;    1.275872;    1.252639;    1.235176;    1.202874;    1.168568;    1.115620;    1.087870;
 93;    1.002785;    1.009072;    1.059739;    1.104013;    1.153589;    1.196495;    1.221367;    1.230279;    1.253784;    1.274226;    1.307411;    1.324606;    1.321924;    1.312764;    1.289187;    1.262176;    1.194026;    1.142218;    1.098700;
 94;    1.006168;    0.987655;    1.038158;    1.078587;    1.121419;    1.153476;    1.183262;    1.210682;    1.234365;    1.237689;    1.250433;    1.242209;    1.248247;    1.225439;    1.226078;    1.211721;    1.170756;    1.132936;    1.067020;
 95;    1.007457;    1.008396;    1.059947;    1.109099;    1.155674;    1.198606;    1.236579;    1.264990;    1.281314;    1.283803;    1.277953;    1.293645;    1.298015;    1.300066;    1.276190;    1.249588;    1.202107;    1.130086;    1.090805;
 96;    0.998990;    0.994639;    1.042991;    1.081076;    1.137116;    1.175187;    1.221687;    1.251482;    1.274193;    1.283861;    1.302916;    1.304959;    1.289825;    1.252808;    1.235102;    1.199091;    1.179631;    1.137940;    1.102306;
 97;    1.007284;    1.026555;    1.082318;    1.119796;    1.150612;    1.186338;    1.226786;    1.269202;    1.298144;    1.310192;    1.321332;    1.314258;    1.278265;    1.282178;    1.281232;    1.244588;    1.207914;    1.187494;    1.133823;
 98;    1.007732;    1.003174;    1.048772;    1.103371;    1.143043;    1.176219;    1.210218;    1.246190;    1.272105;    1.279378;    1.299197;    1.301688;    1.288790;    1.258386;    1.259774;    1.221202;    1.216182;    1.176127;    1.112010;
 99;    1.002782;    1.000010;    1.040050;    1.080590;    1.137397;    1.177770;    1.206084;    1.239304;    1.253108;    1.274937;    1.269771;    1.283028;    1.276492;    1.277261;    1.275280;    1.260564;    1.215612;    1.160604;    1.095049;
100;    1.011628;    0.995305;    1.043634;    1.096589;    1.142580;    1.186227;    1.216391;    1.242420;    1.239347;    1.258546;    1.276329;    1.273367;    1.278122;    1.286805;    1.262598;    1.216361;    1.186005;    1.139617;    1.093628;
