Simulation;Time;PC 0;PC 1;PC 2;PC 3;PC 4;PC 5;PC 6;PC 7;PC 8;PC 9;PC10;PC11;PC12;PC13;PC14;PC15;PC16;PC17;
Nan;Nan;0;0;0;0;0;0;0;0;0;0;0;0;0;1;0;0;0;0;
  0;    0.022965;    0.254401;    0.239708;    0.226688;    0.225499;    0.224439;    0.223223;    0.221007;    0.218471;    0.215787;    0.215737;    0.214878;    0.213944;    0.212824;    0.211427;    0.211407;    0.211495;    0.211449;    0.211470;
  1;    0.023810;    0.257420;    0.242986;    0.228722;    0.228043;    0.226735;    0.224840;    0.223088;    0.221209;    0.218545;    0.217965;    0.217524;    0.216644;    0.215557;    0.213568;    0.213572;    0.213596;    0.213621;    0.213622;
  2;    0.022123;    0.257477;    0.243670;    0.229780;    0.228899;    0.227801;    0.226853;    0.224450;    0.222854;    0.219022;    0.218438;    0.217995;    0.217001;    0.215918;    0.214069;    0.214147;    0.214128;    0.214089;    0.214082;
  3;    0.023029;    0.254527;    0.240872;    0.230030;    0.228932;    0.228437;    0.226498;    0.225388;    0.223068;    0.219258;    0.218759;    0.218176;    0.217460;    0.215834;    0.213934;    0.213944;    0.213992;    0.214020;    0.214029;
  4;    0.022359;    0.257305;    0.242886;    0.230695;    0.229777;    0.228672;    0.226901;    0.225673;    0.223464;    0.219976;    0.219491;    0.218658;    0.218285;    0.216827;    0.215232;    0.215279;    0.215356;    0.215348;    0.215375;
  5;    0.023249;    0.255512;    0.240803;    0.228290;    0.228094;    0.226903;    0.225769;    0.224192;    0.221677;    0.218498;    0.217847;    0.217315;    0.216217;    0.215233;    0.213337;    0.213354;    0.213391;    0.213426;    0.213402;
  6;    0.022435;    0.256282;    0.242161;    0.228504;    0.227689;    0.226108;    0.225028;    0.223770;    0.221352;    0.218502;    0.217693;    0.217616;    0.216535;    0.215752;    0.213397;    0.213465;    0.213481;    0.213459;    0.213479;
  7;    0.023041;    0.256647;    0.241939;    0.229288;    0.228234;    0.227916;    0.226346;    0.224002;    0.221262;    0.218676;    0.218038;    0.217629;    0.216623;    0.215775;    0.213336;    0.213371;    0.213414;    0.213412;    0.213431;
  8;    0.023341;    0.253657;    0.239113;    0.227273;    0.226259;    0.225426;    0.224858;    0.222088;    0.219910;    0.216560;    0.216168;    0.215662;    0.214498;    0.212989;    0.211647;    0.211686;    0.211709;    0.211725;    0.211750;
  9;    0.022475;    0.256269;    0.242454;    0.229827;    0.228782;    0.228016;    0.227241;    0.225056;    0.223251;    0.219259;    0.219028;    0.218459;    0.217683;    0.216791;    0.214232;    0.214248;    0.214313;    0.214325;    0.214332;
 10;    0.022329;    0.256947;    0.242985;    0.230107;    0.229264;    0.228290;    0.227480;    0.226589;    0.223017;    0.219700;    0.218936;    0.218244;    0.217569;    0.216339;    0.214544;    0.214571;    0.214634;    0.214609;    0.214624;
 11;    0.022109;    0.255097;    0.241441;    0.228569;    0.228289;    0.226535;    0.225526;    0.223491;    0.221484;    0.218650;    0.218596;    0.218354;    0.217030;    0.216048;    0.214195;    0.214178;    0.214161;    0.214183;    0.214200;
 12;    0.022712;    0.253934;    0.240891;    0.227717;    0.227100;    0.225478;    0.224379;    0.222235;    0.220761;    0.217824;    0.217117;    0.216668;    0.216030;    0.215141;    0.212286;    0.212339;    0.212339;    0.212378;    0.212400;
 13;    0.024154;    0.255984;    0.240551;    0.228399;    0.227397;    0.226625;    0.225560;    0.223586;    0.220990;    0.218164;    0.217781;    0.217580;    0.216673;    0.216170;    0.213180;    0.213188;    0.213240;    0.213265;    0.213267;
 14;    0.022920;    0.253326;    0.239218;    0.226671;    0.226011;    0.224687;    0.223149;    0.221258;    0.219211;    0.216825;    0.216283;    0.216118;    0.215430;    0.213947;    0.211835;    0.211846;    0.211890;    0.211924;    0.211927;
 15;    0.022366;    0.255686;    0.239003;    0.226661;    0.225489;    0.224173;    0.222912;    0.221700;    0.218859;    0.216230;    0.215689;    0.215024;    0.214197;    0.213302;    0.211445;    0.211463;    0.211469;    0.211483;    0.211508;
 16;    0.021916;    0.256313;    0.242868;    0.230281;    0.228991;    0.228446;    0.227431;    0.225720;    0.224007;    0.220404;    0.220057;    0.219572;    0.219161;    0.217230;    0.214940;    0.214970;    0.215009;    0.215050;    0.215062;
 17;    0.024326;    0.253130;    0.239210;    0.227544;    0.227108;    0.225180;    0.223721;    0.221855;    0.220048;    0.217140;    0.216392;    0.216216;    0.215239;    0.214597;    0.211655;    0.211648;    0.211662;    0.211662;    0.211662;
 18;    0.022819;    0.252033;    0.238875;    0.227238;    0.226845;    0.225472;    0.224123;    0.222311;    0.219918;    0.217241;    0.216574;    0.216335;    0.215886;    0.214200;    0.212373;    0.212428;    0.212467;    0.212454;    0.212479;
 19;    0.023057;    0.254949;    0.240088;    0.227155;    0.226187;    0.225040;    0.224483;    0.222635;    0.220155;    0.217519;    0.217424;    0.217007;    0.216172;    0.214162;    0.212265;    0.212344;    0.212333;    0.212357;    0.212369;
 20;    0.022293;    0.257369;    0.241657;    0.229313;    0.228606;    0.227620;    0.226347;    0.224800;    0.222512;    0.219130;    0.218731;    0.218572;    0.217256;    0.215951;    0.213963;    0.214016;    0.214013;    0.214051;    0.214070;
 21;    0.028068;    0.256356;    0.240579;    0.228572;    0.227581;    0.226689;    0.225693;    0.223490;    0.221366;    0.218781;    0.218398;    0.217856;    0.216889;    0.215889;    0.213937;    0.213925;    0.213942;    0.213972;    0.213980;
 22;    0.023561;    0.257194;    0.242290;    0.229976;    0.228808;    0.228011;    0.225641;    0.224028;    0.221771;    0.219066;    0.218580;    0.218154;    0.217242;    0.216017;    0.214121;    0.214103;    0.214138;    0.214165;    0.214179;
 23;    0.021650;    0.255574;    0.241303;    0.228582;    0.228392;    0.227403;    0.225630;    0.223936;    0.221396;    0.218842;    0.218302;    0.218079;    0.217154;    0.216523;    0.213903;    0.213910;    0.213932;    0.213946;    0.213985;
 24;    0.022522;    0.257718;    0.243216;    0.230210;    0.229714;    0.228079;    0.226766;    0.225024;    0.223008;    0.219305;    0.218989;    0.218741;    0.217460;    0.216087;    0.213854;    0.213858;    0.213899;    0.213934;    0.213958;
 25;    0.023624;    0.253950;    0.240134;    0.227553;    0.226779;    0.225394;    0.224184;    0.222298;    0.219990;    0.217544;    0.216936;    0.216658;    0.216270;    0.214178;    0.211992;    0.212004;    0.211995;    0.212001;    0.212025;
 26;    0.023342;    0.256414;    0.242174;    0.230174;    0.229731;    0.228453;    0.227923;    0.226087;    0.223600;    0.219492;    0.219462;    0.218873;    0.217978;    0.216494;    0.214968;    0.215025;    0.215067;    0.215043;    0.215047;
 27;    0.021138;    0.256674;    0.241142;    0.229151;    0.227911;    0.227027;    0.226413;    0.224438;    0.221826;    0.218629;    0.218298;    0.217455;    0.216794;    0.215246;    0.213410;    0.213462;    0.213484;    0.213483;    0.213481;
 28;    0.021712;    0.256962;    0.241138;    0.228861;    0.227960;    0.227351;    0.225293;    0.223727;    0.222117;    0.217977;    0.217927;    0.216981;    0.216214;    0.214833;    0.213126;    0.213168;    0.213235;    0.213179;    0.213189;
 29;    0.022453;    0.258334;    0.241560;    0.229058;    0.228648;    0.227100;    0.226316;    0.223448;    0.221147;    0.218173;    0.217858;    0.216809;    0.215777;    0.214491;    0.213029;    0.213123;    0.213137;    0.213118;    0.213130;
 30;    0.021568;    0.256400;    0.241221;    0.229219;    0.228995;    0.227859;    0.226116;    0.224581;    0.221665;    0.218471;    0.218044;    0.217980;    0.216854;    0.216215;    0.213959;    0.213994;    0.214038;    0.214081;    0.214101;
 31;    0.022419;    0.256847;    0.242208;    0.228557;    0.227944;    0.227445;    0.226008;    0.223905;    0.221846;    0.218806;    0.218554;    0.218033;    0.217733;    0.216129;    0.213915;    0.213893;    0.213925;    0.213945;    0.213940;
 32;    0.022340;    0.255364;    0.242060;    0.228086;    0.227732;    0.226251;    0.225425;    0.223401;    0.221236;    0.218731;    0.218195;    0.217641;    0.216714;    0.215735;    0.213093;    0.213129;    0.213157;    0.213188;    0.213191;
 33;    0.021217;    0.256518;    0.240345;    0.227074;    0.225987;    0.224573;    0.223518;    0.223444;    0.221416;    0.216757;    0.216531;    0.215732;    0.215314;    0.214117;    0.212022;    0.212113;    0.212076;    0.212064;    0.212074;
 34;    0.022411;    0.257822;    0.241973;    0.229396;    0.228829;    0.227657;    0.226513;    0.224779;    0.223072;    0.219597;    0.219157;    0.218490;    0.217709;    0.216698;    0.214844;    0.214902;    0.214910;    0.214960;    0.214940;
 35;    0.022895;    0.255856;    0.241619;    0.228836;    0.228032;    0.226992;    0.224907;    0.223423;    0.221447;    0.218036;    0.217539;    0.217060;    0.216422;    0.215225;    0.213363;    0.213357;    0.213389;    0.213396;    0.213381;
 36;    0.022045;    0.252758;    0.239995;    0.227285;    0.226222;    0.225918;    0.224413;    0.222455;    0.220944;    0.216899;    0.216525;    0.216183;    0.215527;    0.214395;    0.212405;    0.212500;    0.212480;    0.212483;    0.212491;
 37;    0.023478;    0.254484;    0.240636;    0.227784;    0.226632;    0.226095;    0.224347;    0.223188;    0.220395;    0.217817;    0.217262;    0.216851;    0.215927;    0.214893;    0.212611;    0.212683;    0.212690;    0.212727;    0.212720;
 38;    0.022748;    0.255199;    0.240069;    0.227580;    0.226925;    0.225247;    0.224444;    0.223023;    0.219773;    0.217492;    0.217403;    0.216519;    0.215788;    0.214823;    0.213033;    0.213068;    0.213119;    0.213135;    0.213151;
 39;    0.022181;    0.251984;    0.238433;    0.226279;    0.225756;    0.224102;    0.222893;    0.221317;    0.219790;    0.216994;    0.216488;    0.215961;    0.215254;    0.214356;    0.212073;    0.212116;    0.212166;    0.212185;    0.212163;
 40;    0.021333;    0.256859;    0.242822;    0.228467;    0.228421;    0.227321;    0.225783;    0.223803;    0.221489;    0.218274;    0.217791;    0.217106;    0.216931;    0.215090;    0.212932;    0.212985;    0.212991;    0.213024;    0.213045;
 41;    0.022145;    0.255450;    0.241033;    0.227593;    0.226825;    0.225165;    0.223514;    0.221920;    0.219690;    0.216921;    0.216419;    0.216126;    0.215570;    0.214756;    0.212693;    0.212785;    0.212749;    0.212738;    0.212743;
 42;    0.022845;    0.257316;    0.240750;    0.228523;    0.227705;    0.226581;    0.225639;    0.223207;    0.221507;    0.218270;    0.217818;    0.216895;    0.216162;    0.214911;    0.213000;    0.213020;    0.213050;    0.213083;    0.213100;
 43;    0.022481;    0.256685;    0.241252;    0.228715;    0.227986;    0.226968;    0.225556;    0.224059;    0.221153;    0.217991;    0.217531;    0.216764;    0.216070;    0.214875;    0.213250;    0.213309;    0.213372;    0.213316;    0.213351;
 44;    0.022311;    0.256600;    0.242413;    0.229001;    0.228267;    0.227927;    0.226656;    0.224345;    0.221546;    0.218224;    0.218176;    0.217276;    0.216917;    0.215595;    0.213895;    0.213920;    0.213932;    0.213958;    0.213966;
 45;    0.022985;    0.253821;    0.238955;    0.226953;    0.226194;    0.225157;    0.223997;    0.222395;    0.219899;    0.217100;    0.216687;    0.215975;    0.215626;    0.214471;    0.212382;    0.212400;    0.212431;    0.212443;    0.212464;
 46;    0.022534;    0.256654;    0.240731;    0.228564;    0.227173;    0.226234;    0.225151;    0.222652;    0.220158;    0.217219;    0.216981;    0.216099;    0.215207;    0.214293;    0.212632;    0.212670;    0.212700;    0.212714;    0.212737;
 47;    0.022443;    0.257063;    0.241457;    0.230279;    0.229284;    0.229049;    0.227337;    0.225164;    0.223582;    0.219905;    0.219666;    0.219482;    0.218842;    0.216952;    0.215148;    0.215183;    0.215235;    0.215231;    0.215230;
 48;    0.022519;    0.253914;    0.240030;    0.228639;    0.227486;    0.226547;    0.226010;    0.223525;    0.221520;    0.218208;    0.218120;    0.217819;    0.216779;    0.215740;    0.213330;    0.213364;    0.213422;    0.213422;    0.213425;
 49;    0.022077;    0.254456;    0.240268;    0.228700;    0.227629;    0.226316;    0.224411;    0.222828;    0.220719;    0.217990;    0.217603;    0.216973;    0.216005;    0.215240;    0.212877;    0.212933;    0.212953;    0.212958;    0.212939;
 50;    0.022753;    0.256281;    0.241263;    0.227954;    0.227060;    0.226423;    0.225587;    0.222771;    0.220533;    0.217859;    0.217498;    0.216916;    0.216127;    0.214907;    0.212674;    0.212709;    0.212728;    0.212742;    0.212763;
 51;    0.023356;    0.257767;    0.242247;    0.230515;    0.229401;    0.228417;    0.226732;    0.224854;    0.223201;    0.219199;    0.218782;    0.218249;    0.217547;    0.216096;    0.213749;    0.213803;    0.213824;    0.213834;    0.213842;
 52;    0.023073;    0.255317;    0.240712;    0.227616;    0.226738;    0.225461;    0.224567;    0.222053;    0.219328;    0.216975;    0.216248;    0.215776;    0.215188;    0.214182;    0.212222;    0.212273;    0.212292;    0.212332;    0.212286;
 53;    0.022497;    0.254215;    0.242524;    0.228083;    0.227373;    0.226459;    0.224533;    0.222891;    0.221509;    0.217762;    0.217470;    0.216707;    0.216738;    0.215776;    0.212477;    0.212500;    0.212557;    0.212552;    0.212560;
 54;    0.022186;    0.258540;    0.244243;    0.228459;    0.227744;    0.226710;    0.225847;    0.223183;    0.220861;    0.217702;    0.217492;    0.216627;    0.215462;    0.214904;    0.212985;    0.213059;    0.213024;    0.213016;    0.213037;
 55;    0.021782;    0.254208;    0.238729;    0.226644;    0.226286;    0.224872;    0.223380;    0.222389;    0.219662;    0.217148;    0.216744;    0.216780;    0.216297;    0.214584;    0.211760;    0.211782;    0.211776;    0.211789;    0.211805;
 56;    0.022730;    0.255905;    0.240985;    0.227101;    0.225940;    0.225258;    0.223377;    0.222284;    0.220943;    0.217816;    0.217231;    0.216526;    0.216090;    0.214621;    0.212714;    0.212755;    0.212765;    0.212761;    0.212775;
 57;    0.021867;    0.257206;    0.242814;    0.229295;    0.228435;    0.227984;    0.225864;    0.224224;    0.222258;    0.219233;    0.218449;    0.218144;    0.217797;    0.217146;    0.214602;    0.214619;    0.214682;    0.214684;    0.214710;
 58;    0.022446;    0.256768;    0.242028;    0.228793;    0.228395;    0.226742;    0.225563;    0.224518;    0.222081;    0.218251;    0.217935;    0.217260;    0.216419;    0.215906;    0.213661;    0.213765;    0.213749;    0.213817;    0.213794;
 59;    0.026606;    0.254323;    0.240314;    0.227954;    0.226850;    0.225984;    0.223831;    0.222257;    0.221294;    0.217541;    0.216860;    0.216696;    0.215870;    0.214773;    0.212333;    0.212382;    0.212367;    0.212395;    0.212416;
 60;    0.022994;    0.255757;    0.241127;    0.228963;    0.228081;    0.227155;    0.226194;    0.225356;    0.222158;    0.217909;    0.217364;    0.217097;    0.216311;    0.214932;    0.213189;    0.213276;    0.213248;    0.213274;    0.213269;
 61;    0.026752;    0.255165;    0.240738;    0.227946;    0.227016;    0.226663;    0.224893;    0.223645;    0.222142;    0.218674;    0.218179;    0.217706;    0.216868;    0.215853;    0.214007;    0.214021;    0.214032;    0.214064;    0.214080;
 62;    0.022781;    0.254212;    0.239309;    0.227276;    0.226427;    0.225996;    0.223630;    0.221656;    0.219688;    0.217001;    0.216996;    0.216877;    0.216084;    0.213998;    0.211769;    0.211758;    0.211778;    0.211808;    0.211813;
 63;    0.022579;    0.257388;    0.241843;    0.227512;    0.226462;    0.225444;    0.224272;    0.223211;    0.220866;    0.217907;    0.217608;    0.217416;    0.216160;    0.214718;    0.212775;    0.212814;    0.212790;    0.212832;    0.212843;
 64;    0.022462;    0.255801;    0.241017;    0.229068;    0.228394;    0.227145;    0.226355;    0.224881;    0.222225;    0.218924;    0.218871;    0.218090;    0.217199;    0.216076;    0.214194;    0.214262;    0.214279;    0.214307;    0.214310;
 65;    0.022407;    0.253539;    0.239860;    0.226830;    0.225694;    0.224841;    0.223417;    0.221281;    0.219039;    0.216037;    0.215598;    0.215156;    0.214504;    0.213290;    0.211616;    0.211652;    0.211714;    0.211731;    0.211732;
 66;    0.023449;    0.255070;    0.240911;    0.228765;    0.228600;    0.226702;    0.225865;    0.224733;    0.221865;    0.218205;    0.217332;    0.216543;    0.215853;    0.214680;    0.212588;    0.212712;    0.212639;    0.212661;    0.212682;
 67;    0.022720;    0.254021;    0.240213;    0.228182;    0.226937;    0.226151;    0.224461;    0.222296;    0.220456;    0.217799;    0.217280;    0.216743;    0.215993;    0.215657;    0.213311;    0.213333;    0.213302;    0.213325;    0.213337;
 68;    0.021663;    0.255605;    0.241049;    0.228684;    0.227696;    0.227073;    0.224819;    0.223528;    0.222200;    0.218297;    0.217744;    0.217563;    0.216709;    0.215185;    0.213456;    0.213454;    0.213472;    0.213482;    0.213503;
 69;    0.022000;    0.253955;    0.240758;    0.228301;    0.227375;    0.226562;    0.226147;    0.224416;    0.222182;    0.218769;    0.218339;    0.217830;    0.216929;    0.216224;    0.213833;    0.213843;    0.213867;    0.213864;    0.213880;
 70;    0.022628;    0.257470;    0.243310;    0.228848;    0.227975;    0.226778;    0.225342;    0.223766;    0.222953;    0.218755;    0.218183;    0.217695;    0.216867;    0.216056;    0.214173;    0.214268;    0.214251;    0.214274;    0.214298;
 71;    0.021604;    0.255641;    0.240599;    0.228019;    0.226768;    0.225740;    0.225453;    0.224288;    0.221928;    0.217579;    0.217351;    0.216458;    0.215672;    0.214293;    0.212629;    0.212606;    0.212620;    0.212639;    0.212662;
 72;    0.023079;    0.255877;    0.240322;    0.228633;    0.227838;    0.226874;    0.225568;    0.224247;    0.222427;    0.218012;    0.217830;    0.217451;    0.216614;    0.215343;    0.213310;    0.213348;    0.213340;    0.213350;    0.213363;
 73;    0.022011;    0.258594;    0.243395;    0.231164;    0.230441;    0.229210;    0.228629;    0.226916;    0.223871;    0.220327;    0.219968;    0.219751;    0.218439;    0.217724;    0.215096;    0.215124;    0.215147;    0.215172;    0.215188;
 74;    0.022537;    0.256069;    0.239889;    0.228368;    0.227335;    0.226739;    0.224763;    0.222904;    0.220882;    0.218088;    0.218140;    0.217192;    0.216165;    0.215355;    0.213418;    0.213523;    0.213487;    0.213518;    0.213517;
 75;    0.022962;    0.255961;    0.241399;    0.226857;    0.226183;    0.225586;    0.224100;    0.221881;    0.220044;    0.215942;    0.216038;    0.215595;    0.215324;    0.213726;    0.211486;    0.211575;    0.211537;    0.211572;    0.211597;
 76;    0.023271;    0.256612;    0.240703;    0.227830;    0.226778;    0.225881;    0.224988;    0.223101;    0.220474;    0.217519;    0.217247;    0.216401;    0.215402;    0.214242;    0.212714;    0.212724;    0.212790;    0.212742;    0.212759;
 77;    0.022500;    0.253078;    0.238819;    0.225262;    0.224018;    0.223370;    0.221702;    0.220730;    0.218152;    0.215490;    0.215115;    0.214779;    0.213909;    0.212947;    0.210532;    0.210512;    0.210506;    0.210517;    0.210532;
 78;    0.026753;    0.254633;    0.241401;    0.227735;    0.226692;    0.225675;    0.224737;    0.222458;    0.220217;    0.217441;    0.217237;    0.216936;    0.216153;    0.214900;    0.212829;    0.212839;    0.212849;    0.212857;    0.212874;
 79;    0.022265;    0.256164;    0.241589;    0.228561;    0.227128;    0.226143;    0.224334;    0.223121;    0.220308;    0.217972;    0.217816;    0.217161;    0.216405;    0.215727;    0.213554;    0.213598;    0.213603;    0.213648;    0.213614;
 80;    0.022769;    0.254674;    0.239335;    0.225879;    0.224986;    0.223804;    0.222470;    0.220338;    0.217949;    0.215328;    0.214968;    0.214375;    0.213303;    0.212187;    0.210351;    0.210390;    0.210421;    0.210412;    0.210414;
 81;    0.022602;    0.253798;    0.239147;    0.227059;    0.226174;    0.225076;    0.224522;    0.222591;    0.219767;    0.216408;    0.216006;    0.215259;    0.214877;    0.213695;    0.211717;    0.211726;    0.211760;    0.211788;    0.211800;
 82;    0.022260;    0.253956;    0.239066;    0.226344;    0.226169;    0.225181;    0.223640;    0.221944;    0.219116;    0.215992;    0.215946;    0.215511;    0.214578;    0.213360;    0.211191;    0.211229;    0.211269;    0.211293;    0.211308;
 83;    0.023355;    0.252132;    0.238573;    0.226139;    0.225148;    0.224342;    0.223276;    0.221683;    0.219646;    0.216642;    0.216347;    0.215761;    0.215311;    0.213842;    0.211769;    0.211798;    0.211830;    0.211847;    0.211865;
 84;    0.022245;    0.253811;    0.240892;    0.228366;    0.227526;    0.226861;    0.224932;    0.222883;    0.221740;    0.218336;    0.217827;    0.217534;    0.216696;    0.215336;    0.213426;    0.213430;    0.213480;    0.213470;    0.213485;
 85;    0.024920;    0.255231;    0.241800;    0.229062;    0.228072;    0.227540;    0.225648;    0.224579;    0.222275;    0.218904;    0.218733;    0.217846;    0.217154;    0.215900;    0.213585;    0.213622;    0.213653;    0.213649;    0.213673;
 86;    0.021721;    0.257611;    0.241663;    0.227983;    0.227114;    0.226230;    0.225272;    0.223000;    0.221384;    0.217953;    0.217538;    0.216974;    0.216765;    0.214994;    0.213162;    0.213155;    0.213164;    0.213201;    0.213207;
 87;    0.022520;    0.256119;    0.240957;    0.227881;    0.226867;    0.225663;    0.224369;    0.222390;    0.220841;    0.218153;    0.217605;    0.217189;    0.216300;    0.214763;    0.212739;    0.212864;    0.212824;    0.212847;    0.212863;
 88;    0.022693;    0.257603;    0.242001;    0.228257;    0.227666;    0.226771;    0.226162;    0.224148;    0.221063;    0.217588;    0.217446;    0.216806;    0.215255;    0.213933;    0.212264;    0.212322;    0.212299;    0.212349;    0.212312;
 89;    0.023293;    0.256288;    0.241626;    0.229101;    0.228302;    0.226828;    0.225456;    0.223072;    0.220452;    0.217769;    0.217754;    0.217084;    0.216340;    0.215077;    0.213019;    0.213049;    0.213088;    0.213075;    0.213098;
 90;    0.023037;    0.255182;    0.241316;    0.228215;    0.227140;    0.226337;    0.225348;    0.223878;    0.222401;    0.218829;    0.218552;    0.217828;    0.217283;    0.216913;    0.213880;    0.213971;    0.214010;    0.214037;    0.213975;
 91;    0.023224;    0.257100;    0.242260;    0.228332;    0.227607;    0.226233;    0.224660;    0.223249;    0.220666;    0.217635;    0.217182;    0.216773;    0.215842;    0.214423;    0.212988;    0.213042;    0.213066;    0.213097;    0.213099;
 92;    0.022532;    0.254565;    0.239870;    0.227626;    0.226601;    0.225796;    0.224120;    0.222754;    0.220350;    0.217395;    0.217125;    0.216713;    0.216043;    0.214693;    0.213010;    0.213086;    0.213027;    0.213079;    0.213083;
 93;    0.022233;    0.255632;    0.241331;    0.229075;    0.228278;    0.227446;    0.226180;    0.224429;    0.222645;    0.218813;    0.218216;    0.217783;    0.216704;    0.215946;    0.213858;    0.213880;    0.213900;    0.213943;    0.213954;
 94;    0.022579;    0.256059;    0.241529;    0.227745;    0.226625;    0.225217;    0.223633;    0.222173;    0.220348;    0.217115;    0.216685;    0.215775;    0.215001;    0.213794;    0.211817;    0.211835;    0.211868;    0.211877;    0.211886;
 95;    0.022775;    0.257003;    0.241811;    0.229006;    0.228015;    0.227439;    0.226206;    0.224213;    0.221711;    0.218770;    0.218950;    0.218662;    0.217910;    0.215919;    0.213875;    0.213925;    0.213922;    0.213940;    0.213932;
 96;    0.022434;    0.256951;    0.241108;    0.227870;    0.227810;    0.227363;    0.226136;    0.223652;    0.221102;    0.217219;    0.217030;    0.216001;    0.215465;    0.214768;    0.212638;    0.212650;    0.212664;    0.212705;    0.212707;
 97;    0.022962;    0.256881;    0.243763;    0.231073;    0.229679;    0.228753;    0.227057;    0.225062;    0.222921;    0.219852;    0.219426;    0.219019;    0.218962;    0.217944;    0.215246;    0.215314;    0.215301;    0.215294;    0.215313;
 98;    0.022730;    0.255816;    0.241616;    0.228123;    0.227836;    0.226411;    0.224708;    0.223311;    0.221100;    0.218025;    0.217454;    0.217053;    0.216481;    0.215095;    0.213327;    0.213380;    0.213415;    0.213436;    0.213446;
 99;    0.023168;    0.255516;    0.239518;    0.227008;    0.226294;    0.225017;    0.223965;    0.222649;    0.220655;    0.217510;    0.217214;    0.216969;    0.216043;    0.215585;    0.213060;    0.213121;    0.213132;    0.213161;    0.213180;
100;    0.023273;    0.254652;    0.239340;    0.227309;    0.227045;    0.226267;    0.224295;    0.222326;    0.220902;    0.217760;    0.217438;    0.216569;    0.215852;    0.214695;    0.212671;    0.212697;    0.212773;    0.212794;    0.212757;
