Simulation;Time;PC 0;PC 1;PC 2;PC 3;PC 4;PC 5;PC 6;PC 7;PC 8;PC 9;PC10;PC11;PC12;PC13;PC14;PC15;PC16;PC17;
Nan;Nan;0;0;0;0;0;0;0;0;0;0;0;1;0;0;0;0;0;0;
  0;    0.246452;    0.991250;    0.646890;    0.512534;    0.497610;    0.636672;    1.497596;    2.830471;    3.437009;    3.835063;    5.032047;    7.183364;   20.067357;   30.022694;   52.113469;   79.161566;  118.292009;  584.057385;41938.298465;
  1;    0.248312;    1.023598;    0.669192;    0.519338;    0.505913;    0.677811;    1.131444;    2.449714;    3.347800;    4.556237;    8.738766;   17.469006;   35.727091;   51.094585;   65.707156;  100.790503;  193.189829;  649.093152;800132.511552;
  2;    0.253033;    1.022367;    0.678498;    0.527884;    0.512308;    0.691122;    1.104952;    4.379942;    5.358624;    8.172577;   12.589851;   16.550097;   27.222279;   32.670941;   42.965318;   66.312498;  125.035578;  774.150381;96215.391152;
  3;    0.247634;    0.983024;    0.654522;    0.536343;    0.521875;    0.673358;    1.208008;    3.897753;    4.868375;    6.663908;    9.078605;   14.993256;   28.676213;   40.373342;   54.795434;  110.411526;  183.053716;  713.215889;295668.993367;
  4;    0.248190;    1.025882;    0.677474;    0.543418;    0.524567;    0.703140;    0.899693;    4.001405;    8.139970;   10.139738;   12.448472;   18.205443;   27.800138;   30.249532;   34.638296;   52.742050;  112.297732; 4497.887983;359064.819104;
  5;    0.248975;    1.002899;    0.653465;    0.524132;    0.517025;    0.695365;    1.530539;    4.675009;    6.203431;    7.477668;   11.540237;   17.364128;   25.679718;   34.933515;   42.136289;   64.145458;  110.581397;  185.368109;13886.839068;
  6;    0.249471;    1.007176;    0.661997;    0.518387;    0.510132;    1.164264;    2.561616;    4.252950;    5.017976;    6.018851;    8.497548;   12.348182;   22.572610;   25.732594;   31.729812;   47.222279;   77.514442;  444.044982;244231.003648;
  7;    0.248600;    1.015345;    0.664926;    0.526066;    0.520144;    1.062871;    1.710059;    3.029485;    7.557240;    8.313314;   10.987247;   15.377045;   28.483849;   41.131447;   55.980052;   83.249280;  212.772970; 1366.644701;313046.891875;
  8;    0.249495;    0.976388;    0.636070;    0.512386;    0.506885;    0.623553;    2.447897;    6.564911;    8.305891;    9.753280;   12.257236;   25.492935;   36.979333;   50.379940;   65.247825;   94.389418;  158.816536;  759.601958;130555.569912;
  9;    0.247417;    1.004345;    0.663403;    0.528469;    0.522122;    0.719209;    1.596863;    5.194709;    6.511220;    8.098520;   14.621638;   24.489691;   40.547092;   50.035370;   61.935630;   90.798196;  172.447194; 2154.696101;99618.313955;
 10;    0.247128;    1.014885;    0.669185;    0.531976;    0.518266;    0.684372;    1.613661;    4.793914;    5.679475;    7.306506;   10.985865;   16.904650;   41.497516;   48.631073;   63.206536;  100.381089;  219.039861; 3574.876191;4260535.363425;
 11;    0.249225;    0.991631;    0.657858;    0.523706;    0.517328;    0.929770;    1.724954;    3.823807;    4.744455;    6.125757;    7.359036;   12.398958;   23.985712;   31.299210;   40.762754;   51.169579;   71.151764;  210.502854;704815.568990;
 12;    0.249578;    0.973406;    0.657087;    0.515001;    0.515785;    0.718205;    1.821461;    3.392627;    5.016822;    8.101361;   17.594976;   31.348644;   43.229525;   51.855939;   81.295199;  116.858084;  188.986776; 1131.718723;18469.626201;
 13;    0.249468;    1.008160;    0.646128;    0.522343;    0.511023;    0.641140;    1.034801;    5.112803;    6.171274;    6.834314;    8.329622;   14.172147;   32.960563;   41.897360;   49.665353;   73.247977;  126.827624;  294.193461;21933.927629;
 14;    0.246964;    0.979382;    0.652163;    0.513681;    0.502873;    1.020276;    1.914445;    3.970672;    5.022755;    6.405470;    9.013012;   13.748837;   26.074561;   29.198337;   36.250254;   48.617966;   73.868265;  356.005040;53837.041262;
 15;    0.256578;    1.017502;    0.642677;    0.517754;    0.497038;    0.592505;    1.476745;    2.340633;    3.096600;    5.126618;   10.796053;   14.581086;   35.241610;   41.546790;   52.749416;   61.154426;  138.547088;  449.813334;80715.094316;
 16;    0.250097;    1.004828;    0.667599;    0.530940;    0.524975;    0.762842;    1.818630;    4.545063;    5.710939;    7.653534;   10.057563;   16.410940;   40.135746;   52.895887;   60.990876;   91.167119;  124.161923;  170.828187;115257.187079;
 17;    0.248484;    0.972962;    0.644397;    0.519066;    0.506020;    0.676128;    0.977595;    4.241699;    5.837268;    7.347944;    9.964076;   16.196159;   24.958861;   37.929483;   57.998044;   85.958507;  146.466533;  236.926598;384779.388588;
 18;    0.249035;    0.952316;    0.642718;    0.518071;    0.510933;    0.780376;    1.421125;    3.238348;    4.368034;    9.652723;   13.628974;   24.474536;   45.340511;   68.156274;   90.358810;  140.119429;  362.042060; 1017.455497;17127.230812;
 19;    0.258027;    0.990415;    0.641862;    0.506523;    0.511785;    1.770631;    2.370308;    6.858299;    8.257459;   11.959894;   17.838617;   24.013521;   42.136749;   52.140966;   98.435205;  141.621179;  215.715589;  653.406768;156834.862268;
 20;    0.253637;    1.028337;    0.656951;    0.524562;    0.511250;    0.689785;    1.059568;    4.078829;    5.834071;    6.991292;   11.315073;   15.816741;   36.929882;   50.464644;   79.073403;  134.643764;  181.272342; 1397.806115;41075.437645;
 21;    0.246715;    1.017557;    0.650615;    0.523428;    0.515589;    0.934159;    1.417956;    4.482439;    5.830649;    7.688552;   13.133594;   17.753038;   37.268501;   43.730702;   67.519313;   88.862787;  132.802144;  511.222428;220261.640513;
 22;    0.254157;    1.015916;    0.657610;    0.526421;    0.522189;    0.825474;    8.214012;   14.583463;   16.652962;   23.149323;   30.564499;   53.021065;   72.316262;   92.614537;  124.460099;  194.583002;  238.093700;  553.166407;13114.650157;
 23;    0.247922;    0.995452;    0.656673;    0.519082;    0.520862;    0.637856;    1.138200;    4.615218;    5.415107;    6.541137;    9.038050;   17.820286;   32.242803;   41.000214;   48.052600;   76.458746;  150.525878;  824.872994;16780.974615;
 24;    0.250770;    1.026700;    0.677975;    0.532945;    0.519978;    0.836159;    2.410664;    5.654652;    7.770580;    8.758063;   10.726554;   19.712983;   39.020616;   49.309249;   69.763300;  163.789238;  317.086588;  647.024056;103980.840258;
 25;    0.248661;    0.981371;    0.648528;    0.519451;    0.504652;    0.657893;    1.734416;    5.358369;    6.275877;    6.957511;    9.027510;   13.786532;   29.753729;   44.165096;   60.926266;   77.048076;  258.337387;  659.637429;30629.642458;
 26;    0.248744;    1.007355;    0.664592;    0.532071;    0.525005;    0.659609;    1.411072;    4.307373;    4.757833;    5.551025;    7.107356;   10.305119;   21.054870;   29.430728;   38.180783;   65.274430;  130.111575;  666.762030;37411.964292;
 27;    0.247020;    1.014281;    0.647615;    0.520502;    0.516700;    0.652585;    1.702084;    4.857392;    5.647096;    9.563924;   11.526406;   13.231980;   27.221835;   31.256791;   49.693250;   70.354334;  104.748128;  507.443966;36632.566157;
 28;    0.257697;    1.021419;    0.651697;    0.520868;    0.517968;    0.699686;    1.550204;    6.931203;    7.677528;    9.812925;   12.205803;   14.003217;   27.134206;   32.819392;   38.245913;   50.376067;   76.195542;  202.188231;821073.724289;
 29;    0.249311;    1.043680;    0.657251;    0.521867;    0.514585;    0.721986;    1.110166;    2.684573;    3.158720;    4.432723;    7.175505;   13.322449;   32.999552;   39.546160;   47.524300;   59.242343;   90.629839;  316.699759;395701013.475756;
 30;    0.253056;    1.016343;    0.662778;    0.530935;    0.515967;    0.838880;    1.703371;    4.133196;    4.444002;    5.428808;    7.381136;   11.410509;   17.922351;   22.181123;   33.715375;   50.344712;  108.071379;  280.839579; 9259.770663;
 31;    0.256077;    1.017698;    0.666893;    0.520106;    0.512524;    0.629780;    1.323445;    5.769790;    7.203391;    8.142502;   12.029028;   17.370668;   27.745595;   31.583883;   38.221081;   44.789224;   72.875892;  981.951884;158554.259105;
 32;    0.248050;    0.991906;    0.662498;    0.520601;    0.509892;    0.633100;    1.290689;    4.117124;    6.432016;    8.197302;   10.880075;   20.822869;   36.936384;   45.680864;   54.636352;   75.379764;  132.316949;  298.194418;34429.108584;
 33;    0.256783;    1.019492;    0.652607;    0.511224;    0.503307;    0.652104;    0.957578;    4.689210;    5.863153;    7.582059;   15.594063;   22.680302;   41.083390;   49.136616;   57.385562;   76.528681;  131.193214;  251.435557;45696.127464;
 34;    0.252318;    1.034428;    0.660197;    0.529525;    0.516631;    0.673440;    2.427547;    4.592886;    6.975138;    8.750144;   10.858310;   17.712165;   30.882042;   47.556050;   67.477213;  111.565360;  277.586588;  961.593584;173919.150961;
 35;    0.247874;    1.000439;    0.662705;    0.521189;    0.516858;    0.783278;    1.386017;    5.994235;    8.239695;   10.916405;   16.368813;   22.568967;   37.518345;   78.142475;   98.265045;  150.876459;  232.697811;  607.230919;670995.725864;
 36;    0.250086;    0.966014;    0.663561;    0.523841;    0.506818;    0.787838;    1.497304;    4.271396;    5.484215;    9.132268;   14.988639;   21.932671;   44.182463;   53.390830;   62.980735;   91.358683;  141.234578;  676.870366;398632.703154;
 37;    0.256919;    0.993119;    0.659468;    0.524891;    0.502786;    0.678840;    1.005718;    2.729736;    3.991926;    7.959944;   11.645822;   18.870812;   30.334125;   37.594746;   53.267969;   62.864716;  135.210316;  344.325289;159191.253179;
 38;    0.247741;    1.000646;    0.649679;    0.514937;    0.513242;    0.821831;    1.367801;    3.432615;    4.252561;    6.456177;    8.219089;   14.311856;   26.828688;   36.322963;   41.416619;   52.394068;   90.912503;  496.462985;43908.044002;
 39;    0.245852;    0.958951;    0.641505;    0.514349;    0.503681;    0.685956;    0.889048;    2.543288;    2.857756;    3.313754;    6.623819;   11.631757;   27.019462;   33.345912;   46.217953;   69.193717;   99.414503;  537.860780;12973.213968;
 40;    0.256766;    1.017064;    0.668650;    0.519945;    0.505362;    0.827410;    1.917783;    3.426686;    4.463264;    5.169399;    7.358872;   10.435607;   20.180823;   29.624109;   43.052718;   55.617447;  111.458413;  217.040649;878624.825018;
 41;    0.247980;    0.999306;    0.652617;    0.512082;    0.509424;    0.693309;    0.915125;    3.172399;    4.092793;    6.732447;   11.859998;   18.999288;   28.825208;   33.205795;   40.563271;   59.143982;  131.388752;  431.896405;364939.550288;
 42;    0.247497;    1.031952;    0.648556;    0.521931;    0.506618;    0.758438;    1.875686;    4.968159;    5.687259;    8.711536;   13.889552;   22.348428;   32.918354;   40.554813;   46.668718;   60.478025;   87.596580;  130.044888;997839.059412;
 43;    0.247805;    1.019195;    0.656387;    0.522435;    0.513605;    0.609279;    1.727195;    5.506013;    7.275893;    9.233834;   11.974572;   15.213902;   24.800873;   31.378943;   40.085891;   50.027057;  117.663359;  261.090812;48011.966836;
 44;    0.248741;    1.008298;    0.668719;    0.519142;    0.517020;    0.955160;    1.934376;    6.313102;    7.253556;    7.887884;    9.560688;   14.122625;   31.249812;   46.944970;   68.770550;   91.024342;  145.168357;  306.710116;92972.581026;
 45;    0.255415;    0.982095;    0.637053;    0.512624;    0.509501;    0.791834;    2.476288;    7.151211;   10.183496;   11.564648;   17.097254;   21.971148;   30.403979;   37.240691;   57.976144;  112.436101;  227.221253;  634.322696;33322.543468;
 46;    0.247311;    1.020169;    0.647260;    0.521805;    0.512975;    0.662266;    1.547498;    3.529554;    3.891180;    5.832268;    8.731678;   15.143915;   30.173254;   36.616059;   45.024707;   63.518180;  102.660842;  295.769114;17739.097191;
 47;    0.250211;    1.021172;    0.654671;    0.534698;    0.521340;    0.923427;    1.423933;    3.822709;    4.928987;    6.067033;    8.061197;   20.920322;   41.862002;   50.633766;   59.512467;   75.441987;  171.098898;  414.851446;49126.389065;
 48;    0.251004;    0.976307;    0.643811;    0.524772;    0.520832;    0.635406;    1.354941;    3.970796;    4.485138;    7.276457;   12.097866;   24.839074;   62.261681;   69.932525;   87.052463;  117.652424;  169.800346;  469.718687;333496.952051;
 49;    0.247900;    0.982102;    0.646586;    0.524149;    0.517000;    0.719113;    1.275596;    5.221128;    6.310989;    7.666228;    9.936908;   14.515654;   23.557617;   28.857605;   43.199297;   88.777970;  178.181914;  428.312729;72542.790981;
 50;    0.249796;    1.010836;    0.656290;    0.514442;    0.506228;    0.803619;    1.397157;    2.562521;    3.149746;    8.238391;   10.311772;   15.688419;   29.484973;   34.363541;   42.087824;   54.678948;   63.284087;  209.182780; 3982.005828;
 51;    0.248619;    1.029768;    0.669762;    0.536077;    0.522659;    0.929200;    1.418008;    3.617946;    7.231315;    9.450217;   15.488588;   25.527208;   39.485254;   47.131542;   65.586008;   78.406276;  188.539129;  366.668378;10328.540983;
 52;    0.250701;    1.003798;    0.659566;    0.520160;    0.501820;    1.604106;    2.370333;    5.005574;    5.901659;    8.157186;   10.511791;   17.129528;   37.638304;   45.620289;   56.082339;  103.752331;  156.244660;  316.329695;173829.711138;
 53;    0.247787;    0.975002;    0.671813;    0.522060;    0.509237;    0.688807;    1.112687;    4.555395;    7.444734;   10.012615;   13.685503;   19.017004;   30.524556;   38.173844;   54.729350;   96.259340;  170.971697;  423.874215; 3273.389745;
 54;    0.292004;    1.034839;    0.678189;    0.513256;    0.509193;    0.826882;    1.533927;    5.520464;    6.997316;    8.739149;   10.345775;   16.696687;   29.245876;   32.822643;   38.328370;   53.819647;   78.879932;  374.428701;74651340.404621;
 55;    0.247811;    0.988335;    0.633653;    0.511992;    0.501721;    0.618836;    0.845909;    3.011125;    7.180870;    8.149847;   10.966155;   17.539877;   34.296358;   43.543742;   51.747036;   68.612438;  194.637935;  929.828830;100606.503013;
 56;    0.248268;    1.008103;    0.654615;    0.510517;    0.497909;    0.621970;    1.569955;    2.963070;    3.935864;    5.220314;    8.744719;   14.242122;   25.348107;   32.495977;   40.084707;   57.963823;   95.359572;  576.847547;337503.712742;
 57;    0.248701;    1.025120;    0.674674;    0.528242;    0.515138;    0.764751;    1.524903;    3.665872;    4.133427;    6.241998;   10.004417;   17.670169;   26.003265;   36.120947;   47.245100;   63.426128;  131.154155;  331.011799;109607.327540;
 58;    0.250491;    1.013120;    0.665207;    0.520348;    0.514930;    0.815308;    1.378723;    3.346576;    5.510871;    8.490802;   18.955688;   36.995080;   71.630514;  101.390892;  134.268951;  263.201896;  452.134937; 1719.127243;266052.638972;
 59;    0.246976;    0.989782;    0.658009;    0.523569;    0.506635;    0.875056;    1.714296;    3.948434;    5.843030;    7.640431;    9.407283;   15.628971;   24.391833;   32.054327;   40.332347;   48.671833;   71.895478;  224.673914;25245.747747;
 60;    0.247547;    1.000104;    0.649106;    0.522499;    0.515741;    0.655398;    1.912678;    6.056333;    8.750050;   15.242340;   17.903977;   21.746017;   44.218296;   54.968026;   85.037023;  203.370609;  411.429864; 1009.363550;79238.332260;
 61;    0.248620;    0.992530;    0.648443;    0.516147;    0.512976;    0.845471;    1.687848;    4.299886;    6.124077;    7.301903;    9.291334;   12.909044;   32.271455;   38.690999;   59.856319;   76.400897;  114.946908;  565.990731;789289.494392;
 62;    0.248049;    0.989474;    0.645517;    0.515254;    0.503809;    0.814797;    1.604296;    4.104039;    4.985554;    7.156263;   12.048961;   17.635399;   27.526796;   34.057391;   44.347635;   66.612930;   86.773462;  358.381110;25257.233906;
 63;    0.250189;    1.027568;    0.660378;    0.509839;    0.504323;    0.658063;    1.321048;    4.475785;    5.403948;    8.720478;   11.344377;   15.659459;   23.996791;   29.414144;   36.527843;   43.535656;  357.208300; 1339.377401;23363.849138;
 64;    0.249271;    1.006347;    0.654785;    0.528521;    0.509535;    0.958572;    1.922267;    4.686814;    5.959577;    7.138887;    9.075308;   13.967912;   26.548724;   32.064608;   40.130513;   52.075658;   83.530194;  482.414181; 9614.822932;
 65;    0.250027;    0.972963;    0.644704;    0.509634;    0.503551;    0.645120;    1.006292;    3.319343;    4.165608;    7.364664;   11.115344;   13.601192;   31.348433;   34.655441;   44.228660;   65.189522;  111.410102;  251.439652;17684.035486;
 66;    0.247459;    0.991250;    0.649865;    0.521429;    0.516989;    0.651736;    1.670848;    5.846968;    6.701810;    8.110936;   10.211069;   15.982193;   31.015503;   36.153736;   57.078697;   82.481837;  168.452833; 1086.029082;91977.443592;
 67;    0.250161;    0.972690;    0.646413;    0.517156;    0.516753;    0.864907;    1.192487;    3.073065;    3.970217;    4.802507;    6.213432;    9.860091;   31.107375;   36.541753;   45.327072;   80.661128;  118.088743;  322.736592;87968.721757;
 68;    0.245810;    1.000142;    0.655482;    0.522372;    0.517854;    0.728424;    1.138095;    5.195863;    6.591709;   12.417343;   19.292428;   27.459010;   67.419928;   80.776309;  128.313095;  149.201438;  335.970658;  778.809955;130951.400376;
 69;    0.252766;    0.978390;    0.656231;    0.524630;    0.509163;    0.665659;    0.968434;    5.697945;    7.255767;    8.997373;   11.785085;   19.221443;   32.442001;   45.577127;   54.263406;   79.645700;  178.958192;  729.120375;6107865.869347;
 70;    0.248825;    1.022516;    0.677832;    0.521832;    0.518784;    0.734905;    1.897386;    4.944883;    5.405005;    6.632646;    8.830845;   14.985174;   36.549952;   42.168180;   49.878195;   56.673072;  117.380143;  223.830557; 1087.183257;
 71;    0.249970;    1.001108;    0.648371;    0.517273;    0.509060;    0.665139;    1.453875;    3.491222;    3.917758;    5.696867;   15.156959;   22.151424;   37.564751;   40.489624;   52.022393;   67.523034;  110.025795;  459.733158;45721.546650;
 72;    0.250305;    1.005683;    0.646637;    0.521103;    0.516619;    0.768180;    1.660626;    5.824162;    6.658854;    8.940073;   12.010626;   14.815703;   32.030400;   46.171069;   61.468161;   85.324828;  123.591519;  272.405013;1736741.642121;
 73;    0.251006;    1.037082;    0.671895;    0.536022;    0.527709;    1.449549;    2.409718;    5.034187;    5.368666;    5.940244;    7.062948;   15.025882;   32.136615;   43.333193;   52.420135;   65.279378;  136.429440;  905.060577;348595.524724;
 74;    0.248279;    1.019037;    0.647113;    0.527267;    0.507955;    0.687278;    1.725045;    4.220511;    5.581409;    6.556116;    9.154565;   15.686221;   27.805772;   33.385242;   40.240557;   53.993008;   90.416215;  429.156277; 8678.625486;
 75;    0.249618;    1.010709;    0.667870;    0.510097;    0.497258;    0.667776;    0.909385;    5.093189;    6.089466;    6.478112;   10.992336;   17.898111;   32.755849;   41.331585;   50.035181;   65.690267;   97.660938;  193.681491;17959.340577;
 76;    0.255192;    1.017838;    0.646872;    0.511886;    0.510727;    0.933244;    1.552635;    4.248147;    4.919249;    9.458380;   14.077102;   21.313664;   37.958558;   50.344126;   74.540207;  104.134206;  159.602150; 1100.837134;53642.515031;
 77;    0.249061;    0.974200;    0.641571;    0.502553;    0.496342;    0.693958;    2.239334;    3.719105;    6.218281;    7.688308;   10.345154;   13.965617;   32.750250;   38.553422;   58.130972;   71.357814;  124.864019;  309.415428; 5560.475671;
 78;    0.247429;    0.988096;    0.663669;    0.519466;    0.505321;    1.096577;    1.960457;    3.364072;    4.253047;    5.398777;    6.711553;   18.925177;   34.937148;   44.447427;   53.485044;   63.935201;   93.448752;  350.627090;96932.544035;
 79;    0.248862;    1.008046;    0.660017;    0.522053;    0.518085;    0.871369;    1.445636;    2.977879;    5.088910;    6.722016;   14.986858;   20.680694;   43.963171;   53.556762;   63.730321;   85.674896;  166.926535;  872.475150;2832131.865880;
 80;    0.250693;    1.000862;    0.644916;    0.508269;    0.493791;    0.798901;    1.293789;    3.203238;    4.243779;    6.135372;    9.486646;   13.187348;   24.091569;   29.082300;   32.892088;   46.604386;   68.754272;  150.015740;19391.586051;
 81;    0.248022;    0.981433;    0.641098;    0.512852;    0.503450;    0.669007;    1.668950;    5.058132;    5.956073;    8.207718;   10.969235;   14.472868;   22.961517;   38.287597;   66.016145;  133.225895;  232.007584; 1023.104274;24024.669595;
 82;    0.247486;    0.986014;    0.640143;    0.510262;    0.499368;    0.766215;    2.450817;    3.998155;    5.589372;    7.031489;   11.684672;   18.894831;   29.212545;   44.638537;   55.401737;   80.167544;  110.114633;  222.034414;10395.114186;
 83;    0.248429;    0.956112;    0.637411;    0.508847;    0.502225;    0.671206;    1.083110;    4.460610;    5.954785;    6.753403;    8.553287;   12.065269;   27.945340;   33.376745;   40.659221;   52.372307;  109.052894;  378.132798;13107.289776;
 84;    0.247922;    0.975556;    0.667298;    0.527053;    0.510124;    0.893576;    1.697749;    2.855209;    3.327877;    5.080644;    7.372414;   11.711800;   25.338137;   33.288311;   37.068912;   48.769511;   98.883671;  164.927203;14022.132990;
 85;    0.254657;    0.990347;    0.659924;    0.525074;    0.519749;    0.688354;    1.114110;    4.231640;    5.060923;    7.968875;   12.236150;   22.474938;   33.341374;   44.925006;   59.757784;  109.528931;  250.147198;  765.144433;357673.684347;
 86;    0.249388;    1.031762;    0.656049;    0.517233;    0.505148;    1.096792;    1.892112;    3.960585;    5.718779;    6.946924;   11.820123;   14.335066;   20.146039;   24.327610;   27.935697;   35.860490;   62.866097;  276.725003; 9791.856096;
 87;    0.247877;    1.008902;    0.651671;    0.515864;    0.508174;    0.697581;    1.377322;    2.673596;    4.907824;    5.972272;    7.008870;   10.652495;   24.754107;   31.671043;   50.125841;   69.011638;   89.760134;  351.759769;31378.636533;
 88;    0.256754;    1.035783;    0.665586;    0.518999;    0.505765;    0.838464;    1.672162;    7.472723;    8.443054;    9.530647;   10.700376;   17.094449;   38.072887;   50.851760;   64.645790;  151.352070;  342.051607; 6564.338597;3309603.127902;
 89;    0.256071;    1.013834;    0.660701;    0.528294;    0.509045;    0.695560;    1.641622;    2.604227;    2.950786;    3.718291;    4.731594;   12.923306;   22.254345;   28.968105;   57.111763;   86.001412;  142.890773; 1076.088012;60819.077035;
 90;    0.248563;    0.992073;    0.655305;    0.520925;    0.513366;    0.732221;    1.393048;    3.211527;    5.007902;    7.282368;    9.410295;   13.255238;   26.349666;   30.452711;   41.392248;   55.413407;   92.942036;  359.439116;531997.583801;
 91;    0.251698;    1.022747;    0.666665;    0.519529;    0.507692;    0.789793;    1.693823;    4.939393;    6.533957;    8.987748;   14.000666;   21.134894;   30.865879;   35.975748;   39.281422;   61.053209;  125.506825;  396.515401;106055.941480;
 92;    0.250436;    0.995891;    0.651852;    0.524520;    0.508593;    0.763258;    2.798913;    5.811286;    9.148698;   14.555934;   24.055427;   33.197889;   47.031590;   58.220790;   78.997660;  106.586813;  169.757887; 1083.181398;19670.293676;
 93;    0.247670;    1.000061;    0.656600;    0.525062;    0.515037;    1.088977;    2.102036;    4.287465;    4.822264;    6.962836;   10.932244;   24.000449;   37.952969;   50.302960;   74.849713;   98.523104;  208.331753;  576.605715;65084.708421;
 94;    0.255523;    1.006642;    0.658783;    0.514704;    0.512107;    0.725402;    1.783042;    3.474110;    4.887302;    7.128300;    9.159536;   14.507094;   27.715144;   31.489678;   42.578556;   71.162963;   98.211408; 1176.068343;890187.222387;
 95;    0.248634;    1.020159;    0.661041;    0.521672;    0.514650;    0.725421;    2.186503;    4.681927;    5.702056;   10.715933;   18.411487;   23.953854;   40.337514;   50.069878;   63.028442;   87.809855;  148.319636;  253.951620;31306093.090291;
 96;    0.246840;    1.023295;    0.651001;    0.512703;    0.505652;    0.826930;    1.626233;    5.638073;    6.563250;   10.211658;   12.119340;   19.850117;   40.286221;   59.440498;   73.936104;   87.930442;  358.525371; 1766.545501;6904462.042609;
 97;    0.250215;    1.008800;    0.679482;    0.540838;    0.526671;    0.940891;    1.430489;    2.416682;    2.991380;    5.128576;    8.953253;   18.748197;   36.813783;   50.605231;   68.261657;  100.327522;  205.047207;  755.456996;60177.999297;
 98;    0.248763;    1.008197;    0.669127;    0.523828;    0.509364;    0.695633;    1.394870;    3.919702;    4.344718;    5.578279;    8.327751;   16.008687;   28.053918;   35.292087;   49.649470;   71.206735;  104.436017;  407.522874;11974.136590;
 99;    0.246737;    1.009383;    0.642895;    0.514928;    0.499944;    0.738857;    1.268982;    2.633103;    3.019986;    4.894811;    8.347187;   18.302602;   33.954597;   39.123457;   46.808654;   63.925165;   90.817713;  476.476078;663074.113905;
100;    0.252406;    0.993610;    0.639575;    0.514444;    0.506252;    0.976814;    1.441564;    3.512015;    3.878494;    5.639269;   12.230579;   16.852861;   36.520855;   42.390058;   55.363712;   71.516204;  215.634307; 3649.653848;637370.263359;
