Simulation;Time;PC 0;PC 1;PC 2;PC 3;PC 4;PC 5;PC 6;PC 7;PC 8;PC 9;PC10;PC11;PC12;PC13;PC14;PC15;PC16;PC17;
Nan;Nan;1;0;0;0;0;0;0;0;0;0;0;0;0;0;0;0;0;0;
  0;    1.392051;    0.983920;    0.974616;    0.969882;    0.952975;    0.936940;    0.928338;    0.919855;    0.892756;    0.859842;    0.822199;    0.762293;    0.711753;    0.639324;    0.567607;    0.477046;    0.395716;    0.270845;    0.150348;
  1;    1.377032;    1.006621;    0.998172;    0.982994;    0.975358;    0.969422;    0.951739;    0.915515;    0.891945;    0.863160;    0.830521;    0.781072;    0.720935;    0.669012;    0.597623;    0.533286;    0.416436;    0.326311;    0.174704;
  2;    1.381860;    1.012857;    1.015706;    1.011063;    0.998071;    0.990069;    0.971912;    0.943168;    0.904063;    0.862653;    0.807741;    0.741215;    0.697062;    0.651197;    0.588352;    0.530451;    0.433412;    0.302052;    0.159101;
  3;    1.384366;    1.010451;    1.010129;    1.003916;    0.991292;    0.985366;    0.954067;    0.929504;    0.893297;    0.860910;    0.825620;    0.790087;    0.745238;    0.695600;    0.621542;    0.541763;    0.459416;    0.339485;    0.193857;
  4;    1.389858;    1.025388;    1.021250;    1.017912;    1.011881;    0.983387;    0.958717;    0.932060;    0.905023;    0.878384;    0.823446;    0.794986;    0.754993;    0.703084;    0.620855;    0.535538;    0.428906;    0.305852;    0.176567;
  5;    1.389039;    1.002971;    0.997428;    0.987353;    0.970083;    0.953688;    0.945775;    0.926828;    0.900913;    0.881942;    0.842252;    0.791370;    0.751692;    0.688327;    0.623353;    0.534776;    0.430608;    0.323155;    0.175373;
  6;    1.394063;    1.003945;    1.008035;    0.999341;    0.979471;    0.963171;    0.946815;    0.920739;    0.893205;    0.869339;    0.837845;    0.799558;    0.736264;    0.669601;    0.612400;    0.522763;    0.404533;    0.309947;    0.153925;
  7;    1.388017;    1.004513;    0.991411;    0.996609;    0.982825;    0.970764;    0.951351;    0.913565;    0.887418;    0.853187;    0.824160;    0.769348;    0.726591;    0.668828;    0.601037;    0.515752;    0.416963;    0.327706;    0.196688;
  8;    1.419082;    0.985122;    0.988322;    0.986813;    0.973897;    0.947753;    0.940710;    0.919227;    0.895955;    0.861831;    0.815143;    0.778337;    0.735228;    0.681739;    0.589029;    0.515998;    0.421315;    0.286873;    0.144955;
  9;    1.384780;    1.011411;    1.013378;    1.004720;    0.984824;    0.980316;    0.971480;    0.947083;    0.937686;    0.907146;    0.872619;    0.816745;    0.770871;    0.701556;    0.648298;    0.561693;    0.473176;    0.350333;    0.206503;
 10;    1.384304;    1.015874;    1.007624;    1.009148;    1.005317;    0.982458;    0.961531;    0.949594;    0.914851;    0.882528;    0.855693;    0.811700;    0.741985;    0.693936;    0.614634;    0.539031;    0.453671;    0.344093;    0.188583;
 11;    1.393490;    1.013237;    0.999564;    0.988649;    0.984221;    0.965509;    0.941857;    0.929271;    0.907011;    0.880451;    0.849480;    0.807402;    0.749294;    0.686543;    0.592842;    0.520844;    0.425104;    0.311959;    0.177100;
 12;    1.385547;    0.993908;    0.989620;    0.980429;    0.977484;    0.959300;    0.924186;    0.898763;    0.866332;    0.828683;    0.792613;    0.767558;    0.723056;    0.668711;    0.596600;    0.494400;    0.390785;    0.304354;    0.165285;
 13;    1.392382;    1.001336;    0.997584;    0.987352;    0.979037;    0.972381;    0.954250;    0.929742;    0.896097;    0.868397;    0.833470;    0.787105;    0.732330;    0.695286;    0.644636;    0.559581;    0.453170;    0.308641;    0.160179;
 14;    1.381456;    0.986449;    0.984031;    0.978202;    0.965486;    0.953483;    0.924502;    0.910348;    0.887469;    0.855941;    0.825043;    0.768534;    0.722557;    0.673784;    0.613227;    0.517375;    0.398344;    0.283391;    0.143244;
 15;    1.390462;    0.983399;    0.986085;    0.982863;    0.959385;    0.949782;    0.931975;    0.891956;    0.866464;    0.823991;    0.788896;    0.757193;    0.704557;    0.630429;    0.565359;    0.469567;    0.393681;    0.299198;    0.160040;
 16;    1.370080;    1.022170;    1.019514;    1.014980;    0.999191;    0.979344;    0.957964;    0.932336;    0.895923;    0.879187;    0.851378;    0.810409;    0.749431;    0.697177;    0.624281;    0.546307;    0.435443;    0.324242;    0.159017;
 17;    1.385677;    0.986771;    0.975774;    0.970708;    0.953369;    0.936303;    0.914280;    0.899659;    0.868232;    0.842702;    0.817452;    0.767978;    0.717578;    0.647956;    0.566204;    0.473267;    0.391053;    0.291907;    0.168022;
 18;    1.386318;    0.992159;    0.983605;    0.981695;    0.981749;    0.971246;    0.936702;    0.917252;    0.893126;    0.846050;    0.818096;    0.777724;    0.730589;    0.683769;    0.606891;    0.510577;    0.415341;    0.298420;    0.155351;
 19;    1.383620;    0.989998;    0.993907;    0.983506;    0.984063;    0.963792;    0.960635;    0.945627;    0.922504;    0.888761;    0.848368;    0.798462;    0.744569;    0.681951;    0.581322;    0.505390;    0.411411;    0.310103;    0.177491;
 20;    1.381008;    1.008482;    1.008441;    1.016384;    1.011986;    1.000612;    0.981425;    0.946752;    0.910875;    0.894996;    0.864323;    0.822196;    0.755174;    0.678684;    0.631496;    0.554267;    0.434115;    0.317467;    0.179681;
 21;    1.380586;    1.011182;    0.999745;    0.998799;    0.988362;    0.974003;    0.944661;    0.917119;    0.903387;    0.871046;    0.829202;    0.775515;    0.723122;    0.668090;    0.601329;    0.520625;    0.404318;    0.316328;    0.173828;
 22;    1.375409;    1.012118;    1.015158;    1.006435;    0.993362;    0.967987;    0.941880;    0.909957;    0.888769;    0.860767;    0.822140;    0.785963;    0.740600;    0.675581;    0.615376;    0.544469;    0.456758;    0.316725;    0.154605;
 23;    1.388895;    1.009118;    1.002554;    0.990010;    0.993011;    0.981160;    0.964112;    0.948365;    0.922826;    0.891525;    0.849254;    0.788489;    0.727940;    0.678908;    0.621580;    0.532397;    0.416441;    0.314470;    0.156264;
 24;    1.389956;    1.009146;    1.010794;    1.008083;    0.995656;    0.974282;    0.964296;    0.929211;    0.899411;    0.857263;    0.828974;    0.788044;    0.714251;    0.665033;    0.586822;    0.524824;    0.456042;    0.350401;    0.207838;
 25;    1.382087;    0.989749;    0.989689;    0.973356;    0.968891;    0.957787;    0.940337;    0.916994;    0.878836;    0.834181;    0.800885;    0.739204;    0.685465;    0.639878;    0.555682;    0.482703;    0.404183;    0.286741;    0.130605;
 26;    1.383917;    1.023070;    1.014706;    1.006932;    0.997932;    0.990577;    0.965046;    0.937679;    0.922204;    0.898084;    0.852236;    0.795407;    0.712723;    0.661112;    0.585335;    0.508017;    0.434677;    0.330550;    0.186258;
 27;    1.379221;    1.003677;    1.007363;    1.003229;    0.992604;    0.983336;    0.965121;    0.937134;    0.913118;    0.879190;    0.835495;    0.792990;    0.740311;    0.655531;    0.590563;    0.513417;    0.399643;    0.252782;    0.153565;
 28;    1.379195;    1.001676;    0.996262;    0.988766;    0.980797;    0.967757;    0.952386;    0.928257;    0.900722;    0.867829;    0.816431;    0.787065;    0.728065;    0.679336;    0.606727;    0.529107;    0.422418;    0.304649;    0.159480;
 29;    1.393836;    1.000205;    0.999560;    0.985898;    0.975353;    0.967583;    0.953177;    0.925857;    0.903547;    0.879573;    0.836220;    0.785387;    0.731130;    0.654393;    0.585813;    0.517389;    0.394986;    0.255474;    0.132426;
 30;    1.378310;    1.011843;    1.005312;    1.006163;    0.993194;    0.973748;    0.951454;    0.920487;    0.898480;    0.864315;    0.830509;    0.799103;    0.742286;    0.694668;    0.636539;    0.565962;    0.453914;    0.317308;    0.184339;
 31;    1.387811;    1.009087;    1.006723;    1.011130;    1.005285;    0.985271;    0.976094;    0.945086;    0.900616;    0.864829;    0.840171;    0.802035;    0.747586;    0.679679;    0.604971;    0.511788;    0.416509;    0.315032;    0.183889;
 32;    1.381944;    1.002024;    0.992958;    0.978895;    0.969385;    0.963302;    0.941227;    0.918198;    0.887795;    0.842927;    0.803876;    0.763086;    0.708823;    0.660375;    0.594071;    0.503722;    0.379809;    0.264935;    0.148557;
 33;    1.414212;    0.987718;    0.979429;    0.980599;    0.972601;    0.966763;    0.952160;    0.918211;    0.884687;    0.848230;    0.820054;    0.771608;    0.718514;    0.666787;    0.615772;    0.537036;    0.414557;    0.293286;    0.168745;
 34;    1.386161;    1.021449;    1.015125;    1.010827;    1.006947;    0.985519;    0.969840;    0.936338;    0.902160;    0.855688;    0.810601;    0.780549;    0.734273;    0.680249;    0.611217;    0.549738;    0.455211;    0.341883;    0.180334;
 35;    1.381558;    1.001919;    0.991941;    0.988591;    0.985610;    0.968445;    0.949473;    0.928869;    0.894357;    0.865966;    0.828225;    0.764382;    0.727835;    0.669464;    0.614969;    0.529743;    0.440020;    0.309194;    0.188064;
 36;    1.375618;    0.991940;    0.995054;    0.980360;    0.975580;    0.955795;    0.941540;    0.922966;    0.903089;    0.868693;    0.840146;    0.796204;    0.747186;    0.684656;    0.622041;    0.546976;    0.440067;    0.281270;    0.148501;
 37;    1.379012;    0.995967;    0.989951;    0.977974;    0.968633;    0.950824;    0.932419;    0.923677;    0.896470;    0.869590;    0.840968;    0.780134;    0.727579;    0.677413;    0.595500;    0.501908;    0.411530;    0.308165;    0.162735;
 38;    1.374359;    1.000581;    0.990383;    0.977548;    0.964601;    0.949612;    0.940813;    0.930321;    0.919645;    0.890311;    0.852586;    0.808158;    0.747149;    0.662220;    0.594322;    0.535605;    0.440426;    0.305906;    0.156185;
 39;    1.392540;    0.990008;    0.984477;    0.985180;    0.971632;    0.949716;    0.928222;    0.910235;    0.882903;    0.853225;    0.811688;    0.753696;    0.719492;    0.659702;    0.598477;    0.509603;    0.423219;    0.286533;    0.154695;
 40;    1.378125;    1.001107;    0.995425;    0.992298;    0.968199;    0.955215;    0.933634;    0.921268;    0.894579;    0.848157;    0.802787;    0.769690;    0.718002;    0.675121;    0.603854;    0.529462;    0.410109;    0.300960;    0.179633;
 41;    1.368587;    0.995597;    0.989630;    0.981282;    0.967275;    0.961245;    0.948151;    0.932143;    0.907029;    0.865884;    0.820381;    0.774697;    0.734330;    0.673968;    0.578572;    0.515967;    0.413320;    0.318282;    0.151817;
 42;    1.385056;    1.000753;    0.999516;    0.986370;    0.967990;    0.960727;    0.936410;    0.908745;    0.877524;    0.852192;    0.819477;    0.768929;    0.721984;    0.657807;    0.583689;    0.510950;    0.429916;    0.326696;    0.181681;
 43;    1.383603;    1.002830;    1.003180;    0.999832;    0.983051;    0.969916;    0.951923;    0.939044;    0.912363;    0.875386;    0.820855;    0.770186;    0.718720;    0.638941;    0.572068;    0.476761;    0.402985;    0.313829;    0.187063;
 44;    1.390406;    1.009175;    1.004580;    0.999677;    0.991450;    0.970152;    0.969279;    0.953680;    0.924186;    0.889425;    0.843196;    0.787154;    0.748464;    0.678880;    0.609640;    0.519790;    0.424006;    0.305555;    0.184760;
 45;    1.376114;    0.994915;    0.982348;    0.982845;    0.971442;    0.953978;    0.931979;    0.903078;    0.884965;    0.846741;    0.827399;    0.792648;    0.736661;    0.685344;    0.628449;    0.553951;    0.445303;    0.307024;    0.140479;
 46;    1.384233;    0.995989;    0.990824;    0.988552;    0.976043;    0.957464;    0.951263;    0.936730;    0.913826;    0.880396;    0.839914;    0.782611;    0.724804;    0.670274;    0.595046;    0.506539;    0.420006;    0.304883;    0.177266;
 47;    1.377064;    1.023553;    1.023392;    1.017914;    1.015127;    1.000388;    0.982037;    0.953781;    0.934250;    0.903727;    0.866935;    0.817910;    0.752835;    0.695921;    0.607947;    0.514640;    0.405838;    0.299907;    0.184300;
 48;    1.388947;    1.001549;    1.000985;    1.001186;    0.984099;    0.966731;    0.952282;    0.940345;    0.909193;    0.883406;    0.854428;    0.803461;    0.743514;    0.689832;    0.611455;    0.519091;    0.420706;    0.324806;    0.178604;
 49;    1.374944;    1.001173;    0.992162;    0.991168;    0.981306;    0.961861;    0.940627;    0.904830;    0.871946;    0.836184;    0.790601;    0.744824;    0.694230;    0.646870;    0.580817;    0.494455;    0.402740;    0.261267;    0.157199;
 50;    1.378165;    0.995979;    0.990762;    0.987893;    0.984671;    0.970312;    0.943027;    0.929075;    0.907003;    0.873324;    0.843180;    0.804517;    0.745371;    0.670346;    0.582590;    0.504469;    0.398980;    0.299954;    0.173428;
 51;    1.387577;    1.008651;    1.009980;    0.994662;    0.983365;    0.966004;    0.952357;    0.931768;    0.903401;    0.872166;    0.836385;    0.775994;    0.721937;    0.663936;    0.597986;    0.524559;    0.431449;    0.286768;    0.138917;
 52;    1.387171;    0.990948;    0.983589;    0.979522;    0.975952;    0.957580;    0.953563;    0.938173;    0.906263;    0.870625;    0.813532;    0.777987;    0.720004;    0.674457;    0.595996;    0.491107;    0.414253;    0.292570;    0.155779;
 53;    1.389117;    0.994547;    0.987312;    0.979460;    0.974174;    0.961593;    0.949516;    0.927419;    0.892018;    0.857996;    0.831319;    0.769967;    0.725882;    0.666685;    0.594253;    0.490376;    0.394473;    0.283205;    0.152356;
 54;    1.380546;    1.001134;    0.988788;    0.986937;    0.980057;    0.954170;    0.930978;    0.903728;    0.879947;    0.848566;    0.811024;    0.763879;    0.705930;    0.645365;    0.590606;    0.509723;    0.387125;    0.279954;    0.173464;
 55;    1.384345;    0.985561;    0.987969;    0.971895;    0.962580;    0.956207;    0.939007;    0.901206;    0.881940;    0.850435;    0.803508;    0.770772;    0.712587;    0.659335;    0.603704;    0.529720;    0.419952;    0.303487;    0.158179;
 56;    1.400375;    0.998393;    0.989378;    0.979325;    0.972013;    0.957907;    0.940052;    0.913071;    0.879632;    0.839224;    0.812077;    0.767202;    0.697652;    0.646389;    0.564803;    0.493836;    0.392042;    0.292359;    0.173853;
 57;    1.398478;    1.017903;    1.013241;    1.003599;    0.997761;    0.981481;    0.960895;    0.938818;    0.915914;    0.890637;    0.851956;    0.796179;    0.740689;    0.675360;    0.609445;    0.519047;    0.446929;    0.324956;    0.183996;
 58;    1.395312;    1.004917;    1.003141;    0.996068;    0.984770;    0.986145;    0.972671;    0.948255;    0.935955;    0.903008;    0.859435;    0.822072;    0.761545;    0.706985;    0.642873;    0.566076;    0.449269;    0.318510;    0.177294;
 59;    1.388032;    0.993306;    0.985115;    0.985028;    0.975392;    0.965067;    0.944833;    0.907271;    0.874376;    0.841897;    0.804534;    0.765477;    0.710515;    0.653116;    0.580183;    0.498939;    0.429674;    0.310443;    0.184772;
 60;    1.391260;    0.999545;    1.004134;    1.002669;    0.996116;    0.973561;    0.958271;    0.936513;    0.912045;    0.874049;    0.837347;    0.803923;    0.756670;    0.689755;    0.612292;    0.540024;    0.439148;    0.307727;    0.158819;
 61;    1.388427;    1.011501;    1.005868;    0.999231;    0.985214;    0.974108;    0.957761;    0.927165;    0.901484;    0.871686;    0.829048;    0.786316;    0.717531;    0.683494;    0.628668;    0.537899;    0.445845;    0.308163;    0.162109;
 62;    1.390215;    0.989013;    0.978021;    0.969079;    0.960711;    0.950320;    0.937265;    0.913505;    0.886715;    0.836809;    0.813582;    0.772683;    0.708092;    0.653832;    0.571441;    0.493835;    0.385117;    0.277748;    0.155425;
 63;    1.381333;    0.997849;    0.991939;    0.977436;    0.964162;    0.944433;    0.930998;    0.914601;    0.892530;    0.854372;    0.814215;    0.766465;    0.703153;    0.654978;    0.584720;    0.517034;    0.440958;    0.333039;    0.189642;
 64;    1.391942;    1.011285;    1.009092;    1.000231;    0.994338;    0.985425;    0.964634;    0.937364;    0.923670;    0.895100;    0.849297;    0.808135;    0.758745;    0.692377;    0.621989;    0.535890;    0.451320;    0.338058;    0.196906;
 65;    1.392981;    0.984698;    0.989141;    0.977545;    0.963214;    0.960935;    0.951335;    0.932787;    0.898345;    0.861378;    0.809526;    0.768483;    0.736105;    0.680831;    0.609480;    0.511553;    0.418616;    0.278965;    0.141573;
 66;    1.393165;    0.994965;    0.984586;    0.982123;    0.963953;    0.957754;    0.942579;    0.916107;    0.888977;    0.852582;    0.816440;    0.771900;    0.720239;    0.655816;    0.568700;    0.482752;    0.406136;    0.287695;    0.184675;
 67;    1.379245;    1.004804;    0.995537;    0.984509;    0.973258;    0.964582;    0.947778;    0.904237;    0.883462;    0.847490;    0.802700;    0.777850;    0.729338;    0.648864;    0.555501;    0.497187;    0.407447;    0.287498;    0.169538;
 68;    1.448155;    1.003615;    1.007520;    0.993079;    0.994133;    0.979994;    0.952120;    0.936606;    0.919088;    0.890602;    0.856124;    0.804776;    0.751604;    0.681130;    0.629085;    0.546004;    0.427585;    0.288545;    0.174764;
 69;    1.402242;    1.007999;    1.000858;    0.991239;    0.990579;    0.982849;    0.972261;    0.954091;    0.927506;    0.896125;    0.843252;    0.786892;    0.730163;    0.673377;    0.607725;    0.515612;    0.426544;    0.304611;    0.171741;
 70;    1.388625;    1.013415;    1.011257;    0.999729;    0.984694;    0.971135;    0.956792;    0.931082;    0.915286;    0.884796;    0.826565;    0.782908;    0.738794;    0.668838;    0.610879;    0.515430;    0.405287;    0.297123;    0.185147;
 71;    1.385081;    0.996280;    0.993851;    0.983712;    0.963213;    0.948388;    0.922931;    0.908132;    0.882804;    0.839216;    0.818171;    0.767944;    0.726816;    0.660827;    0.589519;    0.514768;    0.413888;    0.303487;    0.163830;
 72;    1.384395;    1.001906;    0.998541;    0.997965;    0.996035;    0.985707;    0.962540;    0.947704;    0.919925;    0.876631;    0.849625;    0.806482;    0.760138;    0.690159;    0.589498;    0.502817;    0.410458;    0.291163;    0.169738;
 73;    1.389658;    1.022346;    1.022543;    1.015303;    1.007857;    0.995939;    0.970103;    0.955034;    0.925016;    0.900773;    0.873706;    0.831394;    0.764846;    0.672352;    0.620549;    0.544140;    0.432775;    0.312524;    0.173404;
 74;    1.385260;    1.004360;    0.994111;    0.988962;    0.980018;    0.967002;    0.961539;    0.939530;    0.899853;    0.850817;    0.824357;    0.777284;    0.748313;    0.693195;    0.618986;    0.534017;    0.429696;    0.324447;    0.157401;
 75;    1.390093;    0.982056;    0.977795;    0.974088;    0.956618;    0.945020;    0.935189;    0.922889;    0.892756;    0.854903;    0.806969;    0.771903;    0.708017;    0.662485;    0.593898;    0.526899;    0.452911;    0.316032;    0.179874;
 76;    1.399731;    0.996316;    0.996690;    0.993079;    0.983455;    0.973311;    0.949816;    0.935188;    0.893266;    0.845385;    0.814193;    0.789361;    0.743111;    0.681744;    0.610285;    0.510824;    0.392144;    0.308998;    0.179124;
 77;    1.387739;    0.972707;    0.969839;    0.960561;    0.943623;    0.930779;    0.910186;    0.886036;    0.856274;    0.843725;    0.814294;    0.764096;    0.706657;    0.645228;    0.565025;    0.496477;    0.398627;    0.300681;    0.162482;
 78;    1.390851;    0.997705;    0.987107;    0.980562;    0.974875;    0.973371;    0.963700;    0.940365;    0.908674;    0.880677;    0.841697;    0.791212;    0.722466;    0.633540;    0.570737;    0.505442;    0.410303;    0.315741;    0.171715;
 79;    1.392943;    1.007037;    0.999502;    0.993469;    0.970882;    0.965346;    0.946805;    0.935149;    0.907734;    0.872694;    0.826103;    0.778732;    0.729132;    0.680430;    0.611032;    0.504760;    0.386601;    0.275289;    0.175216;
 80;    1.393943;    0.971886;    0.966831;    0.964881;    0.960598;    0.952748;    0.930576;    0.913879;    0.880350;    0.828298;    0.800850;    0.751318;    0.684934;    0.633697;    0.547417;    0.471474;    0.369504;    0.262926;    0.158745;
 81;    1.377621;    0.985285;    0.978465;    0.969953;    0.952403;    0.945018;    0.923709;    0.898558;    0.878705;    0.860806;    0.836918;    0.794114;    0.735644;    0.669373;    0.581429;    0.508244;    0.430980;    0.337681;    0.196037;
 82;    1.390854;    0.978621;    0.972074;    0.968699;    0.962912;    0.950748;    0.933654;    0.920969;    0.900778;    0.867049;    0.835989;    0.792512;    0.741484;    0.678250;    0.605037;    0.528404;    0.463820;    0.348167;    0.194379;
 83;    1.384522;    0.985448;    0.978069;    0.980923;    0.962907;    0.958016;    0.948448;    0.927063;    0.891027;    0.862390;    0.808659;    0.774543;    0.731448;    0.677593;    0.591400;    0.520756;    0.408333;    0.300974;    0.177579;
 84;    1.388802;    1.004385;    1.010567;    0.992165;    0.976206;    0.960153;    0.938150;    0.929762;    0.908994;    0.884301;    0.849722;    0.812568;    0.753775;    0.661344;    0.580554;    0.492236;    0.406687;    0.284694;    0.149781;
 85;    1.405747;    1.005414;    0.999835;    1.001949;    0.990736;    0.973051;    0.960482;    0.928826;    0.906967;    0.884019;    0.841682;    0.799920;    0.740252;    0.674228;    0.618948;    0.525216;    0.443430;    0.311408;    0.160384;
 86;    1.382427;    1.002698;    0.994339;    0.991112;    0.973601;    0.954464;    0.935795;    0.905454;    0.882457;    0.851525;    0.811709;    0.778213;    0.715281;    0.667318;    0.582503;    0.523560;    0.439991;    0.307461;    0.161141;
 87;    1.374159;    0.998260;    0.995073;    0.988561;    0.967670;    0.952969;    0.942486;    0.925390;    0.897592;    0.851742;    0.797024;    0.761225;    0.722590;    0.657404;    0.557743;    0.476899;    0.392037;    0.293516;    0.176344;
 88;    1.392387;    0.991081;    0.980949;    0.982534;    0.974377;    0.961166;    0.929116;    0.919880;    0.895215;    0.866046;    0.833244;    0.783575;    0.708998;    0.659247;    0.568217;    0.451690;    0.375964;    0.276411;    0.162272;
 89;    1.385068;    1.002634;    0.998715;    0.991379;    0.983173;    0.967051;    0.941324;    0.929090;    0.894583;    0.852088;    0.820676;    0.774528;    0.720602;    0.650733;    0.574727;    0.486522;    0.373050;    0.282551;    0.156261;
 90;    1.391403;    1.008765;    1.005461;    0.995588;    0.984130;    0.978030;    0.963828;    0.939963;    0.925666;    0.893525;    0.852656;    0.802810;    0.753747;    0.689281;    0.599092;    0.519678;    0.409971;    0.300397;    0.183075;
 91;    1.386727;    1.000990;    0.997400;    0.976922;    0.969953;    0.968332;    0.950088;    0.909067;    0.896813;    0.867533;    0.819104;    0.764033;    0.736149;    0.677928;    0.594048;    0.530002;    0.424990;    0.304399;    0.127234;
 92;    1.736665;    1.000216;    0.992918;    0.988082;    0.979276;    0.963703;    0.947953;    0.938185;    0.918202;    0.882728;    0.831064;    0.781977;    0.725676;    0.657511;    0.582794;    0.489428;    0.385926;    0.256759;    0.155184;
 93;    1.380985;    1.009072;    1.005911;    0.996680;    0.992515;    0.983241;    0.958059;    0.921827;    0.897827;    0.868441;    0.852160;    0.820380;    0.767544;    0.706514;    0.632044;    0.547797;    0.417583;    0.290953;    0.172147;
 94;    1.389964;    0.987655;    0.985379;    0.972719;    0.963542;    0.945999;    0.924183;    0.902662;    0.878660;    0.839119;    0.804120;    0.748268;    0.701386;    0.628078;    0.578310;    0.513676;    0.421999;    0.310572;    0.157457;
 95;    1.378371;    1.008396;    1.006253;    1.002461;    0.996421;    0.986817;    0.974588;    0.952841;    0.922491;    0.878835;    0.825457;    0.792787;    0.745091;    0.698078;    0.622021;    0.543593;    0.431763;    0.275381;    0.156456;
 96;    1.387376;    0.994639;    0.987604;    0.972558;    0.976575;    0.964990;    0.959210;    0.939987;    0.915716;    0.878598;    0.849478;    0.803288;    0.739989;    0.653584;    0.579883;    0.475583;    0.402260;    0.301426;    0.187783;
 97;    1.381092;    1.026555;    1.026669;    1.009376;    0.984460;    0.967973;    0.956519;    0.947746;    0.926043;    0.889023;    0.850518;    0.795203;    0.713792;    0.664969;    0.610696;    0.519491;    0.419439;    0.332902;    0.198504;
 98;    1.388194;    1.003174;    0.994840;    0.995700;    0.983388;    0.966424;    0.951675;    0.938108;    0.915368;    0.875776;    0.846390;    0.801510;    0.744517;    0.667098;    0.616258;    0.523079;    0.451765;    0.336663;    0.193511;
 99;    1.387953;    1.000010;    0.986157;    0.973916;    0.978788;    0.967759;    0.947746;    0.928971;    0.895022;    0.867887;    0.812864;    0.777981;    0.726927;    0.675583;    0.622121;    0.552689;    0.448075;    0.320299;    0.172360;
100;    1.388767;    0.995305;    0.990412;    0.989368;    0.983080;    0.975952;    0.957123;    0.934170;    0.886263;    0.856285;    0.826443;    0.777227;    0.733288;    0.689728;    0.614785;    0.512624;    0.425074;    0.308495;    0.175507;
