Simulation;Time;PC 0;PC 1;PC 2;PC 3;PC 4;PC 5;PC 6;PC 7;PC 8;PC 9;PC10;PC11;PC12;PC13;PC14;PC15;PC16;PC17;
Nan;Nan;0;0;0;0;0;0;0;0;0;0;0;0;0;1;0;0;0;0;
  0;    0.023026;    0.253880;    0.250665;    0.250723;    0.250731;    0.250924;    0.251111;    0.251080;    0.251127;    0.250931;    0.250592;    0.250384;    0.250412;    0.250405;    0.250340;    0.250333;    0.250399;    0.250370;    0.250389;
  1;    0.022835;    0.256117;    0.252887;    0.252810;    0.252819;    0.253089;    0.252995;    0.253038;    0.252996;    0.252748;    0.252950;    0.252833;    0.252625;    0.252757;    0.252538;    0.252494;    0.252521;    0.252537;    0.252540;
  2;    0.022929;    0.256497;    0.253448;    0.253621;    0.253519;    0.253692;    0.253615;    0.253753;    0.253602;    0.253535;    0.253469;    0.253396;    0.253378;    0.253353;    0.252996;    0.253047;    0.253055;    0.253000;    0.253000;
  3;    0.024012;    0.256105;    0.253375;    0.253425;    0.253670;    0.253800;    0.253841;    0.253556;    0.253567;    0.253655;    0.253423;    0.253434;    0.253262;    0.252985;    0.252850;    0.252859;    0.252902;    0.252942;    0.252947;
  4;    0.023609;    0.257569;    0.254503;    0.254626;    0.254600;    0.254614;    0.254437;    0.254481;    0.254616;    0.254621;    0.254506;    0.254410;    0.254282;    0.254226;    0.254164;    0.254209;    0.254290;    0.254262;    0.254293;
  5;    0.023344;    0.255768;    0.252610;    0.252715;    0.252620;    0.252778;    0.252784;    0.252696;    0.252883;    0.252686;    0.252679;    0.252521;    0.252517;    0.252374;    0.252267;    0.252286;    0.252310;    0.252350;    0.252320;
  6;    0.028640;    0.255754;    0.252723;    0.252863;    0.252751;    0.252658;    0.252783;    0.252748;    0.252900;    0.252899;    0.252800;    0.252691;    0.252769;    0.252576;    0.252340;    0.252394;    0.252380;    0.252370;    0.252397;
  7;    0.023382;    0.256130;    0.252860;    0.252792;    0.252972;    0.252927;    0.253134;    0.253090;    0.253082;    0.252870;    0.252792;    0.252796;    0.252718;    0.252402;    0.252244;    0.252272;    0.252313;    0.252328;    0.252349;
  8;    0.023244;    0.254042;    0.250928;    0.251085;    0.251161;    0.251269;    0.251184;    0.251140;    0.251263;    0.251066;    0.251033;    0.250859;    0.250758;    0.250651;    0.250546;    0.250640;    0.250660;    0.250645;    0.250669;
  9;    0.022277;    0.256343;    0.253406;    0.253407;    0.253488;    0.253424;    0.253715;    0.253824;    0.253705;    0.253648;    0.253695;    0.253640;    0.253771;    0.253544;    0.253185;    0.253176;    0.253221;    0.253237;    0.253251;
 10;    0.029222;    0.256757;    0.253810;    0.253841;    0.253994;    0.254160;    0.254082;    0.253965;    0.254233;    0.254322;    0.254198;    0.253874;    0.253936;    0.253719;    0.253458;    0.253497;    0.253556;    0.253528;    0.253543;
 11;    0.022558;    0.255943;    0.253162;    0.253306;    0.253525;    0.253457;    0.253560;    0.253405;    0.253595;    0.253682;    0.253464;    0.253546;    0.253376;    0.253142;    0.253144;    0.253089;    0.253078;    0.253095;    0.253119;
 12;    0.023921;    0.254515;    0.251876;    0.251993;    0.251974;    0.252025;    0.251828;    0.251707;    0.251738;    0.251843;    0.251872;    0.251844;    0.251426;    0.251294;    0.251206;    0.251264;    0.251270;    0.251303;    0.251318;
 13;    0.022493;    0.255873;    0.252437;    0.252530;    0.252653;    0.252754;    0.252684;    0.252823;    0.252597;    0.252649;    0.252582;    0.252470;    0.252516;    0.252171;    0.252081;    0.252104;    0.252166;    0.252181;    0.252185;
 14;    0.026160;    0.253934;    0.251010;    0.251052;    0.251267;    0.251299;    0.251140;    0.251197;    0.251261;    0.251419;    0.251301;    0.251041;    0.251062;    0.250955;    0.250774;    0.250751;    0.250805;    0.250838;    0.250845;
 15;    0.022933;    0.254644;    0.250699;    0.250912;    0.250811;    0.250667;    0.250646;    0.250834;    0.250816;    0.250652;    0.250712;    0.250599;    0.250577;    0.250509;    0.250390;    0.250386;    0.250394;    0.250402;    0.250426;
 16;    0.023484;    0.257164;    0.254433;    0.254412;    0.254527;    0.254650;    0.254557;    0.254498;    0.254642;    0.254644;    0.254621;    0.254370;    0.254104;    0.254102;    0.253851;    0.253890;    0.253940;    0.253960;    0.253980;
 17;    0.022557;    0.254152;    0.251246;    0.251160;    0.251256;    0.251090;    0.251136;    0.251213;    0.251231;    0.251202;    0.251184;    0.250923;    0.250870;    0.250881;    0.250588;    0.250576;    0.250580;    0.250574;    0.250580;
 18;    0.022420;    0.253999;    0.251466;    0.251431;    0.251586;    0.251707;    0.251653;    0.251721;    0.251662;    0.251581;    0.251639;    0.251601;    0.251659;    0.251576;    0.251301;    0.251334;    0.251390;    0.251370;    0.251398;
 19;    0.022309;    0.254697;    0.251405;    0.251528;    0.251588;    0.251803;    0.251917;    0.251786;    0.251779;    0.251872;    0.251844;    0.251763;    0.251460;    0.251324;    0.251185;    0.251232;    0.251249;    0.251277;    0.251287;
 20;    0.023338;    0.256746;    0.253200;    0.253316;    0.253577;    0.253544;    0.253405;    0.253331;    0.253473;    0.253514;    0.253371;    0.253436;    0.253432;    0.253119;    0.252892;    0.252949;    0.252932;    0.252973;    0.252988;
 21;    0.022629;    0.256600;    0.253047;    0.253103;    0.253222;    0.253047;    0.253165;    0.253299;    0.253214;    0.253214;    0.253138;    0.253195;    0.253109;    0.253062;    0.252917;    0.252849;    0.252862;    0.252894;    0.252898;
 22;    0.022555;    0.256714;    0.253405;    0.253566;    0.253540;    0.253529;    0.253627;    0.253667;    0.253610;    0.253612;    0.253405;    0.253383;    0.253442;    0.253262;    0.253041;    0.253024;    0.253060;    0.253080;    0.253098;
 23;    0.023294;    0.256024;    0.253034;    0.253148;    0.253295;    0.253472;    0.253470;    0.253490;    0.253251;    0.253260;    0.253050;    0.253072;    0.252965;    0.253007;    0.252837;    0.252833;    0.252850;    0.252864;    0.252903;
 24;    0.027136;    0.256638;    0.253401;    0.253643;    0.253454;    0.253580;    0.253855;    0.253981;    0.253861;    0.253577;    0.253646;    0.253621;    0.253103;    0.252982;    0.252748;    0.252762;    0.252827;    0.252846;    0.252877;
 25;    0.023015;    0.254422;    0.251513;    0.251660;    0.251783;    0.251807;    0.251697;    0.251676;    0.251763;    0.251762;    0.251678;    0.251613;    0.251114;    0.251043;    0.250955;    0.250943;    0.250920;    0.250923;    0.250943;
 26;    0.023456;    0.257147;    0.254143;    0.254305;    0.254243;    0.254349;    0.254551;    0.254610;    0.254297;    0.254363;    0.254171;    0.254126;    0.253995;    0.254083;    0.253910;    0.253948;    0.253987;    0.253953;    0.253966;
 27;    0.024242;    0.256244;    0.252752;    0.252842;    0.252871;    0.253006;    0.253004;    0.252885;    0.253030;    0.252834;    0.252914;    0.252773;    0.252585;    0.252429;    0.252345;    0.252406;    0.252424;    0.252398;    0.252399;
 28;    0.022974;    0.256074;    0.252412;    0.252476;    0.252499;    0.252471;    0.252511;    0.252737;    0.252774;    0.252607;    0.252654;    0.252487;    0.252306;    0.252130;    0.252053;    0.252089;    0.252119;    0.252103;    0.252108;
 29;    0.021607;    0.256489;    0.252443;    0.252519;    0.252483;    0.252661;    0.252808;    0.252749;    0.252669;    0.252645;    0.252331;    0.252309;    0.252071;    0.252058;    0.251965;    0.252034;    0.252062;    0.252039;    0.252048;
 30;    0.022432;    0.256480;    0.253182;    0.253502;    0.253548;    0.253496;    0.253278;    0.253200;    0.253185;    0.253241;    0.253182;    0.253291;    0.253180;    0.252989;    0.252882;    0.252905;    0.252950;    0.253001;    0.253019;
 31;    0.022526;    0.256276;    0.253041;    0.253194;    0.253371;    0.253534;    0.253558;    0.253394;    0.253272;    0.253471;    0.253482;    0.253368;    0.253164;    0.252904;    0.252883;    0.252810;    0.252819;    0.252858;    0.252858;
 32;    0.021522;    0.255280;    0.252602;    0.252604;    0.252593;    0.252823;    0.252790;    0.252841;    0.252772;    0.252818;    0.252816;    0.252660;    0.252435;    0.252114;    0.252018;    0.252051;    0.252101;    0.252127;    0.252109;
 33;    0.022309;    0.254879;    0.251083;    0.251069;    0.251202;    0.251429;    0.251417;    0.251252;    0.251297;    0.251356;    0.251342;    0.251362;    0.251365;    0.251178;    0.250963;    0.251017;    0.251004;    0.250987;    0.250993;
 34;    0.022928;    0.257551;    0.253955;    0.254134;    0.254329;    0.254404;    0.254249;    0.253978;    0.254158;    0.254197;    0.254159;    0.254159;    0.254057;    0.253942;    0.253766;    0.253809;    0.253819;    0.253856;    0.253858;
 35;    0.023032;    0.255493;    0.252456;    0.252559;    0.252602;    0.252618;    0.252763;    0.252816;    0.252621;    0.252494;    0.252508;    0.252607;    0.252654;    0.252624;    0.252316;    0.252301;    0.252303;    0.252309;    0.252299;
 36;    0.022466;    0.253818;    0.251329;    0.251546;    0.251574;    0.251493;    0.251559;    0.251725;    0.251714;    0.251729;    0.251691;    0.251653;    0.251712;    0.251675;    0.251342;    0.251437;    0.251397;    0.251397;    0.251409;
 37;    0.021949;    0.254879;    0.251963;    0.252145;    0.252109;    0.252112;    0.252119;    0.252144;    0.252067;    0.252069;    0.251840;    0.251876;    0.251813;    0.251619;    0.251521;    0.251594;    0.251609;    0.251644;    0.251639;
 38;    0.023155;    0.255352;    0.252067;    0.252196;    0.252153;    0.252274;    0.252280;    0.252352;    0.252379;    0.252263;    0.252187;    0.252191;    0.252183;    0.251989;    0.251952;    0.252003;    0.252050;    0.252055;    0.252069;
 39;    0.029377;    0.253870;    0.251212;    0.251472;    0.251499;    0.251297;    0.251258;    0.251360;    0.251317;    0.251220;    0.251234;    0.251247;    0.251078;    0.251031;    0.250993;    0.251023;    0.251055;    0.251101;    0.251081;
 40;    0.022084;    0.255671;    0.252538;    0.252644;    0.252554;    0.252723;    0.252844;    0.252848;    0.252717;    0.252536;    0.252293;    0.252377;    0.252223;    0.251997;    0.251864;    0.251895;    0.251915;    0.251953;    0.251963;
 41;    0.022375;    0.254855;    0.251683;    0.251831;    0.251706;    0.251847;    0.251932;    0.251812;    0.251976;    0.251865;    0.251891;    0.251804;    0.251876;    0.251779;    0.251620;    0.251713;    0.251656;    0.251651;    0.251661;
 42;    0.021911;    0.256298;    0.252401;    0.252454;    0.252379;    0.252483;    0.252508;    0.252343;    0.252320;    0.252431;    0.252529;    0.252361;    0.252281;    0.252189;    0.251926;    0.251934;    0.251963;    0.251999;    0.252018;
 43;    0.022861;    0.255957;    0.252518;    0.252628;    0.252766;    0.252837;    0.252762;    0.252823;    0.252827;    0.252828;    0.252666;    0.252631;    0.252548;    0.252261;    0.252196;    0.252252;    0.252247;    0.252233;    0.252269;
 44;    0.022238;    0.256022;    0.252958;    0.253119;    0.253397;    0.253535;    0.253465;    0.253522;    0.253512;    0.253194;    0.253043;    0.252898;    0.252985;    0.252889;    0.252841;    0.252822;    0.252846;    0.252881;    0.252884;
 45;    0.022655;    0.254755;    0.251577;    0.251511;    0.251518;    0.251466;    0.251577;    0.251614;    0.251783;    0.251864;    0.251772;    0.251656;    0.251489;    0.251389;    0.251332;    0.251327;    0.251342;    0.251358;    0.251383;
 46;    0.023183;    0.255544;    0.251909;    0.251833;    0.251922;    0.252059;    0.252186;    0.252142;    0.252021;    0.251948;    0.251948;    0.251874;    0.251678;    0.251622;    0.251567;    0.251591;    0.251633;    0.251632;    0.251655;
 47;    0.022107;    0.257702;    0.254266;    0.254324;    0.254379;    0.254551;    0.254480;    0.254600;    0.254742;    0.254613;    0.254659;    0.254640;    0.254433;    0.254160;    0.254095;    0.254097;    0.254150;    0.254151;    0.254148;
 48;    0.023651;    0.255260;    0.252446;    0.252608;    0.252673;    0.252695;    0.252797;    0.252797;    0.252769;    0.252655;    0.252623;    0.252482;    0.252430;    0.252439;    0.252263;    0.252285;    0.252330;    0.252339;    0.252343;
 49;    0.024039;    0.255374;    0.252387;    0.252437;    0.252669;    0.252703;    0.252713;    0.252461;    0.252322;    0.252273;    0.252302;    0.252232;    0.252203;    0.251980;    0.251809;    0.251875;    0.251853;    0.251903;    0.251858;
 50;    0.022702;    0.255400;    0.251973;    0.252155;    0.252449;    0.252466;    0.252375;    0.252312;    0.252389;    0.252130;    0.252088;    0.252118;    0.251767;    0.251805;    0.251614;    0.251647;    0.251650;    0.251658;    0.251681;
 51;    0.021879;    0.256843;    0.253373;    0.253518;    0.253368;    0.253394;    0.253593;    0.253494;    0.253488;    0.253439;    0.253566;    0.253445;    0.253106;    0.253052;    0.252682;    0.252757;    0.252755;    0.252750;    0.252760;
 52;    0.021972;    0.254699;    0.251488;    0.251455;    0.251531;    0.251507;    0.251689;    0.251590;    0.251505;    0.251536;    0.251369;    0.251383;    0.251212;    0.251165;    0.251155;    0.251207;    0.251220;    0.251262;    0.251205;
 53;    0.022989;    0.254264;    0.251945;    0.251871;    0.251951;    0.252186;    0.252267;    0.252172;    0.252075;    0.251953;    0.252110;    0.252199;    0.252142;    0.252044;    0.251391;    0.251416;    0.251483;    0.251478;    0.251478;
 54;    0.026625;    0.255778;    0.252406;    0.252325;    0.252507;    0.252587;    0.252561;    0.252743;    0.252698;    0.252447;    0.252190;    0.252177;    0.252106;    0.252000;    0.251924;    0.252003;    0.251950;    0.251934;    0.251955;
 55;    0.026435;    0.254415;    0.251000;    0.251136;    0.251104;    0.251131;    0.251185;    0.251143;    0.251235;    0.251300;    0.251356;    0.251287;    0.251006;    0.251005;    0.250679;    0.250696;    0.250686;    0.250705;    0.250724;
 56;    0.023241;    0.255386;    0.252076;    0.252059;    0.251943;    0.252071;    0.252048;    0.252140;    0.251966;    0.251921;    0.251932;    0.251848;    0.251735;    0.251717;    0.251666;    0.251697;    0.251701;    0.251676;    0.251694;
 57;    0.021465;    0.256857;    0.253691;    0.253894;    0.253845;    0.253905;    0.253856;    0.253931;    0.253907;    0.253696;    0.253728;    0.253823;    0.253817;    0.253739;    0.253534;    0.253549;    0.253586;    0.253602;    0.253628;
 58;    0.021926;    0.255922;    0.252671;    0.252726;    0.252810;    0.252797;    0.252912;    0.252988;    0.252891;    0.252988;    0.253048;    0.252873;    0.252853;    0.252861;    0.252593;    0.252663;    0.252684;    0.252743;    0.252712;
 59;    0.022246;    0.254689;    0.251748;    0.251753;    0.251922;    0.251755;    0.251764;    0.251714;    0.251942;    0.251891;    0.251751;    0.251816;    0.251793;    0.251620;    0.251249;    0.251316;    0.251277;    0.251308;    0.251335;
 60;    0.022719;    0.255463;    0.252288;    0.252596;    0.252503;    0.252424;    0.252556;    0.252737;    0.252862;    0.252723;    0.252668;    0.252556;    0.252302;    0.252167;    0.252113;    0.252201;    0.252161;    0.252177;    0.252188;
 61;    0.022482;    0.255975;    0.252966;    0.253077;    0.253301;    0.253357;    0.253426;    0.253184;    0.253309;    0.253331;    0.253348;    0.253290;    0.253114;    0.253015;    0.252961;    0.252998;    0.252961;    0.252992;    0.252998;
 62;    0.023586;    0.254545;    0.251254;    0.251516;    0.251476;    0.251456;    0.251420;    0.251373;    0.251460;    0.251274;    0.251190;    0.251243;    0.251003;    0.250989;    0.250719;    0.250704;    0.250704;    0.250724;    0.250732;
 63;    0.022503;    0.255723;    0.252098;    0.252243;    0.252105;    0.252243;    0.252216;    0.252186;    0.252202;    0.252119;    0.252091;    0.252079;    0.252002;    0.252023;    0.251699;    0.251727;    0.251702;    0.251760;    0.251761;
 64;    0.026907;    0.256345;    0.253182;    0.253261;    0.253422;    0.253550;    0.253464;    0.253515;    0.253637;    0.253743;    0.253732;    0.253428;    0.253389;    0.253183;    0.253133;    0.253158;    0.253194;    0.253238;    0.253229;
 65;    0.022871;    0.253580;    0.250744;    0.250865;    0.251030;    0.250944;    0.250863;    0.250836;    0.250899;    0.250987;    0.251001;    0.250760;    0.250880;    0.250702;    0.250540;    0.250586;    0.250652;    0.250665;    0.250650;
 66;    0.022074;    0.255139;    0.252134;    0.252137;    0.252307;    0.252399;    0.252352;    0.252283;    0.252243;    0.252197;    0.252041;    0.252009;    0.251831;    0.251683;    0.251502;    0.251605;    0.251552;    0.251574;    0.251600;
 67;    0.023108;    0.255288;    0.252456;    0.252440;    0.252683;    0.252772;    0.252601;    0.252494;    0.252435;    0.252423;    0.252497;    0.252366;    0.252251;    0.252314;    0.252247;    0.252240;    0.252218;    0.252240;    0.252255;
 68;    0.022048;    0.255733;    0.252595;    0.252688;    0.252787;    0.252749;    0.252737;    0.252764;    0.252780;    0.252875;    0.252760;    0.252791;    0.252797;    0.252564;    0.252438;    0.252396;    0.252400;    0.252398;    0.252421;
 69;    0.022723;    0.255438;    0.252860;    0.252921;    0.252982;    0.253164;    0.253287;    0.253290;    0.253284;    0.253431;    0.253468;    0.253385;    0.253073;    0.252960;    0.252814;    0.252791;    0.252795;    0.252783;    0.252798;
 70;    0.022661;    0.256486;    0.253361;    0.253377;    0.253455;    0.253417;    0.253542;    0.253488;    0.253374;    0.253507;    0.253263;    0.253238;    0.253195;    0.253141;    0.253095;    0.253144;    0.253166;    0.253200;    0.253216;
 71;    0.023159;    0.255304;    0.251942;    0.251949;    0.251964;    0.252005;    0.251976;    0.251924;    0.252101;    0.252096;    0.251998;    0.251885;    0.251668;    0.251650;    0.251594;    0.251524;    0.251538;    0.251557;    0.251580;
 72;    0.023188;    0.255835;    0.252412;    0.252494;    0.252701;    0.252682;    0.252781;    0.252905;    0.252928;    0.252996;    0.252868;    0.252772;    0.252425;    0.252457;    0.252258;    0.252292;    0.252266;    0.252267;    0.252281;
 73;    0.022913;    0.257927;    0.254508;    0.254604;    0.254811;    0.254721;    0.254703;    0.254915;    0.254950;    0.254712;    0.254598;    0.254541;    0.254398;    0.254228;    0.254017;    0.254041;    0.254061;    0.254099;    0.254106;
 74;    0.022485;    0.256152;    0.252419;    0.252515;    0.252591;    0.252801;    0.252657;    0.252793;    0.252688;    0.252561;    0.252775;    0.252823;    0.252754;    0.252457;    0.252374;    0.252400;    0.252418;    0.252443;    0.252436;
 75;    0.026255;    0.253969;    0.250633;    0.250651;    0.250913;    0.250730;    0.250780;    0.250872;    0.250996;    0.250994;    0.250809;    0.250642;    0.250724;    0.250604;    0.250409;    0.250464;    0.250456;    0.250494;    0.250515;
 76;    0.026869;    0.255589;    0.251905;    0.252186;    0.252207;    0.252228;    0.251973;    0.251939;    0.252040;    0.251924;    0.251928;    0.251832;    0.251758;    0.251801;    0.251644;    0.251645;    0.251708;    0.251662;    0.251677;
 77;    0.022589;    0.252872;    0.249703;    0.249832;    0.249777;    0.249738;    0.249867;    0.250098;    0.250020;    0.249788;    0.249879;    0.249779;    0.249833;    0.249563;    0.249517;    0.249463;    0.249417;    0.249434;    0.249450;
 78;    0.021743;    0.254714;    0.251965;    0.251994;    0.252149;    0.252170;    0.252219;    0.252332;    0.252268;    0.252360;    0.252318;    0.251907;    0.251826;    0.251833;    0.251779;    0.251770;    0.251792;    0.251779;    0.251792;
 79;    0.022744;    0.255870;    0.252698;    0.252631;    0.252683;    0.252855;    0.252831;    0.252709;    0.252866;    0.252872;    0.252714;    0.252734;    0.252786;    0.252559;    0.252494;    0.252532;    0.252528;    0.252564;    0.252532;
 80;    0.022635;    0.253288;    0.249737;    0.249854;    0.249875;    0.249941;    0.250003;    0.249884;    0.249948;    0.249777;    0.249746;    0.249733;    0.249463;    0.249424;    0.249297;    0.249296;    0.249344;    0.249323;    0.249332;
 81;    0.023147;    0.254068;    0.250898;    0.250972;    0.251010;    0.250886;    0.251116;    0.251236;    0.251113;    0.251020;    0.251027;    0.250920;    0.250872;    0.250837;    0.250610;    0.250645;    0.250683;    0.250704;    0.250718;
 82;    0.022485;    0.253590;    0.250318;    0.250380;    0.250527;    0.250654;    0.250864;    0.250817;    0.250829;    0.250727;    0.250706;    0.250504;    0.250504;    0.250466;    0.250122;    0.250175;    0.250176;    0.250218;    0.250226;
 83;    0.023277;    0.253537;    0.250777;    0.250884;    0.251035;    0.251029;    0.251145;    0.251295;    0.251231;    0.251188;    0.251126;    0.251000;    0.250812;    0.250718;    0.250678;    0.250719;    0.250735;    0.250760;    0.250783;
 84;    0.043938;    0.255043;    0.252580;    0.252736;    0.252871;    0.252724;    0.252859;    0.252790;    0.252983;    0.252852;    0.252846;    0.252704;    0.252594;    0.252488;    0.252382;    0.252377;    0.252410;    0.252395;    0.252403;
 85;    0.022659;    0.255664;    0.252887;    0.252949;    0.253063;    0.253217;    0.253151;    0.253175;    0.253207;    0.253184;    0.253200;    0.253258;    0.252975;    0.252956;    0.252525;    0.252566;    0.252581;    0.252568;    0.252591;
 86;    0.024026;    0.256115;    0.252416;    0.252478;    0.252388;    0.252429;    0.252331;    0.252400;    0.252569;    0.252560;    0.252628;    0.252460;    0.252437;    0.252188;    0.252110;    0.252089;    0.252096;    0.252120;    0.252125;
 87;    0.022412;    0.255621;    0.252173;    0.252413;    0.252192;    0.252285;    0.252298;    0.252414;    0.252546;    0.252523;    0.252369;    0.251967;    0.251878;    0.251769;    0.251656;    0.251773;    0.251740;    0.251770;    0.251781;
 88;    0.023724;    0.255417;    0.251721;    0.251669;    0.251985;    0.252043;    0.251963;    0.252143;    0.252179;    0.252068;    0.251948;    0.251527;    0.251559;    0.251415;    0.251194;    0.251253;    0.251223;    0.251234;    0.251230;
 89;    0.021890;    0.255744;    0.252500;    0.252744;    0.252734;    0.252770;    0.252645;    0.252728;    0.252593;    0.252517;    0.252606;    0.252338;    0.252399;    0.252079;    0.251937;    0.251969;    0.252021;    0.251994;    0.252016;
 90;    0.022534;    0.255826;    0.252954;    0.252933;    0.252959;    0.253053;    0.253258;    0.253405;    0.253471;    0.253177;    0.253307;    0.253029;    0.253087;    0.252949;    0.252809;    0.252910;    0.252913;    0.252949;    0.252893;
 91;    0.024248;    0.255714;    0.252243;    0.252226;    0.252246;    0.252448;    0.252282;    0.252302;    0.252506;    0.252431;    0.252273;    0.252282;    0.252090;    0.251915;    0.251917;    0.251956;    0.251975;    0.252012;    0.252017;
 92;    0.023981;    0.255151;    0.251992;    0.252044;    0.252132;    0.252267;    0.252284;    0.252233;    0.252241;    0.252371;    0.252185;    0.252205;    0.252242;    0.251984;    0.252000;    0.252032;    0.251951;    0.252000;    0.252001;
 93;    0.022022;    0.256094;    0.253051;    0.253139;    0.253192;    0.253321;    0.253362;    0.253333;    0.253315;    0.253345;    0.253204;    0.253086;    0.252969;    0.253030;    0.252763;    0.252794;    0.252838;    0.252865;    0.252872;
 94;    0.022395;    0.254696;    0.251414;    0.251653;    0.251599;    0.251446;    0.251309;    0.251435;    0.251314;    0.251052;    0.251018;    0.251194;    0.251229;    0.250982;    0.250759;    0.250761;    0.250782;    0.250796;    0.250804;
 95;    0.033345;    0.256434;    0.253052;    0.253066;    0.253284;    0.253354;    0.253365;    0.253372;    0.253464;    0.253413;    0.253235;    0.253386;    0.253338;    0.252880;    0.252806;    0.252850;    0.252841;    0.252845;    0.252850;
 96;    0.022209;    0.255390;    0.251699;    0.251772;    0.251861;    0.252005;    0.252118;    0.252070;    0.252010;    0.252150;    0.252119;    0.252048;    0.251905;    0.251749;    0.251531;    0.251569;    0.251594;    0.251620;    0.251625;
 97;    0.022104;    0.257335;    0.254603;    0.254635;    0.254536;    0.254586;    0.254436;    0.254582;    0.254519;    0.254536;    0.254489;    0.254587;    0.254418;    0.254393;    0.254193;    0.254246;    0.254235;    0.254209;    0.254231;
 98;    0.022679;    0.255507;    0.252452;    0.252436;    0.252666;    0.252756;    0.252619;    0.252769;    0.252683;    0.252739;    0.252541;    0.252585;    0.252577;    0.252484;    0.252246;    0.252341;    0.252372;    0.252349;    0.252364;
 99;    0.022469;    0.255503;    0.251907;    0.252036;    0.251947;    0.252171;    0.252125;    0.252219;    0.252187;    0.252182;    0.252266;    0.252313;    0.252270;    0.252230;    0.251980;    0.252017;    0.252051;    0.252085;    0.252098;
100;    0.022280;    0.255118;    0.251777;    0.251930;    0.252217;    0.252281;    0.252407;    0.252324;    0.251889;    0.251902;    0.251988;    0.251827;    0.251833;    0.251688;    0.251582;    0.251618;    0.251675;    0.251718;    0.251675;
