Simulation;Time;PC 0;PC 1;PC 2;PC 3;PC 4;PC 5;PC 6;PC 7;PC 8;PC 9;PC10;PC11;PC12;PC13;PC14;PC15;PC16;PC17;
Nan;Nan;0;0;0;1;0;0;0;0;0;0;0;0;0;0;0;0;0;0;
  0;    0.383519;    1.419199;    1.232364;    0.994144;    0.693987;    0.695017;    0.695443;    0.694735;    0.697351;    0.697996;    0.697815;    0.699162;    0.699468;    0.698053;    0.698969;    0.698018;    0.699105;    0.698536;    0.698782;
  1;    0.301188;    1.437136;    1.255100;    1.001069;    0.703154;    0.705068;    0.705818;    0.707114;    0.706994;    0.707466;    0.709226;    0.709839;    0.710275;    0.709736;    0.710359;    0.711170;    0.711213;    0.711685;    0.711716;
  2;    0.302335;    1.437306;    1.260313;    1.013331;    0.706379;    0.708410;    0.708718;    0.710666;    0.710513;    0.710876;    0.710445;    0.710120;    0.710781;    0.711786;    0.712668;    0.712118;    0.712772;    0.713238;    0.713062;
  3;    0.305447;    1.408786;    1.227375;    1.015044;    0.711110;    0.713253;    0.713484;    0.715434;    0.716111;    0.716648;    0.717039;    0.717021;    0.717432;    0.717713;    0.717840;    0.718716;    0.719427;    0.719342;    0.719468;
  4;    0.302178;    1.435490;    1.251638;    1.029171;    0.714491;    0.716846;    0.717863;    0.717724;    0.718742;    0.720578;    0.720573;    0.720797;    0.721886;    0.722443;    0.722159;    0.722943;    0.723065;    0.723443;    0.723614;
  5;    0.300179;    1.417279;    1.225884;    0.986792;    0.707019;    0.708408;    0.708849;    0.709532;    0.710948;    0.712696;    0.711682;    0.712656;    0.713151;    0.713928;    0.713964;    0.714469;    0.714143;    0.714562;    0.714694;
  6;    0.309067;    1.425592;    1.242865;    0.992284;    0.704419;    0.705469;    0.707782;    0.707701;    0.708092;    0.709660;    0.709677;    0.711600;    0.712642;    0.712116;    0.712089;    0.712376;    0.712024;    0.712751;    0.712660;
  7;    0.302342;    1.425389;    1.235738;    0.995613;    0.705139;    0.704957;    0.706703;    0.708025;    0.708752;    0.707694;    0.709363;    0.710098;    0.711034;    0.711151;    0.710962;    0.711216;    0.711750;    0.712515;    0.712538;
  8;    0.302321;    1.403896;    1.212887;    0.981912;    0.697583;    0.699267;    0.701021;    0.701330;    0.702475;    0.703765;    0.704524;    0.705135;    0.704566;    0.705449;    0.705738;    0.706363;    0.705838;    0.706297;    0.706195;
  9;    0.303100;    1.420363;    1.238603;    0.998719;    0.709488;    0.711485;    0.712697;    0.713336;    0.713258;    0.715604;    0.716976;    0.717570;    0.718281;    0.718976;    0.719185;    0.719098;    0.719919;    0.720201;    0.720581;
 10;    0.302760;    1.430141;    1.249694;    1.012056;    0.710040;    0.711936;    0.713048;    0.714695;    0.715515;    0.716404;    0.716754;    0.717436;    0.717273;    0.716455;    0.717272;    0.717713;    0.718136;    0.718556;    0.718646;
 11;    0.306163;    1.414786;    1.236079;    0.993848;    0.712742;    0.712953;    0.712875;    0.714502;    0.714485;    0.716004;    0.717216;    0.717578;    0.718872;    0.719074;    0.719110;    0.719037;    0.719697;    0.720103;    0.720455;
 12;    0.301842;    1.403285;    1.228416;    0.976628;    0.703381;    0.704391;    0.705127;    0.705666;    0.705391;    0.706862;    0.706595;    0.706469;    0.708234;    0.709602;    0.709964;    0.710317;    0.710321;    0.709936;    0.710082;
 13;    0.302809;    1.421741;    1.224817;    0.992011;    0.704102;    0.704912;    0.706728;    0.706491;    0.706939;    0.708078;    0.708119;    0.709329;    0.709212;    0.710694;    0.712057;    0.712824;    0.713366;    0.713148;    0.712720;
 14;    0.303440;    1.412331;    1.231416;    1.000197;    0.696766;    0.699247;    0.700629;    0.699289;    0.699472;    0.700534;    0.702179;    0.703575;    0.704022;    0.703074;    0.704340;    0.705099;    0.704300;    0.704466;    0.704906;
 15;    0.302183;    1.429345;    1.224119;    0.996314;    0.690988;    0.692328;    0.694601;    0.695690;    0.694821;    0.696728;    0.696396;    0.697901;    0.699133;    0.699679;    0.699777;    0.698965;    0.698318;    0.698738;    0.698972;
 16;    0.311156;    1.420831;    1.243116;    1.003463;    0.716107;    0.717534;    0.718170;    0.719821;    0.719588;    0.719960;    0.721244;    0.721002;    0.722676;    0.723129;    0.723313;    0.723382;    0.723988;    0.724210;    0.723954;
 17;    0.305548;    1.406267;    1.225280;    1.005912;    0.696826;    0.697000;    0.697366;    0.698155;    0.698664;    0.698775;    0.700073;    0.700960;    0.702312;    0.702835;    0.702091;    0.702557;    0.703055;    0.702700;    0.702836;
 18;    0.300685;    1.390540;    1.212185;    0.983654;    0.705257;    0.705538;    0.707225;    0.708688;    0.709273;    0.711130;    0.712256;    0.711676;    0.712738;    0.713527;    0.714217;    0.714223;    0.714734;    0.714673;    0.714721;
 19;    0.301499;    1.408594;    1.212522;    0.959526;    0.700954;    0.703407;    0.702995;    0.705242;    0.706406;    0.706849;    0.708044;    0.709123;    0.709638;    0.709944;    0.710202;    0.711019;    0.711186;    0.711227;    0.711265;
 20;    0.301639;    1.434658;    1.237220;    1.006662;    0.705828;    0.707078;    0.709422;    0.710637;    0.711611;    0.710574;    0.711871;    0.712402;    0.712402;    0.712731;    0.714118;    0.714735;    0.715034;    0.714839;    0.714887;
 21;    0.305236;    1.426616;    1.227466;    0.999206;    0.709440;    0.709596;    0.711834;    0.711876;    0.711015;    0.712063;    0.712617;    0.713787;    0.714664;    0.714561;    0.714899;    0.715499;    0.716003;    0.716018;    0.716294;
 22;    0.307794;    1.423371;    1.228353;    0.990177;    0.710199;    0.711510;    0.712967;    0.713304;    0.715229;    0.714717;    0.715167;    0.716707;    0.716434;    0.716663;    0.717494;    0.717473;    0.717935;    0.718449;    0.718420;
 23;    0.302388;    1.411295;    1.221516;    0.973142;    0.711895;    0.712429;    0.713051;    0.715167;    0.716523;    0.717191;    0.717891;    0.718669;    0.718232;    0.718514;    0.718627;    0.719591;    0.720097;    0.720714;    0.720727;
 24;    0.303708;    1.434589;    1.250185;    1.008338;    0.705002;    0.706075;    0.707539;    0.707980;    0.708445;    0.709747;    0.709734;    0.711432;    0.711385;    0.712028;    0.711444;    0.711827;    0.712879;    0.713689;    0.714028;
 25;    0.301210;    1.412352;    1.232870;    0.999823;    0.697799;    0.698562;    0.699567;    0.701778;    0.703067;    0.702514;    0.702597;    0.703120;    0.704188;    0.703954;    0.704577;    0.704122;    0.704956;    0.705241;    0.704601;
 26;    0.305139;    1.419984;    1.232820;    1.001730;    0.716925;    0.718760;    0.719026;    0.720757;    0.721065;    0.722697;    0.723465;    0.724188;    0.724622;    0.723171;    0.724187;    0.724147;    0.724701;    0.724567;    0.724688;
 27;    0.303171;    1.422788;    1.222103;    0.987706;    0.705569;    0.707809;    0.709136;    0.709570;    0.710483;    0.711015;    0.712347;    0.711902;    0.712265;    0.713049;    0.712649;    0.712947;    0.713682;    0.713279;    0.713819;
 28;    0.301116;    1.425808;    1.223280;    0.986675;    0.703799;    0.704751;    0.706516;    0.707678;    0.706881;    0.708498;    0.708844;    0.709386;    0.709271;    0.709848;    0.710458;    0.710754;    0.710874;    0.711215;    0.711160;
 29;    0.301412;    1.439014;    1.230092;    0.992294;    0.700363;    0.701895;    0.702014;    0.703988;    0.703585;    0.705693;    0.707131;    0.707650;    0.708798;    0.708444;    0.708666;    0.708769;    0.708849;    0.708251;    0.708282;
 30;    0.302426;    1.428267;    1.235712;    1.009890;    0.709388;    0.709924;    0.712004;    0.711405;    0.710268;    0.710861;    0.711539;    0.713047;    0.714326;    0.714868;    0.715291;    0.715295;    0.715389;    0.715181;    0.715682;
 31;    0.310737;    1.429627;    1.242022;    0.992003;    0.706863;    0.707933;    0.709748;    0.711329;    0.711927;    0.711450;    0.713032;    0.714056;    0.714178;    0.715046;    0.714336;    0.713992;    0.714823;    0.715076;    0.715392;
 32;    0.301367;    1.418163;    1.246660;    0.985175;    0.703886;    0.704434;    0.707023;    0.708476;    0.709323;    0.709925;    0.710251;    0.711001;    0.712172;    0.712765;    0.712423;    0.712577;    0.712449;    0.713128;    0.713185;
 33;    0.302473;    1.428331;    1.225907;    0.976545;    0.695256;    0.695709;    0.698683;    0.700178;    0.700294;    0.701872;    0.702151;    0.702269;    0.701806;    0.702373;    0.703036;    0.704051;    0.704013;    0.704192;    0.704340;
 34;    0.300640;    1.436004;    1.236481;    1.002021;    0.713670;    0.714253;    0.716616;    0.717582;    0.718770;    0.718985;    0.719931;    0.718957;    0.719124;    0.719473;    0.720373;    0.720779;    0.721484;    0.721289;    0.721533;
 35;    0.300532;    1.417953;    1.232066;    0.989017;    0.704976;    0.705827;    0.707800;    0.707657;    0.709579;    0.710392;    0.711400;    0.712654;    0.712348;    0.713635;    0.713388;    0.714231;    0.714492;    0.714996;    0.714845;
 36;    0.302313;    1.406767;    1.239420;    1.004924;    0.700124;    0.701381;    0.702687;    0.704292;    0.704160;    0.705734;    0.705875;    0.707377;    0.708568;    0.708780;    0.708816;    0.709798;    0.710631;    0.710900;    0.710454;
 37;    0.301520;    1.422519;    1.245866;    1.016923;    0.698799;    0.701130;    0.700988;    0.701055;    0.701542;    0.702988;    0.704264;    0.705346;    0.706372;    0.705698;    0.705955;    0.705681;    0.706497;    0.707371;    0.707235;
 38;    0.305801;    1.417393;    1.222437;    0.984891;    0.706240;    0.706653;    0.706703;    0.707242;    0.708412;    0.710437;    0.711100;    0.710858;    0.710737;    0.711283;    0.712109;    0.712320;    0.713040;    0.713085;    0.713337;
 39;    0.305163;    1.398562;    1.220408;    0.991266;    0.702475;    0.703656;    0.705115;    0.706584;    0.707176;    0.706203;    0.707714;    0.707411;    0.707070;    0.708592;    0.708915;    0.709603;    0.709746;    0.709971;    0.709698;
 40;    0.303419;    1.434579;    1.256461;    1.001636;    0.699966;    0.700431;    0.701718;    0.701755;    0.702070;    0.703262;    0.703336;    0.703416;    0.704940;    0.704919;    0.705446;    0.706350;    0.706054;    0.706158;    0.706547;
 41;    0.299761;    1.418556;    1.231538;    0.979029;    0.702418;    0.703033;    0.704399;    0.704591;    0.705485;    0.707227;    0.707003;    0.707405;    0.707594;    0.708531;    0.708733;    0.709363;    0.709739;    0.709780;    0.709642;
 42;    0.303182;    1.436337;    1.231580;    1.003598;    0.699917;    0.702235;    0.701816;    0.702699;    0.702608;    0.704384;    0.705211;    0.705508;    0.706169;    0.706194;    0.706267;    0.706620;    0.707157;    0.707508;    0.707906;
 43;    0.303608;    1.427537;    1.230277;    0.993478;    0.704670;    0.706176;    0.708116;    0.707078;    0.709294;    0.709972;    0.709337;    0.709916;    0.710101;    0.710723;    0.710771;    0.710929;    0.711216;    0.711655;    0.711934;
 44;    0.308422;    1.423338;    1.238297;    0.984743;    0.708521;    0.709478;    0.710678;    0.712389;    0.713500;    0.714251;    0.715146;    0.715390;    0.714946;    0.715940;    0.717015;    0.717542;    0.717856;    0.717094;    0.717401;
 45;    0.300912;    1.405766;    1.212134;    0.979592;    0.703049;    0.705282;    0.706527;    0.706018;    0.705123;    0.706458;    0.707550;    0.708568;    0.708935;    0.709819;    0.709737;    0.710544;    0.711175;    0.711415;    0.711530;
 46;    0.303302;    1.428242;    1.227905;    0.994320;    0.699402;    0.699867;    0.701280;    0.701480;    0.702796;    0.704416;    0.705334;    0.705422;    0.706599;    0.706484;    0.706664;    0.706489;    0.707051;    0.707015;    0.707284;
 47;    0.304291;    1.426773;    1.227067;    1.007818;    0.716545;    0.717694;    0.720308;    0.721474;    0.722276;    0.721606;    0.722163;    0.722787;    0.723452;    0.723283;    0.723576;    0.724449;    0.724126;    0.723953;    0.724318;
 48;    0.300589;    1.401570;    1.215823;    0.990787;    0.708124;    0.709760;    0.711920;    0.712563;    0.713617;    0.714462;    0.714270;    0.715520;    0.716524;    0.717251;    0.718261;    0.718399;    0.718322;    0.718973;    0.718802;
 49;    0.304204;    1.405563;    1.217091;    0.988897;    0.706356;    0.707244;    0.709004;    0.710318;    0.710196;    0.709315;    0.709617;    0.710475;    0.711575;    0.711442;    0.711666;    0.712755;    0.712922;    0.712777;    0.712954;
 50;    0.298960;    1.425547;    1.233681;    0.986663;    0.699923;    0.701717;    0.702545;    0.703014;    0.705226;    0.705676;    0.707390;    0.708306;    0.708636;    0.708620;    0.708798;    0.708990;    0.708421;    0.708888;    0.709025;
 51;    0.302941;    1.433154;    1.236980;    1.010037;    0.704873;    0.705876;    0.706710;    0.708830;    0.709400;    0.711185;    0.711415;    0.712278;    0.712096;    0.711615;    0.712828;    0.713666;    0.713591;    0.712978;    0.713353;
 52;    0.302377;    1.426376;    1.242101;    1.006557;    0.695830;    0.696748;    0.697540;    0.698403;    0.700002;    0.700736;    0.700623;    0.701786;    0.701908;    0.703597;    0.704113;    0.703975;    0.703067;    0.703191;    0.703577;
 53;    0.301705;    1.412121;    1.258771;    0.996999;    0.700254;    0.701230;    0.702073;    0.703146;    0.703888;    0.704139;    0.705036;    0.706882;    0.707354;    0.707480;    0.707655;    0.708052;    0.708733;    0.708903;    0.708532;
 54;    0.301577;    1.440999;    1.258418;    0.978436;    0.699877;    0.701118;    0.703480;    0.703045;    0.703882;    0.704087;    0.705277;    0.705235;    0.706514;    0.705854;    0.706628;    0.707293;    0.706359;    0.706963;    0.707068;
 55;    0.304872;    1.412069;    1.213112;    0.979675;    0.697041;    0.698215;    0.698825;    0.699716;    0.700312;    0.701182;    0.701372;    0.702685;    0.703135;    0.703881;    0.703964;    0.704907;    0.705680;    0.705838;    0.705834;
 56;    0.302041;    1.426724;    1.237205;    0.987550;    0.700646;    0.700523;    0.703058;    0.703478;    0.704294;    0.703981;    0.705681;    0.706841;    0.706710;    0.707428;    0.707129;    0.707393;    0.707689;    0.707830;    0.707875;
 57;    0.304908;    1.435800;    1.252515;    1.008890;    0.710565;    0.710857;    0.711595;    0.713308;    0.714661;    0.714527;    0.715818;    0.715758;    0.717224;    0.717952;    0.717445;    0.717674;    0.718171;    0.718585;    0.718802;
 58;    0.304199;    1.425469;    1.235747;    0.985869;    0.705970;    0.707503;    0.707904;    0.710354;    0.711920;    0.712472;    0.712557;    0.713948;    0.714403;    0.715395;    0.715551;    0.716261;    0.716594;    0.716434;    0.716632;
 59;    0.306966;    1.418112;    1.238809;    1.015334;    0.698098;    0.698461;    0.699480;    0.701555;    0.702404;    0.701667;    0.702780;    0.704183;    0.704573;    0.704326;    0.705168;    0.704879;    0.705019;    0.705674;    0.705969;
 60;    0.300080;    1.417415;    1.227094;    0.992322;    0.703316;    0.705389;    0.706854;    0.707767;    0.708444;    0.708831;    0.710033;    0.711360;    0.712638;    0.713435;    0.713736;    0.713078;    0.713961;    0.714106;    0.714028;
 61;    0.300924;    1.413406;    1.224447;    0.978532;    0.713319;    0.714042;    0.714550;    0.715707;    0.716866;    0.717613;    0.718446;    0.719498;    0.718449;    0.719724;    0.719410;    0.720213;    0.720510;    0.720891;    0.720814;
 62;    0.301525;    1.414981;    1.224433;    0.998150;    0.696300;    0.698449;    0.698418;    0.699358;    0.700114;    0.699003;    0.700550;    0.701559;    0.702564;    0.702859;    0.703292;    0.702736;    0.702433;    0.702600;    0.702811;
 63;    0.300424;    1.434744;    1.238424;    0.978721;    0.699480;    0.699585;    0.699978;    0.700598;    0.702380;    0.703932;    0.704096;    0.705450;    0.705404;    0.704989;    0.706201;    0.706362;    0.707064;    0.707587;    0.707682;
 64;    0.301692;    1.425340;    1.237151;    1.013805;    0.708778;    0.711127;    0.712155;    0.712249;    0.713657;    0.714922;    0.716617;    0.717094;    0.717404;    0.717209;    0.717006;    0.717725;    0.718672;    0.718769;    0.719104;
 65;    0.304878;    1.406112;    1.225699;    0.980021;    0.697151;    0.699351;    0.699296;    0.699655;    0.701142;    0.701761;    0.702538;    0.703104;    0.703067;    0.703616;    0.704528;    0.704864;    0.705388;    0.704506;    0.704762;
 66;    0.300997;    1.412175;    1.224963;    0.990551;    0.702173;    0.702782;    0.704869;    0.704728;    0.706115;    0.706775;    0.705662;    0.706557;    0.706688;    0.707355;    0.707861;    0.708302;    0.708997;    0.709245;    0.709763;
 67;    0.300057;    1.398807;    1.212020;    0.971558;    0.711782;    0.712088;    0.714262;    0.714078;    0.715248;    0.715862;    0.716911;    0.717414;    0.716152;    0.717414;    0.717589;    0.717349;    0.717880;    0.718167;    0.718560;
 68;    0.303787;    1.417312;    1.226595;    0.989789;    0.706041;    0.708361;    0.708723;    0.710384;    0.711254;    0.711710;    0.712925;    0.713494;    0.713694;    0.715015;    0.715116;    0.714909;    0.714981;    0.714747;    0.714952;
 69;    0.300383;    1.411794;    1.237932;    1.006922;    0.708933;    0.710000;    0.712149;    0.712929;    0.713255;    0.714698;    0.715343;    0.716200;    0.716643;    0.716391;    0.716921;    0.717420;    0.717806;    0.717856;    0.717821;
 70;    0.302175;    1.431069;    1.248542;    0.985084;    0.708977;    0.710368;    0.711591;    0.712899;    0.713627;    0.715534;    0.715854;    0.717028;    0.716307;    0.717227;    0.718667;    0.718546;    0.718067;    0.718232;    0.718558;
 71;    0.301836;    1.417113;    1.221870;    0.981008;    0.701601;    0.703536;    0.704948;    0.703753;    0.703984;    0.705178;    0.706761;    0.707526;    0.707468;    0.708292;    0.708377;    0.708801;    0.709094;    0.709391;    0.709627;
 72;    0.305216;    1.417254;    1.215705;    0.985432;    0.706077;    0.707564;    0.709847;    0.711600;    0.712649;    0.712885;    0.714140;    0.713906;    0.713005;    0.713617;    0.714199;    0.714317;    0.713918;    0.714102;    0.714366;
 73;    0.302266;    1.435694;    1.240315;    1.005553;    0.713635;    0.715960;    0.718004;    0.719028;    0.719977;    0.718733;    0.720083;    0.720273;    0.721279;    0.720539;    0.722078;    0.722674;    0.722221;    0.722305;    0.722597;
 74;    0.300332;    1.430844;    1.231060;    1.016103;    0.702674;    0.704118;    0.706908;    0.708220;    0.707441;    0.708403;    0.707958;    0.708960;    0.709846;    0.710835;    0.712381;    0.712865;    0.712555;    0.712602;    0.711858;
 75;    0.302244;    1.431530;    1.249677;    0.992444;    0.689724;    0.691550;    0.692806;    0.693886;    0.695224;    0.694739;    0.696470;    0.697592;    0.696782;    0.697078;    0.697690;    0.698187;    0.699024;    0.699165;    0.699162;
 76;    0.300681;    1.425219;    1.222343;    0.976656;    0.700860;    0.702919;    0.703633;    0.703561;    0.705385;    0.705912;    0.705090;    0.705516;    0.707110;    0.707921;    0.708658;    0.709210;    0.709741;    0.709564;    0.709401;
 77;    0.300287;    1.406741;    1.222173;    0.971792;    0.689565;    0.692776;    0.691683;    0.691637;    0.692396;    0.693482;    0.694789;    0.696432;    0.696564;    0.696887;    0.696259;    0.696485;    0.696824;    0.696822;    0.697176;
 78;    0.302419;    1.418722;    1.246118;    1.002282;    0.700548;    0.701387;    0.704423;    0.706291;    0.707031;    0.707481;    0.707733;    0.708781;    0.709545;    0.709076;    0.709031;    0.708953;    0.709267;    0.709844;    0.709999;
 79;    0.305757;    1.421226;    1.231210;    0.984352;    0.707636;    0.708197;    0.708761;    0.709337;    0.710469;    0.711734;    0.713111;    0.712088;    0.713584;    0.714425;    0.713971;    0.714291;    0.714721;    0.714764;    0.715033;
 80;    0.300360;    1.423948;    1.232800;    0.990270;    0.684426;    0.685300;    0.687671;    0.688754;    0.689201;    0.689724;    0.689758;    0.691222;    0.690703;    0.690803;    0.691705;    0.691040;    0.691239;    0.691270;    0.691613;
 81;    0.302651;    1.409531;    1.220362;    0.991543;    0.696368;    0.698511;    0.698575;    0.698460;    0.699562;    0.699953;    0.701959;    0.703385;    0.703449;    0.703277;    0.703463;    0.704257;    0.704628;    0.705311;    0.705493;
 82;    0.301635;    1.412652;    1.221149;    0.982723;    0.692487;    0.693161;    0.694248;    0.696318;    0.697751;    0.698614;    0.699708;    0.699829;    0.699407;    0.700309;    0.700431;    0.700103;    0.700881;    0.701238;    0.701422;
 83;    0.301319;    1.394694;    1.214036;    0.975082;    0.699998;    0.700653;    0.702428;    0.703301;    0.704876;    0.706138;    0.707289;    0.707785;    0.707454;    0.708812;    0.709681;    0.709240;    0.708646;    0.709326;    0.709669;
 84;    0.300801;    1.411256;    1.242251;    1.009211;    0.707127;    0.709493;    0.709439;    0.710194;    0.710436;    0.711417;    0.713295;    0.714241;    0.715061;    0.716017;    0.715375;    0.714293;    0.714766;    0.714437;    0.714573;
 85;    0.300888;    1.413381;    1.234468;    0.993102;    0.707862;    0.709077;    0.710730;    0.712049;    0.711669;    0.713285;    0.714643;    0.715463;    0.714723;    0.715623;    0.716487;    0.716566;    0.717049;    0.716652;    0.716785;
 86;    0.302089;    1.438420;    1.240282;    0.989533;    0.701281;    0.701927;    0.704216;    0.704386;    0.703907;    0.705554;    0.705391;    0.705925;    0.707613;    0.707945;    0.707194;    0.707347;    0.708457;    0.708728;    0.708293;
 87;    0.301275;    1.423156;    1.228765;    0.982759;    0.702105;    0.703708;    0.704453;    0.703762;    0.704926;    0.706088;    0.706761;    0.707373;    0.706886;    0.707856;    0.707743;    0.707529;    0.708273;    0.708617;    0.708686;
 88;    0.361144;    1.442182;    1.248905;    1.004574;    0.692511;    0.695268;    0.696282;    0.695939;    0.696021;    0.696830;    0.697593;    0.699020;    0.699648;    0.700797;    0.701067;    0.699251;    0.700003;    0.700323;    0.700573;
 89;    0.301341;    1.430661;    1.245146;    1.016049;    0.701351;    0.702793;    0.703564;    0.704275;    0.704037;    0.705110;    0.704640;    0.706586;    0.706929;    0.705845;    0.707129;    0.706537;    0.706464;    0.706550;    0.706647;
 90;    0.301438;    1.414488;    1.232523;    0.984786;    0.710152;    0.710605;    0.712663;    0.713125;    0.714611;    0.715844;    0.715811;    0.716088;    0.717693;    0.718952;    0.719336;    0.718694;    0.718662;    0.719035;    0.719281;
 91;    0.308163;    1.434056;    1.246720;    0.996025;    0.700244;    0.700975;    0.701916;    0.703948;    0.703952;    0.706245;    0.706790;    0.705728;    0.706719;    0.707779;    0.707988;    0.708444;    0.708498;    0.709263;    0.708889;
 92;    0.301334;    1.419610;    1.232875;    1.008014;    0.703298;    0.703937;    0.705712;    0.706623;    0.707051;    0.708841;    0.709427;    0.709669;    0.709308;    0.709624;    0.711101;    0.711774;    0.710758;    0.710400;    0.710894;
 93;    0.302077;    1.419702;    1.233929;    1.003208;    0.708514;    0.709462;    0.710922;    0.712401;    0.712976;    0.714217;    0.713626;    0.714401;    0.715901;    0.716944;    0.717460;    0.717941;    0.717836;    0.716817;    0.717130;
 94;    0.300192;    1.420425;    1.231429;    0.972949;    0.696050;    0.696500;    0.698305;    0.698825;    0.700018;    0.700017;    0.699858;    0.700945;    0.700901;    0.702535;    0.702989;    0.702726;    0.702667;    0.703594;    0.703116;
 95;    0.309417;    1.428830;    1.234552;    0.993563;    0.707002;    0.707952;    0.710905;    0.712002;    0.711930;    0.712535;    0.713516;    0.713096;    0.714336;    0.715366;    0.715266;    0.715858;    0.715662;    0.715167;    0.715422;
 96;    0.301676;    1.432826;    1.234830;    0.989481;    0.697426;    0.697191;    0.699286;    0.701503;    0.703321;    0.703987;    0.705016;    0.705624;    0.706034;    0.704929;    0.706082;    0.706202;    0.706707;    0.707173;    0.707206;
 97;    0.301775;    1.424991;    1.252214;    1.015540;    0.716321;    0.718832;    0.718093;    0.717335;    0.719579;    0.721005;    0.722363;    0.722968;    0.722968;    0.722552;    0.723194;    0.723799;    0.723357;    0.723764;    0.723857;
 98;    0.303156;    1.428148;    1.247556;    1.004290;    0.703181;    0.703510;    0.704222;    0.705576;    0.707685;    0.709347;    0.709717;    0.709161;    0.710326;    0.711850;    0.712131;    0.711377;    0.711154;    0.711808;    0.711943;
 99;    0.299151;    1.425211;    1.225510;    0.992719;    0.702940;    0.703386;    0.705068;    0.707455;    0.706505;    0.707572;    0.708757;    0.709309;    0.709612;    0.709734;    0.710630;    0.711303;    0.711718;    0.712064;    0.712289;
100;    0.300875;    1.415108;    1.219162;    0.990449;    0.702148;    0.703886;    0.705854;    0.706524;    0.707740;    0.707970;    0.708613;    0.708670;    0.709729;    0.710198;    0.710511;    0.710594;    0.711450;    0.712032;    0.711806;
