Simulation;Time;PC 0;PC 1;PC 2;PC 3;PC 4;PC 5;PC 6;PC 7;PC 8;PC 9;PC10;PC11;PC12;PC13;PC14;PC15;PC16;PC17;
Nan;Nan;0;1;0;0;0;0;0;0;0;0;0;0;0;0;0;0;0;0;
  0;    2.796913;    0.990198;    0.208576;    0.224260;    0.241828;    0.262102;    0.284028;    0.311618;    0.345318;    0.389885;    0.440835;    0.495730;    0.580491;    0.696801;    0.980633;    1.303078;    2.547861;    4.320141;   26.890752;
  1;    3.735753;    1.012405;    0.213302;    0.226464;    0.243790;    0.262412;    0.290937;    0.319889;    0.355015;    0.394352;    0.444936;    0.534358;    0.650212;    0.824378;    1.386045;    3.241241;    5.960948;   13.051059;   54.009158;
  2;    3.574663;    0.996633;    0.214826;    0.231088;    0.247221;    0.264663;    0.286727;    0.313994;    0.342094;    0.378541;    0.420905;    0.464016;    0.557941;    0.731578;    1.118461;    1.541430;    2.643756;   10.545664;   48.965172;
  3;    4.029210;    0.967155;    0.214872;    0.232400;    0.248369;    0.271544;    0.298394;    0.328314;    0.388833;    0.443239;    0.510804;    0.588549;    0.711126;    0.824947;    1.060189;    1.985894;    4.165576;   11.237045;   61.476231;
  4;    2.538713;    1.016043;    0.217544;    0.231962;    0.248731;    0.267528;    0.289685;    0.317908;    0.360912;    0.415938;    0.466703;    0.544516;    0.655951;    0.870424;    1.133065;    1.677253;    3.207140;    6.393354;   31.716934;
  5;    2.726076;    1.008263;    0.212669;    0.227275;    0.244258;    0.266595;    0.287719;    0.322750;    0.365207;    0.407054;    0.461634;    0.537746;    0.662077;    0.852966;    1.186364;    1.569177;    2.476844;    5.897102;   33.824300;
  6;    3.199767;    0.996385;    0.213081;    0.230101;    0.246022;    0.263101;    0.285049;    0.309987;    0.346688;    0.391177;    0.443220;    0.531735;    0.635853;    0.761336;    0.957182;    1.563499;    2.508951;   10.459173;   42.984872;
  7;    3.685242;    1.014894;    0.212724;    0.225713;    0.244414;    0.260690;    0.283273;    0.307933;    0.331498;    0.374609;    0.428523;    0.486949;    0.570403;    0.800588;    1.155399;    1.892227;    4.712657;   13.147395;   59.697477;
  8;    2.359109;    0.981853;    0.208938;    0.223941;    0.240710;    0.258555;    0.276566;    0.304589;    0.340288;    0.379139;    0.437101;    0.504706;    0.590919;    0.716613;    0.866212;    1.237852;    2.199972;    6.767651;   23.302139;
  9;    2.958231;    0.986679;    0.214780;    0.231187;    0.247631;    0.269050;    0.293302;    0.326126;    0.362582;    0.413127;    0.475251;    0.549742;    0.670248;    0.855288;    1.060386;    1.459563;    2.137481;    7.818236;   49.373492;
 10;    3.649151;    0.996418;    0.215733;    0.229293;    0.247016;    0.270209;    0.292726;    0.320107;    0.353600;    0.400310;    0.448777;    0.532253;    0.666722;    0.807075;    1.003522;    1.511567;    2.863323;    9.054912;   43.764680;
 11;    2.390919;    0.969595;    0.215466;    0.229120;    0.245853;    0.270010;    0.294571;    0.326035;    0.359721;    0.401116;    0.450427;    0.517800;    0.640825;    0.790976;    1.027677;    1.525666;    2.884560;    6.294527;   24.207960;
 12;    3.377323;    0.940236;    0.211514;    0.225566;    0.241802;    0.262676;    0.282221;    0.302055;    0.328909;    0.367572;    0.427397;    0.505252;    0.616631;    0.789213;    1.055999;    1.677105;    4.244607;   12.141657;   46.917861;
 13;    3.033916;    1.029289;    0.211867;    0.226939;    0.250541;    0.271160;    0.292392;    0.316886;    0.345121;    0.382713;    0.433733;    0.491913;    0.577291;    0.720757;    0.959022;    1.328543;    2.180286;    5.479689;   29.218398;
 14;    2.936392;    0.963939;    0.209541;    0.227117;    0.246444;    0.263320;    0.287108;    0.309900;    0.345633;    0.386893;    0.452655;    0.542105;    0.654192;    0.912825;    1.175939;    1.632686;    2.503387;    6.140820;   36.221945;
 15;    3.077398;    1.059020;    0.207306;    0.225928;    0.241396;    0.269889;    0.298792;    0.323923;    0.359364;    0.401236;    0.448595;    0.531794;    0.627761;    0.738955;    0.861760;    1.164475;    2.289157;    7.500906;   34.770851;
 16;    3.350713;    0.984254;    0.217406;    0.232423;    0.250762;    0.272685;    0.295934;    0.321771;    0.359477;    0.423304;    0.497653;    0.574244;    0.677125;    0.870926;    1.345638;    2.008981;    3.533273;   10.917609;   42.610367;
 17;    2.464466;    0.959886;    0.209559;    0.222396;    0.238407;    0.254003;    0.279243;    0.306188;    0.336284;    0.375590;    0.425898;    0.490232;    0.596193;    0.740066;    0.959495;    1.278082;    2.078702;    5.442960;   29.686074;
 18;    2.658091;    0.927039;    0.211379;    0.224511;    0.242843;    0.263748;    0.289332;    0.311432;    0.344651;    0.379277;    0.440659;    0.554277;    0.722993;    0.868274;    1.246809;    1.958923;    2.963421;    6.454446;   36.868393;
 19;    3.167160;    1.001033;    0.209649;    0.226124;    0.244884;    0.264979;    0.293542;    0.323100;    0.355454;    0.408339;    0.474298;    0.589698;    0.734331;    0.964292;    1.327028;    1.922115;    3.899538;    8.642423;   42.373030;
 20;    2.663079;    1.055239;    0.213230;    0.229179;    0.251439;    0.272319;    0.295107;    0.324539;    0.360111;    0.414431;    0.489595;    0.567315;    0.663549;    0.806198;    1.090744;    1.527698;    2.170938;    4.729219;   33.956750;
 21;    2.669382;    1.042801;    0.213762;    0.227262;    0.246190;    0.262929;    0.284161;    0.309961;    0.353843;    0.396189;    0.454967;    0.515090;    0.590842;    0.712615;    0.922723;    1.289889;    2.355333;    9.088835;   31.027657;
 22;    3.894928;    1.025745;    0.214302;    0.230688;    0.248039;    0.268269;    0.294187;    0.319787;    0.391470;    0.444305;    0.511475;    0.611965;    0.760453;    0.992223;    1.453488;    2.176236;    4.703695;   14.288421;   43.931802;
 23;    3.740624;    0.992139;    0.214229;    0.227911;    0.245982;    0.270385;    0.292893;    0.320513;    0.371649;    0.442562;    0.542903;    0.647747;    0.853928;    1.048137;    1.458277;    2.058701;    3.680092;   14.009976;   53.164719;
 24;    3.022013;    1.018810;    0.213808;    0.230110;    0.246357;    0.265092;    0.288239;    0.312814;    0.345489;    0.383176;    0.425953;    0.502980;    0.617615;    0.907069;    1.083260;    1.532348;    3.310186;   12.910594;   52.386009;
 25;    3.889060;    0.964566;    0.210162;    0.224525;    0.239507;    0.262879;    0.287711;    0.313241;    0.344383;    0.392796;    0.442380;    0.529874;    0.614261;    0.858075;    1.080338;    2.043647;    3.672809;    9.541513;   41.753368;
 26;    2.605058;    1.003936;    0.217114;    0.231972;    0.247881;    0.269017;    0.293932;    0.318145;    0.360303;    0.419088;    0.483081;    0.553172;    0.663535;    0.895794;    1.201594;    1.462894;    2.477161;    5.758192;   37.052147;
 27;    3.648834;    1.038385;    0.212273;    0.228101;    0.245594;    0.265840;    0.291727;    0.321633;    0.354162;    0.404836;    0.466336;    0.527285;    0.645516;    0.801930;    1.110274;    1.681060;    4.151738;   12.299005;   50.728978;
 28;    3.360993;    1.048414;    0.211570;    0.226831;    0.243426;    0.268161;    0.297720;    0.323587;    0.358828;    0.396882;    0.450055;    0.516817;    0.594560;    0.770867;    1.018100;    1.562678;    3.873634;   11.348588;   43.305490;
 29;    3.829504;    1.089128;    0.210673;    0.225976;    0.243332;    0.266540;    0.287816;    0.311439;    0.345586;    0.391083;    0.443547;    0.507762;    0.592277;    0.711750;    0.863064;    1.290536;    2.989047;    8.857932;   45.346694;
 30;    3.776592;    1.025854;    0.214331;    0.228055;    0.247382;    0.265961;    0.284226;    0.306432;    0.340415;    0.387158;    0.447315;    0.517711;    0.625137;    0.856026;    1.249026;    2.117788;    3.534330;   11.571939;   55.896971;
 31;    3.630567;    1.017389;    0.213823;    0.228799;    0.247949;    0.268699;    0.291313;    0.319643;    0.349415;    0.383229;    0.424873;    0.482369;    0.586770;    0.737957;    0.999017;    1.370835;    2.380562;    7.629966;   57.755363;
 32;    3.552859;    0.952104;    0.213155;    0.227133;    0.246260;    0.266420;    0.290458;    0.317132;    0.350762;    0.392975;    0.451066;    0.522703;    0.626947;    0.803403;    1.108632;    2.316606;    4.092552;    7.675801;   41.713175;
 33;    3.647063;    1.047543;    0.208463;    0.222020;    0.243046;    0.263150;    0.288147;    0.312762;    0.343083;    0.388330;    0.441990;    0.551890;    0.667843;    0.819155;    1.098778;    1.653714;    2.732568;   10.167050;   46.941328;
 34;    3.275990;    1.060884;    0.215883;    0.230186;    0.248203;    0.267128;    0.288061;    0.308868;    0.341536;    0.376483;    0.421973;    0.489894;    0.569086;    0.713205;    0.922990;    1.402186;    2.927343;    8.948027;   40.844271;
 35;    4.080134;    0.991092;    0.212638;    0.227239;    0.244467;    0.262580;    0.289477;    0.314582;    0.344878;    0.385495;    0.445432;    0.513726;    0.597681;    0.799673;    1.126194;    2.002036;    3.744252;   11.167208;   51.641787;
 36;    2.480268;    0.916724;    0.211355;    0.226960;    0.243281;    0.261064;    0.280650;    0.308736;    0.338583;    0.383109;    0.440348;    0.519968;    0.613837;    0.783323;    1.053006;    1.686979;    2.802882;    7.999714;   30.376232;
 37;    2.900057;    0.971914;    0.211525;    0.225594;    0.239976;    0.259337;    0.284723;    0.312845;    0.353305;    0.402241;    0.459100;    0.536690;    0.638960;    0.797216;    1.132528;    1.539203;    2.327918;    6.873646;   35.947293;
 38;    2.422441;    1.013350;    0.212020;    0.224832;    0.240614;    0.259310;    0.283659;    0.317111;    0.352616;    0.395121;    0.452689;    0.516992;    0.605737;    0.715877;    0.890886;    1.258507;    2.128624;    5.409990;   29.733594;
 39;    2.853254;    0.940451;    0.210716;    0.224670;    0.244481;    0.263027;    0.283374;    0.306918;    0.349013;    0.391408;    0.443826;    0.501584;    0.608246;    0.753880;    1.024308;    1.680561;    3.008399;    5.682298;   27.101069;
 40;    3.348069;    0.998765;    0.212239;    0.226151;    0.240026;    0.260869;    0.283150;    0.313313;    0.351565;    0.390310;    0.435194;    0.479687;    0.573080;    0.716400;    1.054318;    1.766305;    3.022518;    9.447585;   51.478405;
 41;    3.349884;    0.999788;    0.211129;    0.224708;    0.242262;    0.259217;    0.288649;    0.321943;    0.360862;    0.405577;    0.445604;    0.493945;    0.589361;    0.732503;    0.959619;    1.590344;    3.457337;    9.623845;   40.817490;
 42;    3.537952;    1.070376;    0.211013;    0.225947;    0.239318;    0.259537;    0.279535;    0.305002;    0.337488;    0.376624;    0.416372;    0.476326;    0.559705;    0.691062;    0.849358;    1.313373;    2.626494;   10.290107;   49.592741;
 43;    2.719763;    1.038204;    0.212261;    0.227339;    0.243644;    0.259492;    0.283724;    0.308218;    0.342805;    0.378038;    0.420941;    0.488430;    0.600413;    0.719092;    0.895204;    1.131046;    1.762468;    4.664465;   32.694924;
 44;    2.687066;    0.997303;    0.214157;    0.228224;    0.246154;    0.265991;    0.286166;    0.315105;    0.347556;    0.384019;    0.430653;    0.482752;    0.622867;    0.778122;    1.002875;    1.333888;    2.077880;    8.229891;   32.354726;
 45;    3.026896;    0.990770;    0.210897;    0.222482;    0.240771;    0.258948;    0.276476;    0.302012;    0.338933;    0.372660;    0.429517;    0.508188;    0.593054;    0.692842;    0.896283;    1.285110;    3.124024;    6.410703;   34.542868;
 46;    3.705286;    1.042678;    0.210446;    0.222887;    0.240236;    0.260379;    0.283335;    0.314456;    0.354559;    0.401442;    0.465053;    0.534862;    0.611255;    0.810990;    1.160856;    1.721321;    3.436008;    9.119872;   49.422830;
 47;    3.311926;    1.051855;    0.216617;    0.232268;    0.251756;    0.273916;    0.300611;    0.330559;    0.361811;    0.400383;    0.461708;    0.538641;    0.625824;    0.842680;    1.078579;    1.483484;    2.779227;   10.225507;   40.623037;
 48;    2.924485;    0.966934;    0.212910;    0.232504;    0.252482;    0.271791;    0.298303;    0.327455;    0.364169;    0.415828;    0.494753;    0.603149;    0.730065;    0.919636;    1.168400;    1.646758;    4.049667;   10.079438;   35.594432;
 49;    3.164449;    0.978247;    0.212486;    0.225373;    0.243156;    0.262949;    0.283113;    0.305735;    0.332786;    0.368943;    0.410933;    0.475419;    0.552974;    0.634411;    0.868739;    1.277098;    2.631494;    8.868274;   41.348121;
 50;    3.569325;    1.018717;    0.210704;    0.229911;    0.249601;    0.272276;    0.294264;    0.316799;    0.349342;    0.402545;    0.490984;    0.580128;    0.727398;    0.916921;    1.233151;    1.885881;    3.132276;    8.061402;   47.928909;
 51;    2.697276;    1.039258;    0.213320;    0.227808;    0.247025;    0.266599;    0.295240;    0.322165;    0.362227;    0.398893;    0.448965;    0.515127;    0.602386;    0.706913;    0.946911;    1.391159;    2.378705;    5.930652;   29.453529;
 52;    4.945396;    0.999982;    0.210070;    0.223975;    0.241543;    0.260897;    0.280518;    0.309708;    0.342818;    0.398429;    0.466537;    0.564331;    0.692540;    0.932819;    1.280586;    2.157323;    3.935430;   16.341005;   67.149497;
 53;    2.605882;    0.907440;    0.212179;    0.226725;    0.244697;    0.263635;    0.290665;    0.321069;    0.355453;    0.393824;    0.437464;    0.508660;    0.591514;    0.783973;    1.145844;    1.689088;    2.423972;    8.049332;   27.257429;
 54;    2.592292;    1.023289;    0.211950;    0.224581;    0.243718;    0.264543;    0.283652;    0.309065;    0.341824;    0.391905;    0.445657;    0.515688;    0.612672;    0.716060;    0.942183;    1.319439;    1.981607;    4.349001;   28.936289;
 55;    2.891017;    1.007393;    0.208495;    0.222907;    0.236729;    0.257239;    0.281160;    0.302732;    0.337321;    0.373330;    0.414390;    0.480867;    0.557286;    0.663852;    0.880136;    1.355573;    2.473970;    6.067789;   36.313233;
 56;    4.509844;    1.016051;    0.211460;    0.224719;    0.243462;    0.266307;    0.293262;    0.324215;    0.364240;    0.405498;    0.461434;    0.544779;    0.628149;    0.884748;    1.154234;    2.958764;    6.019597;   21.236473;   67.599757;
 57;    3.282401;    1.016147;    0.215784;    0.230898;    0.246836;    0.268649;    0.292991;    0.319385;    0.350385;    0.395452;    0.450308;    0.514294;    0.638256;    0.785472;    1.012388;    1.327500;    2.842717;    7.016463;   49.996475;
 58;    2.612200;    1.013224;    0.212932;    0.229986;    0.248280;    0.269614;    0.295983;    0.329224;    0.368004;    0.403945;    0.450760;    0.548111;    0.676432;    0.808081;    1.072516;    1.599211;    3.218348;    9.515238;   34.160078;
 59;    3.717460;    0.971263;    0.210888;    0.224855;    0.247639;    0.271457;    0.295691;    0.319937;    0.348679;    0.381181;    0.439403;    0.500328;    0.584937;    0.731551;    0.997761;    1.363461;    2.393521;    9.289471;   57.212827;
 60;    4.023068;    1.000379;    0.211871;    0.228701;    0.246113;    0.266753;    0.289126;    0.322059;    0.356602;    0.391159;    0.450721;    0.534480;    0.638146;    0.811460;    1.141962;    1.926176;    4.403160;   16.920804;   50.207500;
 61;    3.142318;    0.992615;    0.214751;    0.229313;    0.245495;    0.269004;    0.293782;    0.322229;    0.355237;    0.391084;    0.443275;    0.504230;    0.593451;    0.703022;    0.948662;    1.363150;    2.425788;    8.755219;   43.335776;
 62;    2.898479;    0.992427;    0.209419;    0.225897;    0.240906;    0.262065;    0.284047;    0.308859;    0.335976;    0.366261;    0.416697;    0.486159;    0.577695;    0.685974;    0.828558;    0.985642;    1.436052;    2.727661;   44.335692;
 63;    3.362445;    1.046204;    0.210879;    0.225200;    0.238148;    0.255362;    0.276671;    0.309528;    0.347808;    0.386546;    0.435724;    0.483735;    0.580142;    0.718136;    0.875222;    1.324551;    2.634542;   10.672884;   48.909282;
 64;    3.731910;    1.011833;    0.214437;    0.229310;    0.245499;    0.272956;    0.306766;    0.331368;    0.376966;    0.428175;    0.504699;    0.570078;    0.815194;    1.228000;    1.865331;    3.093491;    4.948414;   12.622569;   54.518336;
 65;    2.970119;    0.954247;    0.209318;    0.224744;    0.241285;    0.259313;    0.285732;    0.311200;    0.342841;    0.379092;    0.426831;    0.488292;    0.595870;    0.733553;    0.944371;    1.243202;    2.034434;    4.380258;   34.811025;
 66;    3.442306;    0.983351;    0.211178;    0.228286;    0.245977;    0.263029;    0.286269;    0.309699;    0.336325;    0.373849;    0.417663;    0.476871;    0.573264;    0.683537;    0.861519;    1.241588;    2.787292;    9.551725;   52.226929;
 67;    3.650495;    0.965928;    0.213582;    0.227162;    0.246770;    0.267599;    0.295159;    0.323083;    0.351901;    0.390670;    0.432772;    0.486751;    0.568960;    0.702575;    0.864135;    1.197537;    2.742054;    9.026361;   55.368704;
 68;    3.393139;    1.001604;    0.212821;    0.228286;    0.245595;    0.267290;    0.291614;    0.316466;    0.349756;    0.384135;    0.433451;    0.490346;    0.605346;    0.754545;    1.052897;    1.821613;    3.217914;    9.259281;   47.350100;
 69;    3.550092;    0.948426;    0.214716;    0.228171;    0.243446;    0.265807;    0.292707;    0.324667;    0.361192;    0.402480;    0.454018;    0.505100;    0.609120;    0.740857;    1.034231;    1.481158;    3.018750;    9.129101;   49.670020;
 70;    2.685622;    1.008263;    0.214919;    0.230541;    0.249264;    0.269459;    0.292625;    0.322901;    0.352684;    0.390970;    0.439654;    0.503855;    0.579791;    0.702958;    0.881824;    1.214314;    1.822352;    5.561124;   35.063317;
 71;    2.842449;    1.012302;    0.210865;    0.227322;    0.246408;    0.263096;    0.285780;    0.313762;    0.350414;    0.385732;    0.444521;    0.509102;    0.604494;    0.767829;    0.959447;    1.253906;    1.915959;    5.748934;   42.705725;
 72;    3.572844;    1.030144;    0.212021;    0.226647;    0.248884;    0.271988;    0.298722;    0.329888;    0.366974;    0.417115;    0.475371;    0.539102;    0.657643;    0.813318;    1.045172;    1.365364;    2.865577;    7.672579;   45.340112;
 73;    2.574971;    1.051389;    0.216323;    0.233048;    0.254001;    0.272544;    0.294965;    0.321598;    0.352608;    0.388589;    0.447828;    0.531541;    0.635525;    0.786723;    1.040191;    1.450971;    2.081428;    7.006357;   35.681330;
 74;    3.478244;    1.049928;    0.212007;    0.228462;    0.246408;    0.267281;    0.288462;    0.323117;    0.361745;    0.402399;    0.458366;    0.518875;    0.615549;    0.753590;    1.012143;    1.428719;    2.557005;    7.918719;   47.922870;
 75;    3.010731;    0.999577;    0.207966;    0.225161;    0.243038;    0.264083;    0.287970;    0.318862;    0.348850;    0.386737;    0.442037;    0.506903;    0.621942;    0.782197;    1.057905;    1.623946;    3.114875;    9.624423;   45.220478;
 76;    3.379163;    1.048773;    0.210422;    0.228344;    0.245203;    0.263046;    0.286196;    0.314895;    0.344283;    0.378023;    0.442517;    0.511885;    0.602888;    0.743318;    1.036516;    1.714431;    4.024578;   10.900060;   50.335794;
 77;    2.330384;    0.968410;    0.206176;    0.222646;    0.238481;    0.254801;    0.275060;    0.301076;    0.333955;    0.376791;    0.430438;    0.516442;    0.625450;    0.738175;    0.941199;    1.216662;    2.329490;    4.878996;   22.718415;
 78;    3.578418;    0.952621;    0.212162;    0.226051;    0.241843;    0.264885;    0.294512;    0.322973;    0.351698;    0.394806;    0.460929;    0.531908;    0.634464;    0.801429;    1.043501;    1.809026;    4.343188;   17.768844;   36.186704;
 79;    2.896599;    1.005920;    0.213453;    0.226637;    0.243250;    0.263195;    0.285833;    0.311490;    0.348807;    0.393618;    0.439912;    0.503499;    0.618108;    0.771635;    0.998708;    1.427225;    2.180054;    4.143219;   44.106165;
 80;    3.633350;    1.009301;    0.205403;    0.221974;    0.236843;    0.257890;    0.277225;    0.301900;    0.332868;    0.364458;    0.415029;    0.469161;    0.526747;    0.689803;    0.945699;    1.520533;    2.953269;    8.951240;   41.908040;
 81;    3.111236;    0.986206;    0.208901;    0.223484;    0.239477;    0.257943;    0.281370;    0.308305;    0.345908;    0.392221;    0.462614;    0.545721;    0.642439;    0.780626;    1.033941;    2.171742;    4.470967;   10.118561;   41.911093;
 82;    3.019553;    0.993037;    0.207350;    0.219530;    0.235450;    0.253565;    0.274596;    0.305053;    0.341040;    0.386523;    0.437990;    0.504491;    0.601210;    0.739999;    0.967459;    1.658751;    3.147846;    9.290690;   38.960491;
 83;    2.699682;    0.940558;    0.209570;    0.222967;    0.242380;    0.259906;    0.285394;    0.312309;    0.344238;    0.392824;    0.457294;    0.553809;    0.665103;    0.824117;    1.015989;    1.259533;    1.878656;    6.070851;   33.550546;
 84;    4.274664;    0.931547;    0.214068;    0.231407;    0.244300;    0.262922;    0.284892;    0.306651;    0.342519;    0.384604;    0.431847;    0.498508;    0.588557;    0.706793;    0.839864;    1.159159;    4.594996;   13.851519;   45.776925;
 85;    3.104130;    0.964837;    0.213765;    0.228269;    0.247267;    0.266495;    0.287652;    0.312603;    0.349280;    0.388265;    0.433403;    0.491870;    0.573352;    0.656335;    0.787209;    1.066748;    1.943835;    7.694188;   41.390717;
 86;    3.189096;    1.052888;    0.211722;    0.225566;    0.241771;    0.264555;    0.289288;    0.319005;    0.359523;    0.394963;    0.461928;    0.544356;    0.672425;    0.805393;    0.955848;    1.374057;    2.994765;   11.481538;   35.528436;
 87;    3.187292;    1.024073;    0.211133;    0.226809;    0.244236;    0.259595;    0.286083;    0.316207;    0.355452;    0.403841;    0.485690;    0.564583;    0.670121;    0.799345;    0.977322;    1.613793;    3.257552;   10.289191;   45.846548;
 88;    2.144876;    1.046419;    0.209271;    0.221260;    0.240635;    0.257131;    0.277238;    0.307977;    0.343527;    0.391901;    0.456532;    0.528112;    0.627766;    0.755207;    0.932392;    1.201990;    2.105986;    6.087058;   27.200106;
 89;    4.076184;    1.010565;    0.212403;    0.226806;    0.243451;    0.263458;    0.283768;    0.309060;    0.344426;    0.378574;    0.452180;    0.543669;    0.643080;    0.767653;    1.037294;    1.672971;    2.647674;   14.182632;   49.345494;
 90;    2.913699;    0.976692;    0.214352;    0.229098;    0.243619;    0.265676;    0.288955;    0.316139;    0.347541;    0.393841;    0.448517;    0.528993;    0.636706;    0.795404;    0.975416;    1.314593;    2.121911;    8.152075;   39.393314;
 91;    4.542397;    1.022588;    0.211699;    0.225331;    0.241327;    0.262555;    0.290988;    0.328800;    0.371239;    0.420447;    0.485590;    0.565018;    0.659335;    0.891806;    1.330553;    2.175932;    6.454594;   18.137680;   61.950197;
 92;    3.140918;    0.995148;    0.212052;    0.227611;    0.245502;    0.267344;    0.291949;    0.319811;    0.360716;    0.408290;    0.454475;    0.506786;    0.583235;    0.688271;    0.855066;    1.124514;    1.487494;    7.779172;   48.171350;
 93;    3.082738;    0.993365;    0.214094;    0.228938;    0.249761;    0.270222;    0.294756;    0.319200;    0.343798;    0.379548;    0.440425;    0.521857;    0.622191;    0.815788;    1.082453;    1.701256;    3.540075;    8.854082;   43.813926;
 94;    3.605441;    1.003957;    0.209186;    0.224482;    0.242097;    0.263610;    0.294132;    0.322140;    0.355467;    0.391528;    0.433546;    0.487503;    0.573671;    0.688999;    0.957356;    1.565159;    4.196947;   11.843526;   40.692992;
 95;    2.347405;    1.032706;    0.213466;    0.228648;    0.246329;    0.265702;    0.291057;    0.321161;    0.357587;    0.397001;    0.443844;    0.533884;    0.666469;    0.810959;    1.043955;    1.454128;    2.261757;    4.631802;   24.887829;
 96;    2.905266;    1.044313;    0.210061;    0.226307;    0.247260;    0.266351;    0.290964;    0.319277;    0.353156;    0.386898;    0.449670;    0.532439;    0.644495;    0.795317;    1.066614;    1.361604;    2.034112;    4.888068;   40.390036;
 97;    2.737831;    0.977349;    0.218334;    0.234144;    0.250507;    0.267330;    0.289779;    0.318195;    0.358707;    0.399311;    0.457304;    0.533925;    0.611729;    0.707709;    0.918885;    1.386855;    2.416346;    8.285843;   42.571514;
 98;    2.655113;    0.993001;    0.212870;    0.227547;    0.247273;    0.263288;    0.285327;    0.316398;    0.349390;    0.388347;    0.434876;    0.499379;    0.571832;    0.695158;    0.832729;    1.368182;    1.899713;    6.412160;   36.335119;
 99;    3.601018;    1.039013;    0.211382;    0.224734;    0.239060;    0.264366;    0.289548;    0.318504;    0.357344;    0.407815;    0.463824;    0.538486;    0.650179;    0.813584;    1.086286;    1.599668;    2.636386;    9.025793;   57.620043;
100;    2.745323;    1.008074;    0.210717;    0.226607;    0.243586;    0.269386;    0.299527;    0.327125;    0.365538;    0.399086;    0.458493;    0.542962;    0.659331;    0.833258;    1.118365;    1.480576;    2.416161;    6.938155;   38.387523;
