Simulation;Time;PC 0;PC 1;PC 2;PC 3;PC 4;PC 5;PC 6;PC 7;PC 8;PC 9;PC10;PC11;PC12;PC13;PC14;PC15;PC16;PC17;
Nan;Nan;0;0;0;1;0;0;0;0;0;0;0;0;0;0;0;0;0;0;
  0;    0.250681;    0.991807;    0.733948;    0.641542;    0.593296;    0.640113;    0.688272;    0.745465;    0.836079;    0.931821;    1.040409;    1.206053;    1.437095;    1.636054;    2.046750;    2.396279;    3.735507;    6.217885;  596.197238;
  1;    0.251308;    1.020590;    0.756640;    0.654971;    0.606004;    0.688294;    0.772638;    0.881763;    0.988669;    1.110699;    1.258222;    1.447272;    1.759427;    2.225543;    3.120528;    4.895680;    8.541411;   39.165477; 6445.098293;
  2;    0.250537;    1.019831;    0.764866;    0.665045;    0.607987;    0.659459;    0.711673;    0.782496;    0.848342;    0.941080;    1.074023;    1.681341;    1.961760;    2.418641;    3.072477;    4.474423;    6.775094;   17.610790; 2781.369973;
  3;    0.248559;    0.988579;    0.744589;    0.668465;    0.613681;    0.666259;    0.717957;    0.790012;    0.865544;    0.959320;    1.057298;    1.215983;    1.420777;    1.693379;    2.339267;    3.393627;    6.967593;   27.219534; 3761.218210;
  4;    0.247183;    1.026716;    0.765881;    0.675528;    0.618142;    0.674052;    0.734919;    0.819471;    0.949203;    1.144004;    1.284907;    1.495524;    1.857724;    2.235637;    2.571260;    3.682529;    5.721781;   12.509182;  680.046812;
  5;    0.248933;    1.001114;    0.739264;    0.649797;    0.607711;    0.666497;    0.741553;    0.813785;    0.887827;    1.001175;    1.106063;    1.241163;    1.425491;    1.781159;    2.409351;    3.881490;    8.787085;   26.784586;117922482.504994;
  6;    0.253135;    1.006059;    0.749456;    0.652288;    0.605072;    0.654703;    0.718055;    0.781132;    0.860344;    0.970592;    1.098791;    1.300818;    1.595365;    1.887292;    2.287926;    3.212010;    8.384988;   21.901496;  802.237020;
  7;    0.249254;    1.010106;    0.745514;    0.655129;    0.605830;    0.645756;    0.700737;    0.765397;    0.845361;    0.945669;    1.068399;    1.211934;    1.422507;    1.764229;    2.244106;    2.998829;    5.548641;   17.124579;  654.806442;
  8;    0.250386;    0.978033;    0.723475;    0.641972;    0.598350;    0.655701;    0.737237;    0.816167;    0.910548;    1.014015;    1.153851;    1.389008;    1.678092;    2.062556;    2.600067;    3.697042;    5.104874;   20.763968; 2903.576362;
  9;    0.251996;    1.002758;    0.750520;    0.660475;    0.612829;    0.666341;    0.726701;    0.797850;    0.882286;    1.025365;    1.181757;    1.376901;    1.663523;    2.132468;    2.767716;    3.987529;    6.033301;   14.828073; 4141.768454;
 10;    0.250822;    1.014721;    0.759532;    0.666195;    0.613172;    0.664864;    0.724779;    0.793813;    0.872576;    0.980622;    1.096177;    1.308488;    1.644369;    1.980221;    2.547907;    3.645315;    5.999119;   25.319193; 2974.961988;
 11;    0.250338;    0.995222;    0.750041;    0.659284;    0.614541;    0.655348;    0.704653;    0.769736;    0.839190;    0.948203;    1.084165;    1.232013;    1.462289;    1.779105;    2.360532;    3.114219;    6.294072;   17.881109;289949.884375;
 12;    0.248596;    0.972497;    0.738385;    0.644990;    0.603609;    0.652700;    0.709639;    0.774588;    0.844297;    0.940764;    1.043304;    1.167961;    1.429259;    1.797958;    2.373484;    3.383497;    5.169496;   10.632302;  729.784071;
 13;    0.247114;    1.008427;    0.735440;    0.647885;    0.606524;    0.653215;    0.717816;    0.780430;    0.877817;    1.003088;    1.131607;    1.370168;    1.591360;    2.061350;    2.832577;    4.103229;    8.707936;   17.254033; 1747.511910;
 14;    0.249815;    0.981918;    0.737016;    0.651503;    0.594819;    0.643326;    0.699563;    0.748785;    0.818014;    0.923860;    1.058919;    1.247867;    1.455729;    1.719615;    2.296065;    3.142962;    4.387900;   10.164874; 3895.623250;
 15;    0.247935;    1.014217;    0.727343;    0.639409;    0.587872;    0.642986;    0.704241;    0.780752;    0.854889;    0.968887;    1.087089;    1.285819;    1.511489;    1.828359;    2.245371;    2.898963;    3.807023;    8.034606; 1988.267833;
 16;    0.247365;    1.006618;    0.758514;    0.670329;    0.619441;    0.671765;    0.726373;    0.803199;    0.901980;    1.027810;    1.217954;    1.443775;    1.868119;    2.369475;    3.062769;    4.461449;    8.553306;   23.911088;10369.206354;
 17;    0.250963;    0.976216;    0.731322;    0.653552;    0.596583;    0.644056;    0.696328;    0.762893;    0.850659;    0.952452;    1.067125;    1.214171;    1.475693;    1.826466;    2.547011;    3.254002;    7.278413;   42.055959; 1532.524661;
 18;    0.249528;    0.958917;    0.728464;    0.648305;    0.607445;    0.652546;    0.714032;    0.791416;    0.880457;    1.003224;    1.150804;    1.312077;    1.634208;    2.118548;    2.765037;    3.954921;    8.104177;   61.385064;37046.810573;
 19;    0.253026;    0.987472;    0.725937;    0.636519;    0.600519;    0.659835;    0.714734;    0.799942;    0.925050;    1.076336;    1.263777;    1.515922;    1.813486;    2.150044;    2.696949;    3.943316;    7.351412;   19.575171; 5268.709097;
 20;    0.255373;    1.027601;    0.746976;    0.660867;    0.607404;    0.660480;    0.731744;    0.808215;    0.900309;    0.988811;    1.166129;    1.334574;    1.660025;    2.030897;    2.640000;    3.723728;    6.240731;   20.907982;23541.838635;
 21;    0.247472;    1.019032;    0.741911;    0.659297;    0.611845;    0.661431;    0.733641;    0.813006;    0.881765;    0.977205;    1.081744;    1.258675;    1.473196;    1.737872;    2.373322;    3.492139;    5.548479;   46.326283; 3799.164086;
 22;    0.256909;    1.013325;    0.743843;    0.655589;    0.613287;    0.663657;    0.726983;    0.799065;    0.884422;    0.963804;    1.090735;    1.263304;    1.478089;    1.839454;    2.660294;    3.884164;    6.471775;   23.677475;290241.966906;
 23;    0.248506;    0.995319;    0.741035;    0.650299;    0.613806;    0.657158;    0.708267;    0.781883;    0.869198;    0.957984;    1.074978;    1.270297;    1.574398;    2.005050;    3.224011;    5.287733;   12.881809;   65.808852;  436.687742;
 24;    0.255862;    1.020550;    0.756233;    0.657171;    0.606423;    0.653613;    0.716686;    0.787417;    0.864197;    0.962919;    1.071510;    1.246308;    1.433331;    1.793629;    2.220912;    3.067121;    5.566582;   14.371846; 4120.645513;
 25;    0.248370;    0.983245;    0.736891;    0.649857;    0.598225;    0.662767;    0.720176;    0.788119;    0.870639;    0.959274;    1.092197;    1.288742;    1.552551;    1.886779;    2.332372;    3.134277;    6.658601;   19.384414; 1308.802940;
 26;    0.250980;    1.010173;    0.752723;    0.667653;    0.621703;    0.678140;    0.749247;    0.842693;    0.952736;    1.084100;    1.259282;    1.424204;    1.630616;    1.847917;    2.370102;    3.263109;    5.701783;   33.967310; 3806.395116;
 27;    0.248976;    1.012094;    0.734421;    0.651730;    0.608618;    0.658666;    0.716428;    0.776481;    0.858318;    0.947017;    1.079442;    1.218075;    1.441483;    1.874491;    2.528810;    3.530210;    5.657828;   11.906747; 9738.712453;
 28;    0.252118;    1.015931;    0.736018;    0.650913;    0.603056;    0.647737;    0.708275;    0.780605;    0.878041;    0.986711;    1.130036;    1.329658;    1.548593;    2.266341;    2.980597;    3.955797;    6.024432;   17.958532; 1777.316741;
 29;    0.251965;    1.034879;    0.737971;    0.648752;    0.600383;    0.664290;    0.719403;    0.799658;    0.872794;    1.005138;    1.162216;    1.348286;    1.569177;    1.923154;    2.417990;    3.940429;    9.526232;   38.155598; 2347.235437;
 30;    0.255078;    1.017433;    0.749081;    0.662511;    0.611704;    0.663878;    0.727295;    0.785468;    0.855494;    0.946081;    1.114845;    1.300277;    1.550607;    1.837354;    2.429306;    3.569082;    6.075132;   18.202124; 5701.972349;
 31;    0.251981;    1.015879;    0.751967;    0.654452;    0.607343;    0.658795;    0.726438;    0.801353;    0.886152;    0.987365;    1.110202;    1.276908;    1.482007;    1.792364;    2.285882;    3.080781;    6.047925;   16.387455; 1896.508908;
 32;    0.247920;    0.990522;    0.750224;    0.644862;    0.603824;    0.654080;    0.718878;    0.791851;    0.894229;    1.019611;    1.202077;    1.417422;    1.724021;    2.189168;    3.368015;    4.683049;    8.542440;   60.305623; 7697.011241;
 33;    0.249961;    1.012706;    0.731722;    0.635720;    0.595552;    0.641253;    0.713313;    0.790381;    0.873431;    0.994053;    1.182065;    1.355932;    1.623520;    2.034881;    3.024843;    4.581224;   10.156129;   50.268355;  538.336879;
 34;    0.253806;    1.034730;    0.752310;    0.663678;    0.616253;    0.661802;    0.733442;    0.824420;    0.978491;    1.127986;    1.311396;    1.584596;    1.827044;    2.109529;    2.793724;    5.858777;    8.778595;   36.944910; 4222.533234;
 35;    0.247019;    0.997968;    0.743764;    0.651414;    0.604972;    0.647781;    0.715293;    0.784963;    0.893545;    0.998690;    1.165690;    1.362180;    1.595133;    2.222464;    3.111925;    4.528618;   10.720767;   30.270793; 2466.262681;
 36;    0.248120;    0.969965;    0.743782;    0.652082;    0.599295;    0.646778;    0.699818;    0.775464;    0.859044;    0.964940;    1.081817;    1.274808;    1.571337;    1.923911;    2.829100;    4.459157;   10.277443;   36.342500;21072.144095;
 37;    0.299978;    0.995734;    0.749153;    0.660716;    0.599204;    0.652301;    0.701646;    0.765178;    0.837735;    0.932683;    1.110928;    1.297748;    1.532905;    1.791217;    2.207761;    2.899756;    5.768106;   17.111809; 1209.333019;
 38;    0.249222;    1.001428;    0.737020;    0.651316;    0.605262;    0.646847;    0.701367;    0.766255;    0.844096;    0.968314;    1.103122;    1.254374;    1.515904;    1.921316;    2.659555;    4.743036;    8.224654;   36.741982;18254.269766;
 39;    0.249746;    0.967074;    0.731688;    0.649156;    0.604214;    0.652500;    0.713445;    0.776477;    0.847081;    0.927452;    1.065276;    1.220463;    1.407165;    1.749000;    2.348680;    4.002818;    8.976735;   30.589541;67484.732097;
 40;    0.250455;    1.013402;    0.755534;    0.654085;    0.599974;    0.644315;    0.708933;    0.769849;    0.847487;    0.945465;    1.045363;    1.171779;    1.385349;    1.622990;    2.004555;    2.745173;    3.827478;    7.373021; 2285.381021;
 41;    0.255439;    0.997851;    0.739085;    0.644330;    0.602057;    0.648421;    0.703214;    0.764523;    0.832497;    0.934363;    1.043162;    1.202859;    1.465475;    1.800766;    2.212530;    3.191586;    5.764809;   16.686878;  465.435201;
 42;    0.248872;    1.029168;    0.738909;    0.653956;    0.601331;    0.655154;    0.698874;    0.769955;    0.840953;    0.949443;    1.095452;    1.238914;    1.434877;    1.737418;    2.175620;    3.007853;    5.879299;   17.306163;2603750.542923;
 43;    0.249485;    1.015815;    0.741324;    0.653339;    0.604907;    0.652137;    0.709747;    0.759680;    0.859369;    0.960952;    1.059642;    1.239274;    1.452172;    1.735024;    2.168667;    3.902887;    6.813200;   23.160014;13764.507444;
 44;    0.246546;    1.006409;    0.750854;    0.653047;    0.610989;    0.660012;    0.723907;    0.796294;    0.911627;    1.031791;    1.168480;    1.329384;    1.567735;    1.917510;    2.506887;    3.510774;    5.719238;   14.466803; 2618.093419;
 45;    0.248393;    0.985058;    0.727262;    0.645878;    0.603911;    0.658485;    0.718772;    0.775046;    0.834093;    0.942424;    1.067436;    1.211157;    1.368040;    1.644306;    2.098767;    3.432588;    9.003175;   28.990612;16495.812458;
 46;    0.248324;    1.014812;    0.734014;    0.648038;    0.599067;    0.646830;    0.707912;    0.760046;    0.840706;    0.972866;    1.207712;    1.536304;    1.914340;    2.265116;    2.968535;    3.778511;   10.085044;   64.959083; 3551.881914;
 47;    0.248363;    1.025632;    0.747078;    0.667948;    0.621707;    0.668117;    0.733019;    0.805120;    0.889487;    0.978943;    1.131382;    1.307473;    1.550438;    1.867500;    2.740637;    4.734189;    9.457294;   21.861718;25508.477035;
 48;    0.248820;    0.979231;    0.733382;    0.653995;    0.610994;    0.658879;    0.721013;    0.787114;    0.868940;    0.978436;    1.105472;    1.292478;    1.587772;    2.075894;    2.893981;    4.186226;    7.573676;   60.090542; 1087.571081;
 49;    0.252125;    0.984610;    0.733141;    0.649208;    0.609190;    0.660157;    0.723563;    0.794875;    0.863352;    0.946567;    1.072196;    1.253625;    1.484558;    1.712829;    2.115603;    3.083453;    4.587669;   13.456631;  388.295524;
 50;    0.251091;    1.007671;    0.740693;    0.647319;    0.600769;    0.650848;    0.706234;    0.769019;    0.861008;    0.978442;    1.156643;    1.413940;    1.689665;    2.133144;    2.674147;    3.524016;    4.855805;   16.993624;  450.187111;
 51;    0.253210;    1.023016;    0.748155;    0.660070;    0.606065;    0.660535;    0.713070;    0.807625;    0.890308;    1.008875;    1.134225;    1.310713;    1.524905;    1.752828;    3.077243;    4.737738;   10.996592;   28.867010;  382.864905;
 52;    0.248075;    1.002795;    0.743174;    0.649273;    0.595149;    0.640306;    0.692267;    0.756797;    0.839385;    0.943529;    1.066584;    1.231420;    1.425717;    1.872781;    2.581549;    3.738794;    6.116556;   13.519208; 5402.128822;
 53;    0.251533;    0.973609;    0.754330;    0.649600;    0.600703;    0.648812;    0.703252;    0.777239;    0.847508;    0.932697;    1.056724;    1.230989;    1.434399;    1.687057;    2.099586;    3.034648;    4.834337;   23.261383;55496.346018;
 54;    0.249614;    1.024187;    0.757544;    0.640132;    0.599694;    0.652714;    0.712534;    0.767065;    0.842544;    0.972600;    1.102861;    1.253025;    1.504271;    1.795067;    2.170682;    4.861573;   14.222324;   34.066382; 1805.040963;
 55;    0.254615;    0.989823;    0.721218;    0.635973;    0.598557;    0.656644;    0.720602;    0.788476;    0.887952;    1.057148;    1.205534;    1.424183;    1.632709;    1.974394;    2.393848;    3.688940;    5.693247;   13.754117; 4831.549044;
 56;    0.248225;    1.009108;    0.743487;    0.647906;    0.600223;    0.640384;    0.703378;    0.769540;    0.870341;    0.965703;    1.132325;    1.434940;    1.823861;    2.192587;    3.018511;    6.468442;   11.525022;   64.544167;631653.820398;
 57;    0.254026;    1.024384;    0.762694;    0.667615;    0.610946;    0.655999;    0.709367;    0.782526;    0.857994;    0.948111;    1.080099;    1.252476;    1.522329;    1.873804;    2.333664;    3.054327;    4.561586;   39.444665;15608.401406;
 58;    0.249996;    1.009859;    0.746553;    0.648390;    0.607816;    0.656929;    0.705549;    0.790850;    0.892492;    1.011549;    1.131850;    1.325785;    1.562571;    2.008742;    2.517909;    6.028477;   10.843756;   35.346074; 8151.228635;
 59;    0.250792;    0.990826;    0.743676;    0.659855;    0.598173;    0.644191;    0.706240;    0.774021;    0.841641;    0.930944;    1.096723;    1.305908;    1.520796;    1.821259;    2.411550;    3.332240;    5.963428;   28.571427;  961.266011;
 60;    0.257456;    0.998446;    0.736877;    0.650349;    0.604661;    0.664457;    0.742151;    0.821280;    0.913500;    1.039618;    1.204020;    1.411964;    1.753064;    2.175196;    2.669957;    3.800373;    5.742893;   18.329832; 1197.726319;
 61;    0.247031;    0.997981;    0.742000;    0.652390;    0.617036;    0.664559;    0.716323;    0.789980;    0.909161;    1.041875;    1.219498;    1.378413;    1.552164;    1.984294;    2.663786;    3.579322;    7.803144;   19.243928;  271.746330;
 62;    0.247789;    0.990822;    0.732564;    0.650917;    0.596508;    0.650554;    0.699028;    0.780195;    0.868855;    0.951628;    1.081828;    1.273491;    1.495088;    1.772156;    2.257513;    2.929845;    4.507043;   32.559068; 5273.259243;
 63;    0.251425;    1.021942;    0.744098;    0.641767;    0.599022;    0.640060;    0.693868;    0.756474;    0.845553;    0.963330;    1.087821;    1.268354;    1.487371;    1.787729;    2.445684;    3.611280;    7.948574;  104.632939; 3481.505137;
 64;    0.270691;    1.011735;    0.748697;    0.666331;    0.610957;    0.675753;    0.749794;    0.832441;    0.961786;    1.110506;    1.345055;    1.961367;    2.614078;    3.447355;    4.870945;    5.881441;   11.662594;   49.913652;37200.888222;
 65;    0.250330;    0.974281;    0.731121;    0.638627;    0.597999;    0.653261;    0.699991;    0.765617;    0.866168;    0.974203;    1.099480;    1.250136;    1.432229;    1.725800;    2.266779;    3.467563;    7.239141;   22.217640; 2921.120141;
 66;    0.257507;    0.988912;    0.735394;    0.650755;    0.603962;    0.648779;    0.706066;    0.759391;    0.841938;    0.933549;    1.036024;    1.187905;    1.393020;    1.655610;    2.066944;    3.394394;    4.891983;   26.501975; 7819.875929;
 67;    0.249561;    0.978017;    0.733427;    0.648034;    0.614754;    0.661923;    0.722076;    0.779392;    0.868145;    0.970705;    1.089051;    1.243878;    1.409121;    1.687688;    2.009174;    2.594595;    4.758621;   14.658206; 5030.783279;
 68;    0.249191;    0.999982;    0.739547;    0.649896;    0.608715;    0.663986;    0.717056;    0.789108;    0.891553;    1.010260;    1.150079;    1.335936;    1.581798;    2.113642;    2.628183;    3.306786;    4.620694;   10.759143;23175.134281;
 69;    0.248702;    0.986474;    0.750592;    0.664088;    0.612765;    0.660897;    0.728434;    0.799486;    0.886407;    1.004960;    1.149480;    1.360660;    1.614518;    2.126937;    3.047045;    4.704107;    9.688851;   32.956681;  675.359200;
 70;    0.257117;    1.016956;    0.758039;    0.651898;    0.610893;    0.663283;    0.724514;    0.795774;    0.887533;    1.000386;    1.103426;    1.307495;    1.508035;    1.841750;    2.426173;    3.209282;    4.493329;   15.357199; 2788.994572;
 71;    0.251544;    0.999359;    0.733600;    0.645246;    0.602816;    0.656923;    0.723813;    0.788665;    0.870987;    0.976119;    1.121698;    1.335250;    1.577582;    1.944727;    2.714970;    4.227358;   10.329285;   39.968300;19459.076244;
 72;    0.252531;    1.004980;    0.732484;    0.649392;    0.608579;    0.659190;    0.722479;    0.794279;    0.874791;    0.967170;    1.127781;    1.288665;    1.542850;    1.940032;    2.736202;    4.635506;    9.574832;   60.870426; 5954.539632;
 73;    0.248295;    1.032962;    0.755740;    0.664654;    0.617833;    0.673292;    0.744142;    0.810970;    0.888540;    0.969111;    1.166309;    1.337854;    1.590002;    1.862490;    2.453168;    3.328974;    5.545254;   18.630642;297904.170192;
 74;    0.257375;    1.021459;    0.740148;    0.660926;    0.604681;    0.653398;    0.719361;    0.789506;    0.864271;    1.009050;    1.141042;    1.532369;    1.863272;    2.218770;    3.067213;    4.977554;    8.575802;   18.239717;10660.209108;
 75;    0.252981;    1.003950;    0.744406;    0.639386;    0.588083;    0.635961;    0.694285;    0.773271;    0.868323;    0.963540;    1.120621;    1.312719;    1.573014;    2.339638;    3.366273;    4.424875;    9.767214;   59.101133;40068.290706;
 76;    0.248041;    1.013482;    0.731794;    0.642035;    0.602615;    0.656069;    0.717185;    0.785793;    0.863884;    0.951459;    1.045580;    1.220599;    1.491651;    1.785654;    2.395154;    3.700276;    7.513154;   22.229618; 1020.545614;
 77;    0.249424;    0.973042;    0.723261;    0.630018;    0.588350;    0.643624;    0.689694;    0.743877;    0.828484;    0.925815;    1.072552;    1.287970;    1.531668;    1.810034;    2.224010;    3.327058;    4.905275;   12.946020; 7710.885399;
 78;    0.248260;    0.989357;    0.751043;    0.653591;    0.600974;    0.654852;    0.727323;    0.800471;    0.876464;    0.971632;    1.083961;    1.262579;    1.524709;    1.809754;    2.275023;    3.551761;    5.619355;   28.604166;51692.478246;
 79;    0.249308;    1.005493;    0.744634;    0.649806;    0.608541;    0.651295;    0.702456;    0.766523;    0.843189;    0.940724;    1.085399;    1.226767;    1.542844;    2.093149;    3.433376;    4.703086;    9.009555;   16.978873; 4289.454093;
 80;    0.254710;    0.995335;    0.727831;    0.633675;    0.581702;    0.628794;    0.700586;    0.834879;    0.955565;    1.113737;    1.265435;    1.489655;    1.704087;    2.047379;    2.600039;    3.468344;   15.676995;  270.819618; 4481.180545;
 81;    0.250477;    0.983503;    0.727685;    0.645454;    0.595970;    0.647502;    0.694475;    0.755683;    0.840898;    0.931212;    1.102304;    1.279716;    1.486051;    1.759894;    2.193054;    3.367941;    5.300426;   26.806258; 2194.887489;
 82;    0.258042;    0.985078;    0.725338;    0.636900;    0.589669;    0.635589;    0.723565;    0.799669;    0.894259;    1.018476;    1.164087;    1.346993;    1.586598;    2.035140;    2.638614;    3.433536;    7.380525;   73.083915;957198.011959;
 83;    0.248998;    0.962436;    0.725542;    0.640287;    0.600803;    0.648462;    0.717672;    0.790551;    0.883780;    1.033849;    1.318795;    1.854871;    2.272481;    3.110487;    4.230995;    6.546438;   14.228327;   38.188302; 6009.254080;
 84;    0.247545;    0.981291;    0.752763;    0.663104;    0.610192;    0.673770;    0.734593;    0.804902;    0.907706;    1.022296;    1.150237;    1.293397;    1.513236;    1.876363;    2.336685;    2.816134;    5.650881;   12.572212; 3562.673004;
 85;    0.248952;    0.990089;    0.746421;    0.655665;    0.611449;    0.661269;    0.728037;    0.805336;    0.884266;    1.008070;    1.178058;    1.409888;    1.737587;    2.051533;    3.156879;    5.164755;    9.799373;   23.488399;10190.751270;
 86;    0.250532;    1.028066;    0.745001;    0.644253;    0.601702;    0.647335;    0.713789;    0.777346;    0.847408;    0.961757;    1.082422;    1.262692;    1.474890;    1.748219;    2.051510;    2.653394;    4.434166;   14.582536;197802.700584;
 87;    0.253398;    1.007497;    0.737599;    0.643839;    0.604441;    0.652540;    0.704210;    0.755618;    0.860549;    0.976583;    1.107508;    1.270528;    1.596809;    1.965919;    2.475689;    3.477167;    6.638221;   22.092365; 2295.247691;
 88;    0.248909;    1.025978;    0.746227;    0.648649;    0.590267;    0.644289;    0.699775;    0.763932;    0.850212;    0.957990;    1.082173;    1.283118;    1.509379;    1.816679;    2.220402;    2.711304;    6.113003;   45.012540; 1787.532465;
 89;    0.248136;    1.013035;    0.749451;    0.661783;    0.601871;    0.654903;    0.709402;    0.780874;    0.859346;    1.018268;    1.218289;    1.487563;    1.774565;    2.207562;    2.721657;    3.380286;    6.993076;   31.564626;14108.334754;
 90;    0.248780;    0.994722;    0.745395;    0.652650;    0.613347;    0.659569;    0.728700;    0.810421;    0.895641;    1.005380;    1.123559;    1.299603;    1.571188;    1.943719;    2.437584;    3.126736;    5.013576;   38.539474;67876.425044;
 91;    0.248556;    1.017831;    0.750041;    0.650037;    0.598493;    0.644660;    0.704958;    0.786302;    0.863550;    0.981098;    1.120303;    1.242355;    1.611953;    2.122616;    2.735167;    3.690609;    5.006587;   43.188421;2279022.114612;
 92;    0.248055;    0.999453;    0.741530;    0.655313;    0.604350;    0.652660;    0.721937;    0.794485;    0.872587;    0.986564;    1.137227;    1.330444;    1.844733;    2.261710;    3.614387;    5.482538;   10.443210;   19.530712; 2778.307970;
 93;    0.248850;    1.002663;    0.747207;    0.660993;    0.611757;    0.672364;    0.732352;    0.804622;    0.898125;    1.041793;    1.181175;    1.399150;    1.692108;    2.462390;    3.432384;    5.532248;   11.422358;   35.372796; 3413.607384;
 94;    0.248696;    0.997341;    0.736020;    0.635710;    0.595059;    0.639251;    0.708820;    0.780487;    0.877599;    0.989228;    1.146981;    1.369157;    1.744780;    2.133141;    2.753858;    3.584748;    6.055382;   14.215126;28553.133789;
 95;    0.254966;    1.017930;    0.746877;    0.656277;    0.607978;    0.652391;    0.717002;    0.788411;    0.858792;    0.954299;    1.085760;    1.227968;    1.541713;    1.991854;    2.580265;    3.784045;   11.802691;   33.517576;  606.970733;
 96;    0.249900;    1.018457;    0.737884;    0.645892;    0.597179;    0.638131;    0.701451;    0.781603;    0.874586;    0.963333;    1.093351;    1.277712;    1.521151;    1.831771;    2.974464;    4.958026;   10.336310;   35.496397;59189.092290;
 97;    0.249758;    1.010369;    0.765766;    0.671445;    0.621184;    0.679396;    0.734660;    0.815733;    0.922169;    1.044108;    1.268972;    1.576598;    1.893300;    2.343470;    3.046716;    4.904824;    9.289352;   19.028979;2441986.887467;
 98;    0.253723;    1.007234;    0.753168;    0.654925;    0.603162;    0.643230;    0.698803;    0.761748;    0.863979;    0.974785;    1.096583;    1.226417;    1.426042;    1.747948;    2.192082;    2.684094;    3.437351;   10.308027;518214.654070;
 99;    0.255713;    1.012894;    0.736049;    0.649905;    0.603552;    0.646833;    0.710363;    0.793075;    0.868971;    0.979128;    1.124528;    1.295174;    1.513802;    1.842087;    2.420373;    3.175322;    4.875526;   14.815547; 1390.392620;
100;    0.251884;    0.996000;    0.731108;    0.651386;    0.602886;    0.654513;    0.725268;    0.798795;    0.878111;    0.955410;    1.089915;    1.278690;    1.585399;    1.954786;    2.691619;    3.406080;    5.232815;   21.536378; 2066.625376;
