Simulation;Time;PC 0;PC 1;PC 2;PC 3;PC 4;PC 5;PC 6;PC 7;PC 8;PC 9;PC10;PC11;PC12;PC13;PC14;PC15;PC16;PC17;
Nan;Nan;0;1;0;0;0;0;0;0;0;0;0;0;0;0;0;0;0;0;
  0;    0.744784;    0.987844;    0.492064;    0.487529;    0.482685;    0.472099;    0.465855;    0.462276;    0.455305;    0.441959;    0.418253;    0.396529;    0.366991;    0.330521;    0.290072;    0.240888;    0.199351;    0.139799;    0.075907;
  1;    0.742992;    1.010236;    0.503279;    0.497436;    0.491187;    0.483668;    0.482492;    0.469974;    0.456605;    0.441067;    0.421730;    0.397298;    0.373553;    0.347995;    0.307512;    0.273655;    0.217614;    0.165009;    0.090402;
  2;    0.745572;    1.002717;    0.506818;    0.509119;    0.505024;    0.497627;    0.489498;    0.477898;    0.458713;    0.438917;    0.409884;    0.385945;    0.355216;    0.329680;    0.298137;    0.256817;    0.216316;    0.160425;    0.078965;
  3;    0.746934;    0.983391;    0.506939;    0.508357;    0.501444;    0.501583;    0.495044;    0.479776;    0.468378;    0.452835;    0.429439;    0.406411;    0.378906;    0.353232;    0.316748;    0.280394;    0.229832;    0.170627;    0.094654;
  4;    0.740554;    1.019547;    0.513241;    0.510975;    0.509817;    0.504757;    0.490506;    0.481696;    0.471226;    0.455440;    0.438157;    0.410824;    0.390681;    0.366433;    0.325793;    0.282745;    0.229064;    0.164184;    0.093882;
  5;    0.755147;    1.006278;    0.501741;    0.498290;    0.495131;    0.490063;    0.476192;    0.473768;    0.463737;    0.446703;    0.423655;    0.393041;    0.374801;    0.342729;    0.314967;    0.274889;    0.216716;    0.162875;    0.081439;
  6;    0.744954;    0.999220;    0.502728;    0.504151;    0.498753;    0.488813;    0.483220;    0.474312;    0.466545;    0.450169;    0.438947;    0.423925;    0.396399;    0.351315;    0.316028;    0.272528;    0.203089;    0.155569;    0.078410;
  7;    0.741822;    1.011001;    0.501873;    0.496195;    0.497518;    0.491332;    0.487282;    0.477160;    0.455151;    0.445969;    0.429616;    0.408569;    0.384638;    0.359251;    0.312660;    0.267798;    0.221880;    0.171587;    0.102568;
  8;    0.742644;    0.983079;    0.492910;    0.494251;    0.493178;    0.488203;    0.472401;    0.462648;    0.459128;    0.444145;    0.425279;    0.405209;    0.374793;    0.352078;    0.314175;    0.273746;    0.222345;    0.150630;    0.082284;
  9;    0.738029;    0.995954;    0.506713;    0.506172;    0.498709;    0.495378;    0.490961;    0.481165;    0.473387;    0.463991;    0.447525;    0.422479;    0.404237;    0.375542;    0.333289;    0.295312;    0.232323;    0.176559;    0.101941;
 10;    0.742218;    1.003714;    0.508971;    0.505879;    0.503988;    0.502236;    0.489307;    0.478744;    0.466872;    0.459596;    0.446369;    0.428983;    0.402208;    0.355714;    0.326727;    0.283446;    0.237558;    0.175317;    0.090734;
 11;    0.748421;    0.985961;    0.508344;    0.502049;    0.496147;    0.494486;    0.480166;    0.476978;    0.462652;    0.446352;    0.430913;    0.409679;    0.379543;    0.352244;    0.316182;    0.272179;    0.223757;    0.163446;    0.081386;
 12;    0.746919;    0.960363;    0.499004;    0.495598;    0.490980;    0.488061;    0.478232;    0.461621;    0.447149;    0.430437;    0.405993;    0.398268;    0.380945;    0.355481;    0.315585;    0.271248;    0.208684;    0.155144;    0.086026;
 13;    0.745780;    1.018807;    0.499870;    0.496474;    0.497055;    0.493134;    0.487243;    0.478767;    0.459747;    0.442750;    0.430063;    0.405482;    0.379452;    0.359431;    0.330105;    0.278286;    0.213199;    0.150377;    0.075463;
 14;    0.734446;    0.972380;    0.494354;    0.496057;    0.495434;    0.484594;    0.479119;    0.467039;    0.459821;    0.446392;    0.433384;    0.412613;    0.371426;    0.343755;    0.316676;    0.274820;    0.213976;    0.158495;    0.090309;
 15;    0.749919;    1.030662;    0.489100;    0.490807;    0.481040;    0.472663;    0.468575;    0.453431;    0.442542;    0.427995;    0.411616;    0.399020;    0.378484;    0.349877;    0.298564;    0.247320;    0.200941;    0.154642;    0.088484;
 16;    0.738642;    0.998473;    0.512922;    0.510179;    0.508474;    0.502614;    0.491118;    0.470124;    0.452366;    0.444660;    0.434014;    0.415271;    0.385890;    0.355152;    0.318898;    0.276212;    0.226668;    0.173606;    0.086807;
 17;    0.737190;    0.969968;    0.494356;    0.488426;    0.484288;    0.473254;    0.468826;    0.459734;    0.446323;    0.432328;    0.418989;    0.396442;    0.374722;    0.339841;    0.293759;    0.251359;    0.193736;    0.145435;    0.084523;
 18;    0.746431;    0.951459;    0.498716;    0.494084;    0.494072;    0.493597;    0.489700;    0.474450;    0.467705;    0.448408;    0.437689;    0.425987;    0.400491;    0.366893;    0.329675;    0.284818;    0.221744;    0.163978;    0.096147;
 19;    0.737449;    0.996895;    0.494631;    0.496433;    0.490045;    0.488786;    0.488071;    0.482724;    0.470262;    0.456827;    0.438245;    0.415948;    0.396794;    0.365441;    0.325458;    0.267940;    0.213077;    0.158864;    0.082267;
 20;    0.744139;    1.037705;    0.503073;    0.502485;    0.505308;    0.500819;    0.490562;    0.476139;    0.459184;    0.457032;    0.447186;    0.425003;    0.395841;    0.360779;    0.332952;    0.285264;    0.223901;    0.167988;    0.093308;
 21;    0.739853;    1.030944;    0.504293;    0.497403;    0.498197;    0.490120;    0.480358;    0.468548;    0.462603;    0.444693;    0.430367;    0.410880;    0.379417;    0.350577;    0.310739;    0.275755;    0.227742;    0.159632;    0.090746;
 22;    0.737863;    1.020635;    0.505578;    0.504511;    0.503198;    0.496717;    0.487593;    0.469407;    0.458891;    0.443941;    0.436215;    0.420934;    0.398912;    0.359243;    0.325853;    0.284647;    0.232263;    0.157331;    0.078329;
 23;    0.752933;    0.998506;    0.505401;    0.502403;    0.498523;    0.499880;    0.493910;    0.481467;    0.472487;    0.459232;    0.440667;    0.417529;    0.383178;    0.349539;    0.316002;    0.267579;    0.206064;    0.158440;    0.076555;
 24;    0.742016;    1.015186;    0.504394;    0.505769;    0.502871;    0.494646;    0.488514;    0.477431;    0.466571;    0.450370;    0.418857;    0.402117;    0.364484;    0.334813;    0.297587;    0.272151;    0.238262;    0.180183;    0.100936;
 25;    0.747111;    0.974010;    0.495825;    0.493514;    0.485621;    0.487713;    0.483079;    0.469854;    0.455375;    0.441879;    0.418579;    0.401697;    0.370641;    0.341391;    0.312004;    0.261314;    0.209732;    0.149975;    0.069914;
 26;    0.779825;    1.011111;    0.512259;    0.510385;    0.504871;    0.500353;    0.494575;    0.477318;    0.463581;    0.454158;    0.437062;    0.405880;    0.367799;    0.343156;    0.307557;    0.262184;    0.213690;    0.166291;    0.090986;
 27;    0.738444;    1.025369;    0.500784;    0.500305;    0.497457;    0.492698;    0.487740;    0.480324;    0.468516;    0.456501;    0.439035;    0.415570;    0.392244;    0.351232;    0.316902;    0.273113;    0.226463;    0.151324;    0.092273;
 28;    0.735272;    1.030887;    0.499179;    0.497661;    0.490989;    0.489008;    0.478907;    0.469914;    0.460011;    0.442670;    0.419225;    0.406287;    0.382055;    0.347690;    0.324456;    0.281096;    0.220805;    0.162442;    0.085158;
 29;    0.754123;    1.055782;    0.497086;    0.496213;    0.490768;    0.491419;    0.480557;    0.470180;    0.461825;    0.452388;    0.435496;    0.413757;    0.392031;    0.360290;    0.314006;    0.277240;    0.216337;    0.145964;    0.080165;
 30;    0.741523;    1.020600;    0.505698;    0.502742;    0.503264;    0.494862;    0.483237;    0.467194;    0.459235;    0.446420;    0.435012;    0.417085;    0.384499;    0.364561;    0.333082;    0.296506;    0.241544;    0.161164;    0.094717;
 31;    0.745575;    1.014276;    0.504492;    0.503412;    0.506361;    0.502345;    0.495804;    0.487814;    0.468095;    0.442809;    0.431759;    0.412192;    0.387598;    0.353018;    0.304146;    0.256239;    0.211390;    0.169173;    0.100160;
 32;    0.740253;    0.970824;    0.502864;    0.498314;    0.485946;    0.480172;    0.477568;    0.466502;    0.456666;    0.443134;    0.431744;    0.410097;    0.383359;    0.351842;    0.311795;    0.262650;    0.203056;    0.151390;    0.080299;
 33;    0.750892;    1.025108;    0.491808;    0.486528;    0.491153;    0.486109;    0.480022;    0.466303;    0.457047;    0.440470;    0.420135;    0.397716;    0.375055;    0.350807;    0.326269;    0.287950;    0.225710;    0.162896;    0.087179;
 34;    0.744182;    1.046096;    0.509340;    0.505947;    0.506523;    0.503126;    0.496057;    0.478401;    0.465488;    0.445253;    0.419403;    0.400687;    0.371164;    0.344616;    0.310769;    0.269933;    0.229057;    0.170389;    0.093449;
 35;    0.745916;    0.995152;    0.501687;    0.496777;    0.493649;    0.486391;    0.483824;    0.472643;    0.462110;    0.443929;    0.427953;    0.404036;    0.372232;    0.345454;    0.321501;    0.284128;    0.233287;    0.163012;    0.092762;
 36;    0.741084;    0.944930;    0.498627;    0.498323;    0.496833;    0.492620;    0.482006;    0.474075;    0.464008;    0.455304;    0.440472;    0.419479;    0.388034;    0.363519;    0.326304;    0.293941;    0.242596;    0.175354;    0.086646;
 37;    0.733775;    0.980933;    0.499100;    0.495306;    0.488517;    0.484586;    0.479714;    0.467552;    0.463682;    0.452536;    0.436952;    0.416562;    0.388163;    0.360108;    0.311731;    0.268487;    0.221463;    0.169160;    0.088699;
 38;    0.747216;    1.008562;    0.500182;    0.494700;    0.487697;    0.479126;    0.472618;    0.472162;    0.466436;    0.456052;    0.436949;    0.411906;    0.382744;    0.341551;    0.308452;    0.282104;    0.231314;    0.162128;    0.086616;
 39;    0.747711;    0.959035;    0.497180;    0.494176;    0.494968;    0.488507;    0.473643;    0.461936;    0.455069;    0.437906;    0.421367;    0.392523;    0.380067;    0.355191;    0.324346;    0.280305;    0.223018;    0.150228;    0.070013;
 40;    0.754273;    0.999643;    0.500774;    0.498380;    0.489572;    0.487200;    0.476895;    0.475864;    0.468044;    0.451730;    0.424470;    0.399162;    0.376345;    0.345606;    0.313497;    0.271013;    0.216017;    0.151828;    0.090032;
 41;    0.746483;    0.998216;    0.498092;    0.493374;    0.490250;    0.482997;    0.480524;    0.478163;    0.467801;    0.451480;    0.430726;    0.400554;    0.383895;    0.354800;    0.310825;    0.275780;    0.221058;    0.169987;    0.080541;
 42;    0.744692;    1.044267;    0.497810;    0.495937;    0.488091;    0.485430;    0.476769;    0.467184;    0.459514;    0.450229;    0.430290;    0.410403;    0.380057;    0.350721;    0.317211;    0.274232;    0.225253;    0.172166;    0.100536;
 43;    0.749824;    1.024939;    0.500806;    0.499754;    0.497280;    0.488336;    0.482339;    0.469168;    0.459474;    0.441792;    0.422444;    0.403611;    0.380085;    0.342824;    0.302251;    0.255058;    0.213185;    0.161193;    0.091282;
 44;    0.749336;    1.001755;    0.505252;    0.502583;    0.502643;    0.498950;    0.488734;    0.485142;    0.476846;    0.462469;    0.442943;    0.416586;    0.396076;    0.362758;    0.333449;    0.289114;    0.231672;    0.165818;    0.097414;
 45;    0.744750;    0.992324;    0.497521;    0.490744;    0.490379;    0.481359;    0.469888;    0.460354;    0.454914;    0.437598;    0.422860;    0.410376;    0.382926;    0.342009;    0.316547;    0.279519;    0.234920;    0.167290;    0.079696;
 46;    0.760408;    1.025170;    0.496490;    0.491213;    0.489512;    0.478391;    0.475148;    0.471516;    0.463044;    0.450128;    0.434726;    0.405600;    0.381106;    0.348979;    0.305787;    0.255863;    0.213390;    0.151527;    0.086820;
 47;    0.752055;    1.041242;    0.511063;    0.509356;    0.507457;    0.503932;    0.493876;    0.485295;    0.467797;    0.447753;    0.440875;    0.420003;    0.384583;    0.354388;    0.312965;    0.268118;    0.217345;    0.158942;    0.096983;
 48;    0.737978;    0.979915;    0.502337;    0.505364;    0.503363;    0.494306;    0.490446;    0.478545;    0.472972;    0.455611;    0.443584;    0.427766;    0.404715;    0.376851;    0.332917;    0.282794;    0.229205;    0.165474;    0.086336;
 49;    0.746829;    0.986844;    0.501305;    0.495966;    0.494071;    0.491964;    0.482858;    0.472764;    0.454733;    0.438897;    0.418968;    0.399391;    0.373490;    0.339532;    0.300986;    0.257614;    0.209375;    0.139263;    0.076117;
 50;    0.748860;    1.010190;    0.497107;    0.497556;    0.495062;    0.492537;    0.482713;    0.473291;    0.464483;    0.451819;    0.443537;    0.424412;    0.397308;    0.358877;    0.318369;    0.270583;    0.201327;    0.146420;    0.085810;
 51;    0.745054;    1.027780;    0.503260;    0.500716;    0.496665;    0.483345;    0.482434;    0.471483;    0.465151;    0.443712;    0.428995;    0.403721;    0.383048;    0.352440;    0.324288;    0.281935;    0.231173;    0.160353;    0.083964;
 52;    0.747180;    0.996595;    0.495611;    0.490492;    0.488670;    0.484251;    0.477572;    0.472399;    0.457233;    0.446829;    0.426564;    0.409172;    0.381749;    0.354832;    0.314003;    0.252129;    0.202652;    0.146720;    0.080037;
 53;    0.746550;    0.940105;    0.500599;    0.494962;    0.491877;    0.486578;    0.484219;    0.477403;    0.466423;    0.449635;    0.431978;    0.417549;    0.387200;    0.364396;    0.334636;    0.290278;    0.241951;    0.175664;    0.087425;
 54;    0.746186;    1.014981;    0.500084;    0.493693;    0.497077;    0.492999;    0.480480;    0.470684;    0.454441;    0.444926;    0.424426;    0.410474;    0.380800;    0.337155;    0.312687;    0.270625;    0.203716;    0.145588;    0.085929;
 55;    0.742691;    0.999206;    0.491930;    0.490513;    0.484426;    0.477166;    0.475148;    0.463563;    0.457411;    0.445518;    0.423735;    0.410910;    0.387674;    0.349250;    0.307678;    0.269697;    0.219420;    0.166735;    0.095314;
 56;    0.750252;    1.009429;    0.498845;    0.491627;    0.483288;    0.478374;    0.474710;    0.465181;    0.456137;    0.436620;    0.421666;    0.403110;    0.366655;    0.327202;    0.274531;    0.241597;    0.197500;    0.143106;    0.088207;
 57;    0.738416;    1.016805;    0.509097;    0.507958;    0.499454;    0.496696;    0.492516;    0.482208;    0.462386;    0.448612;    0.435925;    0.412484;    0.392463;    0.363402;    0.319820;    0.276739;    0.238251;    0.178331;    0.098515;
 58;    0.741904;    1.010109;    0.502344;    0.500246;    0.495453;    0.495761;    0.492725;    0.488200;    0.481791;    0.467462;    0.451551;    0.437448;    0.415895;    0.379562;    0.342860;    0.292689;    0.242696;    0.172370;    0.093416;
 59;    0.744969;    0.979529;    0.497564;    0.493178;    0.493415;    0.486387;    0.482636;    0.470594;    0.456330;    0.433657;    0.422635;    0.399021;    0.374910;    0.341048;    0.300993;    0.257695;    0.212700;    0.159281;    0.092666;
 60;    0.748649;    1.000066;    0.499886;    0.501276;    0.499741;    0.497511;    0.488365;    0.478616;    0.467453;    0.455179;    0.442464;    0.432633;    0.410696;    0.382997;    0.336713;    0.280332;    0.227771;    0.169945;    0.082836;
 61;    0.750543;    0.999697;    0.506697;    0.503319;    0.499144;    0.497926;    0.485847;    0.473747;    0.461995;    0.448488;    0.434226;    0.407774;    0.381649;    0.348468;    0.319946;    0.275157;    0.218061;    0.159225;    0.084294;
 62;    0.749956;    0.991147;    0.494075;    0.491622;    0.484867;    0.481124;    0.475000;    0.467969;    0.451631;    0.435088;    0.422757;    0.404125;    0.377509;    0.344555;    0.309397;    0.250026;    0.202079;    0.140375;    0.072838;
 63;    0.747802;    1.028071;    0.497516;    0.495247;    0.485803;    0.475605;    0.470685;    0.466144;    0.455665;    0.437017;    0.420075;    0.389397;    0.363497;    0.342266;    0.305479;    0.271789;    0.236260;    0.179915;    0.103131;
 64;    0.744167;    1.011628;    0.505882;    0.503565;    0.499965;    0.499936;    0.494518;    0.479206;    0.474485;    0.466497;    0.448834;    0.416746;    0.390107;    0.364749;    0.324529;    0.284507;    0.240277;    0.171560;    0.097141;
 65;    0.739234;    0.965666;    0.493866;    0.495364;    0.490790;    0.483339;    0.480549;    0.472015;    0.462795;    0.445741;    0.424301;    0.396860;    0.364686;    0.337564;    0.303489;    0.253561;    0.206984;    0.139858;    0.066873;
 66;    0.741018;    0.987706;    0.498252;    0.493636;    0.492233;    0.484352;    0.480513;    0.470810;    0.453118;    0.445075;    0.424894;    0.398000;    0.373691;    0.346001;    0.306610;    0.268360;    0.226457;    0.163285;    0.100771;
 67;    0.752577;    0.980507;    0.503807;    0.498980;    0.499176;    0.490982;    0.487148;    0.477886;    0.461073;    0.444615;    0.417770;    0.393370;    0.363194;    0.328285;    0.295891;    0.244154;    0.200401;    0.149661;    0.078862;
 68;    0.746998;    1.002358;    0.502130;    0.502538;    0.498426;    0.496804;    0.490861;    0.476981;    0.468851;    0.449351;    0.436689;    0.411458;    0.382749;    0.344113;    0.313064;    0.277486;    0.226445;    0.156548;    0.091634;
 69;    0.735820;    0.970766;    0.506576;    0.502503;    0.495849;    0.497303;    0.493170;    0.487562;    0.478825;    0.467155;    0.449022;    0.419506;    0.395882;    0.349761;    0.318625;    0.272062;    0.222913;    0.160838;    0.088505;
 70;    0.745116;    1.010195;    0.507056;    0.505865;    0.499421;    0.492931;    0.483956;    0.477390;    0.468869;    0.455467;    0.429816;    0.413067;    0.387400;    0.353597;    0.321161;    0.272698;    0.202023;    0.158031;    0.095468;
 71;    0.746417;    1.006294;    0.497501;    0.495519;    0.493289;    0.481727;    0.475552;    0.464355;    0.453484;    0.437841;    0.429126;    0.406006;    0.372091;    0.340909;    0.309582;    0.273671;    0.224320;    0.162099;    0.087893;
 72;    0.746304;    1.019554;    0.500223;    0.496457;    0.496212;    0.492281;    0.486873;    0.481144;    0.469680;    0.458374;    0.436248;    0.415840;    0.388438;    0.360378;    0.315481;    0.272180;    0.224652;    0.157797;    0.092274;
 73;    0.750099;    1.040498;    0.510342;    0.509860;    0.512201;    0.507830;    0.501462;    0.489454;    0.479217;    0.458887;    0.448737;    0.430811;    0.398569;    0.355685;    0.328181;    0.291824;    0.222912;    0.162834;    0.092342;
 74;    0.741790;    1.032840;    0.500183;    0.497715;    0.497062;    0.496977;    0.488420;    0.483139;    0.466490;    0.445646;    0.434517;    0.416026;    0.391891;    0.368595;    0.335604;    0.279141;    0.230540;    0.165989;    0.081177;
 75;    0.744091;    0.993007;    0.490643;    0.489338;    0.484353;    0.479702;    0.472877;    0.469757;    0.457989;    0.439562;    0.421510;    0.398911;    0.373871;    0.334052;    0.311526;    0.263366;    0.224639;    0.159189;    0.091397;
 76;    0.747117;    1.029101;    0.496410;    0.498966;    0.493988;    0.486807;    0.478869;    0.470992;    0.458316;    0.434717;    0.420357;    0.404852;    0.381501;    0.347488;    0.313522;    0.269652;    0.210678;    0.153242;    0.092408;
 77;    0.737379;    0.970021;    0.486369;    0.489440;    0.482601;    0.471486;    0.464445;    0.452911;    0.443444;    0.428914;    0.417293;    0.401353;    0.375730;    0.343476;    0.310752;    0.263265;    0.212851;    0.155814;    0.081092;
 78;    0.742847;    0.969528;    0.500519;    0.495200;    0.492910;    0.492478;    0.494354;    0.486214;    0.470363;    0.460129;    0.446206;    0.422640;    0.392374;    0.349086;    0.295196;    0.253180;    0.212973;    0.159543;    0.087465;
 79;    0.749715;    1.006339;    0.503531;    0.498230;    0.494810;    0.489016;    0.483060;    0.471907;    0.461153;    0.450043;    0.425320;    0.396223;    0.373493;    0.352533;    0.324584;    0.278345;    0.224556;    0.146738;    0.091504;
 80;    0.752275;    0.995270;    0.484559;    0.484776;    0.479832;    0.478835;    0.467871;    0.460306;    0.449519;    0.429521;    0.408308;    0.391238;    0.355375;    0.330434;    0.289761;    0.245191;    0.190828;    0.140266;    0.085644;
 81;    0.740861;    0.985860;    0.492869;    0.490180;    0.484196;    0.473918;    0.467469;    0.457639;    0.451134;    0.443428;    0.432244;    0.413728;    0.385979;    0.354618;    0.306577;    0.271369;    0.227643;    0.178317;    0.099941;
 82;    0.744947;    0.987631;    0.489196;    0.484672;    0.481997;    0.479487;    0.468046;    0.467931;    0.459219;    0.446246;    0.422162;    0.403830;    0.378628;    0.343252;    0.302602;    0.267225;    0.235205;    0.176730;    0.100273;
 83;    0.750039;    0.957392;    0.494454;    0.490198;    0.490761;    0.485255;    0.483786;    0.474728;    0.463755;    0.454297;    0.439107;    0.411724;    0.392381;    0.359007;    0.322829;    0.264078;    0.218448;    0.163314;    0.091924;
 84;    0.743255;    0.958861;    0.505044;    0.508085;    0.497596;    0.491269;    0.485251;    0.473353;    0.472849;    0.461306;    0.443821;    0.425112;    0.398375;    0.357975;    0.299591;    0.260863;    0.215600;    0.151256;    0.076953;
 85;    0.747502;    0.980054;    0.504272;    0.503731;    0.503178;    0.492452;    0.485359;    0.474425;    0.466568;    0.452974;    0.433933;    0.410296;    0.389639;    0.356449;    0.315276;    0.271441;    0.226609;    0.159800;    0.086922;
 86;    0.748405;    1.034067;    0.499500;    0.492906;    0.489006;    0.488175;    0.478399;    0.462991;    0.455787;    0.432878;    0.412462;    0.401825;    0.371971;    0.337623;    0.298404;    0.254740;    0.212746;    0.148998;    0.079861;
 87;    0.742565;    1.014393;    0.498144;    0.497150;    0.494840;    0.481824;    0.480002;    0.470814;    0.460836;    0.443586;    0.426057;    0.391675;    0.376849;    0.348364;    0.304102;    0.258161;    0.212813;    0.161806;    0.090606;
 88;    0.741128;    1.025667;    0.493694;    0.488001;    0.489533;    0.481489;    0.469399;    0.468274;    0.461182;    0.450823;    0.439690;    0.420085;    0.392052;    0.364847;    0.321454;    0.254276;    0.212865;    0.161141;    0.091202;
 89;    0.744970;    1.007590;    0.501157;    0.499045;    0.493838;    0.489078;    0.477928;    0.466120;    0.455454;    0.435504;    0.426472;    0.404387;    0.377458;    0.339118;    0.302919;    0.252662;    0.200933;    0.149824;    0.078909;
 90;    0.750061;    0.988720;    0.505706;    0.504711;    0.498213;    0.492158;    0.488105;    0.483259;    0.472727;    0.461117;    0.439460;    0.408210;    0.386940;    0.358944;    0.321273;    0.285535;    0.228331;    0.165838;    0.083114;
 91;    0.751404;    1.014489;    0.499384;    0.496685;    0.492193;    0.489618;    0.484614;    0.472314;    0.459056;    0.445090;    0.421567;    0.404205;    0.376331;    0.350576;    0.305682;    0.270851;    0.219226;    0.159604;    0.068559;
 92;    0.747660;    0.997049;    0.500228;    0.497901;    0.494379;    0.491323;    0.488140;    0.477828;    0.473416;    0.461114;    0.440924;    0.407039;    0.382542;    0.342881;    0.309610;    0.262687;    0.202120;    0.142240;    0.085007;
 93;    0.741896;    0.999256;    0.505088;    0.503222;    0.503519;    0.499550;    0.494500;    0.484217;    0.465103;    0.451803;    0.435936;    0.426329;    0.401608;    0.376936;    0.342570;    0.295261;    0.236357;    0.158293;    0.086855;
 94;    0.738889;    0.997844;    0.493545;    0.491940;    0.485506;    0.479753;    0.469670;    0.458836;    0.448169;    0.434038;    0.413953;    0.390400;    0.373032;    0.338419;    0.311877;    0.271147;    0.223020;    0.168981;    0.081295;
 95;    0.759475;    1.023590;    0.503657;    0.503188;    0.501664;    0.498023;    0.488881;    0.479109;    0.465298;    0.442808;    0.424858;    0.407631;    0.382698;    0.357149;    0.322805;    0.272934;    0.215681;    0.144757;    0.080059;
 96;    0.746957;    1.025685;    0.495634;    0.489033;    0.492921;    0.490748;    0.489734;    0.484254;    0.475227;    0.456382;    0.445716;    0.425325;    0.394855;    0.349175;    0.310378;    0.272167;    0.226241;    0.154572;    0.093192;
 97;    0.752352;    0.995801;    0.515106;    0.512404;    0.507421;    0.497540;    0.489519;    0.482790;    0.478152;    0.465107;    0.446824;    0.420878;    0.385074;    0.333676;    0.302195;    0.259055;    0.215421;    0.154648;    0.087159;
 98;    0.745541;    0.996816;    0.502228;    0.497339;    0.497712;    0.487451;    0.480767;    0.478325;    0.472225;    0.456117;    0.431326;    0.412361;    0.384212;    0.353473;    0.301873;    0.260970;    0.220071;    0.167572;    0.094352;
 99;    0.745183;    1.024387;    0.498703;    0.494713;    0.485936;    0.488084;    0.479932;    0.469946;    0.457790;    0.448298;    0.430110;    0.408822;    0.383788;    0.351014;    0.323663;    0.279791;    0.225484;    0.159252;    0.087027;
100;    0.748945;    1.003285;    0.497112;    0.498459;    0.493996;    0.492355;    0.485310;    0.475574;    0.460330;    0.436499;    0.422015;    0.405624;    0.384175;    0.354258;    0.317753;    0.260582;    0.222600;    0.166069;    0.091097;
