Simulation;Time;PC 0;PC 1;PC 2;PC 3;PC 4;PC 5;PC 6;PC 7;PC 8;PC 9;PC10;PC11;PC12;PC13;PC14;PC15;PC16;PC17;
Nan;Nan;0;1;0;0;0;0;0;0;0;0;0;0;0;0;0;0;0;0;
  0;    0.762363;    0.990198;    0.196821;    0.194563;    0.193259;    0.188577;    0.185732;    0.183918;    0.181499;    0.175489;    0.164410;    0.156734;    0.146603;    0.132914;    0.115979;    0.095932;    0.078071;    0.054568;    0.028604;
  1;    0.759691;    1.012405;    0.201287;    0.198947;    0.196399;    0.193845;    0.192897;    0.188113;    0.183556;    0.178337;    0.170820;    0.159822;    0.150300;    0.139219;    0.120880;    0.105670;    0.081957;    0.060945;    0.033743;
  2;    0.758264;    0.996633;    0.202725;    0.203246;    0.201618;    0.199286;    0.197150;    0.194136;    0.186710;    0.182034;    0.172693;    0.162137;    0.152629;    0.141487;    0.127467;    0.110758;    0.090208;    0.064035;    0.030540;
  3;    0.760915;    0.967155;    0.202770;    0.203290;    0.200678;    0.201172;    0.199254;    0.193443;    0.186607;    0.178457;    0.168613;    0.158010;    0.149162;    0.139643;    0.124743;    0.108790;    0.087773;    0.062956;    0.031772;
  4;    0.751290;    1.016043;    0.205289;    0.204163;    0.203073;    0.201469;    0.195560;    0.193464;    0.190568;    0.183887;    0.177739;    0.166508;    0.157697;    0.146411;    0.127144;    0.112846;    0.087875;    0.061720;    0.036958;
  5;    0.762505;    1.008263;    0.200690;    0.199346;    0.197681;    0.195746;    0.191511;    0.190756;    0.185251;    0.179740;    0.172321;    0.162232;    0.154002;    0.140125;    0.125341;    0.106387;    0.085201;    0.064490;    0.033841;
  6;    0.753121;    0.996385;    0.201077;    0.201496;    0.199158;    0.195320;    0.193001;    0.189454;    0.186303;    0.178149;    0.174339;    0.169127;    0.158448;    0.140297;    0.128268;    0.110592;    0.085589;    0.063561;    0.029965;
  7;    0.757152;    1.014894;    0.200742;    0.198170;    0.198890;    0.196110;    0.195105;    0.191685;    0.184062;    0.181301;    0.174966;    0.165058;    0.155554;    0.143421;    0.125990;    0.109098;    0.087620;    0.065545;    0.038929;
  8;    0.760290;    0.981853;    0.197166;    0.197582;    0.197261;    0.195212;    0.189762;    0.186526;    0.185189;    0.178411;    0.167679;    0.161695;    0.149903;    0.140563;    0.125867;    0.109710;    0.089416;    0.059486;    0.034707;
  9;    0.762677;    0.986679;    0.202679;    0.202471;    0.199944;    0.198727;    0.196912;    0.193417;    0.190457;    0.184869;    0.177741;    0.167637;    0.160505;    0.148867;    0.134243;    0.119947;    0.097490;    0.075138;    0.042527;
 10;    0.771812;    0.996418;    0.203580;    0.202289;    0.202291;    0.202311;    0.197993;    0.195658;    0.189887;    0.186201;    0.178351;    0.171714;    0.160337;    0.141865;    0.131316;    0.111947;    0.092487;    0.067217;    0.035707;
 11;    0.755208;    0.969595;    0.203327;    0.200770;    0.198239;    0.196531;    0.190943;    0.189665;    0.184583;    0.178889;    0.174724;    0.167415;    0.155365;    0.142955;    0.127120;    0.105221;    0.089095;    0.065435;    0.036328;
 12;    0.755410;    0.940236;    0.199598;    0.198058;    0.196333;    0.195226;    0.191899;    0.186632;    0.180841;    0.173800;    0.165584;    0.160746;    0.154306;    0.144108;    0.127999;    0.108549;    0.083824;    0.063396;    0.034069;
 13;    0.754916;    1.029289;    0.199935;    0.199035;    0.198570;    0.196069;    0.193170;    0.189301;    0.182032;    0.176347;    0.172358;    0.162444;    0.154365;    0.145952;    0.134549;    0.116436;    0.094070;    0.065505;    0.031643;
 14;    0.747931;    0.963939;    0.197735;    0.197828;    0.197498;    0.193334;    0.191833;    0.187071;    0.183102;    0.177612;    0.171296;    0.162414;    0.146562;    0.134234;    0.125218;    0.108171;    0.081908;    0.062915;    0.036022;
 15;    0.762525;    1.059020;    0.195625;    0.196649;    0.193270;    0.190093;    0.188327;    0.182331;    0.178575;    0.171089;    0.166249;    0.159557;    0.151339;    0.140571;    0.121723;    0.102623;    0.084124;    0.062082;    0.033002;
 16;    0.761210;    0.984254;    0.205160;    0.204500;    0.203635;    0.200383;    0.197132;    0.191552;    0.184791;    0.178896;    0.173776;    0.165534;    0.151567;    0.139536;    0.126630;    0.109343;    0.091036;    0.068348;    0.033157;
 17;    0.752501;    0.959886;    0.197753;    0.194945;    0.193479;    0.189412;    0.187894;    0.184197;    0.178889;    0.172440;    0.168418;    0.161080;    0.152651;    0.137672;    0.117587;    0.102490;    0.080700;    0.060484;    0.033015;
 18;    0.756162;    0.927039;    0.199474;    0.197910;    0.197638;    0.197421;    0.195822;    0.190308;    0.187433;    0.180513;    0.175956;    0.169060;    0.157672;    0.143436;    0.128825;    0.110419;    0.083861;    0.062782;    0.039163;
 19;    0.759838;    1.001033;    0.197844;    0.198585;    0.195853;    0.195088;    0.194247;    0.192334;    0.187647;    0.182950;    0.176265;    0.164453;    0.156573;    0.143261;    0.125347;    0.102610;    0.079925;    0.060786;    0.034991;
 20;    0.763258;    1.055239;    0.201218;    0.200870;    0.202187;    0.200674;    0.197391;    0.192694;    0.185024;    0.182347;    0.177131;    0.168784;    0.156912;    0.141353;    0.129885;    0.111933;    0.089589;    0.066032;    0.036073;
 21;    0.762403;    1.042801;    0.201717;    0.199363;    0.199777;    0.196409;    0.192471;    0.187512;    0.185594;    0.178903;    0.172843;    0.165336;    0.154118;    0.143275;    0.126252;    0.114829;    0.095700;    0.068289;    0.038287;
 22;    0.754763;    1.025745;    0.202230;    0.201950;    0.201258;    0.198617;    0.195364;    0.190547;    0.182722;    0.174885;    0.170450;    0.164253;    0.154136;    0.136820;    0.126102;    0.111632;    0.091207;    0.062619;    0.034194;
 23;    0.758403;    0.992139;    0.202161;    0.200854;    0.199133;    0.200539;    0.198287;    0.194301;    0.189490;    0.180092;    0.170798;    0.160797;    0.146169;    0.134945;    0.120947;    0.103723;    0.082357;    0.063446;    0.035100;
 24;    0.755215;    1.018810;    0.201757;    0.202433;    0.201002;    0.197957;    0.195098;    0.190079;    0.186722;    0.181718;    0.173319;    0.166182;    0.149876;    0.136721;    0.123651;    0.110571;    0.097145;    0.072855;    0.041197;
 25;    0.765764;    0.964566;    0.198320;    0.197601;    0.194872;    0.195735;    0.193995;    0.189406;    0.183280;    0.176421;    0.165255;    0.157814;    0.144604;    0.131045;    0.119413;    0.101432;    0.081715;    0.059989;    0.029142;
 26;    0.752876;    1.003936;    0.204889;    0.204022;    0.202418;    0.200642;    0.198580;    0.192710;    0.186966;    0.181953;    0.175408;    0.163764;    0.147561;    0.135086;    0.122577;    0.107953;    0.087272;    0.067600;    0.036970;
 27;    0.760253;    1.038385;    0.200310;    0.200359;    0.198803;    0.196904;    0.194350;    0.190835;    0.185553;    0.180268;    0.172314;    0.163136;    0.152706;    0.134185;    0.122115;    0.107493;    0.089718;    0.060548;    0.036549;
 28;    0.754645;    1.048414;    0.199652;    0.198957;    0.196357;    0.195486;    0.189081;    0.185341;    0.182415;    0.176571;    0.166955;    0.162180;    0.154155;    0.141238;    0.131704;    0.111991;    0.086447;    0.061576;    0.033167;
 29;    0.764809;    1.089128;    0.198812;    0.198395;    0.195672;    0.195604;    0.191567;    0.188663;    0.185895;    0.182421;    0.174756;    0.166428;    0.156845;    0.142970;    0.127846;    0.112898;    0.086948;    0.059149;    0.031187;
 30;    0.755329;    1.025854;    0.202262;    0.200998;    0.200837;    0.197343;    0.192293;    0.185970;    0.183155;    0.177736;    0.172885;    0.165535;    0.152516;    0.140935;    0.126550;    0.111094;    0.090085;    0.058706;    0.033722;
 31;    0.772838;    1.017389;    0.201781;    0.201059;    0.202140;    0.200708;    0.198168;    0.195063;    0.187170;    0.176352;    0.174072;    0.167234;    0.157454;    0.144223;    0.124061;    0.105121;    0.084963;    0.065722;    0.039147;
 32;    0.763640;    0.952104;    0.201148;    0.199137;    0.195555;    0.194229;    0.193292;    0.190782;    0.186821;    0.180390;    0.174999;    0.165163;    0.155406;    0.142095;    0.125761;    0.104512;    0.080182;    0.059730;    0.030835;
 33;    0.766468;    1.047543;    0.196719;    0.194394;    0.196130;    0.195136;    0.193308;    0.188173;    0.184274;    0.178379;    0.170046;    0.161210;    0.152815;    0.144013;    0.133959;    0.117298;    0.091101;    0.061900;    0.033981;
 34;    0.764604;    1.060884;    0.203723;    0.202571;    0.202631;    0.200934;    0.198603;    0.192349;    0.187014;    0.179311;    0.170755;    0.165372;    0.155859;    0.143637;    0.129514;    0.112499;    0.093846;    0.068334;    0.036053;
 35;    0.753857;    0.991092;    0.200662;    0.198535;    0.197427;    0.196066;    0.195006;    0.190152;    0.186315;    0.180411;    0.174582;    0.164652;    0.152929;    0.140367;    0.130598;    0.113296;    0.091156;    0.062080;    0.035018;
 36;    0.755075;    0.916724;    0.199446;    0.198901;    0.198152;    0.196225;    0.192192;    0.190319;    0.187264;    0.183595;    0.177992;    0.170075;    0.158641;    0.149424;    0.135671;    0.121746;    0.100574;    0.070481;    0.034982;
 37;    0.760957;    0.971914;    0.199613;    0.198297;    0.195669;    0.193944;    0.192395;    0.186805;    0.185072;    0.179249;    0.172577;    0.164396;    0.151985;    0.141361;    0.121476;    0.104340;    0.089771;    0.067751;    0.034296;
 38;    0.757484;    1.013350;    0.200071;    0.197959;    0.195879;    0.192848;    0.190057;    0.188751;    0.186329;    0.181884;    0.174636;    0.164293;    0.152541;    0.136687;    0.124485;    0.113986;    0.093258;    0.065279;    0.032790;
 39;    0.750788;    0.940451;    0.198847;    0.197442;    0.197907;    0.195184;    0.190500;    0.185945;    0.181928;    0.174065;    0.168295;    0.158865;    0.152964;    0.142813;    0.130275;    0.111631;    0.088310;    0.063142;    0.032017;
 40;    0.767905;    0.998765;    0.200289;    0.199203;    0.196386;    0.194970;    0.190886;    0.189558;    0.186373;    0.178484;    0.167827;    0.158460;    0.150582;    0.137530;    0.124450;    0.106171;    0.082277;    0.056048;    0.033863;
 41;    0.760443;    0.999788;    0.199236;    0.197528;    0.195951;    0.193434;    0.191240;    0.190355;    0.186394;    0.179626;    0.172040;    0.160758;    0.154191;    0.143855;    0.126724;    0.110037;    0.084293;    0.063923;    0.030490;
 42;    0.759848;    1.070376;    0.199125;    0.198548;    0.195561;    0.194788;    0.191739;    0.187500;    0.183760;    0.180199;    0.173243;    0.165931;    0.153931;    0.141398;    0.129786;    0.113066;    0.091901;    0.067522;    0.040129;
 43;    0.758561;    1.038204;    0.200307;    0.199911;    0.198874;    0.195431;    0.193857;    0.189252;    0.185240;    0.179392;    0.172623;    0.164779;    0.154369;    0.137652;    0.123397;    0.102912;    0.085042;    0.066224;    0.039131;
 44;    0.761598;    0.997303;    0.202089;    0.201272;    0.200970;    0.199565;    0.195236;    0.194122;    0.190763;    0.185290;    0.177470;    0.166969;    0.157056;    0.141756;    0.130005;    0.112132;    0.090304;    0.065997;    0.038887;
 45;    0.759722;    0.990770;    0.199014;    0.196407;    0.196455;    0.192578;    0.188045;    0.183795;    0.182872;    0.177372;    0.171236;    0.165698;    0.155236;    0.138934;    0.130351;    0.115343;    0.095663;    0.067328;    0.027816;
 46;    0.761257;    1.042678;    0.198590;    0.196683;    0.196046;    0.192505;    0.191395;    0.190337;    0.185379;    0.178563;    0.171360;    0.158550;    0.151354;    0.140742;    0.122784;    0.104692;    0.085563;    0.062458;    0.036338;
 47;    0.764436;    1.051855;    0.204412;    0.203469;    0.202493;    0.201438;    0.198468;    0.194920;    0.188381;    0.181828;    0.178420;    0.168533;    0.154190;    0.139776;    0.121158;    0.106089;    0.083495;    0.063085;    0.039187;
 48;    0.751006;    0.966934;    0.200918;    0.201907;    0.201106;    0.197618;    0.196096;    0.191434;    0.188903;    0.180448;    0.174143;    0.166128;    0.154996;    0.142599;    0.127622;    0.109456;    0.088404;    0.066081;    0.035850;
 49;    0.757239;    0.978247;    0.200514;    0.198837;    0.198304;    0.197317;    0.193369;    0.188971;    0.181509;    0.174969;    0.168058;    0.160484;    0.148642;    0.138469;    0.124450;    0.105940;    0.086240;    0.059126;    0.031863;
 50;    0.763156;    1.018717;    0.198838;    0.199261;    0.198051;    0.196559;    0.192731;    0.188405;    0.184337;    0.178198;    0.174225;    0.167306;    0.156074;    0.140657;    0.124053;    0.106482;    0.080067;    0.055462;    0.033304;
 51;    0.760976;    1.039258;    0.201294;    0.200645;    0.199133;    0.194866;    0.194733;    0.190270;    0.188426;    0.180940;    0.174222;    0.162608;    0.152592;    0.140250;    0.128285;    0.109914;    0.089617;    0.060646;    0.031269;
 52;    0.775277;    0.999982;    0.198231;    0.196204;    0.194907;    0.193333;    0.190945;    0.189415;    0.183726;    0.179052;    0.169595;    0.162912;    0.150589;    0.137572;    0.120820;    0.094587;    0.079069;    0.053987;    0.026783;
 53;    0.763205;    0.907440;    0.200223;    0.198414;    0.198017;    0.196402;    0.195024;    0.191419;    0.184740;    0.178868;    0.172111;    0.167291;    0.154842;    0.143488;    0.128565;    0.109306;    0.092758;    0.066480;    0.031324;
 54;    0.760449;    1.023289;    0.200014;    0.197365;    0.198455;    0.197117;    0.192561;    0.188817;    0.181331;    0.177161;    0.168718;    0.163400;    0.152558;    0.137109;    0.124300;    0.108328;    0.080830;    0.055995;    0.034157;
 55;    0.751083;    1.007393;    0.196753;    0.196106;    0.193553;    0.190286;    0.189553;    0.185369;    0.183024;    0.179007;    0.171118;    0.167068;    0.159064;    0.145024;    0.129452;    0.114573;    0.094167;    0.071405;    0.038465;
 56;    0.760093;    1.016051;    0.199546;    0.197176;    0.193598;    0.190944;    0.189045;    0.184902;    0.181253;    0.175320;    0.170169;    0.161001;    0.145593;    0.131861;    0.116233;    0.101088;    0.080445;    0.056524;    0.034014;
 57;    0.769282;    1.016147;    0.203632;    0.203139;    0.199917;    0.198327;    0.196996;    0.194425;    0.188144;    0.182631;    0.176450;    0.165862;    0.156779;    0.142058;    0.123946;    0.107408;    0.089801;    0.066927;    0.036402;
 58;    0.753129;    1.013224;    0.200934;    0.200365;    0.197719;    0.197592;    0.196320;    0.193059;    0.190340;    0.184174;    0.178270;    0.172224;    0.165214;    0.153062;    0.137237;    0.117149;    0.096186;    0.067274;    0.038439;
 59;    0.759856;    0.971263;    0.199010;    0.197158;    0.196770;    0.192884;    0.191145;    0.187347;    0.181600;    0.172921;    0.168390;    0.160341;    0.150351;    0.136599;    0.117920;    0.102042;    0.086017;    0.063493;    0.036042;
 60;    0.753976;    1.000379;    0.199939;    0.200726;    0.199767;    0.198843;    0.195115;    0.192324;    0.186712;    0.180750;    0.176025;    0.171671;    0.163176;    0.151953;    0.135505;    0.111830;    0.089812;    0.067246;    0.032820;
 61;    0.765109;    0.992615;    0.202656;    0.201425;    0.199847;    0.199323;    0.195755;    0.189935;    0.185101;    0.180473;    0.174369;    0.163281;    0.153491;    0.142655;    0.130741;    0.114095;    0.089060;    0.062793;    0.031928;
 62;    0.758484;    0.992427;    0.197623;    0.196651;    0.193893;    0.192293;    0.189654;    0.186316;    0.179770;    0.172013;    0.167798;    0.160411;    0.150060;    0.137974;    0.124743;    0.103714;    0.087327;    0.060693;    0.031790;
 63;    0.753763;    1.046204;    0.198996;    0.197685;    0.194015;    0.191480;    0.189630;    0.187416;    0.183167;    0.175980;    0.171190;    0.161330;    0.149677;    0.139972;    0.125974;    0.111473;    0.094799;    0.070418;    0.039601;
 64;    0.754373;    1.011833;    0.202351;    0.201406;    0.200382;    0.199880;    0.197148;    0.191840;    0.190737;    0.187120;    0.180055;    0.166115;    0.154534;    0.144073;    0.126241;    0.108192;    0.092977;    0.068910;    0.038617;
 65;    0.756113;    0.954247;    0.197533;    0.197922;    0.196025;    0.193119;    0.191430;    0.187962;    0.184544;    0.178597;    0.170898;    0.162402;    0.150382;    0.140119;    0.127735;    0.110103;    0.090107;    0.059620;    0.029960;
 66;    0.763124;    0.983351;    0.199284;    0.196891;    0.196252;    0.192649;    0.190920;    0.187252;    0.181062;    0.178285;    0.171866;    0.163089;    0.153010;    0.141303;    0.124946;    0.107973;    0.086711;    0.058710;    0.036805;
 67;    0.761027;    0.965928;    0.201540;    0.199366;    0.199737;    0.196009;    0.194450;    0.190087;    0.183022;    0.176927;    0.167564;    0.159654;    0.150784;    0.136293;    0.122599;    0.106648;    0.086125;    0.060631;    0.030865;
 68;    0.764754;    1.001604;    0.200832;    0.201022;    0.199439;    0.198801;    0.196240;    0.189983;    0.188327;    0.183353;    0.178832;    0.170029;    0.160852;    0.147428;    0.132036;    0.114521;    0.089647;    0.059568;    0.034514;
 69;    0.752171;    0.948426;    0.202617;    0.201148;    0.199602;    0.199779;    0.197820;    0.196110;    0.191858;    0.186335;    0.180488;    0.169107;    0.159881;    0.142109;    0.127692;    0.108866;    0.089322;    0.062404;    0.033262;
 70;    0.760048;    1.008263;    0.202816;    0.202005;    0.199417;    0.196745;    0.192736;    0.190348;    0.187036;    0.182028;    0.173090;    0.167441;    0.157331;    0.144296;    0.133416;    0.114491;    0.085711;    0.062194;    0.037415;
 71;    0.755058;    1.012302;    0.198986;    0.198026;    0.197036;    0.192415;    0.189250;    0.184976;    0.180725;    0.174221;    0.171263;    0.162514;    0.148791;    0.137666;    0.125996;    0.109513;    0.088285;    0.065208;    0.036787;
 72;    0.759475;    1.030144;    0.200080;    0.198842;    0.199257;    0.197324;    0.195164;    0.192571;    0.186588;    0.179584;    0.169634;    0.164703;    0.155455;    0.144181;    0.124476;    0.106104;    0.084562;    0.060014;    0.035581;
 73;    0.754589;    1.051389;    0.204132;    0.203677;    0.203897;    0.202481;    0.200371;    0.196155;    0.191935;    0.184597;    0.181181;    0.173770;    0.160505;    0.142470;    0.130210;    0.115482;    0.090322;    0.065596;    0.036203;
 74;    0.757898;    1.049928;    0.200071;    0.198255;    0.198531;    0.198300;    0.194755;    0.192326;    0.184333;    0.175378;    0.172482;    0.166025;    0.156235;    0.145805;    0.132313;    0.110558;    0.090912;    0.064730;    0.031296;
 75;    0.751699;    0.999577;    0.196250;    0.196008;    0.194172;    0.191454;    0.188266;    0.186391;    0.181977;    0.176081;    0.169760;    0.162730;    0.153248;    0.136001;    0.126019;    0.108016;    0.091961;    0.064572;    0.038248;
 76;    0.759829;    1.048773;    0.198567;    0.199734;    0.197785;    0.194453;    0.190684;    0.187983;    0.183958;    0.174656;    0.166222;    0.162455;    0.155658;    0.143493;    0.129524;    0.111916;    0.089610;    0.066956;    0.037910;
 77;    0.755024;    0.968410;    0.194559;    0.195248;    0.192625;    0.189027;    0.186165;    0.181494;    0.177541;    0.171510;    0.167191;    0.160483;    0.148913;    0.134065;    0.120726;    0.102710;    0.080914;    0.061445;    0.034971;
 78;    0.762184;    0.952621;    0.200207;    0.197693;    0.196527;    0.196874;    0.197107;    0.194296;    0.188257;    0.184757;    0.178840;    0.168747;    0.155571;    0.138518;    0.119321;    0.100120;    0.084019;    0.060455;    0.031717;
 79;    0.762706;    1.005920;    0.201423;    0.199890;    0.198108;    0.195735;    0.194425;    0.190556;    0.185797;    0.181648;    0.172406;    0.160909;    0.151351;    0.142693;    0.129238;    0.109199;    0.086800;    0.057536;    0.036387;
 80;    0.761995;    1.009301;    0.193833;    0.192996;    0.191807;    0.191231;    0.187661;    0.185098;    0.181327;    0.174582;    0.166401;    0.159920;    0.146339;    0.136214;    0.118345;    0.097861;    0.077298;    0.054419;    0.031917;
 81;    0.753019;    0.986206;    0.197137;    0.196205;    0.192968;    0.189461;    0.186444;    0.182942;    0.180909;    0.177082;    0.171362;    0.162105;    0.150414;    0.138448;    0.120413;    0.103749;    0.087823;    0.069434;    0.040686;
 82;    0.759822;    0.993037;    0.195669;    0.193817;    0.192740;    0.191408;    0.189194;    0.189145;    0.185601;    0.180977;    0.170888;    0.163188;    0.152854;    0.139513;    0.122773;    0.105580;    0.091527;    0.068940;    0.040595;
 83;    0.756988;    0.940558;    0.197768;    0.196081;    0.196450;    0.194457;    0.194338;    0.191145;    0.187343;    0.183662;    0.176871;    0.162774;    0.154803;    0.141016;    0.127223;    0.104443;    0.086170;    0.064248;    0.035711;
 84;    0.762372;    0.931547;    0.202006;    0.203110;    0.198908;    0.196676;    0.194244;    0.189946;    0.189792;    0.185372;    0.178884;    0.172837;    0.163614;    0.149289;    0.126457;    0.109455;    0.087416;    0.059759;    0.030431;
 85;    0.757161;    0.964837;    0.201721;    0.201541;    0.201684;    0.198909;    0.196263;    0.191992;    0.188903;    0.184763;    0.178325;    0.168825;    0.161606;    0.148764;    0.133037;    0.115730;    0.094063;    0.066142;    0.034750;
 86;    0.758453;    1.052888;    0.199802;    0.197752;    0.196110;    0.195226;    0.190587;    0.184180;    0.181224;    0.173581;    0.166107;    0.161720;    0.150848;    0.137469;    0.126177;    0.108116;    0.089192;    0.061356;    0.033122;
 87;    0.758674;    1.024073;    0.199244;    0.198871;    0.197800;    0.193027;    0.191710;    0.188517;    0.184305;    0.176262;    0.168209;    0.155511;    0.150296;    0.139343;    0.120945;    0.101504;    0.085017;    0.064755;    0.036936;
 88;    0.776550;    1.046419;    0.197480;    0.195148;    0.195629;    0.192436;    0.188516;    0.188460;    0.185459;    0.181335;    0.175243;    0.165143;    0.153680;    0.142335;    0.127285;    0.101803;    0.084076;    0.063715;    0.037962;
 89;    0.755029;    1.010565;    0.200439;    0.199756;    0.197901;    0.196424;    0.192608;    0.187618;    0.183983;    0.176761;    0.171795;    0.162909;    0.152595;    0.138256;    0.123003;    0.100384;    0.079031;    0.057349;    0.031333;
 90;    0.754358;    0.976692;    0.202274;    0.201654;    0.199119;    0.196781;    0.195528;    0.193952;    0.189971;    0.186076;    0.178123;    0.164529;    0.156418;    0.142588;    0.126179;    0.112517;    0.091718;    0.068447;    0.035016;
 91;    0.768094;    1.022588;    0.199769;    0.198434;    0.196607;    0.195480;    0.193528;    0.186279;    0.180828;    0.174525;    0.166200;    0.158343;    0.149539;    0.139829;    0.121789;    0.106988;    0.086462;    0.064329;    0.032360;
 92;    0.755954;    0.995148;    0.200101;    0.199180;    0.197159;    0.195448;    0.194030;    0.189489;    0.186795;    0.182067;    0.174695;    0.163181;    0.153881;    0.138543;    0.126862;    0.109217;    0.084907;    0.059811;    0.035497;
 93;    0.758101;    0.993365;    0.202038;    0.200925;    0.201248;    0.199769;    0.198060;    0.193824;    0.184951;    0.180699;    0.174253;    0.171938;    0.163646;    0.152349;    0.136230;    0.116684;    0.092730;    0.063007;    0.034758;
 94;    0.752735;    1.003957;    0.197405;    0.196801;    0.193794;    0.191513;    0.185762;    0.182026;    0.177832;    0.172745;    0.164047;    0.156025;    0.150177;    0.136888;    0.126015;    0.109075;    0.087282;    0.065971;    0.032451;
 95;    0.745604;    1.032706;    0.201443;    0.201347;    0.200918;    0.199639;    0.196759;    0.193917;    0.188831;    0.178993;    0.171581;    0.165172;    0.155858;    0.147037;    0.133605;    0.114306;    0.089110;    0.059528;    0.033693;
 96;    0.767112;    1.044313;    0.198232;    0.194835;    0.196130;    0.195336;    0.194828;    0.193055;    0.189623;    0.182137;    0.178569;    0.169969;    0.157303;    0.139719;    0.127270;    0.112520;    0.093764;    0.065256;    0.038935;
 97;    0.755348;    0.977349;    0.206033;    0.205097;    0.202137;    0.198482;    0.195572;    0.193116;    0.190995;    0.185972;    0.179389;    0.170664;    0.158451;    0.140560;    0.127908;    0.111785;    0.093153;    0.066135;    0.036259;
 98;    0.751790;    0.993001;    0.200877;    0.198887;    0.199050;    0.195411;    0.192715;    0.191876;    0.189128;    0.183208;    0.174967;    0.169324;    0.158837;    0.146298;    0.127285;    0.106786;    0.091464;    0.069739;    0.039504;
 99;    0.758566;    1.039013;    0.199481;    0.197954;    0.194633;    0.194854;    0.191439;    0.187382;    0.183437;    0.178149;    0.169953;    0.161672;    0.151835;    0.139196;    0.129325;    0.112416;    0.092757;    0.065695;    0.035276;
100;    0.756458;    1.008074;    0.198839;    0.199120;    0.198501;    0.198643;    0.196510;    0.192909;    0.186375;    0.176650;    0.171171;    0.161925;    0.152910;    0.140586;    0.125456;    0.105495;    0.086920;    0.066178;    0.036730;
