Simulation;Time;PC 0;PC 1;PC 2;PC 3;PC 4;PC 5;PC 6;PC 7;PC 8;PC 9;PC10;PC11;PC12;PC13;PC14;PC15;PC16;PC17;
Nan;Nan;1;0;0;0;0;0;0;0;0;0;0;0;0;0;0;0;0;0;
  0;    0.356961;    0.983920;    0.972427;    0.964625;    0.943427;    0.922799;    0.908821;    0.893898;    0.860365;    0.823412;    0.783617;    0.725571;    0.679096;    0.618486;    0.564702;    0.494827;    0.442949;    0.376742;    0.314435;
  1;    0.358718;    1.006621;    0.995953;    0.977343;    0.965950;    0.954233;    0.931278;    0.890575;    0.862449;    0.831618;    0.795467;    0.745497;    0.689868;    0.648282;    0.593876;    0.545774;    0.467790;    0.412828;    0.330823;
  2;    0.353120;    1.012857;    1.013512;    1.005321;    0.987616;    0.973738;    0.950198;    0.916126;    0.874155;    0.832316;    0.779415;    0.717595;    0.676077;    0.630529;    0.582459;    0.539746;    0.479263;    0.400881;    0.322145;
  3;    0.360657;    1.010451;    1.008103;    0.998452;    0.981655;    0.970125;    0.933792;    0.903916;    0.864088;    0.829005;    0.790185;    0.754225;    0.710127;    0.665379;    0.603455;    0.545028;    0.492450;    0.422260;    0.343750;
  4;    0.352900;    1.025388;    1.019450;    1.012808;    1.001582;    0.969394;    0.939648;    0.910869;    0.883139;    0.853725;    0.800857;    0.767921;    0.729533;    0.680761;    0.616134;    0.554103;    0.479841;    0.402673;    0.332598;
  5;    0.351224;    1.002971;    0.995589;    0.982534;    0.961503;    0.941775;    0.929870;    0.906250;    0.874904;    0.849419;    0.806966;    0.756156;    0.715631;    0.659740;    0.608891;    0.542217;    0.472671;    0.410590;    0.330452;
  6;    0.357659;    1.003945;    1.005495;    0.993294;    0.970064;    0.949774;    0.928311;    0.897226;    0.864563;    0.837535;    0.803373;    0.764411;    0.706184;    0.647834;    0.598758;    0.535547;    0.461970;    0.404840;    0.318599;
  7;    0.355075;    1.004513;    0.989126;    0.991352;    0.973860;    0.956461;    0.931578;    0.890470;    0.859210;    0.822215;    0.790175;    0.738088;    0.699089;    0.650381;    0.594601;    0.529710;    0.462673;    0.411271;    0.344902;
  8;    0.354732;    0.985122;    0.985905;    0.981305;    0.964505;    0.933828;    0.920705;    0.893528;    0.865402;    0.827806;    0.777651;    0.739361;    0.700060;    0.653306;    0.583521;    0.528532;    0.465578;    0.384638;    0.315257;
  9;    0.361183;    1.011411;    1.011302;    0.999643;    0.975779;    0.965994;    0.950726;    0.920113;    0.903576;    0.867760;    0.829444;    0.773880;    0.730432;    0.672577;    0.629000;    0.565879;    0.504500;    0.429856;    0.352609;
 10;    0.351649;    1.015874;    1.005059;    1.003277;    0.995327;    0.968231;    0.942129;    0.924646;    0.884947;    0.849400;    0.817348;    0.773543;    0.712052;    0.666882;    0.600721;    0.545166;    0.486648;    0.424234;    0.338286;
 11;    0.351636;    1.013237;    0.997567;    0.983251;    0.974842;    0.951360;    0.922967;    0.903905;    0.876365;    0.846141;    0.811255;    0.768931;    0.713686;    0.661680;    0.592427;    0.538043;    0.471207;    0.402990;    0.336276;
 12;    0.360631;    0.993908;    0.986903;    0.974615;    0.967358;    0.943902;    0.904404;    0.873836;    0.838370;    0.797389;    0.762710;    0.738132;    0.698433;    0.651296;    0.593897;    0.520785;    0.452701;    0.401825;    0.325830;
 13;    0.352477;    1.001336;    0.995308;    0.981724;    0.969654;    0.957894;    0.933747;    0.903981;    0.866017;    0.833646;    0.796255;    0.748877;    0.696991;    0.663726;    0.620735;    0.556190;    0.481767;    0.394170;    0.318202;
 14;    0.356906;    0.986449;    0.982199;    0.973187;    0.956134;    0.939071;    0.905623;    0.885739;    0.857490;    0.820970;    0.787587;    0.734221;    0.690867;    0.648067;    0.600097;    0.530600;    0.451754;    0.390598;    0.322026;
 15;    0.357319;    0.983399;    0.983578;    0.976721;    0.948986;    0.936065;    0.913571;    0.871379;    0.843130;    0.799568;    0.763099;    0.728738;    0.682521;    0.621077;    0.566573;    0.505016;    0.450910;    0.395043;    0.320476;
 16;    0.351164;    1.022170;    1.017047;    1.008618;    0.988791;    0.964728;    0.938404;    0.907499;    0.867807;    0.845839;    0.813833;    0.771765;    0.715358;    0.664895;    0.607023;    0.550188;    0.478713;    0.414933;    0.328815;
 17;    0.355247;    0.986771;    0.973768;    0.965679;    0.944202;    0.922591;    0.895391;    0.875749;    0.839258;    0.808273;    0.778532;    0.731706;    0.685471;    0.625015;    0.563238;    0.497716;    0.447208;    0.391537;    0.324539;
 18;    0.355881;    0.992159;    0.981446;    0.976319;    0.971722;    0.956401;    0.921780;    0.898899;    0.870534;    0.822918;    0.791067;    0.748365;    0.702916;    0.661217;    0.601173;    0.531859;    0.468684;    0.393516;    0.321467;
 19;    0.354523;    0.989998;    0.992042;    0.978502;    0.974406;    0.948836;    0.939445;    0.918078;    0.889232;    0.852751;    0.810492;    0.759216;    0.711264;    0.658393;    0.582843;    0.530482;    0.471133;    0.408852;    0.331567;
 20;    0.355172;    1.008482;    1.006140;    1.010542;    1.001722;    0.985067;    0.959962;    0.921534;    0.884137;    0.862164;    0.826212;    0.782300;    0.722366;    0.660419;    0.617972;    0.556803;    0.476365;    0.407024;    0.333900;
 21;    0.361102;    1.011182;    0.997821;    0.993290;    0.978519;    0.959265;    0.925287;    0.892387;    0.872053;    0.834688;    0.792620;    0.744563;    0.699238;    0.649350;    0.598427;    0.543288;    0.470783;    0.416815;    0.338490;
 22;    0.354225;    1.012118;    1.012905;    1.001056;    0.984110;    0.955816;    0.925136;    0.890017;    0.864910;    0.833333;    0.797337;    0.760561;    0.715497;    0.657121;    0.606913;    0.551306;    0.492086;    0.407022;    0.323346;
 23;    0.354389;    1.009118;    1.000401;    0.984808;    0.983430;    0.966272;    0.943025;    0.922244;    0.892089;    0.855726;    0.812097;    0.756831;    0.702846;    0.659758;    0.612627;    0.546440;    0.470543;    0.411504;    0.327817;
 24;    0.353356;    1.009146;    1.009119;    1.002241;    0.985651;    0.959267;    0.943088;    0.902486;    0.868712;    0.826379;    0.796688;    0.756182;    0.689441;    0.644122;    0.585402;    0.541861;    0.495823;    0.429745;    0.354561;
 25;    0.356381;    0.989749;    0.987414;    0.968085;    0.959189;    0.943197;    0.920554;    0.891760;    0.848838;    0.803062;    0.769311;    0.714109;    0.668241;    0.625323;    0.567713;    0.513475;    0.462460;    0.393523;    0.310776;
 26;    0.356843;    1.023070;    1.012519;    1.001924;    0.988328;    0.975556;    0.944404;    0.911465;    0.889941;    0.860707;    0.812377;    0.761079;    0.690300;    0.644493;    0.586928;    0.526755;    0.479215;    0.418326;    0.342614;
 27;    0.361702;    1.003677;    1.005336;    0.997728;    0.982470;    0.967970;    0.943737;    0.910931;    0.882384;    0.845255;    0.799228;    0.754747;    0.705461;    0.634006;    0.587303;    0.534309;    0.468318;    0.386804;    0.329509;
 28;    0.352236;    1.001676;    0.994477;    0.983792;    0.971235;    0.953022;    0.931980;    0.903215;    0.870255;    0.832778;    0.780301;    0.750090;    0.697509;    0.653711;    0.598436;    0.541449;    0.471902;    0.402853;    0.325039;
 29;    0.359615;    1.000205;    0.997238;    0.979937;    0.965214;    0.952471;    0.932538;    0.901752;    0.876795;    0.848904;    0.805159;    0.755514;    0.707653;    0.645656;    0.588109;    0.535420;    0.458066;    0.378296;    0.315646;
 30;    0.359370;    1.011843;    1.003294;    1.000802;    0.983331;    0.959041;    0.931378;    0.895157;    0.868386;    0.830319;    0.793733;    0.760407;    0.707652;    0.664678;    0.615251;    0.562610;    0.485726;    0.402673;    0.337499;
 31;    0.350643;    1.009087;    1.004606;    1.005629;    0.995317;    0.970695;    0.955543;    0.919570;    0.871101;    0.830333;    0.801409;    0.761522;    0.708502;    0.649021;    0.589112;    0.525024;    0.466536;    0.411317;    0.342129;
 32;    0.360844;    1.002024;    0.990706;    0.973453;    0.960217;    0.948979;    0.925498;    0.900481;    0.868613;    0.827385;    0.789717;    0.749603;    0.698088;    0.654749;    0.599363;    0.527850;    0.442665;    0.379991;    0.319742;
 33;    0.353177;    0.987718;    0.977656;    0.975571;    0.963405;    0.952231;    0.931578;    0.892931;    0.857816;    0.818097;    0.787257;    0.739829;    0.695866;    0.651735;    0.608912;    0.550784;    0.468576;    0.392462;    0.325203;
 34;    0.352536;    1.021449;    1.013181;    1.005546;    0.997284;    0.970999;    0.948504;    0.909952;    0.876356;    0.830736;    0.782745;    0.749804;    0.703547;    0.653784;    0.599050;    0.556817;    0.494659;    0.425166;    0.341526;
 35;    0.349996;    1.001919;    0.989616;    0.983082;    0.975682;    0.953236;    0.929373;    0.905391;    0.867816;    0.834462;    0.797366;    0.739012;    0.701698;    0.649138;    0.606937;    0.543964;    0.485805;    0.405460;    0.341825;
 36;    0.357226;    0.991940;    0.992990;    0.975056;    0.966160;    0.941430;    0.921708;    0.897848;    0.873213;    0.835430;    0.803850;    0.760992;    0.713420;    0.660873;    0.612327;    0.555862;    0.484038;    0.387614;    0.319688;
 37;    0.358270;    0.995967;    0.987815;    0.972555;    0.959338;    0.937079;    0.914869;    0.899834;    0.867626;    0.836065;    0.804182;    0.746583;    0.698939;    0.654106;    0.588493;    0.520622;    0.463601;    0.406002;    0.325950;
 38;    0.361965;    1.000581;    0.988380;    0.972253;    0.955178;    0.935617;    0.921801;    0.905268;    0.887206;    0.852151;    0.809916;    0.764339;    0.708770;    0.638142;    0.588591;    0.549177;    0.485737;    0.403716;    0.320433;
 39;    0.350526;    0.990008;    0.982124;    0.979228;    0.961261;    0.934633;    0.908568;    0.886290;    0.855550;    0.822121;    0.780632;    0.723942;    0.690978;    0.640449;    0.591603;    0.529708;    0.470486;    0.386862;    0.318575;
 40;    0.350708;    1.001107;    0.993456;    0.986923;    0.958608;    0.941476;    0.915264;    0.896500;    0.865026;    0.817674;    0.770326;    0.734646;    0.684731;    0.646330;    0.589682;    0.531902;    0.453257;    0.389081;    0.331328;
 41;    0.351384;    0.995597;    0.987575;    0.975702;    0.957741;    0.946519;    0.927753;    0.906564;    0.877260;    0.834835;    0.787767;    0.743047;    0.705739;    0.655799;    0.583653;    0.534987;    0.461682;    0.408522;    0.317786;
 42;    0.354203;    1.000753;    0.997134;    0.981084;    0.958676;    0.945928;    0.916358;    0.885717;    0.851666;    0.820437;    0.785717;    0.736282;    0.694709;    0.641553;    0.586286;    0.535064;    0.476385;    0.410929;    0.332884;
 43;    0.348189;    1.002830;    1.001362;    0.994643;    0.973108;    0.955521;    0.932438;    0.914108;    0.882946;    0.844087;    0.793304;    0.747114;    0.698948;    0.633513;    0.577097;    0.507177;    0.454774;    0.403955;    0.338701;
 44;    0.355165;    1.009175;    1.002361;    0.994379;    0.982045;    0.955817;    0.948504;    0.927184;    0.892986;    0.856187;    0.809781;    0.755798;    0.716386;    0.655142;    0.602329;    0.536093;    0.474611;    0.405458;    0.341255;
 45;    0.359081;    0.994915;    0.980607;    0.977647;    0.962384;    0.939953;    0.912437;    0.877877;    0.854039;    0.812746;    0.789713;    0.752408;    0.698686;    0.653567;    0.606260;    0.549990;    0.480581;    0.398522;    0.312971;
 46;    0.354973;    0.995989;    0.988871;    0.983300;    0.966732;    0.943382;    0.931200;    0.910089;    0.881425;    0.843431;    0.800432;    0.742774;    0.690837;    0.643610;    0.584496;    0.518849;    0.463913;    0.398911;    0.334863;
 47;    0.355318;    1.023553;    1.021176;    1.012277;    1.004942;    0.984653;    0.960609;    0.927267;    0.901137;    0.864931;    0.824521;    0.775105;    0.716461;    0.667992;    0.599713;    0.536331;    0.468031;    0.400801;    0.341799;
 48;    0.357694;    1.001549;    0.998678;    0.996097;    0.975368;    0.953774;    0.933181;    0.915294;    0.880677;    0.849687;    0.816545;    0.770858;    0.718069;    0.670992;    0.609271;    0.536153;    0.470476;    0.411926;    0.334485;
 49;    0.354360;    1.001173;    0.989811;    0.985561;    0.971378;    0.947881;    0.921799;    0.883129;    0.845842;    0.809763;    0.762521;    0.718994;    0.674412;    0.632601;    0.580373;    0.516983;    0.459312;    0.377833;    0.318767;
 50;    0.354251;    0.995979;    0.988582;    0.982170;    0.974725;    0.955432;    0.923047;    0.902073;    0.874673;    0.838337;    0.806701;    0.769302;    0.716715;    0.653267;    0.582649;    0.521689;    0.449877;    0.391669;    0.327341;
 51;    0.349803;    1.008651;    1.007769;    0.989002;    0.973158;    0.950700;    0.933082;    0.907086;    0.874110;    0.838285;    0.798700;    0.742228;    0.693282;    0.645046;    0.592783;    0.537720;    0.475738;    0.391532;    0.320885;
 52;    0.353694;    0.990948;    0.981601;    0.974412;    0.966834;    0.943605;    0.932781;    0.910686;    0.874360;    0.836400;    0.782801;    0.746654;    0.691117;    0.649944;    0.584153;    0.512195;    0.461489;    0.385679;    0.315954;
 53;    0.360290;    0.994547;    0.984780;    0.973529;    0.964551;    0.947194;    0.929406;    0.901797;    0.863176;    0.826005;    0.795248;    0.736974;    0.696762;    0.650268;    0.596965;    0.527511;    0.465723;    0.395880;    0.317956;
 54;    0.357103;    1.001134;    0.986213;    0.980941;    0.970101;    0.942626;    0.916022;    0.885574;    0.856427;    0.820695;    0.781589;    0.735854;    0.682463;    0.634586;    0.590877;    0.530417;    0.445650;    0.380480;    0.329716;
 55;    0.354015;    0.985561;    0.986258;    0.966965;    0.953274;    0.941556;    0.918941;    0.877477;    0.853680;    0.819926;    0.775068;    0.743194;    0.691162;    0.641302;    0.595428;    0.538983;    0.467044;    0.400659;    0.322118;
 56;    0.355794;    0.998393;    0.987081;    0.974140;    0.962306;    0.943077;    0.920669;    0.889195;    0.851690;    0.812308;    0.782143;    0.737575;    0.674365;    0.628789;    0.570125;    0.517750;    0.450064;    0.390214;    0.331991;
 57;    0.353775;    1.017903;    1.011353;    0.998367;    0.988130;    0.966767;    0.941221;    0.913435;    0.883944;    0.852965;    0.811648;    0.758613;    0.707770;    0.654339;    0.600285;    0.534108;    0.484380;    0.412441;    0.341305;
 58;    0.360484;    1.004917;    1.001062;    0.990585;    0.974877;    0.970565;    0.951467;    0.921576;    0.903175;    0.866481;    0.820562;    0.782908;    0.730672;    0.682462;    0.629439;    0.572813;    0.496436;    0.417306;    0.336149;
 59;    0.363590;    0.993306;    0.982786;    0.979375;    0.964994;    0.949832;    0.924025;    0.881181;    0.846522;    0.812748;    0.773095;    0.731558;    0.683262;    0.633894;    0.573094;    0.510773;    0.465164;    0.394118;    0.334320;
 60;    0.353361;    0.999545;    1.002070;    0.997099;    0.986414;    0.958675;    0.939923;    0.914027;    0.883896;    0.841522;    0.804039;    0.769946;    0.727065;    0.672333;    0.608781;    0.553477;    0.482992;    0.408158;    0.331492;
 61;    0.359848;    1.011501;    1.003808;    0.993703;    0.975542;    0.958762;    0.937410;    0.901878;    0.872077;    0.838764;    0.795161;    0.750515;    0.691088;    0.659144;    0.614278;    0.545544;    0.485466;    0.405343;    0.328067;
 62;    0.352912;    0.989013;    0.976399;    0.964232;    0.951362;    0.936160;    0.917804;    0.887913;    0.856692;    0.803378;    0.776747;    0.735989;    0.678117;    0.631696;    0.566315;    0.511449;    0.440706;    0.379473;    0.313597;
 63;    0.351094;    0.997849;    0.990017;    0.972015;    0.954245;    0.931224;    0.912506;    0.890694;    0.864554;    0.824520;    0.782873;    0.737905;    0.683649;    0.641841;    0.586500;    0.538079;    0.487123;    0.421212;    0.343036;
 64;    0.358272;    1.011285;    1.006776;    0.994845;    0.984343;    0.970608;    0.946146;    0.914449;    0.894555;    0.861128;    0.812206;    0.768076;    0.720084;    0.666255;    0.608529;    0.540083;    0.488213;    0.419496;    0.344804;
 65;    0.354566;    0.984698;    0.987000;    0.972075;    0.953197;    0.945466;    0.930353;    0.906043;    0.867365;    0.826602;    0.773407;    0.732217;    0.700491;    0.653381;    0.595672;    0.526026;    0.467193;    0.384478;    0.309488;
 66;    0.354183;    0.994965;    0.982290;    0.976433;    0.954291;    0.943049;    0.922035;    0.891290;    0.859070;    0.819164;    0.782814;    0.741963;    0.694511;    0.643309;    0.578492;    0.518790;    0.463447;    0.397998;    0.341083;
 67;    0.362379;    1.004804;    0.993310;    0.978732;    0.963388;    0.950401;    0.928782;    0.883295;    0.857384;    0.816743;    0.772486;    0.744455;    0.696822;    0.628222;    0.560574;    0.519529;    0.460263;    0.385867;    0.325131;
 68;    0.356260;    1.003615;    1.005192;    0.988052;    0.984407;    0.965297;    0.932978;    0.911854;    0.888259;    0.855406;    0.817847;    0.768169;    0.714548;    0.657835;    0.612887;    0.550145;    0.468120;    0.387625;    0.331535;
 69;    0.360788;    1.007999;    0.998982;    0.985872;    0.980712;    0.968011;    0.951392;    0.927577;    0.896376;    0.862153;    0.810300;    0.755335;    0.702767;    0.649136;    0.600095;    0.541255;    0.479641;    0.403591;    0.329427;
 70;    0.355509;    1.013415;    1.008954;    0.994804;    0.976083;    0.957927;    0.937712;    0.907221;    0.885164;    0.850342;    0.793440;    0.751596;    0.709020;    0.647805;    0.599235;    0.530940;    0.459715;    0.395479;    0.339563;
 71;    0.351903;    0.996280;    0.991904;    0.978117;    0.953853;    0.934501;    0.907910;    0.888195;    0.858436;    0.813070;    0.786703;    0.735828;    0.695216;    0.638709;    0.582567;    0.525938;    0.460093;    0.395601;    0.327098;
 72;    0.355471;    1.001906;    0.996694;    0.992697;    0.986485;    0.971037;    0.941929;    0.921313;    0.888284;    0.842269;    0.810778;    0.765267;    0.725491;    0.669032;    0.593175;    0.527120;    0.466457;    0.394100;    0.335128;
 73;    0.354363;    1.022346;    1.020589;    1.009979;    0.998030;    0.981387;    0.950254;    0.929302;    0.894527;    0.864592;    0.832183;    0.790111;    0.730611;    0.656103;    0.612544;    0.555641;    0.476364;    0.406236;    0.336324;
 74;    0.357482;    1.004360;    0.992113;    0.983718;    0.970140;    0.952276;    0.941069;    0.913851;    0.869804;    0.819093;    0.790305;    0.743482;    0.711820;    0.665373;    0.604822;    0.541063;    0.473018;    0.410032;    0.320538;
 75;    0.354067;    0.982056;    0.975752;    0.968932;    0.947196;    0.931336;    0.915700;    0.897095;    0.861719;    0.820298;    0.773265;    0.739508;    0.685681;    0.646038;    0.590484;    0.535616;    0.485689;    0.403753;    0.333127;
 76;    0.358047;    0.996316;    0.994782;    0.987963;    0.973863;    0.958643;    0.930062;    0.909382;    0.862441;    0.815686;    0.779786;    0.752256;    0.709935;    0.656671;    0.600684;    0.532837;    0.457482;    0.405270;    0.333741;
 77;    0.359469;    0.972707;    0.968026;    0.955122;    0.934935;    0.917233;    0.891264;    0.861542;    0.826498;    0.809069;    0.776352;    0.727278;    0.673777;    0.620876;    0.562465;    0.514882;    0.451163;    0.388766;    0.315685;
 78;    0.361665;    0.997705;    0.985083;    0.975282;    0.965124;    0.958793;    0.942993;    0.913301;    0.876411;    0.843715;    0.802544;    0.753136;    0.692847;    0.621633;    0.569085;    0.520095;    0.458124;    0.404113;    0.326590;
 79;    0.355071;    1.007037;    0.997448;    0.988179;    0.962139;    0.951924;    0.928092;    0.909376;    0.876262;    0.836554;    0.789378;    0.743761;    0.696584;    0.657348;    0.605635;    0.530835;    0.457026;    0.385573;    0.333836;
 80;    0.365547;    0.971886;    0.964817;    0.959960;    0.951402;    0.938012;    0.911226;    0.888190;    0.850814;    0.799839;    0.769730;    0.722163;    0.660419;    0.617344;    0.553103;    0.494869;    0.432721;    0.372076;    0.315606;
 81;    0.358168;    0.985285;    0.976632;    0.964714;    0.943498;    0.930714;    0.904208;    0.874528;    0.849278;    0.826147;    0.797298;    0.753114;    0.698726;    0.641834;    0.577963;    0.526733;    0.472493;    0.417474;    0.342916;
 82;    0.362597;    0.978621;    0.970460;    0.963916;    0.953562;    0.936085;    0.913565;    0.894298;    0.868378;    0.832102;    0.798091;    0.754567;    0.706851;    0.648053;    0.586091;    0.526001;    0.484822;    0.418355;    0.337023;
 83;    0.349738;    0.985448;    0.976149;    0.975563;    0.953638;    0.942975;    0.927733;    0.901639;    0.863375;    0.831507;    0.779388;    0.742094;    0.699901;    0.651783;    0.585219;    0.532437;    0.455647;    0.397577;    0.330054;
 84;    0.354484;    1.004385;    1.008103;    0.986490;    0.966600;    0.945518;    0.918876;    0.904034;    0.878124;    0.848004;    0.809580;    0.769503;    0.714393;    0.638745;    0.579005;    0.521610;    0.467887;    0.392578;    0.320076;
 85;    0.354134;    1.005414;    0.997643;    0.996985;    0.981774;    0.959624;    0.941216;    0.904719;    0.876547;    0.846967;    0.804781;    0.761640;    0.706106;    0.650586;    0.606022;    0.535575;    0.481641;    0.403871;    0.329987;
 86;    0.364202;    1.002698;    0.992515;    0.986115;    0.964221;    0.939950;    0.916053;    0.881668;    0.853548;    0.819195;    0.776444;    0.741739;    0.688278;    0.645951;    0.581833;    0.535302;    0.477339;    0.398583;    0.321875;
 87;    0.353723;    0.998260;    0.992860;    0.983143;    0.957777;    0.938279;    0.922480;    0.899999;    0.867140;    0.820108;    0.769940;    0.733920;    0.695660;    0.644527;    0.571747;    0.514551;    0.458457;    0.397495;    0.335314;
 88;    0.359495;    0.991081;    0.978676;    0.977230;    0.964213;    0.945592;    0.910542;    0.895304;    0.865800;    0.832713;    0.799008;    0.753538;    0.692746;    0.648516;    0.578047;    0.502120;    0.453515;    0.394621;    0.327469;
 89;    0.357136;    1.002634;    0.996454;    0.986238;    0.973680;    0.952121;    0.921054;    0.902142;    0.864481;    0.819080;    0.785359;    0.740823;    0.692246;    0.635673;    0.574389;    0.509146;    0.437324;    0.380875;    0.321409;
 90;    0.358711;    1.008765;    1.003643;    0.990254;    0.974446;    0.963403;    0.943856;    0.914038;    0.894017;    0.856925;    0.813075;    0.763330;    0.718238;    0.660870;    0.593447;    0.538459;    0.463692;    0.395662;    0.338168;
 91;    0.354221;    1.000990;    0.995393;    0.971720;    0.960711;    0.953674;    0.929752;    0.884205;    0.865359;    0.832436;    0.783292;    0.734297;    0.703757;    0.651965;    0.587971;    0.540504;    0.474648;    0.404472;    0.312281;
 92;    0.437495;    1.000216;    0.990290;    0.983221;    0.970225;    0.949623;    0.928617;    0.912924;    0.887380;    0.847505;    0.795777;    0.746019;    0.695076;    0.633606;    0.577424;    0.513920;    0.451828;    0.379320;    0.326694;
 93;    0.354500;    1.009072;    1.004070;    0.991400;    0.982482;    0.968269;    0.938173;    0.896924;    0.868400;    0.836929;    0.815469;    0.782074;    0.734437;    0.682478;    0.621948;    0.559742;    0.472229;    0.399230;    0.332935;
 94;    0.359466;    0.987655;    0.983236;    0.967087;    0.953284;    0.930576;    0.904944;    0.879329;    0.850997;    0.807038;    0.770522;    0.719511;    0.679070;    0.619501;    0.578769;    0.529179;    0.461743;    0.398601;    0.319266;
 95;    0.356009;    1.008396;    1.004374;    0.997193;    0.986879;    0.972303;    0.953703;    0.926806;    0.891049;    0.843974;    0.792098;    0.758009;    0.714016;    0.670405;    0.609674;    0.548236;    0.473802;    0.387303;    0.325222;
 96;    0.358062;    0.994639;    0.985337;    0.967250;    0.967048;    0.950681;    0.939145;    0.914827;    0.884478;    0.844248;    0.812547;    0.766478;    0.709139;    0.638521;    0.584119;    0.517444;    0.464239;    0.397896;    0.338666;
 97;    0.360003;    1.026555;    1.024554;    1.004121;    0.977416;    0.956729;    0.939691;    0.924536;    0.897189;    0.857479;    0.816803;    0.763916;    0.691784;    0.649838;    0.606392;    0.539353;    0.474011;    0.421600;    0.348331;
 98;    0.353589;    1.003174;    0.992621;    0.990133;    0.973551;    0.951369;    0.931426;    0.911904;    0.882932;    0.839384;    0.806106;    0.760826;    0.705463;    0.639991;    0.598189;    0.528220;    0.485682;    0.420945;    0.342993;
 99;    0.360689;    1.000010;    0.984153;    0.968941;    0.969109;    0.952776;    0.927598;    0.904390;    0.866765;    0.835866;    0.785059;    0.748660;    0.699433;    0.656563;    0.612848;    0.559361;    0.488372;    0.412237;    0.332067;
100;    0.353295;    0.995305;    0.988253;    0.983891;    0.973266;    0.960771;    0.936021;    0.907685;    0.856913;    0.824114;    0.791868;    0.743844;    0.701803;    0.662836;    0.602929;    0.529490;    0.468780;    0.399237;    0.332562;
