Simulation;Time;PC 0;PC 1;PC 2;PC 3;PC 4;PC 5;PC 6;PC 7;PC 8;PC 9;PC10;PC11;PC12;PC13;PC14;PC15;PC16;PC17;
Nan;Nan;0;0;0;1;0;0;0;0;0;0;0;0;0;0;0;0;0;0;
  0;    0.109346;    0.991807;    0.730449;    0.632402;    0.574175;    0.600446;    0.623405;    0.643699;    0.678016;    0.705820;    0.728501;    0.759168;    0.784479;    0.800069;    0.832593;    0.853321;    0.894662;    0.918322;    0.955201;
  1;    0.122038;    1.020590;    0.753069;    0.645701;    0.586280;    0.616967;    0.642847;    0.672320;    0.697275;    0.724692;    0.757926;    0.786122;    0.814265;    0.838108;    0.869224;    0.905836;    0.931989;    0.968022;    0.991702;
  2;    0.108283;    1.019831;    0.761183;    0.655383;    0.589040;    0.619090;    0.643759;    0.676514;    0.698591;    0.724670;    0.749171;    0.773844;    0.804098;    0.837447;    0.869996;    0.892125;    0.926645;    0.958091;    0.984115;
  3;    0.107490;    0.988579;    0.740897;    0.658151;    0.593724;    0.624823;    0.648062;    0.678975;    0.704043;    0.727585;    0.751352;    0.771541;    0.799662;    0.827424;    0.851783;    0.888103;    0.920803;    0.941875;    0.967174;
  4;    0.110191;    1.026716;    0.762121;    0.665785;    0.598764;    0.631887;    0.659917;    0.684604;    0.716413;    0.749627;    0.773704;    0.800578;    0.833425;    0.860946;    0.882315;    0.920116;    0.944041;    0.972743;    1.002576;
  5;    0.108465;    1.001114;    0.735644;    0.640309;    0.588194;    0.617161;    0.642616;    0.668163;    0.696065;    0.727899;    0.746840;    0.776400;    0.804921;    0.834262;    0.859657;    0.890333;    0.912905;    0.949563;    0.974715;
  6;    0.109977;    1.006059;    0.745769;    0.642807;    0.585833;    0.613852;    0.647052;    0.669639;    0.695217;    0.727933;    0.751432;    0.787527;    0.818068;    0.836785;    0.861788;    0.889469;    0.910894;    0.951802;    0.973308;
  7;    0.109410;    1.010106;    0.741861;    0.645644;    0.586852;    0.608285;    0.638730;    0.666680;    0.694504;    0.713721;    0.748866;    0.777336;    0.809049;    0.833573;    0.858004;    0.887801;    0.919861;    0.961958;    0.985180;
  8;    0.109182;    0.978033;    0.719964;    0.632492;    0.578595;    0.609614;    0.640354;    0.665004;    0.693953;    0.723451;    0.748228;    0.775499;    0.793957;    0.823581;    0.848054;    0.875655;    0.892903;    0.924760;    0.946472;
  9;    0.110069;    1.002758;    0.746866;    0.650620;    0.592813;    0.624784;    0.653214;    0.678718;    0.700372;    0.742456;    0.774467;    0.801582;    0.830521;    0.857222;    0.883280;    0.901177;    0.932953;    0.957875;    0.991050;
 10;    0.109700;    1.014721;    0.755861;    0.656285;    0.593608;    0.624840;    0.653792;    0.685055;    0.712444;    0.739508;    0.765082;    0.794491;    0.818393;    0.837403;    0.870316;    0.901283;    0.932505;    0.967555;    0.991149;
 11;    0.106827;    0.995222;    0.746351;    0.649323;    0.594298;    0.617407;    0.639176;    0.668407;    0.690925;    0.722489;    0.752900;    0.776283;    0.808130;    0.832750;    0.854696;    0.878122;    0.914393;    0.949034;    0.976646;
 12;    0.106985;    0.972497;    0.734684;    0.635189;    0.583787;    0.609499;    0.634761;    0.658321;    0.679993;    0.708616;    0.728264;    0.749698;    0.788146;    0.824961;    0.850979;    0.877568;    0.898263;    0.916072;    0.943995;
 13;    0.106964;    1.008427;    0.731922;    0.638653;    0.586567;    0.613030;    0.643411;    0.665906;    0.694298;    0.725060;    0.748399;    0.781032;    0.805251;    0.846484;    0.889503;    0.919831;    0.943558;    0.960662;    0.977407;
 14;    0.111650;    0.981918;    0.733315;    0.641652;    0.576541;    0.607480;    0.636225;    0.653250;    0.677647;    0.706772;    0.740040;    0.770197;    0.796721;    0.811374;    0.845753;    0.875143;    0.891237;    0.919478;    0.952353;
 15;    0.106871;    1.014217;    0.723876;    0.630674;    0.570670;    0.600670;    0.632008;    0.661777;    0.682881;    0.717740;    0.741124;    0.778598;    0.810920;    0.841313;    0.865362;    0.884629;    0.906098;    0.945595;    0.984020;
 16;    0.107420;    1.006618;    0.754672;    0.659998;    0.599612;    0.627833;    0.652812;    0.682283;    0.705760;    0.731041;    0.764481;    0.786340;    0.824498;    0.852668;    0.875841;    0.898455;    0.932091;    0.955719;    0.973738;
 17;    0.108228;    0.976216;    0.727710;    0.643448;    0.577380;    0.600494;    0.623215;    0.648589;    0.674577;    0.697677;    0.728122;    0.756464;    0.790199;    0.820141;    0.836090;    0.861784;    0.892743;    0.911938;    0.942806;
 18;    0.107532;    0.958917;    0.724765;    0.638357;    0.586307;    0.609576;    0.638956;    0.669006;    0.694752;    0.727659;    0.755457;    0.771748;    0.803403;    0.832850;    0.859485;    0.878205;    0.902191;    0.917476;    0.935019;
 19;    0.109210;    0.987472;    0.722366;    0.626971;    0.581478;    0.615978;    0.638894;    0.676164;    0.707750;    0.735213;    0.767139;    0.798320;    0.824267;    0.847561;    0.869323;    0.900732;    0.924344;    0.940886;    0.963157;
 20;    0.107443;    1.027601;    0.743403;    0.651375;    0.588906;    0.616745;    0.651754;    0.682387;    0.711388;    0.732513;    0.766628;    0.792719;    0.818038;    0.845826;    0.889395;    0.919337;    0.946821;    0.967948;    0.996895;
 21;    0.107895;    1.019032;    0.738400;    0.649919;    0.592232;    0.616217;    0.647286;    0.672391;    0.693061;    0.722495;    0.749165;    0.782243;    0.813488;    0.838133;    0.866192;    0.901602;    0.936864;    0.961797;    0.996796;
 22;    0.109271;    1.013325;    0.740345;    0.645883;    0.593411;    0.622997;    0.652828;    0.678792;    0.710859;    0.729362;    0.756279;    0.789337;    0.810858;    0.837658;    0.871231;    0.896167;    0.928833;    0.958739;    0.982179;
 23;    0.108096;    0.995319;    0.737359;    0.640395;    0.593910;    0.618018;    0.643368;    0.676349;    0.708354;    0.736763;    0.763642;    0.792074;    0.810708;    0.838572;    0.862131;    0.900576;    0.927572;    0.957829;    0.971258;
 24;    0.107098;    1.020550;    0.752434;    0.648104;    0.587719;    0.614541;    0.643224;    0.668785;    0.695003;    0.724518;    0.749291;    0.784448;    0.808369;    0.837485;    0.860063;    0.891687;    0.937283;    0.977450;    1.001512;
 25;    0.113961;    0.983245;    0.733283;    0.640183;    0.578767;    0.605297;    0.632152;    0.663442;    0.692236;    0.714437;    0.737278;    0.762348;    0.792630;    0.813373;    0.841117;    0.861413;    0.897304;    0.926587;    0.947360;
 26;    0.108347;    1.010173;    0.749012;    0.657710;    0.601237;    0.631430;    0.657556;    0.690430;    0.714808;    0.745482;    0.770442;    0.796821;    0.821507;    0.835301;    0.870590;    0.894335;    0.928498;    0.951386;    0.981052;
 27;    0.108135;    1.012094;    0.730966;    0.642375;    0.588606;    0.619925;    0.649231;    0.673291;    0.703877;    0.727544;    0.756793;    0.777730;    0.804616;    0.835970;    0.857615;    0.885719;    0.919309;    0.941486;    0.984585;
 28;    0.108482;    1.015931;    0.732523;    0.641338;    0.585050;    0.611726;    0.641777;    0.671460;    0.691783;    0.725169;    0.751728;    0.781183;    0.805302;    0.836246;    0.866586;    0.894618;    0.923710;    0.958157;    0.983500;
 29;    0.107454;    1.034879;    0.734450;    0.639881;    0.582406;    0.612260;    0.638752;    0.672100;    0.694253;    0.732668;    0.767186;    0.796454;    0.828582;    0.849424;    0.877258;    0.906069;    0.934454;    0.960923;    0.994717;
 30;    0.107196;    1.017433;    0.745408;    0.653090;    0.592235;    0.618970;    0.650216;    0.670248;    0.690786;    0.719140;    0.749608;    0.787237;    0.823276;    0.851678;    0.880224;    0.902276;    0.930289;    0.954524;    0.994650;
 31;    0.107985;    1.015879;    0.748239;    0.645024;    0.588564;    0.616893;    0.649662;    0.680763;    0.706021;    0.728750;    0.761265;    0.791606;    0.817139;    0.847654;    0.865987;    0.887679;    0.927638;    0.954981;    0.993631;
 32;    0.107895;    0.990522;    0.746577;    0.635376;    0.584111;    0.608608;    0.644025;    0.674667;    0.704532;    0.730662;    0.757630;    0.785464;    0.815090;    0.841679;    0.860589;    0.883739;    0.905656;    0.942395;    0.966049;
 33;    0.109196;    1.012706;    0.728210;    0.626945;    0.577103;    0.602590;    0.637785;    0.669887;    0.695158;    0.728464;    0.755674;    0.780240;    0.801724;    0.832340;    0.865343;    0.901241;    0.925613;    0.954633;    0.983161;
 34;    0.107743;    1.034730;    0.748771;    0.654118;    0.596726;    0.623398;    0.658212;    0.688424;    0.721635;    0.747679;    0.778697;    0.796527;    0.822867;    0.851188;    0.887834;    0.919492;    0.957538;    0.976148;    1.009944;
 35;    0.108102;    0.997968;    0.740056;    0.641723;    0.586060;    0.610924;    0.641612;    0.666482;    0.700670;    0.727765;    0.756392;    0.787402;    0.808415;    0.841685;    0.861288;    0.894828;    0.919738;    0.950149;    0.969079;
 36;    0.107023;    0.969965;    0.739956;    0.642377;    0.579806;    0.606979;    0.634704;    0.664050;    0.686311;    0.718307;    0.740504;    0.774125;    0.805625;    0.828846;    0.853061;    0.888548;    0.920096;    0.939197;    0.946104;
 37;    0.122297;    0.995734;    0.745447;    0.650764;    0.580646;    0.612630;    0.635224;    0.660750;    0.684525;    0.714152;    0.746857;    0.776201;    0.808499;    0.826748;    0.852615;    0.877467;    0.916274;    0.952634;    0.966201;
 38;    0.107210;    1.001428;    0.733386;    0.641589;    0.586641;    0.610532;    0.634719;    0.660536;    0.689635;    0.724179;    0.750705;    0.773289;    0.795460;    0.826819;    0.859463;    0.885898;    0.921771;    0.945820;    0.974921;
 39;    0.108033;    0.967074;    0.728031;    0.639188;    0.583557;    0.609659;    0.637000;    0.663699;    0.688879;    0.707333;    0.738126;    0.759332;    0.777096;    0.813991;    0.840159;    0.870225;    0.893441;    0.918203;    0.936162;
 40;    0.105692;    1.013402;    0.751829;    0.644455;    0.581712;    0.606552;    0.634670;    0.658520;    0.684937;    0.714891;    0.737484;    0.762447;    0.798473;    0.824877;    0.855445;    0.890794;    0.912828;    0.944209;    0.986812;
 41;    0.107344;    0.997851;    0.735410;    0.634845;    0.583046;    0.606618;    0.634234;    0.659034;    0.687476;    0.718922;    0.739974;    0.766773;    0.796066;    0.828670;    0.854378;    0.885496;    0.914835;    0.940011;    0.963029;
 42;    0.108227;    1.029168;    0.735497;    0.644677;    0.582902;    0.615333;    0.635468;    0.663837;    0.688863;    0.724519;    0.756495;    0.784709;    0.816503;    0.844497;    0.874587;    0.907982;    0.943127;    0.974694;    1.010889;
 43;    0.108954;    1.015815;    0.737722;    0.643946;    0.586001;    0.614596;    0.646232;    0.664942;    0.700030;    0.728310;    0.749689;    0.777721;    0.802914;    0.832773;    0.859632;    0.888686;    0.917845;    0.958800;    0.994830;
 44;    0.108311;    1.006409;    0.747095;    0.643323;    0.591488;    0.618798;    0.648712;    0.680640;    0.713496;    0.744182;    0.773388;    0.797074;    0.816847;    0.849150;    0.886400;    0.915080;    0.938981;    0.949902;    0.980502;
 45;    0.108670;    0.985058;    0.723745;    0.636154;    0.583928;    0.614434;    0.641810;    0.660743;    0.679494;    0.710810;    0.740715;    0.773025;    0.799346;    0.830379;    0.852506;    0.891182;    0.925330;    0.947871;    0.969810;
 46;    0.108910;    1.014812;    0.730598;    0.638832;    0.580403;    0.606928;    0.635422;    0.659080;    0.690120;    0.723495;    0.753924;    0.778686;    0.813215;    0.838311;    0.865644;    0.887590;    0.923063;    0.951589;    0.988154;
 47;    0.108292;    1.025632;    0.743480;    0.658232;    0.601333;    0.629361;    0.664595;    0.693957;    0.721617;    0.740874;    0.768754;    0.796793;    0.826085;    0.847607;    0.876202;    0.912368;    0.935097;    0.958912;    0.996220;
 48;    0.108401;    0.979231;    0.729759;    0.643819;    0.590427;    0.618914;    0.651987;    0.677855;    0.706540;    0.733039;    0.754662;    0.788814;    0.821112;    0.848000;    0.876394;    0.896980;    0.915679;    0.945191;    0.954699;
 49;    0.108354;    0.984610;    0.729579;    0.639500;    0.588497;    0.613959;    0.641248;    0.669703;    0.691499;    0.710976;    0.735508;    0.763799;    0.795468;    0.816964;    0.841595;    0.877609;    0.901294;    0.922522;    0.954236;
 50;    0.108118;    1.007671;    0.737044;    0.637847;    0.582056;    0.612505;    0.639485;    0.664749;    0.701711;    0.728777;    0.763784;    0.795692;    0.821727;    0.845007;    0.869093;    0.893905;    0.912845;    0.944203;    0.977715;
 51;    0.107404;    1.023016;    0.744499;    0.650702;    0.587824;    0.615495;    0.643207;    0.677885;    0.702866;    0.737474;    0.761753;    0.791925;    0.813643;    0.835190;    0.872512;    0.905991;    0.928971;    0.949873;    0.985990;
 52;    0.107694;    1.002795;    0.739495;    0.640124;    0.576484;    0.603500;    0.629256;    0.656249;    0.687928;    0.715732;    0.739778;    0.771216;    0.795789;    0.833842;    0.861615;    0.884551;    0.904856;    0.934850;    0.973041;
 53;    0.109758;    0.973609;    0.750474;    0.639891;    0.580911;    0.607834;    0.633910;    0.661160;    0.687800;    0.711884;    0.739788;    0.776112;    0.801192;    0.823615;    0.845914;    0.873408;    0.905441;    0.927777;    0.943792;
 54;    0.110861;    1.024187;    0.753809;    0.631396;    0.581100;    0.608865;    0.642156;    0.663825;    0.691201;    0.719376;    0.750581;    0.774520;    0.809323;    0.829563;    0.862919;    0.895410;    0.913918;    0.956589;    0.988516;
 55;    0.108830;    0.989823;    0.717797;    0.627102;    0.578144;    0.604989;    0.630348;    0.659440;    0.685499;    0.713448;    0.736789;    0.770066;    0.795824;    0.826709;    0.849064;    0.886545;    0.921150;    0.942269;    0.962929;
 56;    0.113403;    1.009108;    0.739852;    0.638455;    0.581388;    0.603944;    0.637853;    0.664803;    0.692631;    0.713733;    0.748023;    0.781939;    0.804454;    0.833926;    0.857851;    0.884212;    0.914705;    0.945169;    0.976500;
 57;    0.108133;    1.024384;    0.758878;    0.657608;    0.592770;    0.617894;    0.644128;    0.675197;    0.704773;    0.729185;    0.759646;    0.783340;    0.821688;    0.850539;    0.871945;    0.901739;    0.936703;    0.971544;    0.997272;
 58;    0.108383;    1.009859;    0.742861;    0.639165;    0.588403;    0.617962;    0.642609;    0.680638;    0.715406;    0.743033;    0.765716;    0.801228;    0.825865;    0.859349;    0.881499;    0.912935;    0.941785;    0.961581;    0.986615;
 59;    0.108662;    0.990826;    0.740002;    0.649840;    0.579436;    0.603370;    0.629730;    0.660469;    0.685470;    0.705793;    0.736861;    0.769668;    0.795780;    0.817667;    0.850939;    0.873449;    0.901627;    0.940687;    0.973817;
 60;    0.108747;    0.998446;    0.733374;    0.640844;    0.585176;    0.617640;    0.649648;    0.676638;    0.701444;    0.727089;    0.759533;    0.795555;    0.828116;    0.856653;    0.880147;    0.891806;    0.927060;    0.949748;    0.968740;
 61;    0.107459;    0.997981;    0.738438;    0.642408;    0.596096;    0.622906;    0.647039;    0.674514;    0.704697;    0.731755;    0.759579;    0.787725;    0.804035;    0.838836;    0.860556;    0.891685;    0.916437;    0.943749;    0.968069;
 62;    0.107037;    0.990822;    0.729007;    0.641143;    0.577881;    0.608611;    0.631828;    0.659256;    0.684887;    0.703429;    0.734705;    0.767871;    0.797231;    0.820961;    0.847494;    0.867484;    0.893617;    0.923247;    0.958017;
 63;    0.107328;    1.021942;    0.740503;    0.632833;    0.580667;    0.603640;    0.629691;    0.656055;    0.689050;    0.724599;    0.749939;    0.784096;    0.810262;    0.833141;    0.873077;    0.903158;    0.940449;    0.978005;    1.000323;
 64;    0.107224;    1.011735;    0.745090;    0.656634;    0.591342;    0.625445;    0.656083;    0.679123;    0.711416;    0.742965;    0.777528;    0.801295;    0.826520;    0.847314;    0.870037;    0.902360;    0.937562;    0.960637;    0.991784;
 65;    0.107841;    0.974281;    0.727517;    0.629275;    0.577715;    0.607755;    0.628149;    0.651911;    0.682360;    0.710422;    0.740465;    0.764489;    0.786591;    0.812731;    0.844938;    0.873790;    0.901590;    0.915012;    0.945133;
 66;    0.108035;    0.988912;    0.731856;    0.640873;    0.584368;    0.608048;    0.637287;    0.658152;    0.687901;    0.713173;    0.730558;    0.758145;    0.783242;    0.812489;    0.844952;    0.874551;    0.905381;    0.933890;    0.971747;
 67;    0.108572;    0.978017;    0.729696;    0.638025;    0.593787;    0.617457;    0.648159;    0.669195;    0.697465;    0.721936;    0.749007;    0.773951;    0.784670;    0.818071;    0.840601;    0.863715;    0.894601;    0.921562;    0.960502;
 68;    0.112432;    0.999982;    0.735915;    0.640527;    0.588599;    0.620667;    0.644154;    0.676076;    0.702849;    0.729653;    0.759878;    0.786942;    0.811083;    0.842854;    0.867288;    0.886911;    0.912597;    0.933389;    0.966715;
 69;    0.108649;    0.986474;    0.746879;    0.653822;    0.592320;    0.618549;    0.651751;    0.678338;    0.705073;    0.737945;    0.764033;    0.792522;    0.817812;    0.838374;    0.866382;    0.894843;    0.921355;    0.938890;    0.959410;
 70;    0.107901;    1.016956;    0.754242;    0.642574;    0.591398;    0.619893;    0.648732;    0.677550;    0.707369;    0.742299;    0.767001;    0.799198;    0.815137;    0.844497;    0.882822;    0.907411;    0.925118;    0.955447;    0.993736;
 71;    0.107546;    0.999359;    0.730093;    0.635607;    0.583481;    0.613811;    0.643260;    0.663659;    0.687152;    0.716758;    0.751403;    0.781194;    0.803873;    0.836073;    0.860703;    0.888078;    0.916998;    0.944699;    0.977459;
 72;    0.108306;    1.004980;    0.728997;    0.639979;    0.588824;    0.617079;    0.651517;    0.683928;    0.713062;    0.739416;    0.770354;    0.791705;    0.810152;    0.839948;    0.867864;    0.893523;    0.913005;    0.945695;    0.980702;
 73;    0.107932;    1.032962;    0.752050;    0.655113;    0.598176;    0.631604;    0.665432;    0.692960;    0.720931;    0.736860;    0.770176;    0.796672;    0.826708;    0.845020;    0.887823;    0.918576;    0.940525;    0.968744;    1.009338;
 74;    0.108631;    1.021459;    0.736681;    0.651389;    0.585830;    0.614862;    0.650707;    0.679161;    0.701461;    0.730806;    0.752260;    0.784427;    0.814907;    0.849290;    0.891200;    0.917238;    0.941529;    0.965579;    0.984002;
 75;    0.107800;    1.003950;    0.740685;    0.630587;    0.570178;    0.599940;    0.628482;    0.656605;    0.688582;    0.710505;    0.743884;    0.775533;    0.794824;    0.823710;    0.854482;    0.887358;    0.927649;    0.956131;    0.976011;
 76;    0.107384;    1.013482;    0.728364;    0.633005;    0.583061;    0.612913;    0.639764;    0.664074;    0.694937;    0.720280;    0.741456;    0.768724;    0.809968;    0.842136;    0.875086;    0.908121;    0.940243;    0.958171;    0.981225;
 77;    0.108639;    0.973042;    0.719606;    0.620940;    0.569032;    0.602407;    0.620949;    0.643025;    0.670172;    0.698623;    0.729960;    0.765543;    0.788534;    0.812607;    0.829439;    0.857353;    0.884452;    0.909897;    0.946655;
 78;    0.108424;    0.989357;    0.747319;    0.643845;    0.581852;    0.608809;    0.646933;    0.678249;    0.702947;    0.729066;    0.752536;    0.781589;    0.808585;    0.828158;    0.849424;    0.872610;    0.899548;    0.932974;    0.958987;
 79;    0.108391;    1.005493;    0.741013;    0.640360;    0.589076;    0.613032;    0.637873;    0.663579;    0.693183;    0.723803;    0.756431;    0.775724;    0.812746;    0.844131;    0.863601;    0.888838;    0.919869;    0.943963;    0.975487;
 80;    0.107307;    0.995335;    0.724370;    0.624997;    0.564072;    0.589706;    0.624374;    0.653981;    0.680196;    0.707137;    0.731445;    0.763332;    0.784187;    0.811055;    0.842570;    0.865005;    0.895444;    0.925158;    0.963564;
 81;    0.109392;    0.983503;    0.724109;    0.635940;    0.576762;    0.606696;    0.629137;    0.652714;    0.682121;    0.708111;    0.744292;    0.778141;    0.800895;    0.821962;    0.845187;    0.879592;    0.904269;    0.944715;    0.966798;
 82;    0.107534;    0.985078;    0.721832;    0.627564;    0.571329;    0.597082;    0.627298;    0.659633;    0.689884;    0.719378;    0.749689;    0.773238;    0.795198;    0.826936;    0.849297;    0.871440;    0.907977;    0.938783;    0.966804;
 83;    0.108055;    0.962436;    0.721917;    0.630491;    0.580625;    0.605829;    0.636064;    0.663183;    0.692971;    0.722511;    0.752361;    0.780161;    0.797045;    0.827580;    0.855437;    0.872010;    0.887753;    0.919221;    0.947799;
 84;    0.108979;    0.981291;    0.748942;    0.652995;    0.589867;    0.621960;    0.647301;    0.672756;    0.697781;    0.726668;    0.759552;    0.786255;    0.812333;    0.841817;    0.857302;    0.869339;    0.899306;    0.920477;    0.948025;
 85;    0.107683;    0.990089;    0.742773;    0.645622;    0.591017;    0.617922;    0.649156;    0.678601;    0.699377;    0.731106;    0.762986;    0.789272;    0.806056;    0.833520;    0.866530;    0.890358;    0.917468;    0.932052;    0.958647;
 86;    0.111031;    1.028066;    0.741585;    0.635333;    0.582906;    0.608452;    0.644371;    0.668762;    0.691026;    0.726331;    0.748542;    0.778373;    0.815702;    0.842085;    0.860924;    0.891704;    0.938325;    0.968940;    0.991692;
 87;    0.108554;    1.007497;    0.734028;    0.634643;    0.584799;    0.612682;    0.638416;    0.658460;    0.688180;    0.719610;    0.747709;    0.776871;    0.798966;    0.829195;    0.854162;    0.879445;    0.918036;    0.951433;    0.981457;
 88;    0.109953;    1.025978;    0.742708;    0.639671;    0.572957;    0.608219;    0.636854;    0.661948;    0.686572;    0.716922;    0.746782;    0.782508;    0.812207;    0.845302;    0.872915;    0.884664;    0.927817;    0.962711;    0.995263;
 89;    0.107079;    1.013035;    0.745904;    0.652101;    0.583281;    0.612496;    0.640336;    0.668568;    0.692262;    0.722277;    0.744575;    0.780632;    0.808269;    0.826987;    0.863971;    0.885571;    0.913055;    0.943993;    0.976765;
 90;    0.107767;    0.994722;    0.741771;    0.642964;    0.592581;    0.616455;    0.649182;    0.675334;    0.704773;    0.731897;    0.754894;    0.779457;    0.819635;    0.850822;    0.872787;    0.888391;    0.912340;    0.944287;    0.972590;
 91;    0.107665;    1.017831;    0.746380;    0.640847;    0.580400;    0.607627;    0.635218;    0.667650;    0.691584;    0.727382;    0.756618;    0.773719;    0.807176;    0.842025;    0.869885;    0.902096;    0.928356;    0.966509;    0.984847;
 92;    0.108350;    0.999453;    0.737975;    0.645882;    0.584798;    0.610454;    0.644191;    0.669705;    0.696380;    0.728504;    0.757327;    0.780577;    0.802148;    0.827568;    0.865699;    0.894057;    0.908082;    0.931268;    0.974435;
 93;    0.109651;    1.002663;    0.743588;    0.651334;    0.591733;    0.619362;    0.648754;    0.679181;    0.705385;    0.735876;    0.757718;    0.786376;    0.823887;    0.855832;    0.884258;    0.911224;    0.929791;    0.942836;    0.974044;
 94;    0.107902;    0.997341;    0.732367;    0.626602;    0.576517;    0.601742;    0.634181;    0.660461;    0.687271;    0.712306;    0.737744;    0.770087;    0.793752;    0.831955;    0.859502;    0.881948;    0.908079;    0.944684;    0.962127;
 95;    0.107396;    1.017930;    0.743257;    0.646598;    0.589270;    0.616811;    0.654556;    0.683217;    0.707087;    0.732977;    0.764064;    0.784974;    0.819866;    0.850850;    0.874574;    0.905474;    0.926697;    0.950000;    0.981718;
 96;    0.107817;    1.018457;    0.734426;    0.636835;    0.578679;    0.600786;    0.636542;    0.673459;    0.705662;    0.733868;    0.765390;    0.794543;    0.821360;    0.836507;    0.874248;    0.901177;    0.935667;    0.966787;    0.989452;
 97;    0.107223;    1.010369;    0.761888;    0.661359;    0.600726;    0.634435;    0.655234;    0.676152;    0.712157;    0.745357;    0.774058;    0.800830;    0.823349;    0.844738;    0.876055;    0.905078;    0.924885;    0.954856;    0.980700;
 98;    0.106618;    1.007234;    0.749403;    0.645472;    0.584232;    0.607772;    0.633847;    0.664566;    0.701840;    0.732950;    0.760813;    0.781043;    0.812157;    0.844511;    0.870439;    0.887793;    0.912265;    0.953162;    0.979149;
 99;    0.107747;    1.012894;    0.732578;    0.640687;    0.584345;    0.607936;    0.639592;    0.673602;    0.694523;    0.724958;    0.757414;    0.784653;    0.811972;    0.837002;    0.872697;    0.904622;    0.934667;    0.965469;    0.991005;
100;    0.107243;    0.996000;    0.727596;    0.641643;    0.583583;    0.614057;    0.647135;    0.673562;    0.702628;    0.725682;    0.752782;    0.777020;    0.809303;    0.837698;    0.861962;    0.882760;    0.918395;    0.949738;    0.965236;
