Simulation;Time;PC 0;PC 1;PC 2;PC 3;PC 4;PC 5;PC 6;PC 7;PC 8;PC 9;PC10;PC11;PC12;PC13;PC14;PC15;PC16;PC17;PC18;PC19;PC20;PC21;PC22;PC23;PC24;PC25;PC26;PC27;PC28;PC29;PC30;PC31;PC32;PC33;PC34;PC35;PC36;PC37;PC38;PC39;PC40;PC41;PC42;PC43;PC44;PC45;PC46;PC47;PC48;PC49;
Nan;Nan;0;0;0;0;0;0;0;0;0;0;0;0;0;0;0;1;0;0;0;0;0;0;0;0;0;0;0;0;0;0;0;0;0;0;0;0;0;0;0;0;0;0;0;0;0;0;0;0;0;0;
  0;    0.090751;    0.705633;    0.685899;    0.678682;    0.673503;    0.667127;    0.657306;    0.643485;    0.633833;    0.616531;    0.600188;    0.583235;    0.575867;    0.568951;    0.564549;    0.563825;    0.563582;    0.563926;    0.564076;    0.564323;    0.564591;    0.564834;    0.565083;    0.565340;    0.565325;    0.565394;    0.565398;    0.565319;    0.565591;    0.565776;    0.565938;    0.566043;    0.566114;    0.566218;    0.566288;    0.566381;    0.566507;    0.566639;    0.566734;    0.566777;    0.566768;    0.566849;    0.566869;    0.566874;    0.566916;    0.566944;    0.566951;    0.566948;    0.567021;    0.567009;    0.567007;
  1;    0.080862;    0.711619;    0.691870;    0.684171;    0.679649;    0.669165;    0.659111;    0.649885;    0.639151;    0.624463;    0.610486;    0.590190;    0.580846;    0.572328;    0.568324;    0.567848;    0.567439;    0.567729;    0.567971;    0.568149;    0.568421;    0.568807;    0.569033;    0.569216;    0.569191;    0.569318;    0.569479;    0.569580;    0.569783;    0.569929;    0.569997;    0.570159;    0.570297;    0.570410;    0.570413;    0.570312;    0.570364;    0.570448;    0.570658;    0.570685;    0.570731;    0.570852;    0.570944;    0.570952;    0.570957;    0.570912;    0.570916;    0.570909;    0.570922;    0.570949;    0.570967;
  2;    0.087871;    0.713069;    0.694077;    0.687202;    0.682774;    0.674254;    0.661133;    0.653400;    0.638744;    0.627219;    0.610523;    0.587850;    0.580763;    0.572650;    0.567911;    0.567415;    0.567269;    0.567553;    0.567824;    0.567793;    0.567989;    0.568196;    0.568521;    0.568633;    0.568916;    0.569191;    0.569421;    0.569655;    0.569847;    0.569890;    0.569905;    0.570090;    0.570148;    0.570254;    0.570313;    0.570433;    0.570557;    0.570679;    0.570793;    0.570730;    0.570642;    0.570683;    0.570773;    0.570832;    0.570755;    0.570721;    0.570776;    0.570815;    0.570844;    0.570885;    0.570834;
  3;    0.085900;    0.711498;    0.693706;    0.686803;    0.680900;    0.671474;    0.664577;    0.655655;    0.642227;    0.628971;    0.610045;    0.589697;    0.581883;    0.572856;    0.567994;    0.567413;    0.567024;    0.567168;    0.567472;    0.567882;    0.568081;    0.568236;    0.568394;    0.568486;    0.568650;    0.568960;    0.569219;    0.569351;    0.569408;    0.569638;    0.569820;    0.569860;    0.569923;    0.569993;    0.570129;    0.570189;    0.570338;    0.570477;    0.570545;    0.570494;    0.570519;    0.570463;    0.570591;    0.570658;    0.570760;    0.570841;    0.570900;    0.570956;    0.570964;    0.570922;    0.570939;
  4;    0.087584;    0.715609;    0.696562;    0.690321;    0.683685;    0.672355;    0.661811;    0.655122;    0.643608;    0.626164;    0.610775;    0.589901;    0.582205;    0.574664;    0.570306;    0.570310;    0.569572;    0.569890;    0.570204;    0.570532;    0.570616;    0.570729;    0.570867;    0.571091;    0.571371;    0.571640;    0.571742;    0.571802;    0.571926;    0.571969;    0.572221;    0.572393;    0.572477;    0.572415;    0.572548;    0.572688;    0.572772;    0.572853;    0.572834;    0.573002;    0.573140;    0.573241;    0.573312;    0.573321;    0.573291;    0.573330;    0.573344;    0.573420;    0.573435;    0.573459;    0.573473;
  5;    0.089301;    0.710567;    0.691021;    0.684129;    0.677476;    0.670061;    0.660722;    0.651689;    0.639656;    0.626221;    0.610145;    0.588867;    0.579259;    0.571175;    0.567361;    0.566890;    0.566416;    0.566804;    0.566930;    0.567211;    0.567696;    0.567950;    0.568027;    0.568115;    0.568193;    0.568560;    0.568750;    0.568860;    0.568842;    0.568964;    0.568851;    0.569036;    0.569054;    0.569188;    0.569159;    0.569246;    0.569462;    0.569559;    0.569549;    0.569631;    0.569638;    0.569797;    0.569882;    0.569988;    0.570041;    0.569983;    0.569925;    0.569824;    0.569870;    0.569890;    0.569881;
  6;    0.079890;    0.709254;    0.690134;    0.683973;    0.675274;    0.667419;    0.658261;    0.649687;    0.639048;    0.622085;    0.606962;    0.587325;    0.579313;    0.571320;    0.565711;    0.565062;    0.564795;    0.565040;    0.565209;    0.565452;    0.565699;    0.565967;    0.566168;    0.566403;    0.566487;    0.566524;    0.566674;    0.566558;    0.566655;    0.566716;    0.566922;    0.567136;    0.567236;    0.567354;    0.567353;    0.567489;    0.567557;    0.567563;    0.567689;    0.567808;    0.567917;    0.568061;    0.568148;    0.568168;    0.568114;    0.568206;    0.568278;    0.568281;    0.568272;    0.568286;    0.568243;
  7;    0.086371;    0.713487;    0.693909;    0.686270;    0.679854;    0.672356;    0.662198;    0.652401;    0.637225;    0.623131;    0.606541;    0.588136;    0.579954;    0.572195;    0.567912;    0.567682;    0.567418;    0.567755;    0.567925;    0.568023;    0.568141;    0.568522;    0.568746;    0.568953;    0.568964;    0.568932;    0.569246;    0.569539;    0.569810;    0.569975;    0.570159;    0.570255;    0.570389;    0.570495;    0.570510;    0.570612;    0.570587;    0.570644;    0.570757;    0.570911;    0.570975;    0.570963;    0.570874;    0.570805;    0.570884;    0.570993;    0.571032;    0.571000;    0.571047;    0.571072;    0.571104;
  8;    0.086391;    0.706989;    0.687865;    0.681783;    0.675987;    0.666019;    0.659335;    0.647141;    0.634313;    0.621995;    0.603756;    0.583992;    0.576332;    0.569478;    0.564942;    0.564491;    0.564228;    0.564661;    0.564732;    0.565012;    0.564997;    0.564972;    0.565267;    0.565547;    0.565799;    0.565944;    0.565953;    0.566073;    0.566252;    0.566420;    0.566462;    0.566551;    0.566563;    0.566712;    0.566860;    0.566952;    0.566935;    0.567164;    0.567312;    0.567430;    0.567482;    0.567553;    0.567571;    0.567632;    0.567724;    0.567768;    0.567786;    0.567813;    0.567776;    0.567801;    0.567825;
  9;    0.087197;    0.712432;    0.693814;    0.688331;    0.679830;    0.671395;    0.664880;    0.652082;    0.641325;    0.631060;    0.612363;    0.588583;    0.582376;    0.572243;    0.567439;    0.566927;    0.566325;    0.566764;    0.566944;    0.567155;    0.567247;    0.567594;    0.567580;    0.567800;    0.568025;    0.568168;    0.568226;    0.568388;    0.568654;    0.568843;    0.568853;    0.569056;    0.569231;    0.569380;    0.569429;    0.569459;    0.569414;    0.569568;    0.569756;    0.569880;    0.569955;    0.570055;    0.570133;    0.570132;    0.570185;    0.570143;    0.570221;    0.570280;    0.570360;    0.570360;    0.570378;
 10;    0.089535;    0.711691;    0.692714;    0.687215;    0.680334;    0.673699;    0.665052;    0.658148;    0.645309;    0.631792;    0.609830;    0.587919;    0.580521;    0.572040;    0.566182;    0.566023;    0.565310;    0.565658;    0.565906;    0.566137;    0.566497;    0.566759;    0.566866;    0.567119;    0.567456;    0.567684;    0.567980;    0.568175;    0.568319;    0.568451;    0.568575;    0.568721;    0.568897;    0.569035;    0.569088;    0.569151;    0.569213;    0.569240;    0.569230;    0.569338;    0.569340;    0.569466;    0.569575;    0.569597;    0.569733;    0.569810;    0.569809;    0.569718;    0.569748;    0.569723;    0.569729;
 11;    0.089420;    0.708600;    0.690258;    0.685145;    0.679373;    0.669474;    0.662075;    0.652303;    0.638162;    0.627199;    0.606704;    0.587983;    0.580031;    0.570600;    0.566619;    0.566113;    0.565786;    0.565950;    0.566225;    0.566402;    0.566420;    0.566888;    0.567129;    0.567250;    0.567108;    0.567475;    0.567694;    0.567907;    0.568093;    0.568114;    0.568095;    0.568190;    0.568362;    0.568509;    0.568663;    0.568794;    0.568853;    0.569013;    0.569128;    0.569211;    0.569205;    0.569240;    0.569298;    0.569333;    0.569334;    0.569318;    0.569368;    0.569445;    0.569500;    0.569522;    0.569548;
 12;    0.077817;    0.707252;    0.689707;    0.685625;    0.678914;    0.668040;    0.658436;    0.648683;    0.634045;    0.619895;    0.606950;    0.586104;    0.576978;    0.567916;    0.563661;    0.563339;    0.562950;    0.563119;    0.563513;    0.563309;    0.563743;    0.563965;    0.564125;    0.564482;    0.564721;    0.564968;    0.565226;    0.565399;    0.565573;    0.565656;    0.565645;    0.565597;    0.565568;    0.565409;    0.565524;    0.565532;    0.565641;    0.565806;    0.565940;    0.566075;    0.566089;    0.566219;    0.566288;    0.566333;    0.566320;    0.566381;    0.566390;    0.566308;    0.566341;    0.566325;    0.566346;
 13;    0.077994;    0.710800;    0.690249;    0.683909;    0.678506;    0.668326;    0.659499;    0.649650;    0.636932;    0.623733;    0.605996;    0.588519;    0.579952;    0.571734;    0.567169;    0.566897;    0.566628;    0.566710;    0.567086;    0.567187;    0.567318;    0.567738;    0.567965;    0.568160;    0.568261;    0.568317;    0.568442;    0.568669;    0.568819;    0.569047;    0.569173;    0.569209;    0.569299;    0.569433;    0.569545;    0.569673;    0.569659;    0.569748;    0.569722;    0.569785;    0.569790;    0.569863;    0.569951;    0.570005;    0.570028;    0.570095;    0.570173;    0.570197;    0.570195;    0.570236;    0.570233;
 14;    0.093073;    0.706086;    0.687586;    0.682648;    0.674036;    0.668211;    0.659309;    0.649976;    0.636007;    0.619619;    0.603411;    0.586818;    0.580609;    0.571336;    0.566644;    0.566238;    0.565870;    0.566213;    0.566299;    0.566389;    0.566800;    0.567001;    0.567181;    0.567420;    0.567754;    0.568013;    0.568190;    0.568349;    0.568429;    0.568569;    0.568627;    0.568685;    0.568754;    0.568725;    0.568931;    0.569135;    0.569210;    0.569259;    0.569285;    0.569414;    0.569479;    0.569572;    0.569594;    0.569741;    0.569800;    0.569869;    0.569852;    0.569884;    0.569929;    0.569958;    0.569949;
 15;    0.098183;    0.708308;    0.686234;    0.679511;    0.670793;    0.663980;    0.654511;    0.645068;    0.633329;    0.617827;    0.601930;    0.584055;    0.575399;    0.567864;    0.564149;    0.563668;    0.563296;    0.563536;    0.563933;    0.564193;    0.564351;    0.564536;    0.564766;    0.564876;    0.564955;    0.565142;    0.565387;    0.565527;    0.565416;    0.565616;    0.565705;    0.565827;    0.565937;    0.566186;    0.566353;    0.566409;    0.566485;    0.566599;    0.566670;    0.566685;    0.566783;    0.566892;    0.566934;    0.566984;    0.567065;    0.567140;    0.567140;    0.567049;    0.567064;    0.567065;    0.567081;
 16;    0.088906;    0.714444;    0.696639;    0.688574;    0.681629;    0.673941;    0.663318;    0.655855;    0.643272;    0.628553;    0.612918;    0.592580;    0.585194;    0.575676;    0.570812;    0.570214;    0.569550;    0.569765;    0.570177;    0.570383;    0.570709;    0.570956;    0.571242;    0.571403;    0.571642;    0.571864;    0.572095;    0.572272;    0.572449;    0.572506;    0.572534;    0.572613;    0.572802;    0.572948;    0.573033;    0.573219;    0.573335;    0.573504;    0.573518;    0.573587;    0.573593;    0.573611;    0.573672;    0.573683;    0.573694;    0.573755;    0.573742;    0.573679;    0.573705;    0.573710;    0.573730;
 17;    0.097648;    0.706814;    0.688367;    0.681473;    0.673990;    0.666619;    0.656315;    0.644314;    0.632547;    0.619752;    0.604882;    0.585505;    0.576891;    0.568201;    0.563684;    0.563427;    0.563273;    0.563723;    0.563828;    0.563864;    0.563932;    0.564088;    0.564342;    0.564491;    0.564696;    0.564699;    0.564951;    0.565094;    0.565359;    0.565563;    0.565760;    0.565913;    0.566122;    0.566220;    0.566203;    0.566251;    0.566458;    0.566531;    0.566617;    0.566570;    0.566538;    0.566658;    0.566743;    0.566824;    0.566907;    0.566913;    0.566876;    0.566839;    0.566867;    0.566892;    0.566908;
 18;    0.080869;    0.705509;    0.688360;    0.681661;    0.676214;    0.667102;    0.659351;    0.646893;    0.633544;    0.624577;    0.610652;    0.586618;    0.578540;    0.569836;    0.565723;    0.565428;    0.564922;    0.565319;    0.565425;    0.565725;    0.565913;    0.566346;    0.566596;    0.566785;    0.566801;    0.566589;    0.566845;    0.566986;    0.567170;    0.567332;    0.567530;    0.567579;    0.567708;    0.567808;    0.567925;    0.567997;    0.568060;    0.568087;    0.568233;    0.568255;    0.568372;    0.568411;    0.568532;    0.568611;    0.568654;    0.568685;    0.568713;    0.568793;    0.568819;    0.568810;    0.568817;
 19;    0.088541;    0.708479;    0.688681;    0.681844;    0.677301;    0.670133;    0.662908;    0.650505;    0.640429;    0.625251;    0.606702;    0.588361;    0.580535;    0.572648;    0.567616;    0.567252;    0.566954;    0.567328;    0.567489;    0.567408;    0.567731;    0.568005;    0.568212;    0.568352;    0.568531;    0.568698;    0.568899;    0.569087;    0.569262;    0.569392;    0.569502;    0.569611;    0.569753;    0.569939;    0.570117;    0.570274;    0.570374;    0.570454;    0.570391;    0.570538;    0.570621;    0.570637;    0.570636;    0.570691;    0.570794;    0.570837;    0.570735;    0.570697;    0.570730;    0.570740;    0.570754;
 20;    0.089586;    0.711966;    0.690926;    0.686624;    0.678176;    0.670513;    0.663201;    0.655720;    0.645463;    0.629690;    0.611237;    0.588201;    0.580558;    0.571304;    0.566111;    0.565825;    0.565243;    0.565513;    0.565561;    0.565859;    0.566049;    0.566389;    0.566566;    0.566801;    0.567001;    0.567221;    0.567410;    0.567614;    0.567823;    0.567969;    0.567959;    0.568078;    0.568250;    0.568372;    0.568479;    0.568508;    0.568499;    0.568669;    0.568816;    0.568892;    0.568961;    0.569048;    0.569168;    0.569251;    0.569313;    0.569311;    0.569357;    0.569378;    0.569387;    0.569398;    0.569416;
 21;    0.084068;    0.711219;    0.690066;    0.684358;    0.677254;    0.670897;    0.660937;    0.649666;    0.637345;    0.623046;    0.608368;    0.587918;    0.580141;    0.570454;    0.566488;    0.565710;    0.565322;    0.565568;    0.565697;    0.566100;    0.566433;    0.566649;    0.566755;    0.566889;    0.567116;    0.567333;    0.567542;    0.567746;    0.567920;    0.568002;    0.568014;    0.568194;    0.568269;    0.568338;    0.568207;    0.568314;    0.568498;    0.568603;    0.568619;    0.568714;    0.568807;    0.568859;    0.568906;    0.568952;    0.569057;    0.569123;    0.569166;    0.569190;    0.569141;    0.569124;    0.569142;
 22;    0.093982;    0.712880;    0.692859;    0.686358;    0.678900;    0.668656;    0.660555;    0.649158;    0.640220;    0.629885;    0.610230;    0.589171;    0.581032;    0.572047;    0.567406;    0.566827;    0.566402;    0.566556;    0.566848;    0.567098;    0.567377;    0.567421;    0.567513;    0.567724;    0.568049;    0.568186;    0.568222;    0.568293;    0.568344;    0.568587;    0.568838;    0.568966;    0.569146;    0.569329;    0.569370;    0.569304;    0.569347;    0.569491;    0.569615;    0.569703;    0.569801;    0.569936;    0.570052;    0.570118;    0.570205;    0.570263;    0.570326;    0.570346;    0.570351;    0.570289;    0.570294;
 23;    0.086251;    0.710407;    0.691438;    0.687507;    0.682359;    0.674924;    0.664944;    0.650877;    0.640786;    0.625739;    0.607515;    0.589913;    0.580650;    0.572319;    0.568145;    0.567623;    0.567080;    0.567150;    0.567508;    0.567686;    0.567994;    0.568202;    0.568394;    0.568649;    0.568897;    0.569088;    0.569189;    0.569373;    0.569505;    0.569659;    0.569886;    0.569973;    0.570056;    0.570102;    0.570199;    0.570085;    0.570177;    0.570318;    0.570416;    0.570471;    0.570552;    0.570694;    0.570759;    0.570809;    0.570819;    0.570913;    0.570974;    0.570962;    0.570902;    0.570898;    0.570907;
 24;    0.083305;    0.713751;    0.693971;    0.688722;    0.679970;    0.671576;    0.662009;    0.651316;    0.639838;    0.624618;    0.609218;    0.588000;    0.580147;    0.569917;    0.565424;    0.564916;    0.564721;    0.564840;    0.565277;    0.565550;    0.565939;    0.566071;    0.566041;    0.566201;    0.566384;    0.566622;    0.566735;    0.566755;    0.566764;    0.566912;    0.567099;    0.567300;    0.567393;    0.567493;    0.567711;    0.567974;    0.568093;    0.568127;    0.568261;    0.568274;    0.568303;    0.568315;    0.568288;    0.568332;    0.568433;    0.568408;    0.568360;    0.568367;    0.568371;    0.568336;    0.568366;
 25;    0.086514;    0.707617;    0.689216;    0.684012;    0.677805;    0.666784;    0.659343;    0.649137;    0.639143;    0.621006;    0.605344;    0.587087;    0.578901;    0.569914;    0.565221;    0.564584;    0.564257;    0.564425;    0.564708;    0.564876;    0.565252;    0.565599;    0.565674;    0.565700;    0.565897;    0.566200;    0.566397;    0.566554;    0.566748;    0.566902;    0.567020;    0.567006;    0.567029;    0.567230;    0.567363;    0.567414;    0.567469;    0.567624;    0.567708;    0.567704;    0.567745;    0.567836;    0.567899;    0.567973;    0.567953;    0.568039;    0.568071;    0.568085;    0.568115;    0.568106;    0.568082;
 26;    0.088635;    0.713614;    0.694703;    0.688637;    0.681796;    0.674978;    0.667464;    0.658034;    0.645413;    0.627302;    0.614246;    0.590017;    0.582236;    0.573006;    0.569546;    0.569013;    0.568478;    0.568744;    0.569172;    0.569382;    0.569575;    0.569492;    0.569940;    0.570167;    0.570479;    0.570503;    0.570612;    0.570681;    0.570792;    0.570802;    0.570715;    0.570705;    0.570909;    0.571139;    0.571314;    0.571420;    0.571458;    0.571456;    0.571578;    0.571743;    0.571872;    0.571872;    0.571974;    0.572045;    0.572046;    0.572081;    0.572101;    0.572123;    0.572177;    0.572186;    0.572196;
 27;    0.084418;    0.711299;    0.690499;    0.682961;    0.676310;    0.670047;    0.663615;    0.653119;    0.641225;    0.625046;    0.609256;    0.588426;    0.580068;    0.570138;    0.565726;    0.565299;    0.564881;    0.565114;    0.565533;    0.565602;    0.565896;    0.566088;    0.566244;    0.566190;    0.566505;    0.566669;    0.566864;    0.567086;    0.567201;    0.567481;    0.567700;    0.567819;    0.567894;    0.567821;    0.567735;    0.567788;    0.567889;    0.568038;    0.568097;    0.568133;    0.568191;    0.568241;    0.568221;    0.568305;    0.568379;    0.568448;    0.568442;    0.568537;    0.568572;    0.568546;    0.568572;
 28;    0.083031;    0.712161;    0.691021;    0.685871;    0.677269;    0.667617;    0.660330;    0.649172;    0.639979;    0.626157;    0.606046;    0.585809;    0.577845;    0.569508;    0.565724;    0.565368;    0.564989;    0.565261;    0.565642;    0.565903;    0.565802;    0.565858;    0.565936;    0.566034;    0.566443;    0.566622;    0.566707;    0.566768;    0.566875;    0.567012;    0.567230;    0.567382;    0.567535;    0.567666;    0.567849;    0.568002;    0.568039;    0.568076;    0.568173;    0.568296;    0.568349;    0.568354;    0.568388;    0.568419;    0.568495;    0.568553;    0.568530;    0.568552;    0.568610;    0.568571;    0.568585;
 29;    0.090045;    0.714776;    0.692388;    0.686469;    0.680657;    0.671834;    0.664515;    0.653010;    0.639724;    0.621835;    0.604380;    0.585261;    0.576761;    0.570448;    0.566439;    0.566248;    0.565762;    0.566096;    0.566448;    0.566782;    0.566966;    0.567138;    0.567098;    0.567077;    0.567183;    0.567293;    0.567506;    0.567620;    0.567901;    0.568015;    0.568038;    0.568197;    0.568303;    0.568433;    0.568448;    0.568618;    0.568730;    0.568833;    0.568968;    0.568973;    0.569044;    0.569168;    0.569188;    0.569198;    0.569213;    0.569199;    0.569282;    0.569325;    0.569326;    0.569332;    0.569360;
 30;    0.096162;    0.712327;    0.692268;    0.687627;    0.680005;    0.672879;    0.663047;    0.656022;    0.644133;    0.627475;    0.612613;    0.589447;    0.581458;    0.573425;    0.569637;    0.569396;    0.568962;    0.569178;    0.569466;    0.569821;    0.570005;    0.570132;    0.570310;    0.570421;    0.570361;    0.570573;    0.570814;    0.570972;    0.571075;    0.571146;    0.571208;    0.571410;    0.571592;    0.571682;    0.571839;    0.572035;    0.572134;    0.572216;    0.572220;    0.572365;    0.572433;    0.572484;    0.572659;    0.572766;    0.572802;    0.572765;    0.572720;    0.572778;    0.572798;    0.572769;    0.572766;
 31;    0.078622;    0.710772;    0.690877;    0.684636;    0.678323;    0.670148;    0.664229;    0.653233;    0.640704;    0.627269;    0.609542;    0.588758;    0.580653;    0.571230;    0.566988;    0.566305;    0.565742;    0.566085;    0.566094;    0.566444;    0.566675;    0.566785;    0.566826;    0.567003;    0.567164;    0.567283;    0.567228;    0.567283;    0.567358;    0.567634;    0.567923;    0.568116;    0.568172;    0.568071;    0.568263;    0.568528;    0.568563;    0.568609;    0.568591;    0.568318;    0.568437;    0.568516;    0.568614;    0.568708;    0.568764;    0.568804;    0.568798;    0.568756;    0.568818;    0.568844;    0.568854;
 32;    0.089694;    0.708994;    0.691302;    0.684119;    0.678309;    0.671251;    0.658245;    0.650690;    0.639591;    0.622274;    0.605068;    0.587139;    0.582196;    0.571486;    0.565550;    0.565209;    0.564831;    0.565140;    0.565390;    0.565757;    0.565978;    0.566067;    0.566377;    0.566585;    0.566743;    0.566982;    0.567079;    0.567228;    0.567184;    0.567253;    0.567320;    0.567382;    0.567562;    0.567729;    0.567831;    0.567852;    0.567849;    0.567929;    0.568006;    0.568161;    0.568247;    0.568324;    0.568417;    0.568350;    0.568303;    0.568438;    0.568477;    0.568511;    0.568541;    0.568562;    0.568572;
 33;    0.079846;    0.708830;    0.687148;    0.680651;    0.674343;    0.667075;    0.655233;    0.647708;    0.635922;    0.624005;    0.608404;    0.583527;    0.575903;    0.567239;    0.563664;    0.563039;    0.562607;    0.562837;    0.563243;    0.563482;    0.563754;    0.563904;    0.564156;    0.564127;    0.564276;    0.564468;    0.564511;    0.564704;    0.564885;    0.565190;    0.565351;    0.565517;    0.565701;    0.565899;    0.566053;    0.566082;    0.566120;    0.566108;    0.566275;    0.566394;    0.566480;    0.566463;    0.566425;    0.566480;    0.566421;    0.566523;    0.566487;    0.566541;    0.566467;    0.566514;    0.566538;
 34;    0.086872;    0.714161;    0.692937;    0.687733;    0.681732;    0.671042;    0.660418;    0.652227;    0.641575;    0.625920;    0.609125;    0.588792;    0.580185;    0.572085;    0.568004;    0.567807;    0.566828;    0.567111;    0.567195;    0.567328;    0.567645;    0.567780;    0.567828;    0.568193;    0.568498;    0.568684;    0.568834;    0.569002;    0.569060;    0.569232;    0.569344;    0.569440;    0.569563;    0.569616;    0.569725;    0.569661;    0.569814;    0.569951;    0.570094;    0.570189;    0.570241;    0.570206;    0.570256;    0.570288;    0.570297;    0.570314;    0.570249;    0.570297;    0.570350;    0.570339;    0.570335;
 35;    0.080848;    0.709604;    0.690545;    0.686051;    0.677099;    0.667418;    0.657754;    0.647262;    0.639692;    0.626905;    0.610397;    0.587510;    0.579926;    0.571517;    0.566849;    0.566318;    0.565562;    0.565771;    0.566267;    0.566565;    0.566539;    0.566755;    0.566857;    0.567117;    0.567272;    0.567595;    0.567782;    0.567896;    0.567857;    0.568044;    0.568159;    0.568355;    0.568490;    0.568597;    0.568740;    0.568872;    0.569044;    0.569116;    0.569135;    0.569086;    0.569086;    0.569221;    0.569356;    0.569390;    0.569321;    0.569391;    0.569385;    0.569465;    0.569505;    0.569489;    0.569513;
 36;    0.084377;    0.705313;    0.688378;    0.683398;    0.674473;    0.666784;    0.659525;    0.649740;    0.634173;    0.619469;    0.607556;    0.584109;    0.577196;    0.569162;    0.564710;    0.564066;    0.563630;    0.564008;    0.564195;    0.564555;    0.564767;    0.564885;    0.565045;    0.565231;    0.565456;    0.565505;    0.565376;    0.565415;    0.565656;    0.565930;    0.566099;    0.566097;    0.566086;    0.566273;    0.566309;    0.566453;    0.566536;    0.566623;    0.566740;    0.566798;    0.566798;    0.566734;    0.566842;    0.566964;    0.567074;    0.567141;    0.567199;    0.567155;    0.567065;    0.567082;    0.567101;
 37;    0.086249;    0.707823;    0.689248;    0.683896;    0.676107;    0.666351;    0.657830;    0.649355;    0.636607;    0.622021;    0.605438;    0.586913;    0.578398;    0.570449;    0.565531;    0.564979;    0.564509;    0.564746;    0.565051;    0.565141;    0.565421;    0.565656;    0.565782;    0.565992;    0.566185;    0.566308;    0.566402;    0.566696;    0.566844;    0.567107;    0.567210;    0.567343;    0.567440;    0.567644;    0.567906;    0.568041;    0.568096;    0.568128;    0.568020;    0.568091;    0.568216;    0.568217;    0.568074;    0.568109;    0.568167;    0.568252;    0.568279;    0.568207;    0.568268;    0.568289;    0.568274;
 38;    0.086582;    0.708973;    0.688902;    0.682580;    0.674717;    0.667598;    0.658844;    0.647287;    0.637436;    0.621479;    0.603780;    0.587012;    0.579649;    0.571197;    0.567312;    0.567046;    0.566516;    0.566698;    0.566995;    0.567211;    0.567364;    0.567500;    0.567752;    0.567796;    0.568050;    0.568144;    0.568031;    0.568287;    0.568521;    0.568752;    0.568871;    0.569018;    0.569170;    0.569281;    0.569325;    0.569332;    0.569459;    0.569545;    0.569725;    0.569818;    0.569869;    0.569897;    0.569980;    0.570055;    0.570084;    0.570113;    0.570205;    0.570237;    0.570233;    0.570224;    0.570248;
 39;    0.080845;    0.703840;    0.686001;    0.680683;    0.673027;    0.664999;    0.654219;    0.643696;    0.631853;    0.618073;    0.604931;    0.586640;    0.579714;    0.570043;    0.565266;    0.564865;    0.564396;    0.564730;    0.564766;    0.565020;    0.565239;    0.565515;    0.565680;    0.565691;    0.565819;    0.566038;    0.566029;    0.566316;    0.566598;    0.566746;    0.566787;    0.566873;    0.567058;    0.567074;    0.567111;    0.567165;    0.567308;    0.567399;    0.567397;    0.567486;    0.567510;    0.567658;    0.567754;    0.567816;    0.567851;    0.567909;    0.567944;    0.567992;    0.568049;    0.568087;    0.568106;
 40;    0.089873;    0.709813;    0.690343;    0.683477;    0.677993;    0.669974;    0.661323;    0.648014;    0.633848;    0.622776;    0.603882;    0.585764;    0.577732;    0.568815;    0.563667;    0.563185;    0.562783;    0.563144;    0.563388;    0.563424;    0.563723;    0.563879;    0.564112;    0.564227;    0.564445;    0.564629;    0.564763;    0.564782;    0.565036;    0.565334;    0.565472;    0.565534;    0.565578;    0.565541;    0.565668;    0.565742;    0.565743;    0.565664;    0.565815;    0.565898;    0.565879;    0.565942;    0.566045;    0.566103;    0.566150;    0.566266;    0.566362;    0.566415;    0.566411;    0.566332;    0.566326;
 41;    0.086740;    0.707949;    0.688398;    0.683209;    0.674089;    0.668570;    0.658153;    0.645989;    0.635868;    0.620115;    0.605263;    0.585161;    0.578347;    0.570234;    0.566327;    0.565684;    0.565139;    0.565303;    0.565707;    0.566048;    0.566194;    0.566459;    0.566552;    0.566741;    0.566880;    0.566933;    0.567136;    0.567311;    0.567409;    0.567517;    0.567519;    0.567669;    0.567779;    0.567828;    0.567894;    0.568002;    0.568068;    0.568066;    0.568160;    0.568316;    0.568412;    0.568475;    0.568490;    0.568600;    0.568643;    0.568649;    0.568646;    0.568602;    0.568658;    0.568687;    0.568700;
 42;    0.083863;    0.713024;    0.690925;    0.684413;    0.678860;    0.671952;    0.662990;    0.648987;    0.638622;    0.623139;    0.607844;    0.587861;    0.580149;    0.572067;    0.567599;    0.566934;    0.566508;    0.566716;    0.566967;    0.567300;    0.567696;    0.567813;    0.568170;    0.568318;    0.568367;    0.568434;    0.568490;    0.568776;    0.568942;    0.569084;    0.569065;    0.569302;    0.569520;    0.569630;    0.569670;    0.569790;    0.570030;    0.570200;    0.570233;    0.570252;    0.570241;    0.570112;    0.570073;    0.570172;    0.570209;    0.570301;    0.570325;    0.570350;    0.570424;    0.570452;    0.570463;
 43;    0.081991;    0.711238;    0.690698;    0.683741;    0.679021;    0.669342;    0.660875;    0.652861;    0.640286;    0.625257;    0.606556;    0.585247;    0.576892;    0.568931;    0.565443;    0.565018;    0.564834;    0.565245;    0.565293;    0.565417;    0.565748;    0.566083;    0.566222;    0.566269;    0.566497;    0.566668;    0.566759;    0.566963;    0.567131;    0.567307;    0.567398;    0.567553;    0.567614;    0.567542;    0.567737;    0.567958;    0.568085;    0.568166;    0.568217;    0.568321;    0.568336;    0.568354;    0.568439;    0.568504;    0.568480;    0.568492;    0.568514;    0.568510;    0.568573;    0.568544;    0.568584;
 44;    0.089933;    0.711297;    0.692170;    0.686276;    0.682882;    0.674763;    0.663839;    0.653856;    0.642063;    0.625489;    0.605688;    0.587936;    0.580857;    0.573513;    0.568971;    0.568404;    0.567734;    0.567998;    0.568340;    0.568691;    0.568922;    0.569151;    0.569384;    0.569435;    0.569575;    0.569791;    0.569970;    0.570142;    0.570125;    0.570073;    0.570233;    0.570351;    0.570560;    0.570680;    0.570913;    0.571043;    0.571154;    0.571237;    0.571230;    0.571086;    0.571260;    0.571282;    0.571241;    0.571205;    0.571302;    0.571314;    0.571379;    0.571410;    0.571468;    0.571496;    0.571512;
 45;    0.084244;    0.707584;    0.687999;    0.680622;    0.672741;    0.665845;    0.659427;    0.650843;    0.638601;    0.621676;    0.607994;    0.587202;    0.579504;    0.571817;    0.567537;    0.567260;    0.566725;    0.567047;    0.567395;    0.567577;    0.567846;    0.568058;    0.568321;    0.568584;    0.568642;    0.568904;    0.569006;    0.569114;    0.569160;    0.569382;    0.569552;    0.569723;    0.569878;    0.569984;    0.570067;    0.570135;    0.570244;    0.570345;    0.570446;    0.570553;    0.570698;    0.570819;    0.570875;    0.570827;    0.570807;    0.570806;    0.570831;    0.570833;    0.570810;    0.570840;    0.570813;
 46;    0.088325;    0.711265;    0.690288;    0.682211;    0.676590;    0.670529;    0.659314;    0.650114;    0.638464;    0.620730;    0.603842;    0.583830;    0.576378;    0.568613;    0.565016;    0.564510;    0.564096;    0.564386;    0.564463;    0.564753;    0.564923;    0.565036;    0.565333;    0.565549;    0.565591;    0.565755;    0.566050;    0.566255;    0.566367;    0.566498;    0.566632;    0.566772;    0.566978;    0.566943;    0.566964;    0.567130;    0.567254;    0.567282;    0.567160;    0.567315;    0.567481;    0.567541;    0.567574;    0.567586;    0.567649;    0.567735;    0.567722;    0.567696;    0.567725;    0.567707;    0.567722;
 47;    0.081651;    0.714104;    0.693415;    0.686086;    0.681455;    0.675719;    0.666521;    0.653204;    0.642431;    0.626720;    0.611472;    0.588996;    0.581903;    0.573116;    0.568073;    0.567563;    0.566987;    0.566927;    0.567323;    0.567286;    0.567694;    0.567942;    0.568145;    0.568386;    0.568496;    0.568511;    0.568725;    0.568853;    0.569018;    0.569143;    0.569314;    0.569471;    0.569650;    0.569820;    0.569866;    0.569860;    0.570035;    0.570162;    0.570187;    0.570322;    0.570411;    0.570457;    0.570530;    0.570597;    0.570582;    0.570679;    0.570738;    0.570766;    0.570799;    0.570746;    0.570759;
 48;    0.087847;    0.709037;    0.690800;    0.684407;    0.675970;    0.669285;    0.659442;    0.650884;    0.636554;    0.623066;    0.608252;    0.588508;    0.582417;    0.570764;    0.566596;    0.566253;    0.565342;    0.565627;    0.566173;    0.566538;    0.566758;    0.566643;    0.566777;    0.567032;    0.567177;    0.567397;    0.567530;    0.567437;    0.567630;    0.567784;    0.567893;    0.568065;    0.568155;    0.568106;    0.568281;    0.568284;    0.568322;    0.568357;    0.568488;    0.568673;    0.568783;    0.568872;    0.568887;    0.568821;    0.568903;    0.568983;    0.568987;    0.568979;    0.568990;    0.569028;    0.569045;
 49;    0.086160;    0.708968;    0.689978;    0.683541;    0.676835;    0.665261;    0.657478;    0.650924;    0.638785;    0.628362;    0.609998;    0.589305;    0.581175;    0.571970;    0.567113;    0.566750;    0.566163;    0.566567;    0.566656;    0.567094;    0.567380;    0.567589;    0.567663;    0.567600;    0.567821;    0.567919;    0.568249;    0.568623;    0.568884;    0.569061;    0.569149;    0.569270;    0.569404;    0.569513;    0.569562;    0.569490;    0.569245;    0.569348;    0.569466;    0.569511;    0.569569;    0.569643;    0.569665;    0.569629;    0.569724;    0.569788;    0.569850;    0.569861;    0.569906;    0.569940;    0.569957;
 50;    0.087477;    0.709794;    0.689367;    0.683661;    0.676560;    0.670180;    0.658476;    0.651188;    0.639579;    0.622183;    0.610514;    0.589837;    0.581121;    0.571750;    0.567292;    0.566975;    0.566736;    0.567143;    0.567032;    0.567360;    0.567523;    0.567854;    0.567846;    0.568103;    0.568298;    0.568323;    0.568676;    0.568979;    0.569205;    0.569370;    0.569561;    0.569633;    0.569631;    0.569610;    0.569658;    0.569831;    0.569935;    0.570013;    0.570095;    0.570083;    0.570255;    0.570359;    0.570403;    0.570494;    0.570549;    0.570535;    0.570562;    0.570574;    0.570655;    0.570685;    0.570633;
 51;    0.082857;    0.716011;    0.695608;    0.689941;    0.680184;    0.673584;    0.664240;    0.656100;    0.645380;    0.627624;    0.611704;    0.588873;    0.581287;    0.572893;    0.568385;    0.568101;    0.567757;    0.567910;    0.568422;    0.568776;    0.568912;    0.569129;    0.569221;    0.569268;    0.569487;    0.569747;    0.569864;    0.570150;    0.570255;    0.570230;    0.570304;    0.570395;    0.570597;    0.570730;    0.570872;    0.571053;    0.571064;    0.571183;    0.571271;    0.571322;    0.571376;    0.571417;    0.571485;    0.571512;    0.571563;    0.571600;    0.571694;    0.571694;    0.571636;    0.571680;    0.571692;
 52;    0.075399;    0.708555;    0.688910;    0.683341;    0.674490;    0.668971;    0.658678;    0.647058;    0.633209;    0.619336;    0.602130;    0.585900;    0.578395;    0.570811;    0.566352;    0.566189;    0.565300;    0.565548;    0.565850;    0.565979;    0.566211;    0.566314;    0.566580;    0.566764;    0.566943;    0.566966;    0.566954;    0.567161;    0.567167;    0.567405;    0.567527;    0.567774;    0.567987;    0.568094;    0.568046;    0.567953;    0.568123;    0.568246;    0.568290;    0.568435;    0.568475;    0.568456;    0.568612;    0.568660;    0.568675;    0.568780;    0.568831;    0.568842;    0.568875;    0.568870;    0.568876;
 53;    0.078591;    0.707227;    0.690988;    0.683728;    0.679405;    0.670382;    0.660109;    0.651252;    0.640192;    0.623910;    0.610137;    0.585909;    0.579792;    0.570057;    0.564979;    0.564482;    0.564212;    0.564541;    0.564934;    0.565131;    0.565209;    0.565347;    0.565584;    0.565755;    0.565937;    0.565923;    0.566147;    0.566294;    0.566396;    0.566656;    0.566802;    0.566905;    0.567076;    0.567117;    0.567221;    0.567269;    0.567377;    0.567507;    0.567508;    0.567386;    0.567573;    0.567733;    0.567801;    0.567781;    0.567751;    0.567762;    0.567841;    0.567915;    0.567941;    0.567948;    0.567974;
 54;    0.087593;    0.711775;    0.691645;    0.683488;    0.677405;    0.670012;    0.663036;    0.654297;    0.641485;    0.622706;    0.604113;    0.585310;    0.576647;    0.570040;    0.566124;    0.565625;    0.565392;    0.565719;    0.565982;    0.566192;    0.566627;    0.566867;    0.566886;    0.567187;    0.567483;    0.567695;    0.567794;    0.567770;    0.567789;    0.567879;    0.568099;    0.568270;    0.568464;    0.568660;    0.568799;    0.568867;    0.568879;    0.568847;    0.568916;    0.568935;    0.569067;    0.569165;    0.569177;    0.569205;    0.569266;    0.569300;    0.569363;    0.569395;    0.569392;    0.569293;    0.569320;
 55;    0.086175;    0.706411;    0.685874;    0.680919;    0.675533;    0.667439;    0.657109;    0.647849;    0.639198;    0.625561;    0.606832;    0.587293;    0.580512;    0.570500;    0.565099;    0.564645;    0.564452;    0.564711;    0.564915;    0.565275;    0.565529;    0.565799;    0.566018;    0.566150;    0.566184;    0.566391;    0.566607;    0.566706;    0.566756;    0.566924;    0.567226;    0.567429;    0.567489;    0.567651;    0.567754;    0.567770;    0.567761;    0.567857;    0.567940;    0.567916;    0.568020;    0.568078;    0.568131;    0.568182;    0.568217;    0.568288;    0.568337;    0.568356;    0.568318;    0.568339;    0.568344;
 56;    0.080465;    0.707925;    0.687766;    0.681193;    0.672704;    0.664218;    0.654403;    0.644963;    0.632280;    0.620387;    0.605078;    0.588035;    0.579790;    0.570146;    0.565679;    0.565276;    0.564625;    0.564860;    0.565125;    0.565259;    0.565545;    0.565696;    0.565934;    0.566131;    0.566371;    0.566505;    0.566648;    0.566861;    0.566957;    0.567003;    0.567112;    0.567305;    0.567402;    0.567467;    0.567542;    0.567535;    0.567579;    0.567740;    0.567869;    0.567978;    0.568092;    0.568141;    0.568189;    0.568163;    0.568225;    0.568324;    0.568303;    0.568238;    0.568248;    0.568276;    0.568298;
 57;    0.080944;    0.713331;    0.693813;    0.687951;    0.679723;    0.673118;    0.661850;    0.651712;    0.639801;    0.625022;    0.610545;    0.589573;    0.582092;    0.573470;    0.569662;    0.569676;    0.568715;    0.568997;    0.568934;    0.568998;    0.569349;    0.569384;    0.569735;    0.569891;    0.570043;    0.570083;    0.570322;    0.570332;    0.570318;    0.570423;    0.570651;    0.570804;    0.570921;    0.571086;    0.571178;    0.571275;    0.571332;    0.571538;    0.571626;    0.571667;    0.571662;    0.571634;    0.571778;    0.571882;    0.571932;    0.572049;    0.572106;    0.572110;    0.572020;    0.572017;    0.572049;
 58;    0.086934;    0.711008;    0.691109;    0.684060;    0.676359;    0.669920;    0.659604;    0.651990;    0.639274;    0.625464;    0.609878;    0.588231;    0.581343;    0.572275;    0.567929;    0.567787;    0.566774;    0.566945;    0.567338;    0.567411;    0.567678;    0.567841;    0.568113;    0.568299;    0.568506;    0.568699;    0.568888;    0.569020;    0.569188;    0.569197;    0.569161;    0.569343;    0.569348;    0.569592;    0.569745;    0.569803;    0.569891;    0.569884;    0.569961;    0.570100;    0.570199;    0.570204;    0.570226;    0.570251;    0.570311;    0.570350;    0.570371;    0.570435;    0.570458;    0.570444;    0.570442;
 59;    0.083294;    0.708467;    0.689943;    0.682500;    0.674305;    0.668408;    0.660178;    0.646529;    0.634348;    0.622898;    0.610339;    0.586409;    0.577778;    0.569452;    0.565346;    0.564893;    0.564589;    0.564856;    0.565263;    0.565478;    0.565701;    0.565910;    0.565989;    0.566308;    0.566527;    0.566656;    0.566795;    0.566976;    0.567218;    0.567314;    0.567304;    0.567362;    0.567241;    0.567429;    0.567620;    0.567693;    0.567831;    0.567881;    0.568045;    0.568183;    0.568255;    0.568336;    0.568365;    0.568387;    0.568410;    0.568501;    0.568531;    0.568571;    0.568579;    0.568593;    0.568618;
 60;    0.089975;    0.710684;    0.691202;    0.685513;    0.678932;    0.670916;    0.663512;    0.653647;    0.638472;    0.622174;    0.606343;    0.588794;    0.580582;    0.572644;    0.568082;    0.567470;    0.567050;    0.567509;    0.567787;    0.568029;    0.568141;    0.568287;    0.568371;    0.568728;    0.568844;    0.568904;    0.569159;    0.569216;    0.569433;    0.569659;    0.569781;    0.569859;    0.569940;    0.570142;    0.570288;    0.570306;    0.570407;    0.570438;    0.570487;    0.570611;    0.570721;    0.570791;    0.570752;    0.570835;    0.570917;    0.570935;    0.570916;    0.570977;    0.570982;    0.571020;    0.571025;
 61;    0.091048;    0.708658;    0.689392;    0.682910;    0.677695;    0.670883;    0.659674;    0.651688;    0.640291;    0.626763;    0.608611;    0.588376;    0.580955;    0.572670;    0.567691;    0.567138;    0.566384;    0.566672;    0.567083;    0.567484;    0.567585;    0.567539;    0.567861;    0.568114;    0.568181;    0.568340;    0.568452;    0.568705;    0.568867;    0.568930;    0.569088;    0.569211;    0.569176;    0.569236;    0.569380;    0.569570;    0.569728;    0.569863;    0.569926;    0.569837;    0.569931;    0.569899;    0.569950;    0.569993;    0.569965;    0.569991;    0.570061;    0.570081;    0.570124;    0.570156;    0.570158;
 62;    0.087796;    0.707603;    0.687759;    0.682105;    0.674895;    0.665254;    0.655454;    0.647733;    0.634042;    0.619138;    0.604610;    0.586154;    0.580786;    0.569565;    0.564820;    0.564245;    0.563717;    0.564035;    0.564311;    0.564467;    0.564523;    0.564941;    0.565183;    0.565335;    0.565417;    0.565519;    0.565570;    0.565619;    0.565701;    0.565914;    0.566011;    0.566172;    0.566274;    0.566366;    0.566441;    0.566495;    0.566580;    0.566773;    0.566899;    0.567030;    0.567040;    0.567136;    0.567187;    0.567273;    0.567335;    0.567341;    0.567323;    0.567305;    0.567331;    0.567378;    0.567385;
 63;    0.077922;    0.709543;    0.688248;    0.681975;    0.673196;    0.666158;    0.656193;    0.649587;    0.639570;    0.628413;    0.611178;    0.588580;    0.581604;    0.570994;    0.566231;    0.565618;    0.565243;    0.565680;    0.565947;    0.565738;    0.565967;    0.566303;    0.566483;    0.566472;    0.566666;    0.566793;    0.566988;    0.567138;    0.567293;    0.567600;    0.567797;    0.567869;    0.567951;    0.568121;    0.568260;    0.568279;    0.568298;    0.568310;    0.568388;    0.568509;    0.568618;    0.568726;    0.568829;    0.568950;    0.569009;    0.569021;    0.568955;    0.568825;    0.568803;    0.568846;    0.568875;
 64;    0.082415;    0.710759;    0.691035;    0.686557;    0.677874;    0.671356;    0.663147;    0.654801;    0.642869;    0.628317;    0.609370;    0.589126;    0.580648;    0.572685;    0.567866;    0.567158;    0.566593;    0.566970;    0.567203;    0.567403;    0.567606;    0.567774;    0.567882;    0.568172;    0.568378;    0.568559;    0.568692;    0.568824;    0.569071;    0.569233;    0.569281;    0.569497;    0.569761;    0.569959;    0.570123;    0.570206;    0.570369;    0.570523;    0.570556;    0.570498;    0.570552;    0.570600;    0.570689;    0.570707;    0.570787;    0.570768;    0.570831;    0.570842;    0.570789;    0.570763;    0.570818;
 65;    0.083355;    0.704548;    0.686305;    0.679423;    0.674145;    0.666192;    0.658712;    0.644949;    0.633122;    0.620231;    0.603099;    0.586132;    0.578474;    0.569810;    0.565924;    0.565338;    0.564936;    0.565111;    0.565141;    0.565517;    0.565694;    0.565925;    0.566259;    0.566443;    0.566618;    0.566854;    0.566945;    0.567028;    0.567078;    0.567119;    0.567116;    0.567185;    0.567406;    0.567572;    0.567689;    0.567804;    0.567940;    0.568019;    0.568064;    0.568091;    0.568180;    0.568224;    0.568289;    0.568374;    0.568406;    0.568528;    0.568619;    0.568642;    0.568627;    0.568645;    0.568652;
 66;    0.079474;    0.710000;    0.691213;    0.685870;    0.679236;    0.670845;    0.661465;    0.654033;    0.640631;    0.623910;    0.609851;    0.587824;    0.581499;    0.571215;    0.566349;    0.565783;    0.565449;    0.565721;    0.565803;    0.565986;    0.566262;    0.566578;    0.566801;    0.566975;    0.567205;    0.567415;    0.567408;    0.567309;    0.567323;    0.567531;    0.567722;    0.567955;    0.568170;    0.568365;    0.568516;    0.568612;    0.568638;    0.568820;    0.568939;    0.569016;    0.569029;    0.569114;    0.569057;    0.569131;    0.569091;    0.569086;    0.569157;    0.569133;    0.569181;    0.569184;    0.569201;
 67;    0.088462;    0.708365;    0.689983;    0.682030;    0.676159;    0.668992;    0.659155;    0.644471;    0.634728;    0.621041;    0.607437;    0.587184;    0.580394;    0.572058;    0.567623;    0.566895;    0.566325;    0.566640;    0.566789;    0.567033;    0.567304;    0.567316;    0.567327;    0.567346;    0.567675;    0.567878;    0.568032;    0.568233;    0.568366;    0.568439;    0.568618;    0.568761;    0.568905;    0.569011;    0.568982;    0.569115;    0.569201;    0.569351;    0.569353;    0.569313;    0.569511;    0.569649;    0.569710;    0.569715;    0.569682;    0.569775;    0.569755;    0.569728;    0.569753;    0.569817;    0.569834;
 68;    0.084897;    0.709978;    0.690533;    0.684367;    0.675250;    0.668399;    0.659710;    0.652876;    0.637409;    0.626259;    0.607806;    0.588164;    0.580188;    0.571472;    0.566973;    0.566647;    0.566006;    0.566405;    0.566378;    0.566654;    0.566934;    0.566927;    0.567199;    0.567202;    0.567430;    0.567792;    0.567976;    0.568083;    0.568313;    0.568428;    0.568432;    0.568391;    0.568617;    0.568808;    0.569002;    0.569158;    0.569298;    0.569411;    0.569498;    0.569548;    0.569546;    0.569656;    0.569816;    0.569922;    0.570019;    0.569988;    0.570032;    0.570056;    0.570000;    0.570034;    0.570037;
 69;    0.088972;    0.708266;    0.690798;    0.684253;    0.678726;    0.671936;    0.666302;    0.657446;    0.645523;    0.629189;    0.610101;    0.590918;    0.584684;    0.574182;    0.569244;    0.568719;    0.568113;    0.568236;    0.568692;    0.568869;    0.569153;    0.569312;    0.569591;    0.569762;    0.569806;    0.570044;    0.570277;    0.570456;    0.570586;    0.570774;    0.570929;    0.570960;    0.570988;    0.571165;    0.571205;    0.571329;    0.571260;    0.571417;    0.571523;    0.571606;    0.571653;    0.571717;    0.571742;    0.571775;    0.571887;    0.571883;    0.571931;    0.571987;    0.572052;    0.572076;    0.572078;
 70;    0.084930;    0.712879;    0.693567;    0.686252;    0.681184;    0.672026;    0.661292;    0.649523;    0.639437;    0.622186;    0.605744;    0.587960;    0.580661;    0.573199;    0.569072;    0.568505;    0.567898;    0.568183;    0.568488;    0.568643;    0.568967;    0.569160;    0.569251;    0.569623;    0.569733;    0.569745;    0.569902;    0.570155;    0.570285;    0.570445;    0.570499;    0.570492;    0.570504;    0.570708;    0.570883;    0.570961;    0.571012;    0.571067;    0.571063;    0.571010;    0.571122;    0.571096;    0.571225;    0.571325;    0.571415;    0.571491;    0.571541;    0.571596;    0.571644;    0.571681;    0.571676;
 71;    0.085511;    0.710355;    0.690378;    0.683612;    0.675992;    0.669430;    0.660380;    0.650117;    0.640743;    0.623385;    0.604425;    0.587142;    0.579242;    0.571011;    0.567075;    0.566348;    0.565931;    0.566248;    0.566450;    0.566606;    0.566917;    0.567131;    0.567274;    0.567607;    0.567839;    0.568114;    0.568343;    0.568456;    0.568479;    0.568716;    0.568968;    0.569095;    0.569129;    0.569152;    0.569098;    0.568982;    0.569003;    0.569121;    0.569206;    0.569310;    0.569406;    0.569437;    0.569521;    0.569614;    0.569685;    0.569744;    0.569798;    0.569847;    0.569829;    0.569851;    0.569870;
 72;    0.082739;    0.711462;    0.691114;    0.686470;    0.680292;    0.671671;    0.663068;    0.652007;    0.641300;    0.623736;    0.611075;    0.587227;    0.579825;    0.572031;    0.567825;    0.567196;    0.566737;    0.566938;    0.567086;    0.567391;    0.567743;    0.567946;    0.568086;    0.568195;    0.568426;    0.568609;    0.568724;    0.569018;    0.569164;    0.569274;    0.569560;    0.569731;    0.569712;    0.569739;    0.569799;    0.569781;    0.569916;    0.570049;    0.570135;    0.570265;    0.570308;    0.570331;    0.570334;    0.570319;    0.570380;    0.570424;    0.570465;    0.570492;    0.570471;    0.570499;    0.570505;
 73;    0.082671;    0.717226;    0.696882;    0.692006;    0.683149;    0.676247;    0.670600;    0.660367;    0.644674;    0.631537;    0.611433;    0.593884;    0.586885;    0.576826;    0.572089;    0.572006;    0.571430;    0.571536;    0.571740;    0.572227;    0.572467;    0.572541;    0.572719;    0.572752;    0.572868;    0.573019;    0.573072;    0.573371;    0.573562;    0.573668;    0.573887;    0.574170;    0.574317;    0.574485;    0.574586;    0.574626;    0.574609;    0.574612;    0.574710;    0.574752;    0.574877;    0.575008;    0.575110;    0.575143;    0.575114;    0.575134;    0.575136;    0.575180;    0.575241;    0.575263;    0.575244;
 74;    0.082342;    0.711554;    0.690076;    0.683022;    0.678508;    0.670577;    0.660038;    0.649993;    0.638869;    0.623722;    0.607243;    0.589248;    0.581334;    0.573751;    0.569390;    0.568818;    0.568333;    0.568632;    0.568944;    0.569251;    0.569649;    0.569821;    0.569874;    0.570107;    0.570237;    0.570425;    0.570478;    0.570696;    0.570860;    0.570959;    0.571081;    0.571198;    0.571361;    0.571612;    0.571814;    0.571972;    0.572116;    0.572157;    0.572265;    0.572345;    0.572420;    0.572415;    0.572506;    0.572558;    0.572548;    0.572601;    0.572582;    0.572651;    0.572680;    0.572691;    0.572694;
 75;    0.090171;    0.707167;    0.687263;    0.680380;    0.674155;    0.667657;    0.660230;    0.647855;    0.633713;    0.619569;    0.603395;    0.583755;    0.577565;    0.568292;    0.564540;    0.564285;    0.563912;    0.564055;    0.564301;    0.564635;    0.564876;    0.565045;    0.565388;    0.565572;    0.565839;    0.566028;    0.566077;    0.566284;    0.566454;    0.566526;    0.566525;    0.566407;    0.566544;    0.566744;    0.566911;    0.567034;    0.567152;    0.567174;    0.567037;    0.567053;    0.567197;    0.567228;    0.567359;    0.567471;    0.567537;    0.567561;    0.567593;    0.567592;    0.567637;    0.567638;    0.567669;
 76;    0.085054;    0.712040;    0.691007;    0.686192;    0.677070;    0.670549;    0.658593;    0.650889;    0.636794;    0.626665;    0.609439;    0.588310;    0.580596;    0.573312;    0.569650;    0.569064;    0.568643;    0.568878;    0.569125;    0.569338;    0.569406;    0.569711;    0.569798;    0.570010;    0.570154;    0.570327;    0.570506;    0.570658;    0.570827;    0.571118;    0.571301;    0.571415;    0.571513;    0.571544;    0.571674;    0.571848;    0.571991;    0.572107;    0.572241;    0.572341;    0.572289;    0.572357;    0.572360;    0.572270;    0.572319;    0.572376;    0.572414;    0.572500;    0.572534;    0.572544;    0.572535;
 77;    0.081477;    0.702832;    0.683453;    0.676135;    0.670368;    0.662980;    0.654956;    0.643781;    0.630660;    0.619342;    0.600918;    0.582590;    0.575747;    0.565907;    0.561762;    0.561003;    0.560733;    0.560992;    0.561311;    0.561488;    0.561847;    0.561967;    0.562224;    0.562440;    0.562710;    0.562869;    0.563023;    0.563188;    0.563191;    0.563388;    0.563585;    0.563701;    0.563854;    0.564053;    0.564133;    0.564164;    0.564336;    0.564393;    0.564427;    0.564416;    0.564463;    0.564545;    0.564564;    0.564570;    0.564641;    0.564714;    0.564765;    0.564782;    0.564809;    0.564847;    0.564853;
 78;    0.083351;    0.707018;    0.688991;    0.681764;    0.675354;    0.667148;    0.658471;    0.646159;    0.632926;    0.618825;    0.606674;    0.587210;    0.579758;    0.570016;    0.565729;    0.565083;    0.564360;    0.564595;    0.564979;    0.565106;    0.565515;    0.565576;    0.565798;    0.565927;    0.565914;    0.566265;    0.566524;    0.566723;    0.566836;    0.566974;    0.567154;    0.567191;    0.567312;    0.567310;    0.567397;    0.567461;    0.567648;    0.567787;    0.567866;    0.567911;    0.567798;    0.567916;    0.567976;    0.567976;    0.568058;    0.568099;    0.568176;    0.568178;    0.568188;    0.568225;    0.568253;
 79;    0.089581;    0.710260;    0.690762;    0.682572;    0.675781;    0.669778;    0.657416;    0.646748;    0.638550;    0.624800;    0.602688;    0.584524;    0.577782;    0.568851;    0.565057;    0.564516;    0.563933;    0.564369;    0.564549;    0.564519;    0.564793;    0.565024;    0.565156;    0.565334;    0.565556;    0.565648;    0.565860;    0.566108;    0.566257;    0.566386;    0.566459;    0.566533;    0.566704;    0.566950;    0.567080;    0.567085;    0.567103;    0.567050;    0.567138;    0.567335;    0.567452;    0.567459;    0.567419;    0.567405;    0.567336;    0.567319;    0.567397;    0.567388;    0.567431;    0.567456;    0.567476;
 80;    0.085424;    0.705601;    0.685003;    0.680898;    0.673924;    0.665296;    0.655119;    0.643011;    0.633694;    0.618507;    0.601075;    0.581394;    0.574558;    0.565995;    0.562291;    0.561692;    0.561580;    0.561656;    0.561802;    0.562281;    0.562657;    0.562784;    0.562828;    0.562953;    0.563083;    0.563342;    0.563485;    0.563662;    0.563858;    0.563962;    0.563975;    0.564061;    0.564112;    0.564288;    0.564415;    0.564448;    0.564581;    0.564634;    0.564831;    0.564931;    0.565030;    0.565039;    0.564991;    0.565107;    0.565128;    0.565188;    0.565164;    0.565248;    0.565278;    0.565293;    0.565294;
 81;    0.087924;    0.706892;    0.687507;    0.681545;    0.673269;    0.665869;    0.657795;    0.650515;    0.640141;    0.625728;    0.605370;    0.585519;    0.577827;    0.569836;    0.565867;    0.565580;    0.564958;    0.565293;    0.565166;    0.565369;    0.565633;    0.565938;    0.566227;    0.566347;    0.566434;    0.566734;    0.566826;    0.566888;    0.566912;    0.566952;    0.567141;    0.567333;    0.567445;    0.567550;    0.567590;    0.567790;    0.567895;    0.567931;    0.567995;    0.568014;    0.568136;    0.568210;    0.568263;    0.568338;    0.568445;    0.568504;    0.568508;    0.568418;    0.568416;    0.568447;    0.568391;
 82;    0.087014;    0.705526;    0.685742;    0.681232;    0.674282;    0.667700;    0.660103;    0.651575;    0.638684;    0.622081;    0.604092;    0.583862;    0.577276;    0.567882;    0.563984;    0.563648;    0.562982;    0.563429;    0.563794;    0.564022;    0.564001;    0.564151;    0.564195;    0.564347;    0.564336;    0.564436;    0.564699;    0.564874;    0.565146;    0.565315;    0.565544;    0.565581;    0.565520;    0.565417;    0.565598;    0.565737;    0.565849;    0.565906;    0.565942;    0.566115;    0.566219;    0.566368;    0.566385;    0.566346;    0.566354;    0.566424;    0.566454;    0.566401;    0.566427;    0.566466;    0.566470;
 83;    0.090042;    0.704139;    0.686106;    0.679092;    0.672023;    0.666367;    0.659492;    0.650113;    0.640007;    0.624269;    0.607328;    0.586193;    0.578567;    0.570508;    0.565959;    0.565297;    0.564796;    0.564927;    0.565146;    0.565235;    0.565587;    0.565876;    0.565991;    0.566169;    0.566342;    0.566341;    0.566652;    0.566853;    0.566865;    0.567034;    0.567131;    0.567190;    0.567340;    0.567571;    0.567691;    0.567768;    0.567779;    0.567883;    0.567982;    0.568078;    0.568174;    0.568287;    0.568351;    0.568366;    0.568317;    0.568384;    0.568454;    0.568472;    0.568522;    0.568542;    0.568522;
 84;    0.084261;    0.708637;    0.691812;    0.685839;    0.678639;    0.670018;    0.660249;    0.652208;    0.640968;    0.622601;    0.607934;    0.587826;    0.580204;    0.572194;    0.567765;    0.567109;    0.566545;    0.566762;    0.567070;    0.567482;    0.567611;    0.567691;    0.567976;    0.568061;    0.568261;    0.568398;    0.568494;    0.568396;    0.568498;    0.568773;    0.568970;    0.569093;    0.569195;    0.569237;    0.569248;    0.569366;    0.569350;    0.569577;    0.569715;    0.569812;    0.569783;    0.569870;    0.569889;    0.569938;    0.569992;    0.570046;    0.570088;    0.570128;    0.570123;    0.570147;    0.570160;
 85;    0.080573;    0.710693;    0.692684;    0.687451;    0.680327;    0.672137;    0.663404;    0.653147;    0.643385;    0.628077;    0.612210;    0.588523;    0.580408;    0.571767;    0.567211;    0.567145;    0.566119;    0.566420;    0.566561;    0.566704;    0.567042;    0.567422;    0.567596;    0.567827;    0.567819;    0.567895;    0.568056;    0.568150;    0.568401;    0.568530;    0.568612;    0.568690;    0.568772;    0.568896;    0.568931;    0.568970;    0.569062;    0.569148;    0.569261;    0.569377;    0.569456;    0.569510;    0.569531;    0.569477;    0.569591;    0.569643;    0.569651;    0.569732;    0.569758;    0.569794;    0.569795;
 86;    0.088180;    0.710565;    0.688922;    0.682114;    0.675434;    0.666779;    0.658064;    0.648801;    0.636530;    0.624765;    0.608987;    0.587103;    0.581808;    0.571708;    0.566581;    0.566231;    0.565910;    0.566010;    0.566174;    0.566565;    0.566685;    0.567008;    0.567207;    0.567210;    0.567479;    0.567696;    0.567887;    0.568004;    0.568049;    0.568125;    0.568280;    0.568449;    0.568555;    0.568704;    0.568763;    0.568890;    0.569060;    0.569227;    0.569326;    0.569309;    0.569350;    0.569387;    0.569492;    0.569476;    0.569548;    0.569628;    0.569644;    0.569659;    0.569715;    0.569750;    0.569751;
 87;    0.085649;    0.709508;    0.689075;    0.683727;    0.674486;    0.666847;    0.657233;    0.649786;    0.634344;    0.621565;    0.608689;    0.587880;    0.580221;    0.570704;    0.565695;    0.565184;    0.564789;    0.564985;    0.565084;    0.565454;    0.565691;    0.565730;    0.565639;    0.566014;    0.566191;    0.566405;    0.566509;    0.566659;    0.566843;    0.567043;    0.567193;    0.567251;    0.567274;    0.567442;    0.567682;    0.567860;    0.567929;    0.567829;    0.567657;    0.567689;    0.567747;    0.567879;    0.567921;    0.567998;    0.568045;    0.568131;    0.568119;    0.568091;    0.568093;    0.568097;    0.568069;
 88;    0.086887;    0.712070;    0.690991;    0.684787;    0.679763;    0.670795;    0.665398;    0.657345;    0.645313;    0.629902;    0.606862;    0.587245;    0.579984;    0.569824;    0.566472;    0.566012;    0.565694;    0.565833;    0.566056;    0.566404;    0.566651;    0.566820;    0.567110;    0.567332;    0.567363;    0.567485;    0.567739;    0.567939;    0.567988;    0.568261;    0.568431;    0.568385;    0.568321;    0.568466;    0.568648;    0.568702;    0.568807;    0.568877;    0.568982;    0.569077;    0.569133;    0.569036;    0.569038;    0.569087;    0.569196;    0.569142;    0.569176;    0.569143;    0.569142;    0.569186;    0.569135;
 89;    0.092192;    0.711754;    0.692188;    0.687402;    0.678892;    0.672827;    0.662476;    0.649673;    0.638846;    0.619464;    0.606350;    0.587024;    0.579915;    0.571828;    0.567760;    0.567704;    0.566874;    0.567079;    0.567187;    0.567502;    0.567733;    0.567977;    0.568093;    0.568413;    0.568511;    0.568718;    0.568951;    0.569109;    0.569082;    0.569410;    0.569556;    0.569526;    0.569462;    0.569470;    0.569593;    0.569737;    0.569866;    0.569995;    0.570107;    0.570242;    0.570344;    0.570444;    0.570539;    0.570499;    0.570423;    0.570447;    0.570375;    0.570411;    0.570482;    0.570506;    0.570528;
 90;    0.086481;    0.709122;    0.690468;    0.683815;    0.676420;    0.671213;    0.661447;    0.654975;    0.640176;    0.626676;    0.610445;    0.588606;    0.581052;    0.571292;    0.566850;    0.566449;    0.565938;    0.566307;    0.566319;    0.566622;    0.566732;    0.566959;    0.566961;    0.567371;    0.567693;    0.567831;    0.567895;    0.568140;    0.568232;    0.568276;    0.568463;    0.568589;    0.568755;    0.568881;    0.568935;    0.569100;    0.569196;    0.569319;    0.569421;    0.569453;    0.569446;    0.569489;    0.569544;    0.569586;    0.569545;    0.569585;    0.569623;    0.569651;    0.569689;    0.569707;    0.569744;
 91;    0.083261;    0.711445;    0.691072;    0.686900;    0.678650;    0.668578;    0.661380;    0.649818;    0.638691;    0.622944;    0.607869;    0.586802;    0.581121;    0.571279;    0.567612;    0.567423;    0.566970;    0.567369;    0.567532;    0.567695;    0.567872;    0.568067;    0.568107;    0.568156;    0.568458;    0.568666;    0.568755;    0.569012;    0.569176;    0.569265;    0.569369;    0.569523;    0.569635;    0.569707;    0.569842;    0.569944;    0.570057;    0.570255;    0.570369;    0.570376;    0.570294;    0.570387;    0.570511;    0.570662;    0.570721;    0.570766;    0.570827;    0.570900;    0.570943;    0.570943;    0.570936;
 92;    0.083024;    0.707483;    0.687924;    0.680844;    0.675328;    0.667677;    0.656578;    0.646648;    0.634657;    0.623332;    0.605719;    0.585678;    0.578800;    0.569305;    0.565433;    0.564709;    0.564136;    0.564701;    0.565093;    0.565350;    0.565562;    0.565578;    0.565402;    0.565730;    0.565855;    0.566000;    0.566074;    0.566340;    0.566590;    0.566738;    0.566814;    0.566853;    0.567013;    0.567265;    0.567352;    0.567453;    0.567408;    0.567550;    0.567623;    0.567733;    0.567784;    0.567765;    0.567873;    0.567965;    0.567990;    0.567968;    0.568054;    0.568105;    0.568135;    0.568079;    0.568103;
 93;    0.081611;    0.710913;    0.691868;    0.686674;    0.679529;    0.672809;    0.666031;    0.654365;    0.642114;    0.627127;    0.609758;    0.588933;    0.581598;    0.573163;    0.568271;    0.567792;    0.567485;    0.567562;    0.567894;    0.568049;    0.568507;    0.568693;    0.568742;    0.569017;    0.569220;    0.569381;    0.569522;    0.569710;    0.569802;    0.570049;    0.570182;    0.570206;    0.570298;    0.570367;    0.570378;    0.570598;    0.570605;    0.570639;    0.570668;    0.570748;    0.570838;    0.570868;    0.570994;    0.571002;    0.571058;    0.571055;    0.571116;    0.571156;    0.571185;    0.571208;    0.571254;
 94;    0.085696;    0.710538;    0.691001;    0.685679;    0.675919;    0.667869;    0.659631;    0.646969;    0.634025;    0.625347;    0.605988;    0.586578;    0.578346;    0.571207;    0.567163;    0.566739;    0.566464;    0.566553;    0.566925;    0.567050;    0.567191;    0.567418;    0.567558;    0.567845;    0.568113;    0.568355;    0.568508;    0.568576;    0.568716;    0.568782;    0.568900;    0.568936;    0.568914;    0.569077;    0.569223;    0.569179;    0.569421;    0.569508;    0.569536;    0.569543;    0.569670;    0.569740;    0.569798;    0.569833;    0.569775;    0.569830;    0.569842;    0.569846;    0.569864;    0.569901;    0.569893;
 95;    0.084366;    0.712353;    0.692020;    0.685680;    0.679876;    0.671697;    0.664957;    0.653682;    0.641222;    0.629449;    0.608468;    0.588705;    0.581479;    0.572898;    0.568213;    0.568080;    0.567288;    0.567696;    0.567770;    0.567911;    0.568094;    0.568302;    0.568661;    0.568967;    0.569044;    0.569012;    0.569363;    0.569544;    0.569605;    0.569742;    0.569938;    0.570070;    0.570188;    0.570407;    0.570459;    0.570554;    0.570695;    0.570830;    0.570931;    0.570872;    0.570757;    0.570871;    0.570946;    0.571046;    0.571154;    0.571220;    0.571220;    0.571253;    0.571274;    0.571267;    0.571300;
 96;    0.082680;    0.709006;    0.687570;    0.681484;    0.676901;    0.668578;    0.661736;    0.650149;    0.636504;    0.625041;    0.604960;    0.585475;    0.578900;    0.569921;    0.565163;    0.564866;    0.564628;    0.564998;    0.565191;    0.565281;    0.565723;    0.566047;    0.566256;    0.566387;    0.566560;    0.566825;    0.567009;    0.567213;    0.567194;    0.567354;    0.567481;    0.567481;    0.567667;    0.567783;    0.567826;    0.567796;    0.567977;    0.568091;    0.568105;    0.568184;    0.568281;    0.568325;    0.568215;    0.568192;    0.568282;    0.568416;    0.568511;    0.568557;    0.568588;    0.568571;    0.568578;
 97;    0.083355;    0.713086;    0.694857;    0.686592;    0.679720;    0.669617;    0.662412;    0.653385;    0.638236;    0.624761;    0.608344;    0.587151;    0.581368;    0.571095;    0.565958;    0.565238;    0.564741;    0.565049;    0.565435;    0.565674;    0.565829;    0.566006;    0.566201;    0.566299;    0.566424;    0.566776;    0.567056;    0.567203;    0.567303;    0.567347;    0.567434;    0.567490;    0.567639;    0.567674;    0.567813;    0.567971;    0.568119;    0.568244;    0.568386;    0.568427;    0.568478;    0.568579;    0.568617;    0.568703;    0.568703;    0.568737;    0.568692;    0.568724;    0.568779;    0.568805;    0.568783;
 98;    0.084883;    0.710190;    0.691085;    0.684505;    0.678855;    0.670820;    0.659843;    0.652360;    0.640624;    0.627330;    0.608800;    0.587425;    0.580867;    0.572972;    0.568588;    0.568573;    0.567603;    0.567786;    0.568183;    0.568319;    0.568714;    0.568846;    0.569139;    0.569367;    0.569528;    0.569589;    0.569873;    0.570034;    0.570032;    0.569998;    0.570086;    0.570179;    0.570347;    0.570458;    0.570661;    0.570810;    0.570939;    0.571069;    0.571082;    0.571059;    0.571197;    0.571280;    0.571321;    0.571410;    0.571515;    0.571595;    0.571621;    0.571655;    0.571673;    0.571730;    0.571698;
 99;    0.089327;    0.708326;    0.687010;    0.683334;    0.676404;    0.670351;    0.658630;    0.649927;    0.638048;    0.624430;    0.607728;    0.588347;    0.581093;    0.572612;    0.568124;    0.567908;    0.567203;    0.567561;    0.567640;    0.567941;    0.568149;    0.568441;    0.568737;    0.568888;    0.569011;    0.568993;    0.569230;    0.569443;    0.569661;    0.569841;    0.569974;    0.570201;    0.570376;    0.570546;    0.570662;    0.570843;    0.570843;    0.570885;    0.571009;    0.571076;    0.571105;    0.571131;    0.571261;    0.571341;    0.571306;    0.571325;    0.571273;    0.571303;    0.571247;    0.571278;    0.571301;
100;    0.084549;    0.707996;    0.687573;    0.682737;    0.677200;    0.668354;    0.661404;    0.649232;    0.633162;    0.621401;    0.606131;    0.586749;    0.579363;    0.569603;    0.565159;    0.564628;    0.564488;    0.564665;    0.565007;    0.565114;    0.565398;    0.565541;    0.565593;    0.565823;    0.565913;    0.566036;    0.566188;    0.566364;    0.566683;    0.566906;    0.567104;    0.567153;    0.567167;    0.567149;    0.567229;    0.567232;    0.567297;    0.567487;    0.567604;    0.567713;    0.567812;    0.567759;    0.567717;    0.567787;    0.567859;    0.567873;    0.567953;    0.567990;    0.568035;    0.568061;    0.568058;
