Simulation;Time;PC 0;PC 1;PC 2;PC 3;PC 4;PC 5;PC 6;PC 7;PC 8;PC 9;PC10;PC11;PC12;PC13;PC14;PC15;PC16;PC17;PC18;PC19;PC20;PC21;PC22;PC23;PC24;PC25;PC26;PC27;PC28;PC29;PC30;PC31;PC32;PC33;PC34;PC35;PC36;PC37;PC38;PC39;PC40;PC41;PC42;PC43;PC44;PC45;PC46;PC47;PC48;PC49;
Nan;Nan;0;0;0;0;0;0;0;0;0;0;0;0;0;0;0;1;0;0;0;0;0;0;0;0;0;0;0;0;0;0;0;0;0;0;0;0;0;0;0;0;0;0;0;0;0;0;0;0;0;0;
  0;    0.008486;    1.000000;    0.879308;    0.822358;    0.767177;    0.708990;    0.646005;    0.580502;    0.513509;    0.441017;    0.366962;    0.294268;    0.293913;    0.280892;    0.609779;    0.727315;    1.145390;    1.164466;    1.181091;    1.193155;    1.253822;    1.264783;    1.333478;    1.418787;    1.451231;    1.513835;    1.592524;    1.618020;    1.716001;    1.779106;    1.851455;    1.892779;    1.962409;    2.088754;    2.205498;    2.428574;    2.650337;    3.157407;    3.381095;    3.617219;    4.088585;    4.176421;    4.907463;    5.151909;    6.319707;    8.147135;   10.629787;   32.045978;   42.568684;  555.427208;57503.405868;
  1;    0.011230;    1.000000;    0.878506;    0.820501;    0.764050;    0.704257;    0.643463;    0.578950;    0.512055;    0.440861;    0.368776;    0.292132;    0.289014;    0.274024;    0.641725;    0.861245;    1.345030;    1.366807;    1.391498;    1.412287;    1.422749;    1.436926;    1.482688;    1.546841;    1.600471;    1.639081;    1.772908;    1.904237;    1.971395;    2.008738;    2.061873;    2.095274;    2.223699;    2.299395;    2.476606;    2.658618;    2.985339;    3.175615;    3.781887;    3.956882;    4.518667;    4.921843;    5.463404;    6.175240;    6.527656;   10.991143;   12.064997;   14.371459;   19.952984;   98.561905;  857.189737;
  2;    0.007733;    1.000000;    0.884269;    0.829187;    0.774221;    0.714877;    0.650599;    0.585938;    0.516016;    0.445356;    0.369695;    0.288841;    0.285045;    0.273081;    0.822566;    0.887981;    1.416540;    1.438624;    1.488426;    1.508868;    1.526738;    1.564925;    1.739697;    1.756330;    1.846872;    1.892778;    1.997610;    2.126220;    2.169037;    2.196951;    2.301725;    2.511494;    2.621087;    2.945858;    3.033897;    3.124375;    3.163256;    3.285853;    3.430519;    3.714136;    4.422468;    4.790633;    5.251186;    5.424322;    8.097801;    9.448722;   10.170390;   13.765757;   17.578990;   34.279843;  864.818501;
  3;    0.007564;    1.000000;    0.887703;    0.833476;    0.777461;    0.717339;    0.656496;    0.592196;    0.522433;    0.449656;    0.371156;    0.290516;    0.292989;    0.273898;    0.722375;    0.772114;    1.233021;    1.288131;    1.306218;    1.366397;    1.384430;    1.418519;    1.432225;    1.447502;    1.469999;    1.514989;    1.532523;    1.584028;    1.619742;    1.641601;    1.694687;    1.718385;    1.742319;    1.798581;    1.837883;    1.919359;    1.990129;    2.205959;    2.321541;    2.410197;    2.704305;    2.876856;    3.306815;    3.745756;    4.489742;    4.825511;    5.212512;    8.213476;   12.738326;   19.366061;24430.395632;
  4;    0.008548;    1.000000;    0.883264;    0.828201;    0.770714;    0.707321;    0.644402;    0.581127;    0.513529;    0.440883;    0.366009;    0.288693;    0.289212;    0.273473;    0.697666;    0.752766;    1.181358;    1.211822;    1.222256;    1.260966;    1.274901;    1.331386;    1.343840;    1.417336;    1.472032;    1.504973;    1.549405;    1.582683;    1.715920;    1.751783;    1.784619;    1.810991;    1.840982;    1.982608;    2.206924;    2.269551;    2.541314;    2.921585;    3.240522;    3.400754;    3.624986;    4.119990;    6.099527;    7.238538;    8.550938;    9.362064;   10.135592;   11.532305;   20.551653;   26.779197;  560.776563;
  5;    0.007658;    1.000000;    0.879595;    0.824983;    0.768955;    0.710155;    0.648050;    0.584280;    0.517023;    0.444993;    0.370424;    0.291767;    0.281794;    0.273549;    0.644751;    0.782238;    1.183989;    1.205608;    1.233541;    1.264627;    1.301534;    1.312852;    1.335983;    1.405776;    1.420568;    1.454983;    1.494955;    1.510822;    1.528024;    1.620445;    1.706036;    1.734827;    1.822703;    2.287368;    2.417688;    2.482358;    2.542727;    2.865018;    3.039007;    3.201423;    3.270335;    3.654336;    4.551750;    5.235829;    5.756063;    6.589177;    7.483799;   12.584259;   19.524769;   34.288676;17514.088644;
  6;    0.007852;    1.000000;    0.880858;    0.825691;    0.767881;    0.709275;    0.647692;    0.583661;    0.515231;    0.442439;    0.367611;    0.290641;    0.291603;    0.275648;    0.600679;    0.850318;    1.215838;    1.231500;    1.237945;    1.247404;    1.285435;    1.332105;    1.368410;    1.404385;    1.452074;    1.459988;    1.541927;    1.566792;    1.652473;    1.745873;    1.996653;    2.042207;    2.143632;    2.184324;    2.331936;    2.363998;    2.512578;    2.705780;    2.778341;    2.911446;    3.208297;    3.540241;    4.049421;    4.763896;    5.232925;    6.648755;    7.448778;    9.297886;   10.613542;   19.933594;  694.257877;
  7;    0.007735;    1.000000;    0.880330;    0.823306;    0.765802;    0.706953;    0.645351;    0.579879;    0.510826;    0.438267;    0.364373;    0.288675;    0.284572;    0.270069;    0.791396;    0.976786;    1.225771;    1.271614;    1.297042;    1.325278;    1.372660;    1.410282;    1.531229;    1.544736;    1.608923;    1.622290;    1.685785;    1.775209;    1.802471;    1.823547;    1.891188;    1.914883;    2.005617;    2.047506;    2.146316;    2.570181;    2.679975;    2.797326;    2.843479;    3.483308;    3.542244;    3.767283;    3.913767;    4.060534;    5.659958;    6.047735;    7.092065;    8.791779;   10.726819;   24.294514;  398.953137;
  8;    0.007644;    1.000000;    0.882013;    0.828013;    0.772641;    0.713048;    0.651762;    0.585164;    0.516976;    0.446163;    0.370067;    0.292453;    0.290227;    0.279356;    0.733592;    0.851220;    1.316869;    1.373574;    1.387209;    1.406143;    1.443686;    1.451811;    1.495728;    1.564447;    1.616113;    1.718755;    1.771987;    1.810485;    1.924141;    1.967546;    2.024260;    2.111984;    2.164380;    2.474831;    2.684231;    2.800554;    2.851106;    2.917674;    3.209949;    3.373129;    3.458681;    3.953149;    4.549857;    5.054734;    5.902829;    7.235489;   10.042566;   11.676082;   19.832460;   28.694004;  324.871010;
  9;    0.007561;    1.000000;    0.884917;    0.829411;    0.771328;    0.711478;    0.650883;    0.584178;    0.516523;    0.445058;    0.368064;    0.287719;    0.279727;    0.272899;    0.555566;    0.881504;    1.227135;    1.249620;    1.262970;    1.297105;    1.323268;    1.345670;    1.384335;    1.450274;    1.526947;    1.613792;    1.631350;    1.655233;    1.770921;    1.917264;    1.950336;    1.986454;    2.043655;    2.150259;    2.225450;    2.414243;    2.606734;    3.182710;    3.525894;    3.843305;    4.103069;    4.593918;    5.548518;    7.433274;    7.771772;    8.973324;   10.792407;   21.291169;   24.913617;   42.392779; 3169.895295;
 10;    0.007598;    1.000000;    0.882548;    0.828629;    0.773065;    0.716413;    0.654908;    0.589100;    0.518594;    0.445471;    0.368098;    0.288009;    0.279747;    0.271946;    0.835333;    0.942006;    1.397124;    1.421904;    1.446491;    1.454584;    1.484687;    1.558588;    1.579253;    1.649094;    1.701784;    1.738894;    1.930539;    1.946378;    2.066156;    2.132050;    2.164081;    2.190469;    2.269019;    2.453901;    2.587092;    2.775123;    2.914767;    2.953313;    3.157325;    3.292763;    3.503636;    3.774194;    3.998930;    4.603895;    6.277130;    9.068069;    9.856095;   16.712070;   58.067020;   72.758150;22057.955979;
 11;    0.007599;    1.000000;    0.885386;    0.832328;    0.776751;    0.717821;    0.656234;    0.589928;    0.519714;    0.447453;    0.369017;    0.292877;    0.295400;    0.274837;    0.855706;    0.913832;    1.486139;    1.514286;    1.529864;    1.549786;    1.602781;    1.663603;    1.712508;    1.732158;    1.751495;    1.788268;    1.880599;    2.060214;    2.201168;    2.284968;    2.484438;    2.534536;    2.650028;    2.681391;    2.783453;    3.259351;    3.363066;    3.447478;    3.524981;    3.881120;    4.149068;    4.257501;    4.427305;    4.695401;    5.034030;    5.454523;    6.796304;    8.996243;   18.767565;   31.481292;18248.959836;
 12;    0.007476;    1.000000;    0.889152;    0.835671;    0.777456;    0.716306;    0.652572;    0.586252;    0.514591;    0.441197;    0.368528;    0.292108;    0.290685;    0.270121;    0.681824;    0.808080;    1.089973;    1.136154;    1.197202;    1.213530;    1.234013;    1.248177;    1.261394;    1.291129;    1.338991;    1.355209;    1.384286;    1.429431;    1.486472;    1.515166;    1.600867;    1.653226;    1.796623;    1.853906;    1.938431;    1.966294;    2.152925;    2.216122;    2.288626;    2.391145;    2.825515;    3.825727;    4.307727;    5.819017;    6.386185;    6.775098;    8.760199;   20.355121;   22.467579;   67.186935;  447.194652;
 13;    0.009291;    1.000000;    0.874689;    0.820738;    0.765564;    0.703941;    0.642526;    0.578578;    0.510120;    0.440454;    0.365399;    0.291899;    0.287741;    0.272536;    0.687614;    0.740332;    1.314129;    1.328263;    1.372832;    1.412838;    1.436167;    1.523138;    1.545428;    1.562204;    1.607169;    1.621559;    1.638216;    1.746941;    1.853622;    2.038457;    2.109579;    2.137337;    2.195077;    2.344090;    2.450559;    2.795702;    2.846277;    3.021141;    3.380975;    3.498856;    3.771576;    4.756138;    5.385433;    6.835813;    7.959617;    8.364984;   10.644633;   11.912641;   14.833969;   81.601504;  271.707284;
 14;    0.007753;    1.000000;    0.884306;    0.831021;    0.773605;    0.716649;    0.655484;    0.588976;    0.517459;    0.445837;    0.371468;    0.296430;    0.288555;    0.281524;    0.619526;    0.887464;    1.095196;    1.125466;    1.145699;    1.160898;    1.307674;    1.318469;    1.352087;    1.368846;    1.455326;    1.517775;    1.575330;    1.667485;    1.703186;    1.823712;    1.918952;    1.960129;    1.992803;    2.092084;    2.134632;    2.205498;    2.301583;    2.400116;    2.548998;    2.929962;    3.205148;    4.468651;    4.696784;    5.204111;    6.684695;    7.194415;    7.978709;    9.523185;   12.272014;   24.175710;  718.229740;
 15;    0.007797;    1.000000;    0.867277;    0.811383;    0.753103;    0.696276;    0.636344;    0.572950;    0.506953;    0.436537;    0.364977;    0.290732;    0.281106;    0.274431;    0.753619;    0.808890;    1.302871;    1.317950;    1.339614;    1.368877;    1.386123;    1.439777;    1.465138;    1.521737;    1.540648;    1.568705;    1.671590;    1.711430;    1.746493;    1.801914;    1.831279;    1.897326;    1.987902;    2.241765;    2.291333;    2.552062;    2.774660;    3.162914;    3.237921;    3.602448;    4.779858;    5.305239;    5.867887;    8.178459;    9.024352;   12.333819;   14.521904;   19.843625;   27.796622;   37.884998;  348.014644;
 16;    0.007779;    1.000000;    0.887401;    0.828451;    0.770440;    0.710048;    0.644179;    0.582191;    0.513491;    0.442004;    0.368519;    0.289953;    0.283136;    0.275209;    0.787893;    1.105384;    1.330679;    1.349621;    1.365646;    1.413920;    1.444898;    1.471259;    1.520021;    1.573596;    1.717923;    1.742111;    1.865168;    1.971122;    1.993403;    2.037510;    2.089145;    2.158127;    2.324469;    2.412889;    2.612922;    2.795683;    3.067162;    3.217671;    3.275018;    3.532331;    3.654959;    3.884018;    4.262354;    4.713736;    4.956438;    5.287662;    5.543647;    6.326938;   10.475545;   18.962092;  458.592781;
 17;    0.007679;    1.000000;    0.884467;    0.828461;    0.769000;    0.709985;    0.647895;    0.581518;    0.512630;    0.442945;    0.370010;    0.293527;    0.291234;    0.270721;    0.695193;    0.940550;    1.214075;    1.232129;    1.238842;    1.259599;    1.285350;    1.318666;    1.364776;    1.375821;    1.414677;    1.429666;    1.460608;    1.493075;    1.621348;    1.660875;    1.792362;    1.960478;    2.104291;    2.218535;    2.359910;    2.417085;    2.718946;    2.786033;    2.979909;    3.220182;    3.608501;    3.743613;    4.133358;    4.502777;    5.730044;    6.632539;    7.223077;    9.736039;   16.433811;   39.462252; 4375.272181;
 18;    0.007592;    1.000000;    0.890784;    0.835357;    0.778454;    0.717753;    0.655628;    0.586780;    0.517736;    0.449938;    0.375415;    0.296043;    0.297644;    0.278426;    0.664376;    0.748553;    1.204823;    1.295896;    1.334225;    1.372514;    1.460049;    1.600839;    1.713676;    1.725767;    1.780592;    1.835219;    1.896853;    1.981410;    2.006987;    2.039612;    2.097049;    2.324931;    2.407795;    2.477249;    2.675729;    2.764395;    3.013756;    3.089060;    3.159962;    3.219925;    3.356460;    3.953125;    4.590286;    4.787578;    8.167376;   10.667037;   16.712193;   88.880006;  120.261759;  254.565759; 1854.233828;
 19;    0.007661;    1.000000;    0.878294;    0.822768;    0.768834;    0.712408;    0.651513;    0.587293;    0.519608;    0.447408;    0.369903;    0.294582;    0.288990;    0.278728;    0.632421;    0.884586;    1.513068;    1.609417;    1.628771;    1.713269;    1.783618;    1.808731;    1.832924;    1.920895;    1.993921;    2.096308;    2.118333;    2.181662;    2.260977;    2.315395;    2.369715;    2.473230;    2.514662;    2.563981;    2.811153;    2.933613;    3.011503;    3.157222;    3.597036;    3.652852;    4.147044;    4.401998;    5.440497;    8.343857;    9.124381;    9.814975;   11.367061;   12.656773;   18.657952;   34.494813;  522.079023;
 20;    0.007813;    1.000000;    0.871757;    0.819930;    0.764441;    0.706091;    0.646705;    0.584435;    0.518016;    0.445678;    0.369936;    0.288460;    0.280319;    0.269623;    0.821742;    0.875293;    1.268752;    1.286915;    1.309995;    1.346721;    1.393777;    1.425126;    1.513939;    1.557301;    1.601576;    1.621220;    1.806846;    1.848193;    1.883908;    1.985738;    2.014212;    2.129680;    2.168323;    2.281728;    2.311706;    2.445043;    2.699745;    2.757575;    3.210694;    3.613200;    4.282008;    4.473935;    4.716513;    5.062758;    5.608113;    6.871604;   10.738766;   60.341854;   64.404882;  108.481147;29893.333306;
 21;    0.009607;    1.000000;    0.872543;    0.819409;    0.764772;    0.706702;    0.644461;    0.579667;    0.512391;    0.441697;    0.366765;    0.289470;    0.287819;    0.272652;    0.691878;    0.973815;    1.224094;    1.249401;    1.300216;    1.317066;    1.340317;    1.380892;    1.400639;    1.423276;    1.450922;    1.521312;    1.535980;    1.606041;    1.653022;    1.735940;    1.766629;    1.794804;    1.838630;    1.907213;    1.949178;    2.054163;    2.095174;    2.205623;    2.313353;    2.416050;    2.706564;    2.817272;    3.114211;    3.426128;    3.797700;    4.642500;    5.765681;    9.203388;   12.576352;   26.107574;  763.105961;
 22;    0.007590;    1.000000;    0.878186;    0.822617;    0.765197;    0.703381;    0.642642;    0.579021;    0.513735;    0.442953;    0.367244;    0.288615;    0.282193;    0.271292;    0.558597;    0.749107;    1.012361;    1.044379;    1.057198;    1.076795;    1.126877;    1.137642;    1.229335;    1.256364;    1.338077;    1.368469;    1.389154;    1.466228;    1.506113;    1.600063;    1.739429;    1.793153;    1.866778;    1.940127;    2.574326;    2.894679;    3.367118;    3.540547;    4.257106;    4.436570;    4.700269;    5.637169;    6.481992;    6.920778;    8.540427;    9.224260;   10.643569;   11.874448;   26.683749;   52.760833;  294.817382;
 23;    0.007636;    1.000000;    0.881972;    0.830921;    0.776008;    0.716584;    0.654294;    0.585647;    0.517175;    0.444506;    0.367685;    0.292590;    0.291248;    0.275650;    0.782149;    0.852639;    1.476526;    1.530073;    1.562044;    1.609443;    1.657721;    1.692621;    1.728727;    1.846623;    1.987030;    2.027764;    2.137640;    2.264647;    2.356365;    2.480410;    2.646538;    2.768886;    2.858602;    2.913096;    2.980978;    3.202870;    3.255863;    3.356197;    3.626946;    4.175433;    4.554144;    4.971977;    5.354528;    5.765983;    6.733853;   12.569357;   13.842892;   18.636888;   22.710679;   30.889439;  954.336161;
 24;    0.010463;    1.000000;    0.879722;    0.824394;    0.767363;    0.707976;    0.645503;    0.578226;    0.509877;    0.438214;    0.363377;    0.285461;    0.274673;    0.265149;    0.517167;    0.571871;    1.052229;    1.069959;    1.111350;    1.129130;    1.172371;    1.212637;    1.226503;    1.237873;    1.270590;    1.290786;    1.313723;    1.329916;    1.371752;    1.465239;    1.530259;    1.573259;    1.618759;    1.698682;    1.727883;    1.807175;    1.884165;    2.082968;    2.424503;    2.704742;    2.880150;    2.984229;    3.163188;    3.880186;    4.262886;    5.382354;    6.067549;    9.334470;   10.854396;   63.114653;  346.759629;
 25;    0.010848;    1.000000;    0.884645;    0.830795;    0.773985;    0.713504;    0.651216;    0.585636;    0.516547;    0.442456;    0.366625;    0.292479;    0.286641;    0.275981;    0.816848;    0.963140;    1.644496;    1.676872;    1.684340;    1.733613;    1.778557;    1.867371;    1.957181;    2.054432;    2.122562;    2.356041;    2.391374;    2.605239;    2.696162;    2.738885;    2.977565;    3.162258;    3.509973;    3.536149;    3.699292;    3.907595;    4.060070;    4.310241;    4.493426;    4.683894;    4.854298;    5.050564;    5.165601;    5.399135;    5.624193;    9.560153;   10.432087;   12.403197;   13.668919;   63.049299;  143.556004;
 26;    0.007654;    1.000000;    0.883074;    0.829193;    0.773739;    0.716193;    0.655171;    0.589052;    0.519879;    0.445229;    0.372098;    0.289982;    0.287386;    0.273544;    0.620516;    0.693637;    1.204583;    1.289136;    1.327730;    1.384823;    1.443460;    1.563787;    1.590206;    1.621129;    1.661083;    1.704153;    1.837425;    1.944972;    1.978995;    2.025285;    2.063166;    2.126473;    2.222167;    2.296866;    2.460180;    2.959268;    3.114663;    3.151567;    3.701333;    3.746325;    4.297175;    4.484325;    4.640453;    7.754407;    8.732042;   10.224218;   11.178827;   16.859338;  178.847969;  244.674105; 1080.531733;
 27;    0.007510;    1.000000;    0.873493;    0.816750;    0.761925;    0.705734;    0.646137;    0.581271;    0.512348;    0.440353;    0.366449;    0.288816;    0.290273;    0.269317;    0.754195;    1.067803;    1.403859;    1.416006;    1.433518;    1.446915;    1.470373;    1.536535;    1.564540;    1.618391;    1.662787;    1.705643;    1.740508;    1.835047;    1.886070;    1.972720;    2.081977;    2.179661;    2.330907;    2.478327;    2.597128;    3.191944;    3.820116;    3.908132;    4.221148;    4.313877;    4.543034;    4.802596;    5.533636;    8.573649;    8.755958;    9.398805;   11.295216;   16.117828;   21.985146;   32.221250;  273.601469;
 28;    0.007634;    1.000000;    0.872832;    0.818960;    0.761771;    0.701225;    0.641912;    0.577845;    0.509842;    0.439189;    0.362283;    0.286852;    0.288149;    0.270804;    0.555823;    0.649198;    1.220434;    1.237367;    1.308570;    1.324584;    1.333184;    1.352754;    1.434430;    1.450562;    1.468949;    1.510279;    1.562672;    1.610817;    1.642351;    1.732774;    1.751043;    1.775936;    1.860040;    1.967164;    2.167852;    2.248889;    2.361216;    2.930613;    3.058801;    3.162851;    4.764275;    5.107640;    5.809955;    6.325513;    8.613838;    9.243632;   11.727034;   13.441325;   31.151607;   79.859143; 4875.602645;
 29;    0.007639;    1.000000;    0.868036;    0.815394;    0.761354;    0.702227;    0.640529;    0.576190;    0.507010;    0.435280;    0.359808;    0.284556;    0.281852;    0.270139;    0.548560;    1.069789;    1.409266;    1.449096;    1.532693;    1.623344;    1.631791;    1.698649;    1.807317;    1.839316;    1.862140;    2.021528;    2.113861;    2.211923;    2.502417;    2.529943;    2.623094;    2.719450;    2.786826;    2.986480;    3.060418;    3.151773;    3.268118;    3.497255;    3.597302;    3.879763;    4.385623;    4.647885;    5.924363;    6.261129;    6.690335;    7.170751;    8.668055;   12.449839;   17.173730;   74.073986;  208.652427;
 30;    0.007601;    1.000000;    0.877603;    0.825416;    0.770129;    0.713124;    0.651749;    0.589628;    0.521266;    0.448832;    0.373171;    0.292461;    0.288714;    0.275392;    0.649686;    0.734209;    1.376857;    1.387622;    1.427971;    1.520283;    1.548087;    1.595575;    1.604931;    1.632009;    1.654912;    1.675271;    1.715939;    1.810355;    1.893842;    1.921619;    1.975882;    2.044652;    2.108336;    2.168285;    2.326045;    2.534493;    2.623454;    2.774178;    2.968574;    3.091540;    3.200335;    3.700134;    4.113842;    4.665310;    5.923030;    7.320939;    7.954440;   11.967111;   25.546930;   36.941340; 4695.681612;
 31;    0.007781;    1.000000;    0.877495;    0.823055;    0.768427;    0.709930;    0.650069;    0.585630;    0.517945;    0.444796;    0.368325;    0.290696;    0.292656;    0.273645;    0.715732;    0.763203;    1.147329;    1.211574;    1.261885;    1.319818;    1.347670;    1.364724;    1.396331;    1.465114;    1.523717;    1.556720;    1.586945;    1.613127;    1.694007;    1.735731;    1.834011;    1.921698;    2.054260;    2.156772;    2.374751;    2.420545;    2.506552;    2.740197;    2.981907;    3.166181;    3.580281;    3.991607;    4.066854;    4.199341;    5.102174;    5.907824;    7.229105;   14.646556;   22.660435;   45.885274;  201.722363;
 32;    0.007487;    1.000000;    0.888609;    0.831858;    0.775287;    0.714938;    0.648767;    0.584856;    0.515215;    0.441025;    0.364908;    0.290693;    0.292750;    0.274682;    0.749772;    0.823697;    1.318476;    1.361396;    1.376772;    1.384430;    1.431078;    1.448359;    1.479424;    1.517794;    1.559108;    1.610747;    1.760477;    1.795438;    1.834902;    1.888815;    1.982280;    2.144296;    2.388658;    2.426879;    2.461864;    2.595976;    2.647477;    2.679871;    2.870738;    3.069264;    3.293504;    3.490907;    5.122515;    5.382719;    6.055187;    8.735525;    9.494665;   10.840440;   14.097150;   26.274327; 2552.387988;
 33;    0.009271;    1.000000;    0.870917;    0.816666;    0.760998;    0.702616;    0.640407;    0.577528;    0.511302;    0.441205;    0.368407;    0.288682;    0.279891;    0.273159;    0.689350;    0.841574;    1.192406;    1.212620;    1.262289;    1.326955;    1.353625;    1.379844;    1.427562;    1.451645;    1.495242;    1.573861;    1.657127;    1.789709;    1.900533;    1.938654;    2.032753;    2.193758;    2.466656;    2.507202;    2.591267;    2.696490;    3.076303;    3.406446;    3.514123;    3.803363;    4.406092;    5.687876;    6.175655;    6.367922;    7.524243;    9.349423;   13.305504;   28.473029;   41.009527;   96.805778;  555.190703;
 34;    0.007712;    1.000000;    0.872168;    0.819372;    0.763364;    0.702247;    0.640407;    0.578504;    0.511797;    0.439152;    0.364646;    0.287074;    0.288298;    0.272232;    0.545435;    0.734036;    1.152202;    1.183661;    1.222746;    1.232789;    1.244737;    1.421916;    1.436695;    1.485296;    1.499553;    1.515868;    1.532888;    1.577987;    1.633635;    1.675183;    1.725823;    1.892085;    2.123400;    2.186870;    2.217867;    2.516736;    2.739912;    2.780315;    2.864559;    3.171149;    3.264911;    3.694836;    4.029500;    5.266574;    6.403937;    6.938014;    9.800875;   13.464094;   29.987878;   49.442887;  300.578564;
 35;    0.008978;    1.000000;    0.881910;    0.827905;    0.767342;    0.705465;    0.642436;    0.577742;    0.513288;    0.443180;    0.368812;    0.290907;    0.282914;    0.277580;    0.781835;    0.839067;    1.300562;    1.321582;    1.410209;    1.430528;    1.464961;    1.499086;    1.510768;    1.569764;    1.611253;    1.626061;    1.739271;    1.825340;    1.861628;    1.947059;    1.975920;    2.125039;    2.265546;    2.311377;    2.410041;    2.502445;    2.571830;    2.953745;    3.033852;    3.416185;    3.529752;    3.970141;    4.244140;    4.905112;    5.245134;    6.629129;    8.919038;   11.980904;   37.355622;  112.229189;12061.719195;
 36;    0.007585;    1.000000;    0.893108;    0.838566;    0.780586;    0.721708;    0.658339;    0.592087;    0.520126;    0.447027;    0.373012;    0.293081;    0.286426;    0.280961;    0.691082;    0.997768;    1.260873;    1.275546;    1.300466;    1.336603;    1.360841;    1.373170;    1.430643;    1.466443;    1.568841;    1.611061;    1.644655;    1.690157;    1.718172;    1.794857;    1.899354;    1.930679;    2.007840;    2.119046;    2.178668;    2.222914;    2.329394;    2.475139;    2.930286;    3.125277;    3.232170;    3.349896;    4.163195;    4.470431;    8.113436;   11.635795;   12.078233;   13.500474;   14.747492;   80.501112;  228.079961;
 37;    0.007628;    1.000000;    0.884509;    0.830330;    0.772561;    0.712048;    0.650581;    0.585905;    0.517893;    0.446008;    0.370031;    0.292298;    0.290177;    0.275987;    0.718728;    0.770599;    1.346236;    1.424255;    1.452769;    1.478497;    1.522039;    1.579705;    1.604489;    1.674724;    1.730339;    1.766142;    1.815363;    1.847375;    1.918380;    1.970326;    2.063345;    2.125366;    2.375985;    2.501171;    2.677149;    3.273570;    3.520549;    3.674277;    4.227130;    4.375813;    4.455506;    4.723406;    5.069302;    8.095414;   11.743765;   11.976036;   18.327264;   23.521464;   28.092837;   67.900875;20067.799863;
 38;    0.007558;    1.000000;    0.876941;    0.822124;    0.764878;    0.706902;    0.646149;    0.580887;    0.514164;    0.441920;    0.367558;    0.293311;    0.295812;    0.279420;    0.539539;    0.893611;    1.222341;    1.239932;    1.295208;    1.319167;    1.329129;    1.340160;    1.453850;    1.484503;    1.598267;    1.646654;    1.657591;    1.676127;    1.699707;    1.788955;    1.861550;    2.017516;    2.076011;    2.584242;    2.703465;    2.887742;    3.258143;    3.453369;    3.699749;    4.001793;    4.402408;    4.709958;    4.912365;    5.740106;    6.273540;    7.044640;    9.111810;   10.004965;   17.568610;  817.240506; 9688.969549;
 39;    0.007615;    1.000000;    0.886522;    0.832483;    0.773591;    0.713146;    0.648970;    0.584343;    0.516432;    0.445761;    0.373381;    0.298209;    0.298677;    0.281200;    0.580569;    0.737843;    1.116738;    1.135878;    1.153989;    1.193445;    1.235255;    1.250344;    1.267692;    1.294850;    1.330720;    1.346071;    1.420205;    1.435234;    1.485769;    1.553336;    1.573641;    1.634432;    1.703379;    1.789562;    1.843968;    1.963016;    2.131666;    2.335145;    2.480651;    2.633737;    3.006895;    3.366621;    3.587006;    4.133010;    4.658375;    4.978892;    6.455892;   15.015860;   44.308227;   55.026696;24326.671218;
 40;    0.007593;    1.000000;    0.879926;    0.824668;    0.768598;    0.708446;    0.645378;    0.577412;    0.507788;    0.437906;    0.362817;    0.287899;    0.288467;    0.269322;    0.613629;    0.651675;    1.171464;    1.211988;    1.242332;    1.274484;    1.295758;    1.319556;    1.387121;    1.399769;    1.487942;    1.562143;    1.613916;    1.671818;    1.777810;    1.917970;    1.939993;    2.088436;    2.154906;    2.198059;    2.461560;    2.540023;    2.605484;    2.783100;    2.925522;    3.994311;    4.350280;    4.688430;    6.180291;    6.880216;    7.663071;    9.948503;   21.596777;   28.243137;   50.098544;  171.689589; 1472.593573;
 41;    0.007634;    1.000000;    0.878973;    0.825076;    0.767400;    0.709571;    0.645859;    0.580335;    0.512748;    0.441068;    0.368239;    0.292380;    0.296078;    0.280567;    0.723502;    0.812822;    1.301836;    1.313411;    1.347625;    1.368615;    1.380520;    1.405599;    1.427574;    1.476503;    1.521770;    1.547191;    1.563839;    1.601556;    1.704059;    1.730988;    1.809083;    1.924810;    1.981606;    2.058791;    2.088085;    2.117417;    2.181607;    2.297402;    2.530831;    2.748171;    2.849401;    3.686792;    3.965741;    4.486162;    5.155868;    5.903252;    7.170201;   10.529104;   22.789252;   33.031478;  410.715926;
 42;    0.011112;    1.000000;    0.868312;    0.814505;    0.760445;    0.702753;    0.641818;    0.575767;    0.509861;    0.438803;    0.365127;    0.288452;    0.282995;    0.274073;    0.658450;    0.999454;    1.248082;    1.268212;    1.300496;    1.316469;    1.387403;    1.400851;    1.449349;    1.470770;    1.529833;    1.600826;    1.708241;    1.793564;    1.859208;    1.898868;    1.955655;    2.033402;    2.152693;    2.208678;    2.264932;    2.302896;    2.497124;    2.722262;    2.818506;    3.011881;    3.157490;    3.660860;    4.286261;    5.137792;    6.674346;    7.634728;   13.616030;   19.235659;   37.310058;   44.607581; 1508.284578;
 43;    0.007681;    1.000000;    0.875278;    0.819779;    0.765972;    0.707865;    0.646949;    0.583518;    0.514500;    0.442187;    0.366516;    0.287768;    0.286177;    0.271237;    0.839905;    0.913556;    1.553577;    1.620646;    1.639123;    1.706748;    1.789925;    1.798972;    1.855108;    1.901054;    1.991277;    2.014216;    2.040206;    2.137451;    2.324789;    2.363171;    2.477115;    2.636014;    2.698756;    2.961893;    3.048406;    3.404139;    3.616456;    3.681885;    4.240699;    4.302572;    4.536930;    5.318082;    5.987432;    6.302828;    6.919652;    7.339083;    7.886392;   10.063419;   16.376068;   23.640577;  120.720496;
 44;    0.007637;    1.000000;    0.881924;    0.829909;    0.776189;    0.718245;    0.655719;    0.589815;    0.520982;    0.446087;    0.366055;    0.290904;    0.294170;    0.280369;    0.612051;    0.791651;    1.199061;    1.209946;    1.233280;    1.269045;    1.325922;    1.352742;    1.428455;    1.519716;    1.545270;    1.611005;    1.627849;    1.658054;    1.763070;    1.799008;    1.902864;    1.946218;    1.998456;    2.143808;    2.388923;    2.464679;    2.592261;    2.676157;    3.059202;    3.226486;    3.606848;    4.088436;    5.139034;    5.347864;    6.086968;    6.491551;    7.480535;   14.701746;   17.238975;   19.768942;  117.128544;
 45;    0.007794;    1.000000;    0.879176;    0.823028;    0.765701;    0.709558;    0.649935;    0.587068;    0.519406;    0.446852;    0.374060;    0.296270;    0.297009;    0.280438;    0.542297;    0.602271;    1.247873;    1.268500;    1.278870;    1.286583;    1.303100;    1.366698;    1.400990;    1.470127;    1.502366;    1.559805;    1.576063;    1.637348;    1.682905;    1.702512;    1.796741;    1.826321;    1.937612;    2.027462;    2.200091;    2.231547;    2.334250;    2.395064;    2.665052;    2.925055;    3.514078;    3.819849;    4.033503;    5.065435;    5.329029;    5.830957;    6.473124;    8.443191;   12.700559;   32.287058;  123.240977;
 46;    0.007662;    1.000000;    0.873792;    0.816748;    0.762579;    0.705587;    0.643416;    0.580561;    0.512621;    0.439544;    0.363204;    0.287051;    0.287564;    0.273191;    0.567361;    0.618134;    1.130805;    1.159945;    1.170871;    1.218446;    1.263024;    1.277706;    1.312323;    1.335674;    1.351159;    1.442497;    1.484514;    1.505955;    1.564532;    1.619348;    1.835954;    1.955955;    2.117302;    2.458077;    2.551218;    2.761903;    3.014694;    3.213393;    3.456474;    4.449291;    4.953726;    5.989610;    6.323099;    9.720261;   12.643390;   13.590514;   24.770901;   35.838513;   58.350496;   80.595007; 1236.672395;
 47;    0.007552;    1.000000;    0.874437;    0.818322;    0.764228;    0.707391;    0.645334;    0.580535;    0.512730;    0.441322;    0.365786;    0.287063;    0.285851;    0.273280;    0.639780;    0.806894;    1.442523;    1.484800;    1.569920;    1.591210;    1.658818;    1.755236;    1.787952;    1.826019;    1.859284;    1.903705;    1.949853;    2.047815;    2.107289;    2.382476;    2.467098;    2.692004;    2.796876;    2.951218;    2.994338;    3.111155;    3.346812;    3.477756;    3.670629;    3.937920;    4.189694;    4.542596;    4.786819;    5.071076;    5.729260;    6.696702;    7.737079;   10.350140;   12.733871;   17.498428;  210.658690;
 48;    0.007448;    1.000000;    0.885842;    0.829556;    0.770877;    0.710937;    0.649422;    0.584252;    0.514756;    0.443720;    0.370958;    0.292006;    0.284315;    0.275394;    0.583506;    0.827117;    0.992622;    1.051569;    1.067011;    1.103029;    1.126231;    1.161551;    1.177549;    1.276213;    1.307582;    1.344408;    1.367675;    1.388798;    1.412095;    1.449313;    1.503080;    1.537022;    1.620216;    1.648227;    1.712928;    1.764006;    1.847157;    1.918788;    2.044817;    2.376637;    2.671551;    2.911292;    3.196699;    3.401313;    3.954059;    4.561506;    5.604268;    6.798063;   78.492628;  118.740226;  510.423078;
 49;    0.007451;    1.000000;    0.881821;    0.826894;    0.768816;    0.705886;    0.645990;    0.585495;    0.518200;    0.447565;    0.372136;    0.293363;    0.284243;    0.275943;    0.922935;    1.163761;    1.794448;    1.920025;    1.929502;    1.999627;    2.200773;    2.232672;    2.254143;    2.282479;    2.399144;    2.439946;    2.542777;    2.633892;    2.694710;    2.914555;    3.061620;    3.150745;    3.543412;    3.696511;    3.861373;    4.094083;    4.854230;    5.126873;    6.581037;    7.445712;    8.154816;    8.389670;   11.198128;   11.447014;   11.798592;   13.809637;   16.229791;   29.747844;   36.530406;   85.498269;  277.602544;
 50;    0.007707;    1.000000;    0.875023;    0.820516;    0.764212;    0.705834;    0.643967;    0.582385;    0.513983;    0.440994;    0.370489;    0.293677;    0.282904;    0.273083;    0.524055;    0.566914;    1.145592;    1.258404;    1.270746;    1.361044;    1.386761;    1.398622;    1.451761;    1.506701;    1.549782;    1.558651;    1.597888;    1.615107;    1.683827;    1.721197;    1.792231;    1.886327;    1.986918;    2.209842;    2.290830;    2.411172;    2.531326;    2.656209;    3.089306;    3.415040;    3.751348;    4.176760;    4.731198;    5.003185;    6.795355;    7.471003;    8.562149;   10.970526;   17.227852;   70.164066;  460.431956;
 51;    0.008024;    1.000000;    0.876984;    0.822038;    0.763720;    0.706751;    0.644445;    0.581170;    0.513453;    0.440381;    0.365411;    0.285996;    0.275668;    0.268560;    0.508965;    0.804025;    1.290403;    1.315453;    1.362982;    1.401832;    1.424513;    1.436514;    1.475176;    1.506528;    1.534364;    1.599527;    1.629071;    1.643381;    1.687610;    1.721877;    1.804316;    1.883568;    1.971520;    2.132727;    2.389164;    2.660203;    2.799423;    3.077893;    3.419837;    3.532044;    4.133001;    5.366434;    5.661748;    6.067983;    7.925981;    9.442374;   12.158113;   24.028562;   27.047378;   53.502718;  503.609350;
 52;    0.007634;    1.000000;    0.878727;    0.823162;    0.765377;    0.708696;    0.646168;    0.580212;    0.510722;    0.438867;    0.364399;    0.292525;    0.292881;    0.278707;    0.544799;    0.851557;    1.115555;    1.167191;    1.201906;    1.239008;    1.260954;    1.309846;    1.332103;    1.394396;    1.431829;    1.462157;    1.488489;    1.631825;    1.673089;    1.765289;    1.826998;    1.928876;    2.523685;    2.559993;    2.596145;    3.043247;    3.139341;    3.276703;    3.459693;    3.588470;    3.691059;    4.063194;    4.230369;    4.677866;    5.254976;    6.013781;    6.809876;    7.646722;   11.792314;   19.141990;  267.644643;
 53;    0.010338;    1.000000;    0.896052;    0.840051;    0.783910;    0.724521;    0.661950;    0.597033;    0.526818;    0.452545;    0.375290;    0.292119;    0.289257;    0.275141;    0.614048;    0.673796;    1.071573;    1.084974;    1.117893;    1.134725;    1.170981;    1.198691;    1.227460;    1.267083;    1.302525;    1.341502;    1.383428;    1.460804;    1.477163;    1.515211;    1.538844;    1.677207;    1.777238;    1.801381;    1.868220;    2.031850;    2.099645;    2.147191;    2.246138;    2.465375;    2.698382;    3.068725;    4.249199;    4.999987;    5.244147;    6.021360;    8.322847;   10.034176;   14.359260;   26.538306;   86.495732;
 54;    0.007615;    1.000000;    0.877747;    0.819850;    0.764621;    0.706532;    0.646525;    0.582736;    0.513815;    0.440176;    0.363765;    0.288540;    0.285906;    0.271806;    0.603797;    0.666581;    0.980611;    1.009928;    1.031506;    1.048009;    1.071047;    1.078341;    1.092746;    1.109470;    1.134851;    1.151194;    1.188127;    1.210750;    1.270260;    1.290004;    1.351758;    1.412470;    1.464700;    1.769071;    1.849826;    2.041251;    2.247646;    2.368764;    2.487962;    2.583321;    2.864003;    3.054756;    3.532994;    4.247712;    4.883598;    6.015279;    7.219491;   10.624334;   17.448995;   23.742317;   88.518989;
 55;    0.008058;    1.000000;    0.874234;    0.822983;    0.768523;    0.711627;    0.649688;    0.586393;    0.519944;    0.449892;    0.373369;    0.294905;    0.297237;    0.275285;    0.557956;    0.601405;    1.066765;    1.083459;    1.102871;    1.128425;    1.167091;    1.241106;    1.264686;    1.309886;    1.412939;    1.534352;    1.549723;    1.613167;    1.783250;    1.902016;    1.961221;    1.987785;    2.071244;    2.227876;    2.296067;    2.389929;    2.429237;    2.613257;    2.717302;    3.124706;    3.453872;    3.848349;    4.054307;    4.675062;    5.111702;    8.457187;   20.129965;   56.251294;   77.333125;  126.607124; 3257.057661;
 56;    0.007609;    1.000000;    0.874847;    0.818841;    0.759624;    0.700565;    0.637141;    0.572881;    0.507564;    0.439405;    0.367107;    0.293545;    0.284271;    0.275946;    0.868073;    0.905447;    1.419248;    1.493024;    1.515759;    1.542129;    1.558355;    1.570810;    1.592422;    1.622929;    1.687553;    1.710119;    1.736404;    1.831453;    1.854974;    1.879495;    1.977801;    2.036272;    2.251939;    2.687250;    2.736860;    2.805542;    2.964625;    3.093749;    3.693725;    3.757396;    4.487386;    5.189419;    5.965557;    6.223590;    9.804158;   11.826702;   15.755690;   17.021796;   21.235745;   39.097284;  182.553917;
 57;    0.007599;    1.000000;    0.880268;    0.825876;    0.767947;    0.708028;    0.644913;    0.579155;    0.512691;    0.440774;    0.368142;    0.290677;    0.292013;    0.275468;    0.566843;    0.918783;    1.342953;    1.357884;    1.365964;    1.387735;    1.431817;    1.459352;    1.500213;    1.558602;    1.637453;    1.757852;    1.786686;    1.848611;    2.012750;    2.051629;    2.148583;    2.234345;    2.320480;    2.457235;    2.560159;    2.656937;    2.761586;    2.848296;    2.972024;    3.353161;    3.497650;    3.882826;    5.418897;    5.991343;    7.192231;    8.041336;    9.143974;   12.236181;   16.146412;   79.374640; 4621.006155;
 58;    0.007708;    1.000000;    0.878547;    0.823090;    0.766809;    0.709400;    0.647292;    0.584245;    0.515914;    0.444878;    0.369430;    0.290342;    0.287145;    0.277584;    0.649036;    0.853809;    1.395581;    1.416644;    1.427100;    1.478810;    1.503778;    1.536237;    1.549772;    1.561418;    1.593567;    1.618517;    1.744831;    1.799700;    1.859942;    1.921658;    1.996318;    2.023724;    2.096784;    2.192489;    2.381287;    2.478104;    2.543382;    2.622898;    2.774112;    2.832798;    2.955031;    3.085950;    3.189925;    3.816989;    4.173337;    4.725684;    5.865830;    9.827622;   11.977266;   44.836898;  389.420112;
 59;    0.007884;    1.000000;    0.884855;    0.827559;    0.767408;    0.708873;    0.647941;    0.580992;    0.513428;    0.443302;    0.370497;    0.291870;    0.281737;    0.274117;    0.544824;    0.599288;    1.173296;    1.185711;    1.246672;    1.256674;    1.281493;    1.340532;    1.378566;    1.401341;    1.440010;    1.489039;    1.583757;    1.611678;    1.738311;    1.804799;    1.873182;    2.053365;    2.075917;    2.175002;    2.423130;    2.537861;    2.866549;    2.911570;    3.093647;    3.402134;    3.669473;    4.396234;    4.840576;    5.718985;    9.312164;   25.221591;   29.319766;   36.238904;   42.587785;  186.226645; 6956.664489;
 60;    0.007698;    1.000000;    0.880505;    0.827179;    0.771409;    0.713256;    0.651218;    0.585823;    0.515100;    0.441770;    0.366961;    0.291745;    0.293434;    0.276583;    0.672692;    0.859520;    1.182806;    1.218011;    1.229533;    1.248531;    1.267981;    1.286526;    1.297209;    1.371564;    1.388423;    1.405923;    1.459737;    1.526953;    1.600769;    1.646506;    1.687793;    1.761864;    1.832431;    1.887193;    1.989766;    2.031829;    2.127442;    2.310278;    2.359378;    2.741082;    3.433256;    3.825964;    4.116038;    4.747404;    5.041348;    5.490933;    6.858790;    8.742542;   11.057076;   28.751333; 2180.321300;
 61;    0.007611;    1.000000;    0.880662;    0.826120;    0.771892;    0.713925;    0.650688;    0.587860;    0.518946;    0.446920;    0.371851;    0.293391;    0.286344;    0.281219;    0.666617;    0.701992;    1.314979;    1.370024;    1.500903;    1.556055;    1.596457;    1.639313;    1.647646;    1.661701;    1.704341;    1.764034;    1.848017;    1.965529;    2.052531;    2.106544;    2.198432;    2.470539;    2.560543;    2.626545;    2.978014;    3.251706;    3.344255;    3.522972;    3.762183;    3.867963;    4.058593;    4.411960;    4.551774;    4.806028;    5.243045;    7.915105;   10.189014;   17.540801;   59.114905;   81.982720;33551.801796;
 62;    0.007513;    1.000000;    0.878855;    0.824759;    0.768767;    0.708454;    0.644981;    0.581169;    0.512958;    0.441310;    0.367694;    0.292110;    0.296038;    0.276515;    0.803971;    0.901560;    1.312465;    1.332750;    1.350153;    1.373331;    1.410723;    1.425171;    1.448330;    1.458981;    1.491204;    1.503372;    1.655341;    1.688947;    1.838114;    1.897626;    1.947027;    2.032088;    2.182408;    2.463696;    2.574813;    2.711852;    2.823214;    2.974270;    3.228276;    3.431465;    3.665513;    4.437009;    4.757935;    5.511911;    6.645341;    8.900719;   10.428620;   11.537332;   28.888511;   60.799125;  667.002784;
 63;    0.007852;    1.000000;    0.870335;    0.814646;    0.756546;    0.700872;    0.640354;    0.580142;    0.515663;    0.445820;    0.370994;    0.292049;    0.289521;    0.273903;    0.721304;    0.932270;    1.273716;    1.308216;    1.363515;    1.408313;    1.433824;    1.465707;    1.552037;    1.579328;    1.622812;    1.636756;    1.668446;    1.755381;    1.803157;    2.082217;    2.147650;    2.184779;    2.265715;    2.306809;    2.394682;    2.452525;    2.658544;    2.733140;    2.797393;    2.844979;    3.071187;    3.349054;    3.535222;    4.323962;    4.573334;    5.149583;    5.965227;    7.089713;   14.266464;   34.761298;  242.014834;
 64;    0.007793;    1.000000;    0.878590;    0.826668;    0.768631;    0.712686;    0.651792;    0.587481;    0.519953;    0.446949;    0.369213;    0.290681;    0.292677;    0.276833;    0.897592;    1.103011;    1.338983;    1.817826;    1.863522;    1.888633;    1.907599;    1.930391;    1.940967;    1.963115;    1.994775;    2.036437;    2.062032;    2.083362;    2.148277;    2.200566;    2.284009;    2.338630;    2.439201;    2.579573;    2.627294;    2.900296;    3.068939;    3.446303;    3.509000;    3.952374;    4.110546;    5.215067;    6.530561;    6.712486;    6.982854;    8.512809;   10.563794;   13.134788;   19.740584;   78.166015;66711.178062;
 65;    0.007670;    1.000000;    0.885189;    0.829143;    0.773584;    0.714394;    0.653423;    0.587274;    0.518623;    0.447412;    0.373337;    0.297419;    0.289519;    0.281174;    0.940756;    1.020244;    1.461683;    1.483493;    1.533236;    1.547663;    1.563175;    1.584771;    1.641639;    1.666953;    1.717018;    1.747807;    1.762565;    1.814833;    1.829511;    1.906639;    1.937917;    2.060909;    2.198794;    2.359728;    2.387330;    2.513852;    2.691772;    2.814424;    2.937100;    3.278561;    3.602866;    4.654346;    5.269487;    6.173070;    7.849833;    9.005859;   15.552864;   18.065091;   23.245542;   51.055354;  477.738223;
 66;    0.007643;    1.000000;    0.883453;    0.830005;    0.773999;    0.715191;    0.653461;    0.589456;    0.519045;    0.444130;    0.370205;    0.290885;    0.290534;    0.273208;    0.693550;    0.870589;    1.191339;    1.212078;    1.217818;    1.317241;    1.377028;    1.400911;    1.480712;    1.568773;    1.597724;    1.669685;    1.703952;    1.725404;    1.747770;    1.955930;    1.992785;    2.082729;    2.151686;    2.489204;    2.624479;    2.671045;    2.776752;    3.528612;    4.040439;    4.106939;    4.306485;    4.537794;    4.858974;    5.743793;    6.725518;   14.282827;   15.182583;   17.923522;   24.594820;  136.196134;10882.955084;
 67;    0.007668;    1.000000;    0.885194;    0.827103;    0.771021;    0.711697;    0.647500;    0.579060;    0.512587;    0.442042;    0.368847;    0.293697;    0.291093;    0.282081;    0.631665;    0.742420;    1.402696;    1.464645;    1.497570;    1.506276;    1.528913;    1.573466;    1.638751;    1.660910;    1.684940;    1.706963;    1.742106;    1.764689;    1.794109;    1.931506;    2.075473;    2.152441;    2.409690;    2.572492;    2.624583;    2.744815;    2.875643;    3.043004;    3.511502;    3.851150;    4.397636;    4.608700;    4.966891;    7.758900;    8.089531;    8.813653;   33.097490;   46.261736;   91.372351;  652.163905;12280.765075;
 68;    0.007741;    1.000000;    0.879887;    0.824517;    0.766154;    0.707663;    0.646082;    0.583687;    0.515032;    0.444976;    0.369656;    0.291450;    0.286922;    0.275132;    0.791832;    0.885111;    1.343445;    1.385822;    1.398463;    1.447917;    1.545412;    1.575967;    1.601008;    1.645711;    1.746104;    1.758429;    1.782086;    1.806587;    1.881206;    2.023656;    2.170082;    2.308461;    2.522790;    2.762205;    2.948446;    3.258346;    3.350978;    3.477756;    3.541651;    3.886655;    4.354016;    4.465522;    5.321979;    6.247391;    6.866941;    8.049829;   11.731118;   13.741892;   18.652708;   48.949466;  704.628158;
 69;    0.011013;    1.000000;    0.889113;    0.835291;    0.780716;    0.724323;    0.663633;    0.598665;    0.529542;    0.454304;    0.375935;    0.296076;    0.289768;    0.281657;    0.777180;    0.825425;    1.363427;    1.393309;    1.402445;    1.461906;    1.552177;    1.581232;    1.603710;    1.673670;    1.738709;    1.763890;    1.801030;    1.875101;    1.904907;    1.953024;    2.010037;    2.040182;    2.319835;    2.424629;    2.612220;    2.773478;    2.986341;    3.116815;    3.272125;    3.842197;    4.337821;    4.746970;    5.289299;    6.057184;   11.722641;   28.570374;   33.347944;   60.309560;  158.243361;  191.969716;10464.662155;
 70;    0.007622;    1.000000;    0.881751;    0.825296;    0.768402;    0.707790;    0.644150;    0.578593;    0.510153;    0.437306;    0.363175;    0.289733;    0.284893;    0.278869;    0.566267;    0.623664;    1.286427;    1.308502;    1.354867;    1.385910;    1.476778;    1.490470;    1.521061;    1.653877;    1.719781;    1.761350;    1.773766;    1.806073;    1.860989;    1.952793;    2.091570;    2.210921;    2.296057;    2.351216;    2.394664;    2.668820;    2.765238;    2.960648;    3.072663;    3.345472;    3.694729;    4.053241;    5.580416;    6.907968;    7.715045;    8.704337;   12.236932;   14.835813;   39.125893;  116.718073; 3432.946079;
 71;    0.007765;    1.000000;    0.877918;    0.823675;    0.766563;    0.707360;    0.646948;    0.582326;    0.515202;    0.441466;    0.364430;    0.290604;    0.289409;    0.277288;    0.752030;    0.846465;    1.439267;    1.486892;    1.540162;    1.556573;    1.580434;    1.672483;    1.681317;    1.711483;    1.734120;    1.832659;    1.866851;    1.897446;    1.912931;    1.968091;    2.023349;    2.208204;    2.325238;    2.421761;    2.565530;    2.725049;    2.822904;    2.891860;    3.008967;    3.074895;    3.384249;    4.414584;    4.795722;    6.321758;    7.211921;    7.855637;   11.647059;   15.923584;   21.026857;   26.240703; 3701.291168;
 72;    0.007631;    1.000000;    0.876343;    0.824052;    0.769887;    0.710922;    0.650805;    0.586690;    0.517586;    0.443527;    0.369485;    0.290283;    0.291823;    0.276989;    0.696050;    0.762936;    1.151973;    1.164418;    1.197334;    1.216085;    1.224699;    1.230799;    1.284889;    1.332019;    1.391373;    1.421440;    1.437537;    1.474090;    1.536795;    1.604310;    1.704278;    1.775196;    1.806282;    1.936512;    2.095762;    2.163985;    2.224702;    2.307358;    2.480620;    2.565165;    2.779421;    3.034689;    3.324333;    3.461779;    4.293087;    7.767645;    9.764533;   15.398884;   32.316804;   72.944882;12583.133299;
 73;    0.007750;    1.000000;    0.875410;    0.822732;    0.766440;    0.708539;    0.647687;    0.583515;    0.513924;    0.441672;    0.364727;    0.289669;    0.280914;    0.270010;    0.740186;    1.072887;    1.340851;    1.364790;    1.373824;    1.427118;    1.458030;    1.483936;    1.506220;    1.524746;    1.556876;    1.622879;    1.673665;    1.720266;    1.736303;    1.803494;    1.960266;    2.125019;    2.162086;    2.325829;    2.433683;    2.508295;    2.625604;    2.739633;    2.873719;    3.098305;    3.198503;    3.375473;    3.718673;    4.094795;    4.954413;    5.361188;    7.131061;    8.663054;    9.942823;   21.690240;13036.494064;
 74;    0.011081;    1.000000;    0.871174;    0.816334;    0.761983;    0.703390;    0.642023;    0.578486;    0.510972;    0.439492;    0.366662;    0.292235;    0.293377;    0.278121;    0.746990;    0.821724;    1.646931;    1.820378;    1.900546;    1.935113;    2.093264;    2.146540;    2.235075;    2.328392;    2.430868;    2.510232;    2.700537;    2.859406;    2.903252;    3.419887;    3.538205;    3.724335;    4.030269;    4.481726;    5.018900;    5.212435;    5.566544;    5.887087;    6.132236;    6.191259;    7.958924;    9.685917;   12.737809;   13.758701;   15.252001;   20.834001;   23.990621;   25.514482;   62.836402;   99.699997;15435.734164;
 75;    0.007395;    1.000000;    0.878234;    0.823190;    0.768621;    0.711857;    0.650025;    0.584304;    0.514559;    0.445145;    0.370732;    0.292473;    0.292299;    0.275568;    0.607148;    0.819649;    1.085233;    1.111740;    1.144352;    1.188785;    1.232735;    1.266026;    1.334349;    1.522782;    1.544898;    1.580582;    1.597927;    1.630637;    1.695041;    1.762499;    1.930959;    2.021253;    2.048377;    2.091801;    2.192072;    2.460613;    2.615418;    2.681679;    2.746183;    2.864369;    3.105574;    3.715622;    4.085709;    4.332641;    4.884279;    5.248357;    7.867900;   11.492184;   24.331124;   41.528912;  264.469069;
 76;    0.007553;    1.000000;    0.872353;    0.820015;    0.763106;    0.705327;    0.642060;    0.578820;    0.511089;    0.442536;    0.369168;    0.292049;    0.287795;    0.278548;    0.691127;    0.764923;    1.191699;    1.201647;    1.213019;    1.274317;    1.312636;    1.340485;    1.381744;    1.425347;    1.460476;    1.503121;    1.540881;    1.602860;    1.716084;    1.813965;    1.860171;    1.943566;    1.992817;    2.086943;    2.137078;    2.196875;    2.311938;    2.574453;    2.703094;    2.753487;    2.879143;    3.104865;    3.313725;    4.159878;    4.644882;    5.075439;    5.963742;    7.352393;   14.181595;   42.697288; 8000.279350;
 77;    0.007680;    1.000000;    0.880006;    0.824112;    0.768655;    0.710874;    0.649155;    0.584019;    0.514447;    0.444514;    0.369031;    0.294062;    0.295697;    0.278047;    0.628482;    0.791883;    1.215924;    1.233854;    1.248657;    1.255129;    1.268848;    1.279526;    1.292074;    1.336535;    1.407108;    1.421963;    1.567086;    1.621847;    1.712316;    1.754916;    1.816118;    1.850482;    1.936668;    1.960616;    2.048070;    2.267758;    2.309644;    2.527098;    2.603818;    2.869506;    3.096910;    3.198656;    3.421847;    3.672094;    4.017838;    7.310541;    8.750071;   11.753151;   20.108251;   52.907206;  731.295187;
 78;    0.007557;    1.000000;    0.887014;    0.829413;    0.772078;    0.713250;    0.650087;    0.583078;    0.513592;    0.442292;    0.370669;    0.293304;    0.295317;    0.278431;    0.752160;    0.835902;    1.206967;    1.226582;    1.294934;    1.314786;    1.409174;    1.425049;    1.482891;    1.500970;    1.531884;    1.560684;    1.618223;    1.655416;    1.674322;    1.784047;    1.893387;    1.998847;    2.031585;    2.067812;    2.204992;    2.304519;    2.586445;    2.832731;    3.301279;    3.424033;    3.595683;    4.244703;    4.505405;    5.047945;    5.590724;    7.943950;    8.773117;   13.594154;   16.019385;   23.292296; 1057.956188;
 79;    0.007622;    1.000000;    0.880775;    0.821238;    0.763727;    0.706619;    0.643348;    0.578028;    0.511431;    0.439243;    0.362850;    0.287798;    0.288954;    0.274537;    0.497868;    0.791319;    1.207686;    1.219351;    1.229632;    1.249051;    1.277382;    1.336123;    1.407266;    1.440825;    1.476530;    1.490697;    1.610530;    1.740873;    1.782829;    1.897411;    1.974478;    2.142052;    2.218610;    2.524340;    2.669324;    2.808585;    2.967502;    3.142036;    3.453142;    3.685418;    3.953411;    4.776131;    4.924681;    5.820113;    6.613615;    8.520506;    9.165665;   10.733923;   16.419157;   27.139209;  175.181195;
 80;    0.007831;    1.000000;    0.875098;    0.822886;    0.767117;    0.708479;    0.646829;    0.580273;    0.514033;    0.442125;    0.366501;    0.291746;    0.292501;    0.275647;    0.609458;    0.791998;    1.133203;    1.153691;    1.187332;    1.221597;    1.270807;    1.288565;    1.399319;    1.448103;    1.501326;    1.551015;    1.590833;    1.776111;    1.884707;    2.030563;    2.102605;    2.151809;    2.240596;    2.372545;    2.402082;    2.547569;    3.278629;    3.324321;    3.896912;    4.252182;    4.422012;    5.189255;    5.377285;    5.952548;    6.558824;   11.946197;   13.113078;   15.504373;   32.090383;   38.675607; 1058.590755;
 81;    0.010311;    1.000000;    0.880108;    0.825311;    0.768953;    0.710304;    0.650894;    0.587847;    0.519467;    0.446587;    0.370953;    0.293939;    0.286288;    0.279514;    0.692550;    0.954521;    1.326572;    1.334200;    1.377308;    1.401410;    1.430328;    1.463720;    1.492237;    1.530700;    1.618044;    1.718279;    1.760674;    1.805307;    1.869678;    2.008877;    2.089978;    2.145267;    2.182481;    2.372893;    2.397459;    2.467113;    2.508060;    2.692533;    3.018182;    3.455956;    3.593340;    3.839864;    4.441855;    4.820732;    5.611011;    5.924252;    9.024174;   11.548023;   24.052536;   57.232484; 1743.805419;
 82;    0.007685;    1.000000;    0.878485;    0.827908;    0.772732;    0.716158;    0.655556;    0.592268;    0.521464;    0.448375;    0.371845;    0.293193;    0.292212;    0.277559;    0.774740;    0.994605;    1.329647;    1.402064;    1.433198;    1.466993;    1.516646;    1.553073;    1.573289;    1.586513;    1.610204;    1.691567;    1.731447;    1.834425;    1.863115;    1.952978;    2.047523;    2.286384;    2.362801;    2.387290;    2.578235;    2.717465;    2.785349;    2.946807;    3.050114;    3.641909;    4.007219;    4.563263;    4.970823;    6.034233;    6.813711;    7.390822;    8.061394;    9.436678;   11.225420;   48.511048;20466.125851;
 83;    0.007566;    1.000000;    0.886724;    0.831359;    0.774519;    0.718530;    0.659216;    0.595061;    0.526890;    0.452986;    0.375829;    0.297798;    0.289996;    0.283553;    1.012953;    1.088276;    1.686756;    1.700259;    1.738239;    1.765809;    1.869637;    1.893699;    1.917615;    2.070718;    2.135590;    2.237404;    2.339272;    2.409898;    2.465821;    2.724866;    2.811326;    2.922422;    3.075623;    3.187715;    3.778208;    3.888124;    4.154605;    4.605640;    4.855008;    5.171055;    5.287040;    5.476960;    6.141922;    6.555930;    7.626280;    7.875707;   13.035916;   24.287682;   26.441680;   50.283445;  161.148881;
 84;    0.007767;    1.000000;    0.893142;    0.838252;    0.779951;    0.718995;    0.655776;    0.589318;    0.520327;    0.445966;    0.371373;    0.292739;    0.293637;    0.280579;    0.915736;    0.974920;    1.592426;    1.604578;    1.656503;    1.687712;    1.755112;    1.810752;    1.822326;    1.837023;    1.870254;    1.938269;    1.969371;    2.011804;    2.077733;    2.431536;    2.508188;    2.668291;    2.756624;    2.872159;    2.966775;    3.144168;    3.243521;    4.148664;    5.022893;    5.830774;    6.799690;    9.596246;   10.637034;   11.304121;   14.022127;   17.053515;   39.710439;   51.886323;  119.276103;  181.601533;22501.403752;
 85;    0.010189;    1.000000;    0.887544;    0.833447;    0.776504;    0.717604;    0.655078;    0.590494;    0.522447;    0.448561;    0.371004;    0.289956;    0.287668;    0.273978;    0.701035;    0.854606;    1.359459;    1.372557;    1.381200;    1.447992;    1.477684;    1.519106;    1.572059;    1.599262;    1.663850;    1.949539;    1.972503;    1.991585;    2.090768;    2.211849;    2.231238;    2.301179;    2.435282;    2.469973;    2.601522;    2.892340;    2.960752;    3.567423;    3.740903;    4.351581;    4.438756;    5.343383;    5.480169;    5.749662;    6.513626;   10.501487;   11.005356;   14.005677;   46.903881;   60.779352;191130.735972;
 86;    0.007618;    1.000000;    0.870288;    0.816117;    0.760994;    0.702046;    0.640282;    0.577593;    0.511291;    0.442081;    0.369065;    0.291414;    0.292012;    0.274440;    0.695419;    0.738631;    1.246107;    1.266297;    1.306960;    1.350955;    1.410848;    1.436581;    1.462339;    1.485548;    1.499557;    1.546339;    1.627179;    1.715923;    1.800808;    1.854535;    1.919198;    2.049298;    2.097466;    2.204732;    2.276964;    2.315233;    2.495437;    2.692197;    2.755555;    2.828186;    3.093918;    3.537243;    4.357253;    5.242335;    5.541175;    6.141869;    7.744644;    9.208105;   16.743942;   26.630803;  311.308229;
 87;    0.011061;    1.000000;    0.874807;    0.818774;    0.761193;    0.702266;    0.641095;    0.576019;    0.508670;    0.438696;    0.367086;    0.291348;    0.287532;    0.272747;    0.760395;    1.124386;    1.316010;    1.327414;    1.357516;    1.409517;    1.432401;    1.480036;    1.492861;    1.551707;    1.641503;    1.702074;    1.726824;    1.765261;    1.801265;    1.822241;    2.008781;    2.077953;    2.147416;    2.323088;    2.672655;    2.757876;    2.921672;    3.310563;    3.640280;    3.757746;    4.005405;    4.200867;    5.170724;    5.445377;    5.931902;    6.633493;    9.020960;   11.642600;   13.608745;   18.187552;   65.723842;
 88;    0.008039;    1.000000;    0.873019;    0.819408;    0.766596;    0.709258;    0.650941;    0.587630;    0.518293;    0.444676;    0.366012;    0.288635;    0.278952;    0.270056;    0.705713;    0.755337;    1.179446;    1.219480;    1.226786;    1.342199;    1.414897;    1.453895;    1.544125;    1.605014;    1.614264;    1.665530;    1.680985;    1.798149;    1.828265;    2.019529;    2.046302;    2.204269;    2.224144;    2.434014;    2.541684;    2.622384;    2.772263;    3.339367;    3.832669;    3.930518;    4.409914;    5.226379;    5.826871;    7.389152;    9.104961;    9.735268;   10.829878;   11.818366;   13.736417;   34.774305;  118.082291;
 89;    0.007432;    1.000000;    0.880343;    0.826710;    0.769392;    0.710530;    0.646166;    0.579016;    0.509975;    0.435183;    0.364009;    0.289629;    0.291176;    0.276815;    0.609337;    0.668085;    1.371404;    1.390491;    1.402144;    1.415994;    1.451067;    1.478345;    1.493946;    1.512776;    1.560426;    1.581965;    1.627549;    1.644115;    1.674134;    1.752883;    1.920517;    2.055349;    2.121169;    2.235045;    2.446604;    2.480801;    2.569659;    2.877185;    2.958322;    3.122897;    3.724879;    6.606494;    6.791537;    7.937425;    8.180607;   11.770461;   18.374904;   20.022443;   23.603777;   33.523851; 1993.294463;
 90;    0.007840;    1.000000;    0.883482;    0.827953;    0.771315;    0.713243;    0.649625;    0.586628;    0.516833;    0.444831;    0.372067;    0.292697;    0.295238;    0.274884;    0.745660;    0.878600;    1.343502;    1.370559;    1.378687;    1.388930;    1.426379;    1.438996;    1.492399;    1.530762;    1.556480;    1.620695;    1.636386;    1.665760;    1.704327;    1.731531;    1.777762;    1.837190;    2.004898;    2.094267;    2.164586;    2.279097;    2.403433;    2.594762;    2.741965;    2.914956;    3.229693;    3.573218;    4.685437;    5.722845;    7.220183;    8.419926;   10.953345;   13.167984;   15.065796;   22.740262;223724.624662;
 91;    0.007697;    1.000000;    0.877098;    0.825183;    0.768315;    0.707368;    0.648174;    0.583969;    0.515328;    0.443812;    0.368574;    0.290694;    0.290802;    0.274856;    0.545939;    0.599516;    1.092404;    1.118342;    1.138228;    1.173708;    1.202619;    1.251544;    1.291199;    1.306974;    1.324033;    1.364998;    1.379166;    1.404569;    1.471721;    1.567222;    1.702642;    1.728583;    1.783783;    1.850037;    1.928929;    1.967173;    2.082059;    2.502706;    2.609946;    2.862939;    2.936744;    4.002254;    5.298242;    6.909605;   10.973728;   13.011130;   17.496030;   21.143069;   41.143029;   94.148275;14352963.772771;
 92;    0.007713;    1.000000;    0.879555;    0.824616;    0.769467;    0.709981;    0.646413;    0.580979;    0.514213;    0.445170;    0.369753;    0.292224;    0.294258;    0.277654;    0.702802;    0.830014;    1.276438;    1.341596;    1.469454;    1.541824;    1.552985;    1.571738;    1.600994;    1.616188;    1.628674;    1.679851;    1.709909;    1.753944;    1.779953;    1.802207;    1.837916;    1.987673;    2.128413;    2.368044;    2.423577;    2.511091;    2.561279;    2.689460;    2.748557;    2.910387;    2.971522;    3.218512;    3.687312;    4.081882;    5.120732;    5.535998;    9.013854;   13.013114;   18.056744;   96.308545;  452.598208;
 93;    0.007695;    1.000000;    0.881993;    0.830718;    0.774677;    0.716690;    0.656875;    0.591691;    0.522285;    0.448879;    0.371814;    0.291910;    0.287306;    0.277043;    0.563736;    0.642769;    1.321188;    1.347686;    1.392763;    1.408691;    1.450590;    1.494506;    1.511221;    1.532328;    1.594826;    1.678270;    1.720008;    1.794971;    1.979674;    2.165163;    2.263509;    2.308239;    2.512213;    2.642788;    2.713121;    2.842299;    2.958895;    3.072134;    3.551833;    4.221410;    4.564606;    4.932566;    5.380404;    5.980085;    6.668560;    9.513748;   13.964222;   17.261805;   28.346563;  154.317651; 1530.438071;
 94;    0.008008;    1.000000;    0.880109;    0.825617;    0.767623;    0.706487;    0.646131;    0.580575;    0.512269;    0.442597;    0.368510;    0.291729;    0.282966;    0.274875;    0.687456;    0.755911;    1.048143;    1.054352;    1.086581;    1.095620;    1.125940;    1.142795;    1.155299;    1.181205;    1.216534;    1.318163;    1.342699;    1.365152;    1.402579;    1.460708;    1.500827;    1.522595;    1.566693;    1.643236;    1.704359;    1.748341;    2.249942;    2.312749;    2.465704;    2.508891;    2.649835;    2.917568;    3.221078;    3.592308;    3.755685;    4.158473;    4.780027;    5.750271;   16.309341;   25.830210; 4203.506858;
 95;    0.007727;    1.000000;    0.876079;    0.822928;    0.768135;    0.708613;    0.648986;    0.582772;    0.515708;    0.444129;    0.367200;    0.289862;    0.286959;    0.274335;    0.685577;    0.770472;    1.431706;    1.442960;    1.466393;    1.484971;    1.529121;    1.570471;    1.633413;    1.667780;    1.694885;    1.833819;    1.917432;    1.970320;    1.996324;    2.020363;    2.187696;    2.231401;    2.330184;    2.403827;    2.611156;    2.783841;    3.846937;    4.293503;    4.700950;    4.914477;    6.187526;    7.299949;    7.586933;    8.318260;    9.526168;   10.507997;   16.121796;   20.696561;   33.498636;   64.620060; 2999.082165;
 96;    0.007593;    1.000000;    0.870699;    0.819705;    0.767401;    0.710116;    0.650331;    0.584843;    0.515402;    0.445768;    0.369122;    0.291201;    0.283338;    0.274087;    0.829330;    0.956176;    1.349321;    1.369783;    1.425133;    1.502517;    1.533731;    1.598600;    1.645813;    1.676814;    1.696441;    1.814354;    2.090285;    2.108576;    2.169044;    2.234905;    2.257985;    2.316937;    2.502816;    2.531231;    2.711328;    2.802736;    3.120478;    3.357640;    3.587009;    3.911475;    4.000356;    4.116942;    5.432312;    5.736808;    6.523424;    8.490080;   10.459366;   12.127163;   23.520026;   43.536904; 5804.940429;
 97;    0.007772;    1.000000;    0.887351;    0.827233;    0.769022;    0.706411;    0.646430;    0.581392;    0.511693;    0.439840;    0.363911;    0.285303;    0.280690;    0.271089;    0.661979;    0.825946;    1.175348;    1.217396;    1.280898;    1.291146;    1.317605;    1.343453;    1.395413;    1.419399;    1.466324;    1.508605;    1.530678;    1.546307;    1.630572;    1.670322;    1.725525;    1.774980;    1.988173;    2.060952;    2.087738;    2.191001;    2.298199;    2.497067;    2.601172;    2.961371;    3.192768;    3.286263;    3.646453;    4.233817;    4.602174;    5.192855;    5.875351;   10.036746;   13.199150;   20.417547; 2234.403931;
 98;    0.007970;    1.000000;    0.882258;    0.828224;    0.772581;    0.714060;    0.651612;    0.587742;    0.520277;    0.447660;    0.372013;    0.292028;    0.296346;    0.280633;    0.777012;    0.886420;    1.550370;    1.577530;    1.628631;    1.650210;    1.713188;    1.732358;    1.832917;    1.865572;    1.884538;    1.895042;    1.928497;    2.009739;    2.024828;    2.086632;    2.101022;    2.161127;    2.400809;    2.552218;    2.628541;    2.756871;    2.836118;    2.870715;    3.234082;    3.343933;    3.548443;    3.646967;    4.220793;    4.920554;    6.570838;   10.293864;   12.453184;   14.569036;   17.978647;   53.278679;11212.393898;
 99;    0.007595;    1.000000;    0.871166;    0.821310;    0.766681;    0.708867;    0.646755;    0.583480;    0.516898;    0.446289;    0.372483;    0.295436;    0.294461;    0.280502;    0.595918;    0.955479;    1.280693;    1.304783;    1.351786;    1.414788;    1.432832;    1.450186;    1.489189;    1.525925;    1.568369;    1.580698;    1.630243;    1.677353;    1.693374;    1.783967;    1.822525;    2.063375;    2.134692;    2.265395;    2.410743;    2.584945;    2.625563;    2.779409;    2.897519;    3.040405;    3.296999;    3.495304;    3.714440;    4.157844;    4.552033;    4.997034;    6.889093;    7.839497;   10.651332;   20.745611;10098.471224;
100;    0.007552;    1.000000;    0.875999;    0.823849;    0.768969;    0.710221;    0.648208;    0.583170;    0.512450;    0.443466;    0.370132;    0.293096;    0.295659;    0.273133;    0.597819;    0.671022;    1.096143;    1.108996;    1.140226;    1.164159;    1.186710;    1.227536;    1.255478;    1.297488;    1.311126;    1.364216;    1.420079;    1.436274;    1.700722;    1.735626;    1.815167;    1.931261;    1.978768;    2.021579;    2.077988;    2.206481;    2.283808;    3.038617;    3.088811;    3.267776;    4.074255;    4.246169;    4.359691;    5.482052;    5.754798;    7.427319;   10.991344;   12.216159;   18.577786;   51.292103;  942.996358;
