Simulation;Time;PC 0;PC 1;PC 2;PC 3;PC 4;PC 5;PC 6;PC 7;PC 8;PC 9;PC10;PC11;PC12;PC13;PC14;PC15;PC16;PC17;PC18;PC19;PC20;PC21;PC22;PC23;PC24;PC25;PC26;PC27;PC28;PC29;PC30;PC31;PC32;PC33;PC34;PC35;PC36;PC37;PC38;PC39;PC40;PC41;PC42;PC43;PC44;PC45;PC46;PC47;PC48;PC49;
Nan;Nan;0;0;0;0;0;0;0;0;0;0;0;0;0;0;0;1;0;0;0;0;0;0;0;0;0;0;0;0;0;0;0;0;0;0;0;0;0;0;0;0;0;0;0;0;0;0;0;0;0;0;
  0;    9.272657;    0.985128;    0.881766;    0.833655;    0.795983;    0.753650;    0.700137;    0.636785;    0.589722;    0.524772;    0.468370;    0.416493;    0.400065;    0.378447;    0.359341;    0.345635;    0.333975;    0.332268;    0.329425;    0.326945;    0.324616;    0.322043;    0.319484;    0.316512;    0.311017;    0.306008;    0.299994;    0.293122;    0.289629;    0.284974;    0.280205;    0.274352;    0.267411;    0.260637;    0.252271;    0.244566;    0.236393;    0.228074;    0.218778;    0.207771;    0.194896;    0.183239;    0.169743;    0.155598;    0.140545;    0.124390;    0.106750;    0.086973;    0.069024;    0.044981;    0.022576;
  1;    9.302343;    1.008528;    0.902423;    0.851157;    0.814931;    0.755863;    0.700750;    0.651762;    0.600289;    0.541355;    0.488518;    0.426572;    0.406052;    0.381246;    0.362816;    0.348479;    0.333431;    0.331403;    0.329448;    0.327103;    0.325280;    0.324239;    0.321459;    0.317941;    0.312283;    0.308147;    0.304540;    0.299343;    0.295178;    0.289904;    0.283678;    0.278140;    0.271483;    0.264190;    0.255048;    0.244245;    0.235398;    0.226216;    0.219069;    0.207651;    0.196529;    0.186153;    0.173830;    0.158713;    0.142353;    0.124078;    0.105912;    0.085927;    0.066031;    0.048122;    0.026887;
  2;    9.348921;    1.014010;    0.910553;    0.862442;    0.825652;    0.773189;    0.706274;    0.661800;    0.597314;    0.547364;    0.487213;    0.420463;    0.403000;    0.380330;    0.360059;    0.348743;    0.337337;    0.335303;    0.332849;    0.328230;    0.325600;    0.322654;    0.320671;    0.316500;    0.314496;    0.311808;    0.308625;    0.305346;    0.300949;    0.294623;    0.287594;    0.282197;    0.275109;    0.268373;    0.260483;    0.253581;    0.245471;    0.236606;    0.226710;    0.212843;    0.197969;    0.185329;    0.172482;    0.157916;    0.139550;    0.121148;    0.105577;    0.088614;    0.069244;    0.049058;    0.022096;
  3;    9.357260;    1.007972;    0.909847;    0.861186;    0.818533;    0.763231;    0.719360;    0.670037;    0.608981;    0.552274;    0.485821;    0.424174;    0.409050;    0.381374;    0.360589;    0.348933;    0.333954;    0.328919;    0.327209;    0.326259;    0.323644;    0.320354;    0.316959;    0.313250;    0.310231;    0.308613;    0.305785;    0.301398;    0.296143;    0.292356;    0.287615;    0.280950;    0.273838;    0.266389;    0.260072;    0.251802;    0.244802;    0.236733;    0.226321;    0.213051;    0.201179;    0.185957;    0.175373;    0.161886;    0.149054;    0.134346;    0.117271;    0.099136;    0.076586;    0.049355;    0.026052;
  4;    9.490449;    1.024263;    0.919578;    0.873843;    0.827171;    0.763654;    0.707026;    0.666612;    0.611846;    0.543148;    0.487071;    0.424303;    0.408110;    0.384054;    0.364153;    0.355969;    0.338606;    0.336526;    0.335002;    0.333644;    0.330162;    0.326611;    0.323287;    0.320694;    0.318466;    0.315959;    0.311297;    0.306479;    0.301422;    0.295728;    0.291587;    0.286253;    0.279200;    0.269832;    0.263300;    0.256364;    0.247724;    0.238110;    0.226051;    0.217598;    0.207635;    0.196215;    0.182582;    0.166567;    0.148726;    0.131450;    0.113108;    0.095997;    0.074814;    0.053141;    0.028579;
  5;    9.391383;    1.004260;    0.899456;    0.851828;    0.806431;    0.759385;    0.706839;    0.657925;    0.602341;    0.546426;    0.488050;    0.424079;    0.399338;    0.379049;    0.361266;    0.349422;    0.332461;    0.331594;    0.328765;    0.326840;    0.326880;    0.324556;    0.320659;    0.316652;    0.312141;    0.310461;    0.306621;    0.301705;    0.295438;    0.290250;    0.282110;    0.276863;    0.268799;    0.261701;    0.251977;    0.242683;    0.236432;    0.227705;    0.216551;    0.206331;    0.193654;    0.183963;    0.171912;    0.159442;    0.144148;    0.124799;    0.104655;    0.081871;    0.065626;    0.045872;    0.022647;
  6;    9.409374;    0.998857;    0.896344;    0.852118;    0.798627;    0.749994;    0.698947;    0.651965;    0.601014;    0.535809;    0.480830;    0.420886;    0.405161;    0.380265;    0.357737;    0.341992;    0.330710;    0.327830;    0.325026;    0.322977;    0.320823;    0.318480;    0.315231;    0.312377;    0.308036;    0.303243;    0.299103;    0.292339;    0.287392;    0.281533;    0.277166;    0.272634;    0.266550;    0.259882;    0.251132;    0.243998;    0.235256;    0.225052;    0.216799;    0.207625;    0.196812;    0.186446;    0.173681;    0.158217;    0.140078;    0.126183;    0.110663;    0.090957;    0.069502;    0.048221;    0.022274;
  7;    9.325129;    1.015624;    0.909612;    0.858090;    0.813196;    0.765493;    0.709760;    0.658090;    0.592785;    0.536102;    0.478079;    0.421458;    0.401894;    0.378996;    0.360237;    0.348819;    0.338457;    0.336829;    0.333958;    0.330534;    0.326644;    0.325074;    0.322315;    0.319301;    0.313911;    0.307704;    0.305854;    0.303672;    0.300697;    0.295843;    0.290902;    0.284668;    0.278435;    0.271296;    0.262113;    0.253909;    0.242814;    0.232849;    0.223827;    0.215051;    0.203811;    0.189503;    0.172539;    0.155597;    0.142626;    0.129241;    0.111992;    0.090370;    0.072270;    0.050863;    0.028374;
  8;    9.282429;    0.990375;    0.888851;    0.845324;    0.804125;    0.747797;    0.705606;    0.646464;    0.589714;    0.537814;    0.475440;    0.416291;    0.399119;    0.378224;    0.358526;    0.347171;    0.333756;    0.331813;    0.327794;    0.325549;    0.321165;    0.316645;    0.314627;    0.312478;    0.309674;    0.305789;    0.300598;    0.295981;    0.291577;    0.286988;    0.280542;    0.274388;    0.266063;    0.259930;    0.253440;    0.245511;    0.235096;    0.229514;    0.221591;    0.212179;    0.200762;    0.189881;    0.176491;    0.163440;    0.150371;    0.134288;    0.115339;    0.095188;    0.070842;    0.049633;    0.026867;
  9;   10.417008;    1.011297;    0.909452;    0.867283;    0.813412;    0.761965;    0.719607;    0.657306;    0.605384;    0.557649;    0.491496;    0.421017;    0.405682;    0.379718;    0.359733;    0.346218;    0.329426;    0.328877;    0.326456;    0.324235;    0.320949;    0.319388;    0.314624;    0.311968;    0.309004;    0.305437;    0.300688;    0.296658;    0.293459;    0.289377;    0.282447;    0.278049;    0.272662;    0.266223;    0.257610;    0.248352;    0.237441;    0.230323;    0.223244;    0.214481;    0.204234;    0.193441;    0.180663;    0.164479;    0.149930;    0.130400;    0.114987;    0.096610;    0.078024;    0.052353;    0.028501;
 10;    9.346050;    1.008156;    0.905140;    0.863390;    0.816654;    0.771989;    0.721248;    0.678313;    0.618187;    0.560184;    0.485796;    0.420127;    0.399966;    0.379025;    0.356341;    0.347444;    0.328056;    0.326964;    0.325436;    0.323718;    0.323173;    0.321583;    0.318496;    0.316516;    0.315225;    0.312724;    0.310786;    0.307599;    0.303473;    0.298728;    0.293232;    0.287536;    0.281994;    0.275287;    0.267161;    0.258930;    0.249855;    0.239482;    0.227827;    0.218284;    0.204933;    0.193711;    0.180907;    0.165289;    0.152988;    0.136868;    0.116497;    0.091357;    0.071208;    0.046911;    0.023946;
 11;    9.342623;    0.996615;    0.897504;    0.857799;    0.815935;    0.758638;    0.713485;    0.661170;    0.599196;    0.550107;    0.480437;    0.422929;    0.407595;    0.378213;    0.360054;    0.349729;    0.331956;    0.329203;    0.327128;    0.324493;    0.320387;    0.320164;    0.317808;    0.314276;    0.308405;    0.306760;    0.303156;    0.299641;    0.295313;    0.288633;    0.281712;    0.275747;    0.270452;    0.264369;    0.258042;    0.250964;    0.242361;    0.234950;    0.226276;    0.216322;    0.203602;    0.190487;    0.176765;    0.161893;    0.145312;    0.126745;    0.110421;    0.096129;    0.078464;    0.056024;    0.031853;
 12;    9.312934;    0.991019;    0.895514;    0.860690;    0.814344;    0.753250;    0.700531;    0.649670;    0.586623;    0.530156;    0.481363;    0.419164;    0.400702;    0.372464;    0.354038;    0.343227;    0.331483;    0.328679;    0.326706;    0.319082;    0.318521;    0.316073;    0.313098;    0.311762;    0.309259;    0.306376;    0.303441;    0.299520;    0.295179;    0.289512;    0.282152;    0.273902;    0.265555;    0.255042;    0.247651;    0.238238;    0.230609;    0.223536;    0.214707;    0.205795;    0.193471;    0.183648;    0.171390;    0.157022;    0.140020;    0.125368;    0.107701;    0.084926;    0.067046;    0.043715;    0.023244;
 13;    9.378396;    1.005119;    0.896221;    0.851203;    0.811270;    0.753205;    0.703123;    0.651989;    0.594794;    0.540051;    0.478359;    0.423824;    0.404086;    0.379735;    0.360311;    0.352269;    0.336840;    0.332909;    0.331558;    0.327947;    0.324424;    0.323198;    0.319943;    0.316870;    0.312662;    0.307937;    0.303660;    0.300329;    0.295996;    0.291946;    0.286417;    0.279105;    0.272898;    0.266611;    0.258844;    0.251238;    0.240296;    0.231114;    0.219284;    0.208195;    0.195014;    0.183853;    0.172092;    0.158446;    0.142882;    0.127595;    0.112289;    0.092642;    0.070267;    0.051383;    0.025275;
 14;    9.382922;    0.987531;    0.888841;    0.850653;    0.797536;    0.757240;    0.706612;    0.656969;    0.595441;    0.532301;    0.475149;    0.422796;    0.406012;    0.382854;    0.362142;    0.349664;    0.337166;    0.335409;    0.332029;    0.328502;    0.327761;    0.325312;    0.322130;    0.319700;    0.318033;    0.315183;    0.311347;    0.306660;    0.300466;    0.294447;    0.287520;    0.279649;    0.272101;    0.262439;    0.256566;    0.250825;    0.242036;    0.232774;    0.221769;    0.212715;    0.201976;    0.190529;    0.177052;    0.166569;    0.152049;    0.136394;    0.116357;    0.097628;    0.078838;    0.055536;    0.026670;
 15;    9.396402;    0.995089;    0.881479;    0.835504;    0.782980;    0.740154;    0.689031;    0.640286;    0.586996;    0.526925;    0.471252;    0.416633;    0.394180;    0.375238;    0.357587;    0.347481;    0.330871;    0.328642;    0.327732;    0.325930;    0.323012;    0.320086;    0.317455;    0.313620;    0.309072;    0.305591;    0.302323;    0.297923;    0.290176;    0.286339;    0.280522;    0.274596;    0.268400;    0.264106;    0.257843;    0.249103;    0.240392;    0.231637;    0.221792;    0.210298;    0.199754;    0.188459;    0.174822;    0.160551;    0.146101;    0.131129;    0.111771;    0.088142;    0.068145;    0.044843;    0.025074;
 16;   10.110923;    1.019882;    0.920587;    0.866050;    0.818593;    0.769710;    0.711538;    0.667611;    0.609226;    0.548982;    0.491415;    0.428749;    0.409513;    0.385569;    0.364900;    0.349376;    0.333512;    0.331556;    0.331026;    0.328361;    0.326974;    0.324846;    0.322934;    0.319600;    0.317030;    0.313942;    0.310859;    0.306676;    0.302334;    0.296183;    0.289636;    0.283638;    0.278739;    0.272681;    0.265229;    0.259268;    0.251853;    0.244643;    0.233234;    0.222041;    0.208844;    0.195114;    0.181817;    0.165651;    0.148709;    0.132558;    0.112200;    0.088926;    0.069691;    0.047504;    0.026991;
 17;   10.317005;    0.989536;    0.890632;    0.843706;    0.795743;    0.749500;    0.694151;    0.636596;    0.583450;    0.531218;    0.477896;    0.419357;    0.401260;    0.373582;    0.354559;    0.341939;    0.333345;    0.332617;    0.328990;    0.324766;    0.321035;    0.317403;    0.315044;    0.311682;    0.308513;    0.303196;    0.300484;    0.295738;    0.292415;    0.287655;    0.282460;    0.276601;    0.271396;    0.264020;    0.254740;    0.246002;    0.239753;    0.230316;    0.220277;    0.207006;    0.193639;    0.183483;    0.171337;    0.158434;    0.144375;    0.127365;    0.107809;    0.087267;    0.067687;    0.047242;    0.023217;
 18;    9.486298;    0.985111;    0.891990;    0.845628;    0.805566;    0.752179;    0.705872;    0.646073;    0.587752;    0.545418;    0.492624;    0.421806;    0.406181;    0.378567;    0.360274;    0.349918;    0.334206;    0.333086;    0.330114;    0.328404;    0.325220;    0.324315;    0.321766;    0.318103;    0.312637;    0.305589;    0.301723;    0.297464;    0.293568;    0.289189;    0.284967;    0.278457;    0.272694;    0.265716;    0.258654;    0.250548;    0.241841;    0.231556;    0.223200;    0.211764;    0.201680;    0.188593;    0.177884;    0.165552;    0.150405;    0.133939;    0.116018;    0.099593;    0.078663;    0.052562;    0.026350;
 19;    9.389433;    0.996525;    0.891732;    0.844836;    0.808972;    0.762964;    0.718157;    0.657037;    0.607176;    0.546168;    0.481453;    0.424656;    0.404444;    0.383180;    0.362757;    0.349423;    0.335687;    0.333921;    0.330431;    0.325255;    0.323799;    0.321610;    0.318600;    0.314938;    0.311787;    0.308296;    0.304970;    0.301484;    0.297009;    0.291874;    0.286275;    0.280574;    0.274709;    0.269017;    0.262669;    0.255547;    0.246663;    0.236703;    0.223734;    0.214537;    0.204134;    0.190882;    0.175901;    0.161168;    0.146992;    0.129578;    0.107002;    0.084873;    0.066719;    0.044934;    0.024261;
 20;    9.403052;    1.009240;    0.897882;    0.861804;    0.808858;    0.760506;    0.715471;    0.671454;    0.619522;    0.555386;    0.490152;    0.421654;    0.401720;    0.377936;    0.356616;    0.347866;    0.330947;    0.328705;    0.325131;    0.322729;    0.319735;    0.318164;    0.315215;    0.312665;    0.309624;    0.306548;    0.302834;    0.299271;    0.295335;    0.290533;    0.283188;    0.277086;    0.271412;    0.264953;    0.257929;    0.249143;    0.239175;    0.232250;    0.224247;    0.214454;    0.204294;    0.193086;    0.181943;    0.168588;    0.153350;    0.134996;    0.116597;    0.095968;    0.074026;    0.050864;    0.027673;
 21;    9.568550;    1.006485;    0.895062;    0.852413;    0.804927;    0.762066;    0.707456;    0.651271;    0.595625;    0.537933;    0.483665;    0.421765;    0.404804;    0.377978;    0.359846;    0.342874;    0.330377;    0.328226;    0.325136;    0.324766;    0.323512;    0.321255;    0.317496;    0.313977;    0.310781;    0.307710;    0.304141;    0.300145;    0.295979;    0.290552;    0.283910;    0.279213;    0.272861;    0.265543;    0.254494;    0.247123;    0.240784;    0.232217;    0.221670;    0.211306;    0.200683;    0.187508;    0.173681;    0.159125;    0.145962;    0.130597;    0.113187;    0.093933;    0.070161;    0.046629;    0.025244;
 22;    9.351957;    1.013098;    0.905379;    0.859267;    0.809961;    0.751780;    0.704215;    0.647825;    0.602651;    0.555067;    0.486922;    0.423123;    0.402218;    0.379120;    0.359542;    0.345734;    0.333361;    0.329970;    0.328353;    0.326323;    0.324100;    0.319836;    0.315776;    0.312794;    0.311256;    0.307238;    0.302390;    0.297314;    0.291416;    0.287609;    0.283934;    0.278522;    0.273297;    0.267435;    0.259294;    0.248723;    0.239516;    0.231991;    0.223411;    0.213069;    0.202033;    0.191418;    0.180447;    0.166130;    0.152448;    0.136394;    0.119222;    0.098373;    0.075349;    0.048315;    0.023664;
 23;    9.345958;    1.003883;    0.901484;    0.867079;    0.827319;    0.778825;    0.722203;    0.655411;    0.605662;    0.544741;    0.481744;    0.426062;    0.406984;    0.381284;    0.362339;    0.351497;    0.332973;    0.328467;    0.327621;    0.325371;    0.323805;    0.321429;    0.318551;    0.316478;    0.313935;    0.310534;    0.306059;    0.302468;    0.297988;    0.293490;    0.289654;    0.283602;    0.276422;    0.268746;    0.260879;    0.249519;    0.241367;    0.233676;    0.224886;    0.214348;    0.204023;    0.193437;    0.179895;    0.165114;    0.148189;    0.134485;    0.117523;    0.096124;    0.071266;    0.047959;    0.025272;
 24;    9.337537;    1.015924;    0.908793;    0.867623;    0.812668;    0.761303;    0.707732;    0.653127;    0.599189;    0.538267;    0.482067;    0.418818;    0.398449;    0.373055;    0.354297;    0.344063;    0.332003;    0.325965;    0.325434;    0.323462;    0.322301;    0.318954;    0.313741;    0.310400;    0.306815;    0.303935;    0.299652;    0.294197;    0.288301;    0.283586;    0.278717;    0.273972;    0.268107;    0.261915;    0.256746;    0.251641;    0.243408;    0.233196;    0.224300;    0.212378;    0.200354;    0.186766;    0.171288;    0.156988;    0.144117;    0.125286;    0.105057;    0.085999;    0.065852;    0.042608;    0.023627;
 25;    9.325490;    0.992725;    0.893657;    0.853726;    0.810144;    0.748920;    0.703974;    0.651152;    0.601815;    0.532985;    0.477241;    0.421077;    0.400412;    0.377347;    0.357952;    0.346781;    0.328981;    0.326205;    0.324714;    0.321819;    0.320871;    0.319498;    0.315384;    0.310795;    0.307625;    0.305340;    0.301892;    0.298172;    0.293847;    0.289109;    0.283146;    0.274938;    0.267568;    0.262140;    0.255580;    0.247090;    0.238188;    0.230652;    0.221198;    0.209276;    0.196995;    0.186826;    0.174357;    0.161746;    0.144927;    0.130887;    0.112911;    0.093188;    0.073237;    0.049475;    0.023227;
 26;    9.310422;    1.016412;    0.912930;    0.868366;    0.821943;    0.776051;    0.729143;    0.677035;    0.617913;    0.547179;    0.496383;    0.425186;    0.406503;    0.381431;    0.364630;    0.353228;    0.335642;    0.333594;    0.332895;    0.330541;    0.327262;    0.321412;    0.320878;    0.318019;    0.315631;    0.310222;    0.305444;    0.300495;    0.295364;    0.288280;    0.280092;    0.273018;    0.268677;    0.264423;    0.258614;    0.251151;    0.241702;    0.231449;    0.223241;    0.215191;    0.205918;    0.192344;    0.179969;    0.166092;    0.148743;    0.132449;    0.114551;    0.094968;    0.076258;    0.052171;    0.026187;
 27;    9.237013;    1.006540;    0.896436;    0.846182;    0.801114;    0.758969;    0.717020;    0.662512;    0.606501;    0.542465;    0.485085;    0.422063;    0.405971;    0.376059;    0.357097;    0.342979;    0.328396;    0.326065;    0.325128;    0.321464;    0.319722;    0.316808;    0.313638;    0.308754;    0.306840;    0.303292;    0.299518;    0.296168;    0.291546;    0.288522;    0.284310;    0.278202;    0.271327;    0.261792;    0.251866;    0.243490;    0.235012;    0.227551;    0.217739;    0.206592;    0.196204;    0.184496;    0.170171;    0.157406;    0.143497;    0.128169;    0.108783;    0.093467;    0.073462;    0.048056;    0.025598;
 28;    9.331979;    1.009862;    0.898155;    0.858057;    0.804224;    0.748985;    0.704739;    0.648862;    0.602218;    0.545098;    0.476975;    0.417037;    0.401669;    0.375516;    0.358547;    0.349091;    0.331178;    0.329159;    0.327814;    0.325484;    0.320557;    0.316462;    0.312647;    0.308911;    0.308223;    0.304966;    0.300476;    0.295033;    0.289988;    0.285355;    0.281706;    0.276752;    0.271431;    0.265223;    0.259492;    0.252863;    0.243256;    0.233275;    0.223638;    0.213373;    0.201795;    0.188343;    0.174766;    0.160527;    0.146459;    0.130542;    0.110769;    0.091145;    0.071678;    0.047247;    0.024777;
 29;    9.854471;    1.019956;    0.902197;    0.858699;    0.816697;    0.763733;    0.718282;    0.660385;    0.600300;    0.532116;    0.472055;    0.415325;    0.397106;    0.376603;    0.358860;    0.347355;    0.333933;    0.332534;    0.330950;    0.329048;    0.325955;    0.322808;    0.317616;    0.312383;    0.308056;    0.303694;    0.300000;    0.295262;    0.291971;    0.286690;    0.280278;    0.275010;    0.268828;    0.262996;    0.255018;    0.248534;    0.240373;    0.231893;    0.223527;    0.211886;    0.200786;    0.190333;    0.176073;    0.160698;    0.144453;    0.126031;    0.111510;    0.093749;    0.072049;    0.049847;    0.028646;
 30;    9.161063;    1.011603;    0.904098;    0.866394;    0.816532;    0.770322;    0.715863;    0.673379;    0.616781;    0.550245;    0.494517;    0.425942;    0.406463;    0.383387;    0.365324;    0.355759;    0.338699;    0.336228;    0.334164;    0.332527;    0.329203;    0.325490;    0.322417;    0.318631;    0.313359;    0.310140;    0.306787;    0.302665;    0.297304;    0.291626;    0.285623;    0.280982;    0.275862;    0.268890;    0.262594;    0.256841;    0.248558;    0.239265;    0.227652;    0.218012;    0.206304;    0.193353;    0.183450;    0.170738;    0.154289;    0.134154;    0.111912;    0.094531;    0.074012;    0.048342;    0.023000;
 31;    9.283247;    1.004854;    0.898546;    0.854080;    0.810376;    0.760522;    0.720298;    0.663556;    0.605962;    0.549374;    0.486247;    0.423393;    0.407545;    0.379051;    0.360163;    0.349549;    0.331630;    0.329715;    0.325106;    0.323750;    0.321130;    0.317513;    0.313358;    0.309544;    0.305978;    0.301610;    0.295826;    0.290602;    0.285333;    0.282490;    0.279133;    0.274064;    0.266626;    0.257067;    0.250722;    0.245300;    0.235426;    0.225374;    0.213871;    0.197066;    0.187301;    0.176831;    0.165434;    0.152830;    0.138622;    0.123792;    0.105543;    0.084930;    0.069420;    0.050345;    0.026466;
 32;    9.253320;    0.998075;    0.901394;    0.852107;    0.810283;    0.764127;    0.698491;    0.654969;    0.602074;    0.535405;    0.475563;    0.419915;    0.408532;    0.379351;    0.356603;    0.346630;    0.331200;    0.329120;    0.326854;    0.325829;    0.323572;    0.319898;    0.317875;    0.314907;    0.311263;    0.308125;    0.303355;    0.298681;    0.292091;    0.286187;    0.280014;    0.273266;    0.267746;    0.261925;    0.254671;    0.245680;    0.235728;    0.226709;    0.216602;    0.207555;    0.196621;    0.185559;    0.173214;    0.155953;    0.137596;    0.125948;    0.109416;    0.092336;    0.072701;    0.050663;    0.026988;
 33;    9.278441;    0.996718;    0.884393;    0.839251;    0.796405;    0.750473;    0.690015;    0.647694;    0.593750;    0.542611;    0.485743;    0.414162;    0.393815;    0.373119;    0.356452;    0.342666;    0.328414;    0.326210;    0.325025;    0.322705;    0.320789;    0.317820;    0.315477;    0.310559;    0.307199;    0.303602;    0.298608;    0.294539;    0.290527;    0.287835;    0.283019;    0.277433;    0.272580;    0.267486;    0.260720;    0.251894;    0.242191;    0.231530;    0.223179;    0.213325;    0.202382;    0.188277;    0.173219;    0.159086;    0.141124;    0.126842;    0.106701;    0.088541;    0.064255;    0.045524;    0.024242;
 34;    9.175606;    1.018115;    0.905113;    0.864850;    0.821548;    0.761034;    0.703819;    0.658103;    0.606436;    0.543864;    0.484117;    0.422103;    0.405550;    0.379871;    0.362002;    0.353338;    0.332760;    0.329796;    0.326469;    0.323208;    0.321304;    0.317890;    0.313707;    0.312684;    0.310636;    0.307371;    0.303416;    0.299420;    0.294087;    0.289369;    0.283845;    0.277581;    0.271199;    0.263877;    0.256524;    0.246200;    0.238746;    0.230142;    0.221071;    0.210729;    0.198792;    0.184029;    0.170684;    0.155574;    0.139885;    0.122937;    0.102340;    0.085386;    0.068608;    0.046319;    0.022700;
 35;    9.187061;    1.000381;    0.898036;    0.860586;    0.805221;    0.749812;    0.697387;    0.644277;    0.603026;    0.548562;    0.488858;    0.421038;    0.400588;    0.380762;    0.360709;    0.350030;    0.330213;    0.327861;    0.327835;    0.325652;    0.321502;    0.318927;    0.315400;    0.313510;    0.309903;    0.308163;    0.304546;    0.299859;    0.292938;    0.288564;    0.283093;    0.278182;    0.272619;    0.266100;    0.259487;    0.252183;    0.244822;    0.235648;    0.224913;    0.211571;    0.198311;    0.188246;    0.176662;    0.161989;    0.143260;    0.127487;    0.108138;    0.092782;    0.073487;    0.049116;    0.026061;
 36;    9.231721;    0.984028;    0.891837;    0.853216;    0.798552;    0.751138;    0.706691;    0.655350;    0.589308;    0.530821;    0.484113;    0.415980;    0.397515;    0.377608;    0.358641;    0.342865;    0.329450;    0.328515;    0.325868;    0.324816;    0.321891;    0.318433;    0.314999;    0.311373;    0.308088;    0.303275;    0.296434;    0.291016;    0.287681;    0.284583;    0.279734;    0.272548;    0.264706;    0.258763;    0.250250;    0.242903;    0.234507;    0.225652;    0.217291;    0.206689;    0.193686;    0.177952;    0.167424;    0.156636;    0.144311;    0.129965;    0.113242;    0.091235;    0.065775;    0.044263;    0.025524;
 37;    9.262898;    0.993459;    0.893667;    0.853160;    0.802817;    0.747615;    0.699065;    0.652578;    0.594783;    0.536549;    0.478054;    0.421067;    0.402247;    0.378540;    0.358564;    0.348417;    0.329843;    0.327241;    0.325417;    0.321912;    0.320137;    0.317782;    0.314563;    0.311738;    0.309010;    0.304941;    0.300516;    0.298022;    0.293990;    0.290694;    0.285058;    0.279455;    0.272875;    0.267774;    0.263096;    0.255459;    0.245804;    0.234817;    0.221102;    0.211059;    0.200801;    0.187363;    0.169246;    0.155341;    0.141469;    0.126956;    0.109574;    0.086741;    0.070706;    0.049807;    0.023943;
 38;    9.277707;    0.998353;    0.892211;    0.847377;    0.797269;    0.752073;    0.702600;    0.645764;    0.597958;    0.535748;    0.474496;    0.421929;    0.407575;    0.381728;    0.363380;    0.352338;    0.335903;    0.332818;    0.330686;    0.328030;    0.324923;    0.321359;    0.318655;    0.313959;    0.311254;    0.306623;    0.299930;    0.296996;    0.293718;    0.289973;    0.284272;    0.278814;    0.273038;    0.266545;    0.258112;    0.249199;    0.241727;    0.232953;    0.225768;    0.216077;    0.204194;    0.191433;    0.179993;    0.167107;    0.151572;    0.134602;    0.119039;    0.099298;    0.076016;    0.051001;    0.028858;
 39;    9.232539;    0.978815;    0.883506;    0.843196;    0.794388;    0.745701;    0.689531;    0.637402;    0.583981;    0.529177;    0.479893;    0.423356;    0.408235;    0.380548;    0.360154;    0.349119;    0.333319;    0.331202;    0.327371;    0.325225;    0.323049;    0.320749;    0.317714;    0.313116;    0.309299;    0.305872;    0.300556;    0.298245;    0.295465;    0.291182;    0.284607;    0.278544;    0.273417;    0.265363;    0.257267;    0.248290;    0.240841;    0.232135;    0.221171;    0.211368;    0.199835;    0.190949;    0.179980;    0.166886;    0.151051;    0.135110;    0.117201;    0.099708;    0.082202;    0.060648;    0.033203;
 40;    9.182496;    1.000570;    0.896346;    0.848846;    0.808561;    0.758972;    0.709012;    0.646045;    0.584217;    0.536378;    0.472111;    0.416781;    0.400833;    0.373629;    0.353199;    0.343785;    0.327160;    0.325497;    0.323164;    0.319056;    0.317140;    0.314059;    0.311586;    0.307527;    0.304283;    0.300640;    0.296398;    0.290938;    0.287628;    0.284551;    0.279176;    0.272426;    0.264854;    0.255724;    0.249428;    0.241342;    0.231991;    0.220659;    0.212304;    0.202525;    0.189396;    0.178037;    0.167428;    0.155169;    0.140976;    0.128107;    0.112882;    0.094816;    0.071980;    0.045404;    0.021559;
 41;    9.197622;    0.994200;    0.890540;    0.850900;    0.795658;    0.756548;    0.700417;    0.641947;    0.593450;    0.532354;    0.478471;    0.418314;    0.405307;    0.379890;    0.361747;    0.350861;    0.331194;    0.328483;    0.327968;    0.326990;    0.324350;    0.322330;    0.318863;    0.315805;    0.312089;    0.307669;    0.303858;    0.300086;    0.295044;    0.289574;    0.282767;    0.277629;    0.271030;    0.263682;    0.256066;    0.248408;    0.239763;    0.229077;    0.219628;    0.211755;    0.201359;    0.189571;    0.174892;    0.163355;    0.148601;    0.130698;    0.111232;    0.088261;    0.071900;    0.051072;    0.027251;
 42;    9.278188;    1.013652;    0.897597;    0.851737;    0.811414;    0.766598;    0.714883;    0.649149;    0.599057;    0.537695;    0.482037;    0.421624;    0.402662;    0.381051;    0.361531;    0.345666;    0.332361;    0.329952;    0.328058;    0.326680;    0.325601;    0.322334;    0.320697;    0.317138;    0.312239;    0.307289;    0.302057;    0.299338;    0.295312;    0.290270;    0.283271;    0.278886;    0.274008;    0.267219;    0.259345;    0.251829;    0.245941;    0.238387;    0.227320;    0.214927;    0.201491;    0.185097;    0.169526;    0.157736;    0.143078;    0.129165;    0.112160;    0.093780;    0.078797;    0.057195;    0.031198;
 43;    9.190426;    1.006294;    0.897431;    0.849768;    0.812328;    0.756590;    0.707629;    0.661732;    0.603751;    0.543588;    0.478953;    0.416198;    0.398931;    0.374610;    0.357806;    0.346624;    0.333614;    0.332125;    0.327498;    0.324011;    0.322591;    0.320927;    0.317776;    0.312928;    0.310207;    0.306568;    0.301830;    0.298671;    0.294350;    0.289856;    0.284053;    0.278542;    0.271542;    0.261730;    0.256198;    0.250267;    0.242341;    0.233214;    0.223069;    0.212997;    0.200325;    0.186863;    0.174635;    0.161294;    0.144156;    0.127142;    0.109436;    0.089634;    0.071867;    0.046918;    0.026921;
 44;    9.205007;    1.007263;    0.904025;    0.861057;    0.828614;    0.777562;    0.718370;    0.665644;    0.609717;    0.544240;    0.477229;    0.422231;    0.408253;    0.384598;    0.365009;    0.350502;    0.334250;    0.332525;    0.331474;    0.330243;    0.328041;    0.325102;    0.322352;    0.317975;    0.314155;    0.310931;    0.307235;    0.303041;    0.296338;    0.289161;    0.284328;    0.278604;    0.274052;    0.267514;    0.262372;    0.254920;    0.246455;    0.236819;    0.224915;    0.209478;    0.200351;    0.186405;    0.170446;    0.153317;    0.140105;    0.123030;    0.107748;    0.090592;    0.072047;    0.050832;    0.026075;
 45;    9.427878;    0.993288;    0.889595;    0.840124;    0.790612;    0.746854;    0.706233;    0.659121;    0.603130;    0.537509;    0.486341;    0.423981;    0.408359;    0.383213;    0.364156;    0.354787;    0.335466;    0.334038;    0.333054;    0.330685;    0.329073;    0.326546;    0.324531;    0.322027;    0.317058;    0.314034;    0.309292;    0.304433;    0.298363;    0.294243;    0.289596;    0.284384;    0.278902;    0.272315;    0.264863;    0.256564;    0.248673;    0.239923;    0.230801;    0.221151;    0.211385;    0.200382;    0.186615;    0.168747;    0.150400;    0.132172;    0.113351;    0.093570;    0.070406;    0.049500;    0.023105;
 46;    9.209705;    1.006302;    0.895737;    0.843160;    0.802640;    0.761399;    0.702222;    0.653123;    0.598639;    0.531250;    0.472565;    0.413896;    0.397981;    0.375207;    0.358355;    0.347999;    0.330774;    0.329158;    0.325754;    0.323724;    0.321341;    0.317602;    0.315826;    0.313055;    0.308531;    0.305057;    0.302476;    0.299014;    0.294155;    0.288522;    0.282636;    0.277039;    0.271589;    0.262466;    0.253708;    0.247065;    0.239376;    0.229651;    0.216437;    0.207869;    0.199053;    0.186814;    0.172900;    0.158455;    0.144431;    0.130888;    0.111987;    0.091157;    0.071362;    0.047302;    0.024630;
 47;    9.198356;    1.017784;    0.906915;    0.857071;    0.819867;    0.778559;    0.725216;    0.660455;    0.608297;    0.545525;    0.488819;    0.422223;    0.404993;    0.381029;    0.360667;    0.348412;    0.331306;    0.325580;    0.324295;    0.319712;    0.318843;    0.316610;    0.313902;    0.311568;    0.307775;    0.302993;    0.299826;    0.295717;    0.291287;    0.286484;    0.281756;    0.276976;    0.272004;    0.265998;    0.257685;    0.247969;    0.241581;    0.233691;    0.223500;    0.214659;    0.204105;    0.191501;    0.178639;    0.164812;    0.147275;    0.132939;    0.115927;    0.096135;    0.075713;    0.048753;    0.026852;
 48;    9.233900;    0.998317;    0.899443;    0.853928;    0.801190;    0.757237;    0.703351;    0.656300;    0.593446;    0.537882;    0.483349;    0.423033;    0.407785;    0.378768;    0.360293;    0.348848;    0.331348;    0.329064;    0.329410;    0.328397;    0.325785;    0.320800;    0.317414;    0.314922;    0.311319;    0.308010;    0.303502;    0.296608;    0.292021;    0.286768;    0.281083;    0.275735;    0.268927;    0.259848;    0.253725;    0.244348;    0.234904;    0.225293;    0.216870;    0.209129;    0.199170;    0.187667;    0.173460;    0.156674;    0.143231;    0.128288;    0.109545;    0.089064;    0.069195;    0.050254;    0.026788;
 49;    9.135629;    0.998245;    0.896227;    0.850528;    0.804897;    0.741962;    0.696224;    0.656858;    0.600909;    0.553457;    0.488695;    0.425663;    0.403785;    0.381014;    0.361018;    0.349449;    0.330962;    0.330283;    0.327412;    0.326954;    0.325190;    0.322625;    0.318613;    0.312873;    0.309967;    0.305769;    0.303817;    0.302176;    0.299072;    0.294472;    0.288780;    0.282367;    0.275833;    0.268738;    0.260147;    0.249246;    0.235509;    0.227346;    0.217856;    0.206860;    0.195792;    0.184140;    0.170747;    0.155207;    0.142620;    0.127705;    0.111689;    0.092179;    0.074970;    0.054758;    0.029835;
 50;    9.079147;    1.001286;    0.893336;    0.850796;    0.803966;    0.761162;    0.700056;    0.657890;    0.603482;    0.536640;    0.490276;    0.427148;    0.403661;    0.380243;    0.361117;    0.352377;    0.339710;    0.337493;    0.331533;    0.328618;    0.325001;    0.323333;    0.318288;    0.315994;    0.312865;    0.307775;    0.306406;    0.304049;    0.300353;    0.295622;    0.290934;    0.284421;    0.276999;    0.268251;    0.259768;    0.253184;    0.244680;    0.234911;    0.224485;    0.211888;    0.203098;    0.191454;    0.177335;    0.163597;    0.147947;    0.128926;    0.110914;    0.090918;    0.075054;    0.052928;    0.023765;
 51;    9.092619;    1.025306;    0.914736;    0.871495;    0.812376;    0.768168;    0.715846;    0.669253;    0.616350;    0.546916;    0.489089;    0.421294;    0.400003;    0.379300;    0.360246;    0.347660;    0.334409;    0.330963;    0.330971;    0.329706;    0.326595;    0.323851;    0.319886;    0.315480;    0.312839;    0.310294;    0.306112;    0.303485;    0.298642;    0.291874;    0.286023;    0.279871;    0.275199;    0.269158;    0.262903;    0.256474;    0.246429;    0.237771;    0.227617;    0.216331;    0.204112;    0.191627;    0.178646;    0.163871;    0.148764;    0.131738;    0.115910;    0.095575;    0.070902;    0.049984;    0.026172;
 52;    9.360689;    0.996490;    0.892209;    0.851007;    0.796620;    0.757449;    0.702415;    0.645579;    0.585681;    0.530024;    0.470879;    0.419907;    0.403863;    0.380469;    0.361402;    0.351410;    0.333230;    0.330665;    0.328595;    0.325372;    0.322955;    0.319318;    0.316792;    0.313381;    0.310206;    0.305153;    0.299532;    0.295984;    0.290026;    0.286241;    0.280617;    0.276192;    0.271222;    0.263792;    0.254062;    0.243580;    0.236561;    0.227970;    0.217700;    0.208872;    0.196810;    0.183136;    0.172802;    0.158584;    0.142510;    0.128930;    0.112334;    0.092052;    0.071644;    0.047107;    0.023775;
 53;    9.121471;    0.991267;    0.901087;    0.851798;    0.815953;    0.762160;    0.706201;    0.657806;    0.604779;    0.540656;    0.488699;    0.418293;    0.403967;    0.377031;    0.356682;    0.346714;    0.331642;    0.330306;    0.329192;    0.326577;    0.322709;    0.319870;    0.317388;    0.314286;    0.311061;    0.305788;    0.302237;    0.298279;    0.292961;    0.289472;    0.284325;    0.278520;    0.272942;    0.264871;    0.257682;    0.249117;    0.241225;    0.233440;    0.222486;    0.208163;    0.200138;    0.190426;    0.177554;    0.161299;    0.143873;    0.127204;    0.113234;    0.096913;    0.076094;    0.052592;    0.028063;
 54;    9.146454;    1.008642;    0.901145;    0.848265;    0.805684;    0.758962;    0.715501;    0.666888;    0.607760;    0.536558;    0.473744;    0.416866;    0.398491;    0.376707;    0.358914;    0.347900;    0.334858;    0.333311;    0.330877;    0.328455;    0.327900;    0.325370;    0.320962;    0.319061;    0.316952;    0.313908;    0.309129;    0.302814;    0.297082;    0.291664;    0.287605;    0.282505;    0.276745;    0.270923;    0.264085;    0.255480;    0.245587;    0.234140;    0.223842;    0.211452;    0.201152;    0.189568;    0.174889;    0.160181;    0.145858;    0.130131;    0.113779;    0.094629;    0.072514;    0.045158;    0.024464;
 55;    9.178297;    0.988158;    0.881163;    0.842919;    0.803708;    0.754510;    0.699331;    0.650505;    0.605458;    0.548649;    0.483324;    0.423373;    0.409351;    0.379160;    0.357911;    0.348463;    0.335230;    0.332559;    0.330374;    0.329327;    0.327457;    0.325459;    0.322587;    0.318460;    0.313825;    0.310695;    0.306901;    0.301761;    0.295814;    0.290434;    0.287556;    0.282850;    0.276249;    0.270078;    0.262294;    0.253105;    0.243135;    0.234205;    0.224095;    0.211718;    0.201315;    0.188606;    0.175434;    0.161344;    0.145569;    0.130327;    0.112935;    0.092937;    0.068712;    0.048438;    0.024967;
 56;    9.127193;    0.993992;    0.887859;    0.842227;    0.790125;    0.739837;    0.687044;    0.638030;    0.582195;    0.532648;    0.477930;    0.424224;    0.402351;    0.378996;    0.358992;    0.348790;    0.329986;    0.327319;    0.325312;    0.322306;    0.320630;    0.317640;    0.315579;    0.312948;    0.310362;    0.306615;    0.302626;    0.299129;    0.294167;    0.288182;    0.282395;    0.277309;    0.270702;    0.263421;    0.255645;    0.245899;    0.236792;    0.229527;    0.220873;    0.210958;    0.200467;    0.187831;    0.174322;    0.157898;    0.143857;    0.129238;    0.109132;    0.086364;    0.067106;    0.047558;    0.025553;
 57;    9.148440;    1.015420;    0.909608;    0.865521;    0.812963;    0.768441;    0.708359;    0.656183;    0.601075;    0.541869;    0.488221;    0.424735;    0.409072;    0.382867;    0.365113;    0.355699;    0.335333;    0.333428;    0.329416;    0.325517;    0.324026;    0.319900;    0.318338;    0.314355;    0.310231;    0.304554;    0.301199;    0.295192;    0.288318;    0.282465;    0.278336;    0.272615;    0.266373;    0.260940;    0.254053;    0.246404;    0.237853;    0.231867;    0.222600;    0.211550;    0.198846;    0.185374;    0.175395;    0.163511;    0.148784;    0.135632;    0.118469;    0.096966;    0.070565;    0.046986;    0.026896;
 58;    9.141792;    1.005850;    0.899529;    0.851339;    0.801713;    0.758845;    0.703010;    0.658906;    0.601140;    0.544576;    0.487424;    0.422357;    0.405313;    0.381842;    0.362755;    0.352528;    0.330481;    0.327601;    0.326662;    0.323342;    0.321589;    0.318809;    0.317125;    0.314439;    0.311823;    0.308600;    0.304997;    0.300411;    0.296079;    0.289469;    0.281876;    0.276976;    0.269265;    0.264579;    0.257715;    0.249169;    0.240689;    0.230451;    0.220995;    0.212252;    0.201722;    0.187865;    0.174203;    0.159453;    0.145290;    0.129167;    0.111044;    0.094165;    0.073114;    0.048968;    0.023639;
 59;    9.126886;    0.995907;    0.896129;    0.845850;    0.794522;    0.754272;    0.706161;    0.642220;    0.586959;    0.538314;    0.489652;    0.419790;    0.396904;    0.376343;    0.358528;    0.349083;    0.330821;    0.328939;    0.328297;    0.326094;    0.323821;    0.321311;    0.317496;    0.315870;    0.312786;    0.308790;    0.304713;    0.300814;    0.297304;    0.291712;    0.284726;    0.278038;    0.268170;    0.263082;    0.257650;    0.249686;    0.242883;    0.233592;    0.226616;    0.218343;    0.207562;    0.196030;    0.181963;    0.167159;    0.151175;    0.136178;    0.117274;    0.097934;    0.075541;    0.052522;    0.029900;
 60;    9.158911;    1.004907;    0.900289;    0.858418;    0.812876;    0.763315;    0.717314;    0.664717;    0.598274;    0.534891;    0.478549;    0.423682;    0.407914;    0.382249;    0.362691;    0.349671;    0.334170;    0.333454;    0.331848;    0.329818;    0.326215;    0.322910;    0.319417;    0.317900;    0.314274;    0.309656;    0.306631;    0.301370;    0.297831;    0.294005;    0.288648;    0.282305;    0.275610;    0.270660;    0.264261;    0.255247;    0.246859;    0.236481;    0.226074;    0.216293;    0.205245;    0.192297;    0.175815;    0.163089;    0.148984;    0.131459;    0.111508;    0.094379;    0.072548;    0.052072;    0.026716;
 61;    9.208143;    0.997099;    0.894267;    0.848642;    0.809246;    0.764282;    0.704985;    0.660047;    0.605659;    0.549491;    0.485714;    0.424288;    0.404702;    0.383489;    0.363029;    0.351984;    0.332593;    0.330446;    0.329490;    0.328069;    0.324296;    0.318939;    0.316638;    0.314042;    0.309722;    0.305778;    0.301119;    0.297994;    0.293421;    0.287691;    0.282793;    0.277105;    0.268861;    0.261440;    0.254919;    0.248270;    0.240838;    0.232397;    0.221880;    0.208041;    0.197171;    0.183480;    0.169939;    0.156372;    0.139454;    0.123075;    0.107481;    0.089474;    0.071592;    0.050736;    0.025780;
 62;    9.152487;    0.992652;    0.887834;    0.846542;    0.799246;    0.744217;    0.691372;    0.647738;    0.587757;    0.529338;    0.476584;    0.419725;    0.408417;    0.377361;    0.357634;    0.346166;    0.328327;    0.326993;    0.325191;    0.322318;    0.318611;    0.318006;    0.315702;    0.312446;    0.307927;    0.303692;    0.298414;    0.292764;    0.287628;    0.283328;    0.277528;    0.272480;    0.266728;    0.259766;    0.251529;    0.243184;    0.234180;    0.227507;    0.219274;    0.210883;    0.198893;    0.188369;    0.175326;    0.162397;    0.147700;    0.130462;    0.110633;    0.089461;    0.070108;    0.051930;    0.027157;
 63;    9.100136;    1.000193;    0.888914;    0.844464;    0.790619;    0.746567;    0.692853;    0.653185;    0.603556;    0.553883;    0.491840;    0.424525;    0.408543;    0.379292;    0.359843;    0.346554;    0.331827;    0.330759;    0.328441;    0.322673;    0.320376;    0.318971;    0.316029;    0.311068;    0.308014;    0.304081;    0.300797;    0.296641;    0.292209;    0.289388;    0.284851;    0.278149;    0.271626;    0.265880;    0.259178;    0.250165;    0.240485;    0.230207;    0.220324;    0.211358;    0.201589;    0.190337;    0.178215;    0.165081;    0.149908;    0.131449;    0.109833;    0.084777;    0.063922;    0.047219;    0.027275;
 64;    9.124368;    1.005015;    0.899386;    0.862396;    0.807977;    0.763969;    0.715631;    0.668160;    0.611792;    0.551426;    0.485314;    0.423995;    0.407891;    0.382234;    0.361891;    0.346108;    0.331234;    0.330203;    0.328128;    0.325690;    0.323411;    0.320576;    0.317286;    0.315312;    0.312448;    0.308800;    0.304542;    0.299868;    0.296957;    0.292530;    0.286085;    0.281912;    0.278334;    0.272695;    0.266035;    0.257516;    0.249641;    0.241035;    0.229248;    0.214798;    0.202979;    0.191767;    0.179895;    0.164954;    0.149853;    0.130771;    0.113330;    0.092801;    0.069208;    0.046255;    0.027533;
 65;    9.220220;    0.981554;    0.884471;    0.837628;    0.798743;    0.750472;    0.705486;    0.641426;    0.587974;    0.534493;    0.475243;    0.422229;    0.401695;    0.379910;    0.361666;    0.351669;    0.334643;    0.331605;    0.325831;    0.324957;    0.322470;    0.320242;    0.318743;    0.315709;    0.312276;    0.309320;    0.304710;    0.300074;    0.294576;    0.288364;    0.281163;    0.275074;    0.270187;    0.264585;    0.257272;    0.249820;    0.242364;    0.233206;    0.223173;    0.211999;    0.201631;    0.188814;    0.175842;    0.163158;    0.147903;    0.136075;    0.120229;    0.100378;    0.076297;    0.053237;    0.026732;
 66;    9.161099;    1.001906;    0.900381;    0.859817;    0.814215;    0.762893;    0.710109;    0.666196;    0.605644;    0.539927;    0.487353;    0.421929;    0.407520;    0.379341;    0.358594;    0.346970;    0.332258;    0.330114;    0.326882;    0.324025;    0.321663;    0.319583;    0.316810;    0.314014;    0.311162;    0.307937;    0.302176;    0.295384;    0.289911;    0.286390;    0.281911;    0.278250;    0.273582;    0.268337;    0.262010;    0.254204;    0.244501;    0.237288;    0.228197;    0.217967;    0.204830;    0.192980;    0.176672;    0.162926;    0.144668;    0.127278;    0.111662;    0.090929;    0.073593;    0.050574;    0.026421;
 67;    9.138274;    0.996007;    0.896762;    0.844676;    0.803241;    0.757504;    0.702881;    0.636093;    0.589295;    0.534366;    0.483292;    0.422443;    0.405648;    0.383619;    0.364117;    0.351812;    0.331334;    0.329342;    0.326564;    0.324446;    0.322373;    0.318120;    0.313653;    0.309077;    0.307528;    0.304272;    0.300532;    0.296720;    0.291896;    0.286157;    0.281654;    0.276245;    0.270042;    0.263058;    0.254047;    0.246185;    0.237184;    0.229390;    0.217828;    0.204827;    0.196789;    0.186584;    0.173418;    0.157862;    0.140754;    0.126853;    0.107732;    0.086712;    0.067350;    0.050105;    0.026452;
 68;    9.157434;    1.001906;    0.897809;    0.853333;    0.797937;    0.753968;    0.704466;    0.662966;    0.596364;    0.547039;    0.482750;    0.422680;    0.403525;    0.380269;    0.360451;    0.350986;    0.332452;    0.331320;    0.327355;    0.325265;    0.323542;    0.318939;    0.316621;    0.311923;    0.309316;    0.308083;    0.304757;    0.300113;    0.296475;    0.291180;    0.283946;    0.275648;    0.271385;    0.266088;    0.260890;    0.254440;    0.247089;    0.238747;    0.228679;    0.217608;    0.204622;    0.193610;    0.183903;    0.170970;    0.157044;    0.137035;    0.119180;    0.098476;    0.073501;    0.053085;    0.027556;
 69;    9.068753;    0.996116;    0.900587;    0.854080;    0.813805;    0.769078;    0.729751;    0.679565;    0.622176;    0.556010;    0.489064;    0.428966;    0.413307;    0.386562;    0.365045;    0.354791;    0.334501;    0.331353;    0.331047;    0.328374;    0.326261;    0.323025;    0.320859;    0.317833;    0.313150;    0.310509;    0.307305;    0.303054;    0.298139;    0.294177;    0.289330;    0.282370;    0.274826;    0.268847;    0.260066;    0.252154;    0.240981;    0.232754;    0.223258;    0.212888;    0.201064;    0.188714;    0.174859;    0.160751;    0.147702;    0.129720;    0.112600;    0.095553;    0.078103;    0.055221;    0.027212;
 70;    9.164399;    1.013295;    0.908598;    0.858159;    0.819119;    0.764187;    0.706317;    0.648378;    0.599734;    0.534132;    0.476696;    0.421683;    0.402825;    0.383623;    0.364592;    0.353942;    0.334208;    0.332371;    0.330677;    0.327843;    0.326334;    0.323526;    0.319698;    0.318100;    0.313969;    0.308612;    0.304476;    0.301293;    0.296496;    0.291622;    0.285334;    0.277821;    0.270407;    0.265064;    0.258758;    0.250656;    0.241425;    0.231701;    0.220061;    0.205827;    0.195730;    0.181060;    0.171374;    0.160205;    0.147167;    0.133071;    0.116342;    0.098077;    0.078576;    0.056156;    0.026596;
 71;    9.107249;    1.003457;    0.897052;    0.850233;    0.801299;    0.758077;    0.706989;    0.653671;    0.605997;    0.538759;    0.474537;    0.421141;    0.403674;    0.380757;    0.362055;    0.350009;    0.330982;    0.329758;    0.327447;    0.324868;    0.323296;    0.321251;    0.317904;    0.316441;    0.313645;    0.311424;    0.308136;    0.303365;    0.297184;    0.292812;    0.288530;    0.282648;    0.275063;    0.266977;    0.257320;    0.246157;    0.236401;    0.228644;    0.219531;    0.210716;    0.200802;    0.188347;    0.176574;    0.164416;    0.150299;    0.134366;    0.118068;    0.099196;    0.074919;    0.052477;    0.028591;
 72;    9.166986;    1.007677;    0.899490;    0.861710;    0.817813;    0.765481;    0.715258;    0.659309;    0.607717;    0.539540;    0.490376;    0.420653;    0.405745;    0.381102;    0.362397;    0.350806;    0.333043;    0.330697;    0.327653;    0.325941;    0.324960;    0.322516;    0.319322;    0.315736;    0.313080;    0.309511;    0.304987;    0.302152;    0.297604;    0.292126;    0.288840;    0.283392;    0.275576;    0.267584;    0.259331;    0.249371;    0.241860;    0.233903;    0.223904;    0.214455;    0.202511;    0.188598;    0.173294;    0.156482;    0.142209;    0.126432;    0.109830;    0.091197;    0.068860;    0.048647;    0.025738;
 73;    9.328680;    1.030898;    0.920008;    0.880317;    0.824004;    0.778082;    0.737938;    0.682386;    0.613539;    0.557125;    0.487745;    0.431920;    0.413098;    0.386229;    0.366110;    0.356729;    0.340090;    0.335854;    0.333375;    0.332959;    0.330313;    0.326195;    0.322911;    0.318359;    0.314694;    0.311120;    0.306072;    0.303726;    0.299990;    0.294538;    0.290461;    0.287062;    0.281402;    0.275455;    0.267876;    0.258897;    0.247968;    0.236905;    0.227171;    0.215831;    0.205574;    0.194546;    0.182555;    0.166909;    0.148502;    0.131581;    0.112260;    0.095555;    0.078171;    0.054822;    0.025682;
 74;    9.110638;    1.008475;    0.895637;    0.847659;    0.811471;    0.762233;    0.705739;    0.653913;    0.601084;    0.541018;    0.482175;    0.425923;    0.410285;    0.385287;    0.366075;    0.355584;    0.336379;    0.333828;    0.332284;    0.330929;    0.330407;    0.327528;    0.323469;    0.320950;    0.317032;    0.313361;    0.307589;    0.304240;    0.299959;    0.294734;    0.289605;    0.283533;    0.278361;    0.273785;    0.268594;    0.262231;    0.255125;    0.245157;    0.235818;    0.224938;    0.213452;    0.199212;    0.186422;    0.171161;    0.153384;    0.137181;    0.117207;    0.099576;    0.077925;    0.053217;    0.026551;
 75;    9.214772;    0.990927;    0.886201;    0.839639;    0.797005;    0.754436;    0.709017;    0.649006;    0.587923;    0.531566;    0.474774;    0.416116;    0.400554;    0.375452;    0.358147;    0.348526;    0.336014;    0.332373;    0.329997;    0.328610;    0.326146;    0.323023;    0.321099;    0.317621;    0.314707;    0.311030;    0.305920;    0.301722;    0.296594;    0.290128;    0.282541;    0.273240;    0.267418;    0.262165;    0.255956;    0.248799;    0.240770;    0.230673;    0.217286;    0.206356;    0.197751;    0.185289;    0.174767;    0.162253;    0.147415;    0.129537;    0.110752;    0.089626;    0.070941;    0.047681;    0.026220;
 76;    9.030479;    1.010386;    0.899244;    0.860588;    0.804795;    0.761522;    0.699902;    0.656014;    0.594482;    0.548680;    0.487781;    0.424267;    0.405646;    0.384671;    0.366931;    0.354857;    0.338547;    0.336267;    0.334334;    0.331815;    0.327478;    0.325482;    0.321655;    0.318861;    0.315152;    0.311522;    0.307953;    0.303768;    0.299578;    0.296760;    0.291905;    0.285942;    0.279413;    0.271359;    0.264486;    0.258110;    0.250509;    0.242081;    0.232850;    0.222163;    0.207103;    0.194106;    0.179010;    0.161107;    0.146755;    0.131474;    0.113923;    0.097925;    0.077621;    0.053756;    0.026292;
 77;    8.962078;    0.974160;    0.873159;    0.825212;    0.785231;    0.739730;    0.693319;    0.638233;    0.581047;    0.532864;    0.470713;    0.415054;    0.400492;    0.373125;    0.355298;    0.341027;    0.326635;    0.324499;    0.323169;    0.320613;    0.319586;    0.316806;    0.314657;    0.312007;    0.309757;    0.305699;    0.302121;    0.297667;    0.291583;    0.287528;    0.282962;    0.276978;    0.271119;    0.265799;    0.258008;    0.249149;    0.241914;    0.232437;    0.222207;    0.210338;    0.199626;    0.188546;    0.174999;    0.159482;    0.144976;    0.129397;    0.111898;    0.092298;    0.072796;    0.052792;    0.027733;
 78;    9.017939;    0.990573;    0.893251;    0.844143;    0.800353;    0.751002;    0.701995;    0.642293;    0.584101;    0.527600;    0.480849;    0.421442;    0.406872;    0.378740;    0.360054;    0.345998;    0.328934;    0.327063;    0.325862;    0.322604;    0.321803;    0.318188;    0.315855;    0.312582;    0.307754;    0.306398;    0.303962;    0.300719;    0.296075;    0.291602;    0.286628;    0.280106;    0.274149;    0.265955;    0.258471;    0.250382;    0.243452;    0.235190;    0.225375;    0.213841;    0.198292;    0.188172;    0.175574;    0.160303;    0.146630;    0.130715;    0.115482;    0.094949;    0.073477;    0.054067;    0.030139;
 79;    9.021637;    1.002545;    0.898183;    0.845004;    0.799651;    0.758226;    0.695335;    0.641664;    0.598613;    0.542453;    0.469931;    0.415073;    0.400733;    0.375397;    0.358476;    0.343493;    0.327687;    0.327005;    0.324538;    0.320391;    0.318548;    0.316129;    0.312789;    0.309489;    0.306793;    0.302340;    0.298608;    0.295357;    0.290741;    0.285715;    0.279625;    0.273092;    0.267347;    0.262690;    0.255996;    0.246822;    0.237238;    0.225823;    0.216075;    0.208393;    0.198408;    0.184817;    0.169107;    0.153831;    0.135750;    0.119011;    0.105029;    0.085744;    0.069224;    0.049659;    0.027267;
 80;    9.102105;    0.984620;    0.877879;    0.843424;    0.797339;    0.745965;    0.691940;    0.634639;    0.588948;    0.529506;    0.469816;    0.412344;    0.397269;    0.372719;    0.355116;    0.341249;    0.334442;    0.328547;    0.325433;    0.325124;    0.324038;    0.320699;    0.316256;    0.312478;    0.308614;    0.305760;    0.301486;    0.297266;    0.292487;    0.286375;    0.279509;    0.272989;    0.266224;    0.260453;    0.253397;    0.244004;    0.236712;    0.227413;    0.220686;    0.211561;    0.200981;    0.188103;    0.172961;    0.161136;    0.144951;    0.129138;    0.109094;    0.093171;    0.072861;    0.050300;    0.024500;
 81;    9.146029;    0.990189;    0.887718;    0.845098;    0.793354;    0.747618;    0.700951;    0.658286;    0.607253;    0.548455;    0.479580;    0.419766;    0.399265;    0.379590;    0.361053;    0.349040;    0.331980;    0.330270;    0.325358;    0.323116;    0.321298;    0.319548;    0.317424;    0.313676;    0.309375;    0.306977;    0.302317;    0.296606;    0.290210;    0.283387;    0.278732;    0.273820;    0.267863;    0.261504;    0.253291;    0.247217;    0.239304;    0.229698;    0.219670;    0.207848;    0.197638;    0.185893;    0.172383;    0.158887;    0.145482;    0.129772;    0.111470;    0.088762;    0.067626;    0.047197;    0.021372;
 82;    9.062770;    0.984674;    0.881116;    0.845133;    0.799073;    0.755981;    0.710066;    0.662351;    0.603567;    0.538894;    0.476936;    0.416483;    0.401331;    0.375464;    0.357694;    0.346234;    0.331048;    0.329996;    0.328167;    0.325538;    0.320771;    0.317579;    0.313225;    0.309842;    0.304699;    0.300150;    0.297032;    0.292674;    0.289119;    0.284319;    0.280235;    0.273543;    0.265109;    0.255737;    0.250071;    0.243307;    0.235541;    0.225710;    0.214910;    0.206727;    0.196749;    0.186865;    0.172904;    0.156478;    0.140752;    0.125948;    0.108783;    0.086576;    0.068082;    0.050055;    0.025967;
 83;    9.018969;    0.980053;    0.883788;    0.836709;    0.790854;    0.751813;    0.708790;    0.658805;    0.608767;    0.545760;    0.485417;    0.422286;    0.401768;    0.381466;    0.361775;    0.350431;    0.331224;    0.327858;    0.325440;    0.321600;    0.320629;    0.318823;    0.315473;    0.312515;    0.309117;    0.303817;    0.301909;    0.298424;    0.292562;    0.288322;    0.282592;    0.276259;    0.270736;    0.266090;    0.259596;    0.251535;    0.241911;    0.233793;    0.224677;    0.215289;    0.205163;    0.194551;    0.181380;    0.165767;    0.146757;    0.131419;    0.115968;    0.096299;    0.076686;    0.053976;    0.025506;
 84;    9.032508;    0.997126;    0.904114;    0.860586;    0.812494;    0.760294;    0.706282;    0.660697;    0.606957;    0.536779;    0.483157;    0.422148;    0.405592;    0.382399;    0.362707;    0.352213;    0.330908;    0.328641;    0.326861;    0.325903;    0.322684;    0.319056;    0.316964;    0.312906;    0.309702;    0.305737;    0.301203;    0.294414;    0.289012;    0.285936;    0.281371;    0.275645;    0.269452;    0.261831;    0.253044;    0.245411;    0.234992;    0.228760;    0.220402;    0.210258;    0.196543;    0.185583;    0.171974;    0.158137;    0.143931;    0.128452;    0.111154;    0.093104;    0.070850;    0.050392;    0.026944;
 85;    9.236653;    1.004592;    0.905883;    0.865245;    0.817418;    0.766494;    0.715841;    0.662415;    0.613040;    0.550554;    0.492200;    0.422084;    0.403674;    0.379311;    0.360135;    0.351667;    0.329450;    0.327923;    0.325236;    0.321996;    0.320797;    0.319739;    0.316693;    0.313730;    0.308122;    0.302992;    0.298825;    0.294091;    0.290615;    0.285021;    0.279008;    0.272420;    0.265978;    0.259367;    0.251179;    0.243052;    0.234693;    0.226442;    0.217838;    0.209033;    0.198632;    0.186643;    0.172497;    0.155107;    0.143193;    0.127785;    0.109829;    0.094885;    0.075033;    0.052900;    0.026828;
 86;    9.280120;    1.004091;    0.891036;    0.844290;    0.799452;    0.748187;    0.699350;    0.650710;    0.595132;    0.544511;    0.487095;    0.421853;    0.408796;    0.380818;    0.359705;    0.350697;    0.334178;    0.330487;    0.327221;    0.326486;    0.323105;    0.321698;    0.318969;    0.314398;    0.312449;    0.309185;    0.305744;    0.300996;    0.295469;    0.289591;    0.284448;    0.279184;    0.272662;    0.266340;    0.258483;    0.251313;    0.244752;    0.237425;    0.227769;    0.215044;    0.203060;    0.190139;    0.178224;    0.161772;    0.148133;    0.133718;    0.115141;    0.094459;    0.076600;    0.055303;    0.028454;
 87;    9.287554;    0.999893;    0.892027;    0.851341;    0.795549;    0.748396;    0.695667;    0.652818;    0.587412;    0.534335;    0.485132;    0.422581;    0.404203;    0.378305;    0.357995;    0.342883;    0.331335;    0.328714;    0.325274;    0.323583;    0.320649;    0.316306;    0.310789;    0.309245;    0.305681;    0.302451;    0.297829;    0.293287;    0.288838;    0.284908;    0.280075;    0.273430;    0.266114;    0.260336;    0.255031;    0.248355;    0.239504;    0.226961;    0.212918;    0.201789;    0.191103;    0.181137;    0.167943;    0.154826;    0.140640;    0.126470;    0.107500;    0.086944;    0.067046;    0.045529;    0.021738;
 88;    9.161185;    1.009801;    0.898326;    0.853845;    0.815016;    0.761259;    0.722657;    0.675905;    0.618739;    0.555619;    0.479288;    0.420038;    0.401194;    0.376126;    0.359235;    0.350257;    0.335977;    0.331534;    0.329295;    0.327239;    0.324224;    0.320815;    0.318725;    0.315792;    0.310875;    0.306939;    0.303879;    0.300322;    0.293873;    0.290307;    0.284690;    0.276318;    0.267519;    0.260918;    0.254789;    0.246442;    0.238069;    0.228710;    0.219141;    0.208911;    0.196719;    0.181281;    0.166424;    0.152369;    0.139665;    0.121054;    0.104835;    0.084770;    0.064033;    0.045783;    0.020666;
 89;    9.173716;    1.008935;    0.903638;    0.864997;    0.811582;    0.769403;    0.712775;    0.650666;    0.598855;    0.527150;    0.478395;    0.420047;    0.405149;    0.380516;    0.362201;    0.351738;    0.332195;    0.329665;    0.326342;    0.324991;    0.322767;    0.320567;    0.317131;    0.315593;    0.311965;    0.308857;    0.305594;    0.301628;    0.295302;    0.292580;    0.287316;    0.279322;    0.270920;    0.262830;    0.256199;    0.249199;    0.241277;    0.232509;    0.222851;    0.213567;    0.203174;    0.191430;    0.178482;    0.161504;    0.142897;    0.126626;    0.105942;    0.088503;    0.072264;    0.051888;    0.029231;
 90;    9.197087;    0.998702;    0.897963;    0.851401;    0.803004;    0.764754;    0.710610;    0.669783;    0.604272;    0.547799;    0.489334;    0.423871;    0.408635;    0.379382;    0.360248;    0.348951;    0.330344;    0.328820;    0.325221;    0.323682;    0.320486;    0.317947;    0.313541;    0.312818;    0.311027;    0.307210;    0.302472;    0.299575;    0.294924;    0.288650;    0.284172;    0.278686;    0.273018;    0.266529;    0.258262;    0.252008;    0.243567;    0.234429;    0.224825;    0.213042;    0.199893;    0.187634;    0.175056;    0.160435;    0.142754;    0.127174;    0.111258;    0.093118;    0.073593;    0.051176;    0.029991;
 91;    9.463691;    1.007746;    0.899390;    0.863657;    0.811376;    0.754468;    0.710210;    0.652872;    0.600591;    0.538573;    0.483820;    0.420922;    0.407534;    0.380619;    0.362176;    0.353975;    0.338794;    0.337546;    0.334268;    0.330765;    0.327620;    0.324380;    0.319592;    0.315361;    0.313406;    0.310013;    0.305100;    0.301984;    0.297873;    0.292020;    0.286198;    0.280604;    0.274180;    0.266752;    0.260256;    0.252481;    0.244111;    0.237057;    0.227857;    0.215759;    0.200998;    0.190122;    0.179795;    0.169465;    0.154848;    0.138138;    0.121016;    0.103240;    0.081298;    0.055197;    0.027052;
 92;    9.388585;    0.992210;    0.888676;    0.841135;    0.801049;    0.753528;    0.695444;    0.644431;    0.589876;    0.540893;    0.479735;    0.419325;    0.404321;    0.377864;    0.360309;    0.347403;    0.328398;    0.328766;    0.327902;    0.326028;    0.323436;    0.319262;    0.313072;    0.311505;    0.308164;    0.304615;    0.300369;    0.298010;    0.294895;    0.290350;    0.284544;    0.277997;    0.272621;    0.268322;    0.261044;    0.253210;    0.241928;    0.233422;    0.223167;    0.213578;    0.201777;    0.187432;    0.175964;    0.163700;    0.148278;    0.129467;    0.114743;    0.096216;    0.075123;    0.047612;    0.025640;
 93;    9.439466;    1.005823;    0.902867;    0.862927;    0.814991;    0.770756;    0.726731;    0.667632;    0.610479;    0.548866;    0.487192;    0.424403;    0.406018;    0.383717;    0.362411;    0.351002;    0.334613;    0.331135;    0.329661;    0.326791;    0.326458;    0.323823;    0.319491;    0.317197;    0.313883;    0.309966;    0.305659;    0.301333;    0.296147;    0.292950;    0.287608;    0.280585;    0.273911;    0.266405;    0.257764;    0.252321;    0.242624;    0.233199;    0.222837;    0.212774;    0.201489;    0.188750;    0.177687;    0.162137;    0.147728;    0.130048;    0.113622;    0.095117;    0.074905;    0.052477;    0.029852;
 94;    9.427904;    1.004226;    0.899614;    0.859021;    0.800746;    0.751840;    0.704170;    0.643608;    0.586470;    0.545157;    0.479425;    0.420568;    0.399044;    0.380002;    0.361139;    0.351786;    0.337275;    0.333958;    0.332657;    0.329349;    0.326422;    0.323956;    0.320661;    0.318831;    0.316568;    0.313761;    0.309614;    0.304126;    0.299196;    0.292967;    0.286767;    0.279444;    0.270862;    0.265321;    0.259256;    0.249912;    0.243953;    0.234120;    0.223104;    0.210803;    0.200840;    0.189103;    0.176600;    0.162118;    0.143695;    0.127607;    0.109431;    0.089130;    0.069180;    0.049140;    0.025247;
 95;    9.435598;    1.011232;    0.902568;    0.857180;    0.815378;    0.765025;    0.721530;    0.664249;    0.606609;    0.554440;    0.483184;    0.423273;    0.404973;    0.381742;    0.361957;    0.351413;    0.331853;    0.331089;    0.327795;    0.325256;    0.322278;    0.319824;    0.318583;    0.316749;    0.312569;    0.307285;    0.305606;    0.301837;    0.296462;    0.291655;    0.287193;    0.281639;    0.275382;    0.270449;    0.262347;    0.254750;    0.247488;    0.239344;    0.229532;    0.215644;    0.200075;    0.189772;    0.177737;    0.165688;    0.153433;    0.137894;    0.118183;    0.098445;    0.076344;    0.050469;    0.028225;
 96;    9.416296;    0.997924;    0.886442;    0.843019;    0.807045;    0.756501;    0.713166;    0.655463;    0.595585;    0.545530;    0.477427;    0.418594;    0.401051;    0.378116;    0.357641;    0.346995;    0.334515;    0.333222;    0.330112;    0.326620;    0.326254;    0.324764;    0.321889;    0.318044;    0.314743;    0.312062;    0.308304;    0.304501;    0.298073;    0.293183;    0.287482;    0.279975;    0.274754;    0.267718;    0.259293;    0.249140;    0.241674;    0.233435;    0.222409;    0.211599;    0.200745;    0.187480;    0.169786;    0.153862;    0.142066;    0.131454;    0.117483;    0.098868;    0.077968;    0.051152;    0.026960;
 97;    9.408578;    1.013369;    0.912831;    0.858134;    0.811313;    0.753962;    0.709696;    0.660076;    0.594132;    0.538985;    0.480720;    0.417504;    0.404325;    0.376707;    0.356227;    0.342080;    0.326663;    0.324752;    0.324027;    0.321664;    0.318466;    0.315766;    0.313090;    0.309050;    0.305103;    0.303669;    0.301037;    0.296711;    0.291703;    0.285787;    0.279578;    0.273328;    0.267544;    0.260781;    0.255404;    0.249647;    0.242842;    0.234543;    0.226026;    0.214598;    0.202742;    0.191372;    0.177389;    0.164139;    0.147279;    0.130918;    0.110069;    0.091868;    0.073692;    0.051935;    0.024534;
 98;    9.418758;    1.003049;    0.900218;    0.854107;    0.812890;    0.763465;    0.704984;    0.661348;    0.605969;    0.550475;    0.485579;    0.421887;    0.408856;    0.383928;    0.364459;    0.355221;    0.333964;    0.331241;    0.330190;    0.327199;    0.326303;    0.323076;    0.320862;    0.318262;    0.314872;    0.310311;    0.307715;    0.303521;    0.297313;    0.290653;    0.285181;    0.279145;    0.273704;    0.266405;    0.260901;    0.253909;    0.246265;    0.238287;    0.227688;    0.215771;    0.206009;    0.193711;    0.179834;    0.166363;    0.153149;    0.137746;    0.119056;    0.098862;    0.076706;    0.055816;    0.025475;
 99;    9.405984;    0.996056;    0.885307;    0.852504;    0.806082;    0.764398;    0.703181;    0.656223;    0.601053;    0.544815;    0.485334;    0.425912;    0.409430;    0.384557;    0.364810;    0.354692;    0.336116;    0.334589;    0.331255;    0.329417;    0.326993;    0.325546;    0.323707;    0.320364;    0.316620;    0.311177;    0.308254;    0.304930;    0.301318;    0.297138;    0.291608;    0.287514;    0.282006;    0.276181;    0.268993;    0.262117;    0.251402;    0.240556;    0.231232;    0.219732;    0.207007;    0.193074;    0.181943;    0.168493;    0.150292;    0.133020;    0.111913;    0.092538;    0.068065;    0.048282;    0.026155;
100;    9.439082;    0.994026;    0.886823;    0.848737;    0.808716;    0.755986;    0.712118;    0.652037;    0.584408;    0.534497;    0.479803;    0.421305;    0.406003;    0.376891;    0.357833;    0.347758;    0.334016;    0.330990;    0.329203;    0.325808;    0.323427;    0.320355;    0.316284;    0.313528;    0.309468;    0.305116;    0.301078;    0.297120;    0.294803;    0.290959;    0.285880;    0.278333;    0.270024;    0.260135;    0.252224;    0.242737;    0.233727;    0.226669;    0.217486;    0.208134;    0.197682;    0.183112;    0.167935;    0.155486;    0.142330;    0.125856;    0.111669;    0.093760;    0.075019;    0.052729;    0.026151;
