Simulation;Time;PC 0;PC 1;PC 2;PC 3;PC 4;PC 5;PC 6;PC 7;PC 8;PC 9;PC10;PC11;PC12;PC13;PC14;PC15;PC16;PC17;PC18;PC19;PC20;PC21;PC22;PC23;PC24;PC25;PC26;PC27;PC28;PC29;PC30;PC31;PC32;PC33;PC34;PC35;PC36;PC37;PC38;PC39;PC40;PC41;PC42;PC43;PC44;PC45;PC46;PC47;PC48;PC49;
Nan;Nan;0;0;0;0;0;0;0;0;0;0;0;0;0;0;0;1;0;0;0;0;0;0;0;0;0;0;0;0;0;0;0;0;0;0;0;0;0;0;0;0;0;0;0;0;0;0;0;0;0;0;
  0;    6.491103;    1.411413;    1.362725;    1.341970;    1.325985;    1.306657;    1.278312;    1.239150;    1.209772;    1.160299;    1.112537;    1.062334;    1.048968;    1.032523;    1.025432;    1.023743;    1.023299;    1.024748;    1.025393;    1.026352;    1.027529;    1.028565;    1.029789;    1.031057;    1.031054;    1.031353;    1.031370;    1.030954;    1.032335;    1.033261;    1.034145;    1.034752;    1.035133;    1.035730;    1.036109;    1.036718;    1.037414;    1.038183;    1.038712;    1.038973;    1.038952;    1.039460;    1.039647;    1.039726;    1.040007;    1.040183;    1.040263;    1.040260;    1.040733;    1.040685;    1.040686;
  1;    6.564947;    1.423241;    1.374480;    1.352552;    1.338157;    1.308512;    1.279231;    1.251701;    1.219549;    1.176220;    1.133937;    1.074924;    1.057350;    1.037330;    1.030811;    1.029975;    1.029215;    1.030392;    1.031395;    1.032194;    1.033366;    1.035094;    1.036125;    1.036995;    1.036911;    1.037492;    1.038429;    1.038902;    1.039944;    1.040653;    1.041054;    1.041886;    1.042623;    1.043233;    1.043304;    1.042803;    1.043152;    1.043599;    1.044807;    1.044980;    1.045275;    1.046051;    1.046604;    1.046694;    1.046766;    1.046537;    1.046585;    1.046566;    1.046657;    1.046847;    1.046973;
  2;    6.639142;    1.426037;    1.378998;    1.359183;    1.344931;    1.320073;    1.283076;    1.259139;    1.216848;    1.181942;    1.132801;    1.067865;    1.054174;    1.035869;    1.028107;    1.027239;    1.027083;    1.028232;    1.029480;    1.029280;    1.030100;    1.030944;    1.032520;    1.033058;    1.034439;    1.035727;    1.036853;    1.038033;    1.039048;    1.039294;    1.039425;    1.040437;    1.040790;    1.041362;    1.041741;    1.042415;    1.043128;    1.043837;    1.044506;    1.044221;    1.043810;    1.044081;    1.044642;    1.045005;    1.044590;    1.044429;    1.044782;    1.045041;    1.045242;    1.045532;    1.045195;
  3;    6.544232;    1.422964;    1.378603;    1.358582;    1.340619;    1.313477;    1.292254;    1.265319;    1.226258;    1.186837;    1.131881;    1.072384;    1.059787;    1.037602;    1.029457;    1.028520;    1.027312;    1.027940;    1.029229;    1.031147;    1.032099;    1.032813;    1.033482;    1.033854;    1.034613;    1.036112;    1.037358;    1.038030;    1.038332;    1.039507;    1.040456;    1.040671;    1.041005;    1.041436;    1.042197;    1.042470;    1.043345;    1.044179;    1.044611;    1.044357;    1.044523;    1.044227;    1.045020;    1.045422;    1.046058;    1.046578;    1.046955;    1.047329;    1.047407;    1.047149;    1.047278;
  4;    6.614173;    1.431098;    1.383940;    1.365566;    1.345989;    1.314058;    1.283665;    1.262420;    1.228444;    1.178465;    1.132762;    1.072308;    1.058818;    1.040404;    1.033115;    1.034569;    1.031834;    1.033191;    1.034498;    1.035899;    1.036189;    1.036783;    1.037336;    1.038335;    1.039689;    1.041008;    1.041481;    1.041799;    1.042425;    1.042738;    1.043985;    1.044891;    1.045359;    1.045055;    1.045803;    1.046578;    1.047100;    1.047596;    1.047528;    1.048523;    1.049337;    1.049963;    1.050381;    1.050477;    1.050318;    1.050551;    1.050703;    1.051178;    1.051330;    1.051492;    1.051587;
  5;    6.605767;    1.421123;    1.372805;    1.352906;    1.333150;    1.311184;    1.283764;    1.256607;    1.221166;    1.181119;    1.133877;    1.071961;    1.051166;    1.034577;    1.028617;    1.027985;    1.026485;    1.028059;    1.028596;    1.029851;    1.032003;    1.033199;    1.033559;    1.033996;    1.034333;    1.036086;    1.037017;    1.037519;    1.037462;    1.038141;    1.037604;    1.038573;    1.038709;    1.039540;    1.039462;    1.039980;    1.041208;    1.041796;    1.041795;    1.042298;    1.042363;    1.043304;    1.043871;    1.044546;    1.044923;    1.044625;    1.044340;    1.043690;    1.044002;    1.044143;    1.044105;
  6;    6.623996;    1.418464;    1.371095;    1.352913;    1.328141;    1.304972;    1.277816;    1.251982;    1.219938;    1.171264;    1.126094;    1.068310;    1.054868;    1.035428;    1.025415;    1.024124;    1.023662;    1.024643;    1.025306;    1.026349;    1.027536;    1.028749;    1.029650;    1.030697;    1.031160;    1.031331;    1.032068;    1.031508;    1.032067;    1.032385;    1.033480;    1.034576;    1.035138;    1.035763;    1.035800;    1.036559;    1.036992;    1.037095;    1.037813;    1.038560;    1.039216;    1.040084;    1.040644;    1.040796;    1.040479;    1.041045;    1.041503;    1.041561;    1.041514;    1.041633;    1.041360;
  7;    6.539539;    1.426843;    1.378507;    1.356842;    1.337710;    1.315441;    1.285937;    1.256544;    1.213096;    1.171941;    1.123276;    1.068964;    1.052826;    1.034565;    1.027916;    1.027845;    1.027444;    1.028840;    1.029492;    1.029863;    1.030431;    1.032086;    1.033099;    1.034205;    1.034193;    1.034062;    1.035645;    1.037130;    1.038503;    1.039330;    1.040260;    1.040830;    1.041513;    1.042098;    1.042193;    1.042792;    1.042741;    1.043088;    1.043713;    1.044630;    1.045054;    1.045002;    1.044554;    1.044155;    1.044710;    1.045384;    1.045678;    1.045497;    1.045804;    1.045985;    1.046209;
  8;    6.518860;    1.414063;    1.366745;    1.348758;    1.331341;    1.303114;    1.282380;    1.247261;    1.210151;    1.173156;    1.120087;    1.062430;    1.048159;    1.032346;    1.024993;    1.024402;    1.024003;    1.025862;    1.026066;    1.027264;    1.027214;    1.027065;    1.028401;    1.029674;    1.030938;    1.031621;    1.031682;    1.032315;    1.033220;    1.034086;    1.034387;    1.034917;    1.034957;    1.035747;    1.036599;    1.037090;    1.037024;    1.038319;    1.039188;    1.039886;    1.040190;    1.040629;    1.040767;    1.041142;    1.041719;    1.042016;    1.042148;    1.042338;    1.042116;    1.042274;    1.042448;
  9;    6.555520;    1.424724;    1.378456;    1.361964;    1.337624;    1.312981;    1.292790;    1.256006;    1.223469;    1.191611;    1.137286;    1.068834;    1.057753;    1.035349;    1.027351;    1.026611;    1.024828;    1.026690;    1.027399;    1.028284;    1.028669;    1.030207;    1.030161;    1.031184;    1.032294;    1.033004;    1.033293;    1.034060;    1.035396;    1.036442;    1.036447;    1.037548;    1.038452;    1.039302;    1.039611;    1.039854;    1.039608;    1.040483;    1.041555;    1.042294;    1.042728;    1.043334;    1.043800;    1.043873;    1.044206;    1.043972;    1.044476;    1.044848;    1.045371;    1.045377;    1.045496;
 10;    6.507797;    1.423214;    1.376138;    1.359634;    1.339516;    1.319362;    1.293626;    1.271841;    1.234273;    1.194215;    1.131404;    1.067717;    1.052012;    1.034465;    1.024438;    1.025268;    1.022705;    1.024205;    1.025266;    1.026245;    1.027913;    1.029092;    1.029595;    1.030786;    1.032392;    1.033492;    1.034945;    1.035949;    1.036718;    1.037439;    1.038065;    1.038858;    1.039751;    1.040501;    1.040828;    1.041245;    1.041632;    1.041818;    1.041826;    1.042495;    1.042577;    1.043308;    1.043960;    1.044135;    1.044992;    1.045480;    1.045500;    1.044978;    1.045184;    1.045034;    1.045087;
 11;    6.482059;    1.417253;    1.371656;    1.356167;    1.338807;    1.310624;    1.288081;    1.258843;    1.218116;    1.184543;    1.125606;    1.070501;    1.057641;    1.033792;    1.027788;    1.027204;    1.026323;    1.027014;    1.028156;    1.028856;    1.028892;    1.031078;    1.032186;    1.032700;    1.032051;    1.033782;    1.034865;    1.036010;    1.036976;    1.037086;    1.037041;    1.037573;    1.038487;    1.039240;    1.040082;    1.040830;    1.041193;    1.042105;    1.042761;    1.043250;    1.043260;    1.043530;    1.043913;    1.044107;    1.044178;    1.044110;    1.044453;    1.044953;    1.045305;    1.045454;    1.045640;
 12;    6.591321;    1.414523;    1.370708;    1.357724;    1.337835;    1.307141;    1.279177;    1.250173;    1.207847;    1.166246;    1.126819;    1.066258;    1.050045;    1.026562;    1.019857;    1.019574;    1.018626;    1.019275;    1.020948;    1.020045;    1.021952;    1.022946;    1.023697;    1.025315;    1.026475;    1.027665;    1.028906;    1.029820;    1.030710;    1.031147;    1.031122;    1.030922;    1.030772;    1.030009;    1.030644;    1.030736;    1.031362;    1.032290;    1.033062;    1.033868;    1.034058;    1.034831;    1.035285;    1.035550;    1.035500;    1.035900;    1.035972;    1.035499;    1.035756;    1.035661;    1.035803;
 13;    6.538267;    1.421581;    1.371020;    1.352579;    1.336040;    1.307054;    1.280974;    1.251749;    1.214499;    1.175244;    1.123528;    1.071606;    1.055091;    1.035457;    1.028282;    1.028482;    1.028025;    1.028258;    1.029876;    1.030276;    1.030751;    1.032679;    1.033795;    1.034676;    1.035101;    1.035385;    1.035974;    1.037116;    1.037866;    1.039103;    1.039760;    1.039904;    1.040401;    1.041097;    1.041730;    1.042479;    1.042503;    1.043009;    1.042900;    1.043277;    1.043299;    1.043777;    1.044332;    1.044697;    1.044892;    1.045330;    1.045829;    1.045981;    1.045985;    1.046268;    1.046251;
 14;    6.492484;    1.412446;    1.366554;    1.351533;    1.327008;    1.309013;    1.282789;    1.255001;    1.214623;    1.167180;    1.119545;    1.069958;    1.057690;    1.037995;    1.029865;    1.029272;    1.028451;    1.029867;    1.030230;    1.030514;    1.032362;    1.033312;    1.034126;    1.035227;    1.036825;    1.038067;    1.038991;    1.039748;    1.040193;    1.040865;    1.041154;    1.041529;    1.041888;    1.041799;    1.042907;    1.044020;    1.044465;    1.044808;    1.044960;    1.045757;    1.046167;    1.046727;    1.046927;    1.047834;    1.048208;    1.048624;    1.048532;    1.048745;    1.049043;    1.049233;    1.049182;
 15;    6.579237;    1.416571;    1.362665;    1.343076;    1.318284;    1.297884;    1.270177;    1.241904;    1.207436;    1.162378;    1.115696;    1.062731;    1.044102;    1.028771;    1.022997;    1.022245;    1.021282;    1.022240;    1.023982;    1.025164;    1.025799;    1.026627;    1.027623;    1.028101;    1.028464;    1.029426;    1.030626;    1.031386;    1.030772;    1.031796;    1.032240;    1.032848;    1.033507;    1.034920;    1.035800;    1.036135;    1.036561;    1.037256;    1.037711;    1.037870;    1.038457;    1.039117;    1.039405;    1.039713;    1.040256;    1.040753;    1.040789;    1.040239;    1.040356;    1.040384;    1.040496;
 16;    6.554521;    1.428854;    1.384440;    1.361467;    1.340924;    1.318066;    1.287454;    1.264195;    1.227093;    1.184175;    1.137830;    1.077856;    1.063289;    1.043101;    1.035271;    1.034113;    1.032038;    1.032934;    1.034697;    1.035631;    1.037072;    1.038237;    1.039503;    1.040298;    1.041439;    1.042599;    1.043739;    1.044617;    1.045529;    1.045832;    1.046023;    1.046423;    1.047459;    1.048232;    1.048730;    1.049777;    1.050480;    1.051427;    1.051540;    1.051955;    1.052051;    1.052166;    1.052582;    1.052680;    1.052775;    1.053175;    1.053115;    1.052751;    1.052924;    1.052956;    1.053094;
 17;    6.601061;    1.413681;    1.367851;    1.347785;    1.325917;    1.303958;    1.274197;    1.239736;    1.204980;    1.167110;    1.122758;    1.066065;    1.050239;    1.027569;    1.020367;    1.020344;    1.020352;    1.022211;    1.022494;    1.022683;    1.022911;    1.023517;    1.024767;    1.025443;    1.026373;    1.026418;    1.027654;    1.028349;    1.029778;    1.030816;    1.031786;    1.032639;    1.033835;    1.034370;    1.034295;    1.034599;    1.035748;    1.036191;    1.036716;    1.036535;    1.036429;    1.037162;    1.037686;    1.038210;    1.038730;    1.038837;    1.038635;    1.038478;    1.038676;    1.038857;    1.038975;
 18;    6.650986;    1.411258;    1.368359;    1.348860;    1.332226;    1.306004;    1.282705;    1.246889;    1.208052;    1.179750;    1.137833;    1.068980;    1.055634;    1.033523;    1.027073;    1.027323;    1.025599;    1.027317;    1.027701;    1.029060;    1.029904;    1.031865;    1.033058;    1.033883;    1.033981;    1.033101;    1.034201;    1.034976;    1.035917;    1.036731;    1.037795;    1.038109;    1.038801;    1.039325;    1.040004;    1.040398;    1.040814;    1.041018;    1.041851;    1.042018;    1.042709;    1.042971;    1.043704;    1.044197;    1.044471;    1.044711;    1.044886;    1.045399;    1.045584;    1.045537;    1.045589;
 19;    6.613890;    1.417117;    1.368276;    1.348542;    1.334323;    1.312986;    1.291008;    1.255382;    1.225026;    1.180795;    1.126740;    1.072434;    1.056402;    1.039348;    1.031192;    1.030969;    1.030684;    1.032253;    1.032802;    1.032436;    1.033898;    1.035085;    1.035967;    1.036598;    1.037486;    1.038351;    1.039299;    1.040253;    1.041096;    1.041783;    1.042383;    1.043015;    1.043757;    1.044768;    1.045798;    1.046692;    1.047274;    1.047728;    1.047458;    1.048230;    1.048840;    1.048982;    1.049038;    1.049414;    1.050075;    1.050385;    1.049788;    1.049585;    1.049815;    1.049885;    1.049987;
 20;    6.602004;    1.423740;    1.372066;    1.358562;    1.334430;    1.311699;    1.289449;    1.266302;    1.235237;    1.189585;    1.135965;    1.069260;    1.053437;    1.033051;    1.024433;    1.024500;    1.022478;    1.023621;    1.023775;    1.025139;    1.025979;    1.027509;    1.028324;    1.029476;    1.030446;    1.031537;    1.032458;    1.033502;    1.034562;    1.035287;    1.035261;    1.035912;    1.036837;    1.037496;    1.038063;    1.038266;    1.038268;    1.039242;    1.040090;    1.040522;    1.040981;    1.041544;    1.042263;    1.042768;    1.043179;    1.043217;    1.043512;    1.043641;    1.043716;    1.043788;    1.043914;
 21;    6.522555;    1.422324;    1.370397;    1.353448;    1.332518;    1.313038;    1.284228;    1.251545;    1.215157;    1.173120;    1.129105;    1.069351;    1.055724;    1.033049;    1.026816;    1.024750;    1.023807;    1.024786;    1.025400;    1.027190;    1.028671;    1.029659;    1.030148;    1.030805;    1.031910;    1.032966;    1.033977;    1.034956;    1.035866;    1.036314;    1.036431;    1.037416;    1.037835;    1.038227;    1.037556;    1.038205;    1.039225;    1.039811;    1.039959;    1.040505;    1.041084;    1.041408;    1.041756;    1.042060;    1.042716;    1.043143;    1.043435;    1.043606;    1.043315;    1.043204;    1.043332;
 22;    6.538135;    1.425617;    1.376217;    1.357109;    1.335317;    1.306171;    1.281867;    1.248548;    1.220955;    1.189123;    1.132591;    1.071033;    1.054394;    1.034918;    1.027207;    1.026088;    1.024812;    1.025385;    1.026652;    1.027718;    1.028999;    1.029123;    1.029700;    1.030616;    1.032212;    1.032803;    1.033065;    1.033452;    1.033743;    1.034936;    1.036325;    1.037057;    1.038006;    1.039015;    1.039324;    1.039041;    1.039331;    1.040188;    1.040885;    1.041418;    1.042026;    1.042822;    1.043567;    1.043945;    1.044519;    1.044878;    1.045291;    1.045474;    1.045537;    1.045165;    1.045209;
 23;    6.582162;    1.420870;    1.373846;    1.361283;    1.345258;    1.323172;    1.293988;    1.254278;    1.223771;    1.179899;    1.126821;    1.074283;    1.057812;    1.037544;    1.031028;    1.030651;    1.028744;    1.029016;    1.030586;    1.031313;    1.032703;    1.033686;    1.034432;    1.035715;    1.036917;    1.037830;    1.038345;    1.039298;    1.039972;    1.040783;    1.041982;    1.042454;    1.042856;    1.043143;    1.043681;    1.043101;    1.043631;    1.044467;    1.045025;    1.045375;    1.045873;    1.046696;    1.047092;    1.047416;    1.047509;    1.048118;    1.048525;    1.048490;    1.048137;    1.048111;    1.048179;
 24;    6.585536;    1.427180;    1.378282;    1.362363;    1.337458;    1.313069;    1.285062;    1.253322;    1.218887;    1.174164;    1.128215;    1.066444;    1.050089;    1.027710;    1.020331;    1.019574;    1.019324;    1.019659;    1.021549;    1.022679;    1.024382;    1.024972;    1.024839;    1.025581;    1.026440;    1.027566;    1.028139;    1.028279;    1.028346;    1.029145;    1.030094;    1.031129;    1.031621;    1.032192;    1.033387;    1.034856;    1.035558;    1.035797;    1.036636;    1.036765;    1.036989;    1.037099;    1.036992;    1.037274;    1.037908;    1.037791;    1.037515;    1.037612;    1.037628;    1.037429;    1.037636;
 25;    6.752639;    1.415292;    1.369554;    1.353792;    1.335069;    1.304075;    1.281401;    1.251172;    1.220696;    1.168996;    1.122242;    1.068426;    1.051633;    1.032280;    1.024855;    1.023877;    1.022960;    1.023617;    1.024835;    1.025531;    1.027210;    1.028818;    1.029148;    1.029383;    1.030319;    1.031800;    1.032783;    1.033594;    1.034558;    1.035377;    1.035981;    1.036015;    1.036187;    1.037310;    1.038053;    1.038381;    1.038737;    1.039641;    1.040138;    1.040129;    1.040377;    1.040949;    1.041333;    1.041819;    1.041706;    1.042247;    1.042483;    1.042588;    1.042776;    1.042723;    1.042581;
 26;    6.552492;    1.427163;    1.380304;    1.362352;    1.342126;    1.321636;    1.298738;    1.270389;    1.233558;    1.181749;    1.142213;    1.073317;    1.058519;    1.037733;    1.032508;    1.031783;    1.030166;    1.031308;    1.033201;    1.034043;    1.034872;    1.034541;    1.036613;    1.037660;    1.039120;    1.039244;    1.039842;    1.040249;    1.040782;    1.040822;    1.040420;    1.040381;    1.041449;    1.042673;    1.043614;    1.044249;    1.044487;    1.044478;    1.045201;    1.046193;    1.046953;    1.046956;    1.047564;    1.048030;    1.048087;    1.048307;    1.048468;    1.048600;    1.048958;    1.049020;    1.049094;
 27;    6.574778;    1.422415;    1.371269;    1.349728;    1.329960;    1.310847;    1.290725;    1.259789;    1.224595;    1.177709;    1.130767;    1.069879;    1.056213;    1.031120;    1.024107;    1.023535;    1.022605;    1.023614;    1.025365;    1.025578;    1.026857;    1.027765;    1.028508;    1.028279;    1.029778;    1.030560;    1.031509;    1.032662;    1.033311;    1.034768;    1.035924;    1.036579;    1.037067;    1.036707;    1.036229;    1.036545;    1.037133;    1.037991;    1.038388;    1.038653;    1.039029;    1.039361;    1.039285;    1.039820;    1.040250;    1.040715;    1.040688;    1.041308;    1.041561;    1.041404;    1.041590;
 28;    6.663996;    1.424102;    1.372269;    1.356582;    1.332020;    1.304520;    1.282260;    1.249627;    1.221308;    1.180416;    1.122828;    1.063663;    1.050508;    1.029623;    1.023690;    1.023657;    1.022473;    1.023452;    1.025171;    1.026289;    1.025766;    1.025981;    1.026325;    1.026761;    1.028733;    1.029543;    1.029972;    1.030292;    1.030857;    1.031601;    1.032698;    1.033488;    1.034277;    1.035009;    1.036059;    1.036923;    1.037191;    1.037477;    1.038070;    1.038802;    1.039181;    1.039210;    1.039419;    1.039642;    1.040152;    1.040557;    1.040432;    1.040587;    1.040979;    1.040744;    1.040852;
 29;    6.632716;    1.429205;    1.374593;    1.357125;    1.339528;    1.314020;    1.291807;    1.258386;    1.219665;    1.168673;    1.117701;    1.061645;    1.045742;    1.030674;    1.024433;    1.024862;    1.023607;    1.025008;    1.026591;    1.028017;    1.028773;    1.029524;    1.029336;    1.029228;    1.029645;    1.030257;    1.031315;    1.031918;    1.033299;    1.033914;    1.034093;    1.034930;    1.035482;    1.036233;    1.036324;    1.037272;    1.037906;    1.038520;    1.039314;    1.039359;    1.039801;    1.040549;    1.040694;    1.040797;    1.040910;    1.040861;    1.041400;    1.041698;    1.041707;    1.041755;    1.041949;
 30;    6.594008;    1.424700;    1.375266;    1.361030;    1.338960;    1.317769;    1.289256;    1.267314;    1.232677;    1.184743;    1.140439;    1.073808;    1.058067;    1.039693;    1.033832;    1.033956;    1.032991;    1.033801;    1.035027;    1.036663;    1.037375;    1.037932;    1.038696;    1.039180;    1.038914;    1.039951;    1.041167;    1.041914;    1.042476;    1.042908;    1.043218;    1.044317;    1.045293;    1.045758;    1.046655;    1.047758;    1.048364;    1.048855;    1.048917;    1.049731;    1.050166;    1.050522;    1.051582;    1.052265;    1.052500;    1.052334;    1.052052;    1.052424;    1.052580;    1.052406;    1.052392;
 31;    6.608748;    1.421483;    1.372376;    1.354134;    1.335221;    1.311156;    1.292402;    1.260220;    1.223242;    1.183445;    1.131867;    1.071251;    1.057941;    1.034640;    1.027938;    1.026802;    1.024665;    1.026089;    1.026016;    1.027559;    1.028552;    1.029024;    1.029169;    1.029968;    1.030705;    1.031317;    1.031051;    1.031334;    1.031760;    1.033186;    1.034648;    1.035708;    1.035963;    1.035517;    1.036587;    1.038036;    1.038261;    1.038558;    1.038529;    1.037054;    1.037764;    1.038277;    1.038878;    1.039468;    1.039850;    1.040168;    1.040132;    1.039894;    1.040309;    1.040484;    1.040555;
 32;    6.561826;    1.417995;    1.373869;    1.353221;    1.335492;    1.314164;    1.277819;    1.254338;    1.221057;    1.171192;    1.120450;    1.067268;    1.059984;    1.034525;    1.024294;    1.024348;    1.023097;    1.024453;    1.025530;    1.027144;    1.028123;    1.028532;    1.029958;    1.030912;    1.031665;    1.032816;    1.033346;    1.034066;    1.033931;    1.034327;    1.034732;    1.035119;    1.036102;    1.037005;    1.037589;    1.037705;    1.037751;    1.038245;    1.038736;    1.039636;    1.040201;    1.040669;    1.041268;    1.040940;    1.040642;    1.041474;    1.041745;    1.041972;    1.042189;    1.042339;    1.042416;
 33;    6.537730;    1.417504;    1.364470;    1.345441;    1.326754;    1.304995;    1.271234;    1.247833;    1.213180;    1.177031;    1.130898;    1.060118;    1.043866;    1.026335;    1.020980;    1.019576;    1.018433;    1.019287;    1.021078;    1.022080;    1.023362;    1.024052;    1.025243;    1.025133;    1.025862;    1.026796;    1.027087;    1.028092;    1.029029;    1.030606;    1.031513;    1.032346;    1.033370;    1.034467;    1.035274;    1.035493;    1.035751;    1.035776;    1.036760;    1.037472;    1.037983;    1.037868;    1.037720;    1.038107;    1.037791;    1.038459;    1.038263;    1.038631;    1.038194;    1.038508;    1.038687;
 34;    6.535803;    1.428130;    1.376053;    1.360278;    1.342113;    1.311823;    1.281088;    1.256081;    1.224128;    1.178655;    1.129268;    1.069869;    1.055465;    1.035466;    1.028790;    1.029889;    1.025717;    1.026804;    1.027160;    1.027705;    1.029085;    1.029727;    1.029900;    1.031628;    1.033071;    1.033999;    1.034717;    1.035586;    1.035909;    1.036805;    1.037427;    1.038022;    1.038721;    1.039041;    1.039606;    1.039323;    1.040185;    1.040967;    1.041783;    1.042337;    1.042685;    1.042550;    1.042912;    1.043148;    1.043238;    1.043386;    1.042997;    1.043329;    1.043672;    1.043630;    1.043621;
 35;    6.563407;    1.419200;    1.371959;    1.357876;    1.332553;    1.304832;    1.276483;    1.245313;    1.221107;    1.183015;    1.134388;    1.068518;    1.052594;    1.036166;    1.028629;    1.028100;    1.025318;    1.026171;    1.028381;    1.029675;    1.029679;    1.030664;    1.031149;    1.032449;    1.033185;    1.034780;    1.035744;    1.036373;    1.036174;    1.037205;    1.037764;    1.038791;    1.039557;    1.040166;    1.040971;    1.041740;    1.042733;    1.043137;    1.043326;    1.043103;    1.043134;    1.043965;    1.044807;    1.045026;    1.044629;    1.045066;    1.045064;    1.045577;    1.045831;    1.045757;    1.045931;
 36;    6.548374;    1.410776;    1.368364;    1.353180;    1.327907;    1.305267;    1.283123;    1.254043;    1.209819;    1.166785;    1.129924;    1.062348;    1.048101;    1.031894;    1.024900;    1.023377;    1.022452;    1.024013;    1.024829;    1.026483;    1.027307;    1.027805;    1.028581;    1.029470;    1.030526;    1.030789;    1.030154;    1.030311;    1.031486;    1.032883;    1.033765;    1.033845;    1.033837;    1.034842;    1.035111;    1.035896;    1.036410;    1.036921;    1.037667;    1.038007;    1.038063;    1.037690;    1.038350;    1.039122;    1.039799;    1.040245;    1.040649;    1.040410;    1.039832;    1.039963;    1.040091;
 37;    6.463341;    1.415681;    1.369548;    1.353557;    1.330783;    1.302985;    1.277639;    1.251679;    1.214233;    1.171333;    1.123057;    1.068306;    1.052443;    1.033708;    1.025915;    1.025386;    1.023777;    1.024937;    1.026111;    1.026518;    1.027738;    1.028866;    1.029451;    1.030451;    1.031412;    1.031992;    1.032521;    1.033942;    1.034700;    1.036042;    1.036591;    1.037287;    1.037854;    1.038997;    1.040454;    1.041243;    1.041616;    1.041833;    1.041278;    1.041703;    1.042420;    1.042487;    1.041701;    1.041931;    1.042322;    1.042841;    1.043033;    1.042599;    1.042997;    1.043143;    1.043040;
 38;    6.785025;    1.418059;    1.368634;    1.350083;    1.327371;    1.305904;    1.280112;    1.246722;    1.216843;    1.170808;    1.119106;    1.069104;    1.057208;    1.036855;    1.030280;    1.030568;    1.029035;    1.029720;    1.031001;    1.031867;    1.032539;    1.033081;    1.034277;    1.034466;    1.035680;    1.036113;    1.035585;    1.036817;    1.038010;    1.039197;    1.039778;    1.040645;    1.041487;    1.042149;    1.042416;    1.042532;    1.043256;    1.043773;    1.044782;    1.045347;    1.045653;    1.045836;    1.046356;    1.046826;    1.047033;    1.047213;    1.047809;    1.048028;    1.048029;    1.047987;    1.048156;
 39;    6.525746;    1.407999;    1.363537;    1.347527;    1.325360;    1.301705;    1.270786;    1.239932;    1.204881;    1.164085;    1.124284;    1.070554;    1.058733;    1.035587;    1.027520;    1.027255;    1.025718;    1.027088;    1.027203;    1.028324;    1.029320;    1.030513;    1.031328;    1.031374;    1.032073;    1.033021;    1.032996;    1.034443;    1.035840;    1.036654;    1.036859;    1.037301;    1.038269;    1.038364;    1.038650;    1.038948;    1.039727;    1.040252;    1.040264;    1.040793;    1.041002;    1.041894;    1.042446;    1.042806;    1.043053;    1.043417;    1.043644;    1.043950;    1.044328;    1.044574;    1.044710;
 40;    6.579287;    1.419454;    1.371244;    1.351438;    1.334519;    1.310818;    1.285162;    1.247004;    1.206271;    1.172376;    1.117774;    1.063651;    1.050059;    1.027647;    1.019009;    1.018373;    1.017072;    1.018577;    1.019598;    1.019718;    1.020988;    1.021701;    1.022723;    1.023179;    1.024266;    1.025205;    1.025908;    1.026064;    1.027359;    1.028900;    1.029616;    1.029993;    1.030219;    1.029992;    1.030744;    1.031163;    1.031186;    1.030840;    1.031695;    1.032269;    1.032186;    1.032572;    1.033209;    1.033570;    1.033882;    1.034649;    1.035290;    1.035652;    1.035657;    1.035160;    1.035127;
 41;    6.524016;    1.415987;    1.367717;    1.352042;    1.326209;    1.308929;    1.278849;    1.244051;    1.213826;    1.168004;    1.123654;    1.064819;    1.054251;    1.034611;    1.028742;    1.027776;    1.025644;    1.026198;    1.027997;    1.029534;    1.030141;    1.031279;    1.031697;    1.032594;    1.033250;    1.033550;    1.034445;    1.035331;    1.035815;    1.036413;    1.036442;    1.037249;    1.037803;    1.038140;    1.038551;    1.039164;    1.039567;    1.039600;    1.040139;    1.041050;    1.041627;    1.042015;    1.042117;    1.042800;    1.043122;    1.043154;    1.043171;    1.042920;    1.043284;    1.043483;    1.043575;
 42;    6.529208;    1.425893;    1.371835;    1.352729;    1.335860;    1.315354;    1.288889;    1.249074;    1.217965;    1.172992;    1.127428;    1.068992;    1.053752;    1.036458;    1.029129;    1.027588;    1.026536;    1.027367;    1.028472;    1.029928;    1.031705;    1.032275;    1.033925;    1.034574;    1.034760;    1.035117;    1.035413;    1.036818;    1.037704;    1.038395;    1.038353;    1.039592;    1.040737;    1.041339;    1.041606;    1.042272;    1.043586;    1.044555;    1.044770;    1.044947;    1.044991;    1.044319;    1.044154;    1.044730;    1.045005;    1.045584;    1.045746;    1.045923;    1.046398;    1.046582;    1.046662;
 43;    6.508279;    1.422289;    1.371802;    1.351726;    1.336869;    1.309266;    1.284012;    1.259528;    1.222755;    1.178960;    1.124678;    1.062701;    1.047840;    1.028596;    1.023386;    1.023104;    1.022841;    1.024672;    1.024749;    1.025193;    1.026699;    1.028218;    1.028960;    1.029121;    1.030197;    1.031082;    1.031515;    1.032582;    1.033477;    1.034372;    1.034881;    1.035671;    1.036042;    1.035675;    1.036832;    1.038052;    1.038732;    1.039184;    1.039521;    1.040128;    1.040228;    1.040350;    1.040879;    1.041328;    1.041240;    1.041341;    1.041505;    1.041491;    1.041895;    1.041721;    1.041993;
 44;    6.506697;    1.422620;    1.375287;    1.357944;    1.346481;    1.322826;    1.291494;    1.262103;    1.227117;    1.179057;    1.122455;    1.069649;    1.058265;    1.040701;    1.033362;    1.032421;    1.030286;    1.031335;    1.032789;    1.034320;    1.035408;    1.036428;    1.037525;    1.037852;    1.038483;    1.039492;    1.040373;    1.041238;    1.041178;    1.040957;    1.041834;    1.042428;    1.043564;    1.044271;    1.045546;    1.046312;    1.046955;    1.047402;    1.047433;    1.046672;    1.047708;    1.047858;    1.047717;    1.047521;    1.048134;    1.048209;    1.048648;    1.048873;    1.049257;    1.049444;    1.049582;
 45;    6.532440;    1.415390;    1.366989;    1.345748;    1.323096;    1.302456;    1.282611;    1.256750;    1.220900;    1.172218;    1.131125;    1.071149;    1.058080;    1.038913;    1.031882;    1.032228;    1.030474;    1.031825;    1.033298;    1.034047;    1.035250;    1.036173;    1.037388;    1.038633;    1.038936;    1.040239;    1.040714;    1.041292;    1.041515;    1.042612;    1.043523;    1.044408;    1.045216;    1.045817;    1.046348;    1.046731;    1.047379;    1.047977;    1.048602;    1.049257;    1.050119;    1.050831;    1.051225;    1.050989;    1.050919;    1.050934;    1.051095;    1.051128;    1.050989;    1.051204;    1.051032;
 46;    6.575217;    1.422336;    1.370846;    1.348224;    1.331060;    1.312358;    1.280183;    1.252483;    1.218060;    1.167351;    1.118252;    1.059795;    1.046569;    1.028548;    1.022901;    1.022369;    1.020980;    1.022226;    1.022462;    1.023747;    1.024608;    1.024991;    1.026369;    1.027367;    1.027558;    1.028374;    1.029848;    1.030886;    1.031455;    1.032054;    1.032844;    1.033621;    1.034688;    1.034558;    1.034776;    1.035738;    1.036442;    1.036612;    1.035982;    1.036883;    1.037881;    1.038258;    1.038506;    1.038591;    1.039001;    1.039566;    1.039481;    1.039342;    1.039539;    1.039430;    1.039535;
 47;    6.580065;    1.428005;    1.377150;    1.356094;    1.341440;    1.323546;    1.296558;    1.258508;    1.226119;    1.180351;    1.134755;    1.070111;    1.056830;    1.037187;    1.029122;    1.028704;    1.026999;    1.026581;    1.028346;    1.028057;    1.029874;    1.031020;    1.031939;    1.033109;    1.033571;    1.033602;    1.034639;    1.035315;    1.036144;    1.036810;    1.037715;    1.038630;    1.039567;    1.040501;    1.040805;    1.040768;    1.041846;    1.042556;    1.042725;    1.043515;    1.044016;    1.044321;    1.044792;    1.045230;    1.045171;    1.045794;    1.046177;    1.046353;    1.046576;    1.046251;    1.046338;
 48;    6.524576;    1.418105;    1.372743;    1.354006;    1.329791;    1.309367;    1.280860;    1.254868;    1.213775;    1.173356;    1.128881;    1.070840;    1.060122;    1.034162;    1.027588;    1.027730;    1.024154;    1.025441;    1.027787;    1.029364;    1.030208;    1.029749;    1.030308;    1.031550;    1.032302;    1.033370;    1.034057;    1.033666;    1.034595;    1.035455;    1.036020;    1.036971;    1.037512;    1.037285;    1.038278;    1.038360;    1.038566;    1.038785;    1.039523;    1.040638;    1.041304;    1.041860;    1.041978;    1.041627;    1.042143;    1.042662;    1.042722;    1.042673;    1.042791;    1.043046;    1.043169;
 49;    6.580247;    1.418025;    1.370942;    1.351996;    1.331978;    1.299423;    1.275916;    1.255163;    1.219436;    1.187429;    1.134200;    1.073698;    1.056442;    1.037133;    1.029625;    1.029509;    1.027803;    1.029472;    1.029883;    1.031866;    1.033163;    1.034162;    1.034554;    1.034209;    1.035301;    1.035784;    1.037411;    1.039283;    1.040643;    1.041505;    1.042107;    1.042732;    1.043464;    1.044084;    1.044432;    1.044054;    1.042806;    1.043394;    1.044095;    1.044387;    1.044763;    1.045211;    1.045406;    1.045213;    1.045801;    1.046229;    1.046636;    1.046720;    1.047014;    1.047239;    1.047355;
 50;    6.531791;    1.419628;    1.369309;    1.352120;    1.331261;    1.311808;    1.278559;    1.255945;    1.221493;    1.171644;    1.135570;    1.075281;    1.056173;    1.036127;    1.028781;    1.028919;    1.028357;    1.030166;    1.029522;    1.031009;    1.031760;    1.033285;    1.033247;    1.034479;    1.035439;    1.035557;    1.037353;    1.038844;    1.040056;    1.040898;    1.041898;    1.042301;    1.042382;    1.042323;    1.042604;    1.043603;    1.044199;    1.044633;    1.045123;    1.045094;    1.046126;    1.046800;    1.047094;    1.047649;    1.048008;    1.047952;    1.048136;    1.048262;    1.048798;    1.049009;    1.048675;
 51;    6.589289;    1.431740;    1.381469;    1.364501;    1.337157;    1.317109;    1.289801;    1.264813;    1.232788;    1.182101;    1.134964;    1.068981;    1.052216;    1.035018;    1.027510;    1.027558;    1.026915;    1.027483;    1.029794;    1.031381;    1.031942;    1.032846;    1.033281;    1.033537;    1.034577;    1.035857;    1.036385;    1.037798;    1.038338;    1.038213;    1.038620;    1.039153;    1.040206;    1.040977;    1.041785;    1.042846;    1.042963;    1.043657;    1.044144;    1.044522;    1.044853;    1.045094;    1.045510;    1.045712;    1.046033;    1.046288;    1.046904;    1.046931;    1.046596;    1.046892;    1.046971;
 52;    6.562663;    1.417180;    1.368714;    1.352075;    1.326957;    1.309593;    1.279952;    1.246311;    1.206428;    1.165476;    1.115126;    1.066705;    1.053441;    1.035421;    1.028014;    1.028836;    1.025648;    1.026716;    1.027934;    1.028480;    1.029448;    1.029885;    1.031088;    1.031916;    1.032792;    1.032887;    1.032854;    1.033869;    1.033997;    1.035192;    1.035863;    1.037166;    1.038314;    1.038883;    1.038665;    1.038326;    1.039186;    1.039901;    1.040159;    1.041002;    1.041280;    1.041224;    1.042159;    1.042501;    1.042627;    1.043301;    1.043678;    1.043748;    1.043996;    1.043981;    1.044025;
 53;    6.538859;    1.414531;    1.373695;    1.352824;    1.338950;    1.312960;    1.283167;    1.256126;    1.223036;    1.176337;    1.134647;    1.065200;    1.054492;    1.031764;    1.023307;    1.022558;    1.021740;    1.023111;    1.024846;    1.025738;    1.026097;    1.026711;    1.027765;    1.028621;    1.029483;    1.029539;    1.030628;    1.031403;    1.031872;    1.033192;    1.033936;    1.034541;    1.035458;    1.035705;    1.036240;    1.036535;    1.037149;    1.037908;    1.037932;    1.037272;    1.038385;    1.039353;    1.039801;    1.039746;    1.039580;    1.039649;    1.040141;    1.040613;    1.040783;    1.040857;    1.041042;
 54;    6.558911;    1.423416;    1.373845;    1.350800;    1.332520;    1.310742;    1.289248;    1.262841;    1.225477;    1.172346;    1.118570;    1.063284;    1.047176;    1.030891;    1.024684;    1.023718;    1.023039;    1.024355;    1.025526;    1.026432;    1.028346;    1.029360;    1.029478;    1.030908;    1.032360;    1.033417;    1.033947;    1.033835;    1.034008;    1.034508;    1.035706;    1.036624;    1.037625;    1.038706;    1.039501;    1.039941;    1.040053;    1.039911;    1.040347;    1.040492;    1.041344;    1.041987;    1.042047;    1.042260;    1.042665;    1.042894;    1.043308;    1.043540;    1.043579;    1.042952;    1.043156;
 55;    6.533393;    1.412943;    1.362369;    1.347326;    1.330852;    1.307138;    1.277294;    1.249686;    1.223018;    1.182686;    1.128335;    1.070818;    1.059844;    1.034576;    1.025401;    1.024666;    1.024350;    1.025431;    1.026276;    1.027849;    1.028969;    1.030279;    1.031317;    1.031853;    1.032119;    1.033184;    1.034141;    1.034610;    1.034935;    1.035739;    1.037309;    1.038357;    1.038703;    1.039625;    1.040238;    1.040373;    1.040342;    1.040927;    1.041426;    1.041335;    1.041959;    1.042299;    1.042663;    1.043012;    1.043206;    1.043676;    1.044007;    1.044144;    1.043928;    1.044072;    1.044117;
 56;    6.564832;    1.415907;    1.366218;    1.347009;    1.322757;    1.297953;    1.269313;    1.240892;    1.204121;    1.168363;    1.122852;    1.071943;    1.054353;    1.034230;    1.026841;    1.026703;    1.024464;    1.025413;    1.026515;    1.027078;    1.028337;    1.029032;    1.030131;    1.031066;    1.032240;    1.032890;    1.033613;    1.034744;    1.035279;    1.035524;    1.036104;    1.037098;    1.037670;    1.038095;    1.038505;    1.038483;    1.038751;    1.039649;    1.040435;    1.041073;    1.041738;    1.042053;    1.042406;    1.042290;    1.042690;    1.043346;    1.043250;    1.042880;    1.042955;    1.043149;    1.043303;
 57;    6.570134;    1.426644;    1.378421;    1.360964;    1.337386;    1.317534;    1.285477;    1.255212;    1.220034;    1.176665;    1.133295;    1.072655;    1.059939;    1.039204;    1.033242;    1.035013;    1.031472;    1.032588;    1.032210;    1.032413;    1.033953;    1.034068;    1.035663;    1.036328;    1.037073;    1.037287;    1.038412;    1.038497;    1.038444;    1.038970;    1.040196;    1.041016;    1.041602;    1.042522;    1.042999;    1.043548;    1.043921;    1.045081;    1.045611;    1.045909;    1.045928;    1.045784;    1.046673;    1.047306;    1.047648;    1.048368;    1.048744;    1.048795;    1.048240;    1.048252;    1.048473;
 58;    6.560471;    1.421972;    1.372861;    1.352416;    1.330156;    1.310671;    1.280873;    1.257117;    1.219947;    1.179157;    1.132719;    1.069954;    1.057095;    1.037577;    1.030914;    1.032236;    1.028509;    1.029143;    1.030869;    1.031137;    1.032274;    1.033005;    1.034249;    1.035089;    1.036072;    1.037007;    1.037921;    1.038619;    1.039482;    1.039575;    1.039422;    1.040356;    1.040467;    1.041764;    1.042627;    1.042983;    1.043508;    1.043512;    1.043984;    1.044781;    1.045357;    1.045445;    1.045619;    1.045802;    1.046167;    1.046429;    1.046598;    1.047032;    1.047189;    1.047109;    1.047113;
 59;    6.635994;    1.416934;    1.370894;    1.349584;    1.325972;    1.307766;    1.283153;    1.244273;    1.208504;    1.173987;    1.135538;    1.066901;    1.048113;    1.031014;    1.024336;    1.023903;    1.023126;    1.024205;    1.026045;    1.026898;    1.027918;    1.028845;    1.029186;    1.030690;    1.031737;    1.032366;    1.033083;    1.033993;    1.035260;    1.035737;    1.035751;    1.036108;    1.035520;    1.036500;    1.037591;    1.037997;    1.038810;    1.039064;    1.040025;    1.040864;    1.041290;    1.041776;    1.041985;    1.042144;    1.042310;    1.042874;    1.043065;    1.043325;    1.043407;    1.043504;    1.043676;
 60;    6.535337;    1.421405;    1.373246;    1.356400;    1.336950;    1.313433;    1.290826;    1.261563;    1.217955;    1.170755;    1.124087;    1.071525;    1.057967;    1.038265;    1.030846;    1.029675;    1.028374;    1.030366;    1.031613;    1.032639;    1.033094;    1.033749;    1.034156;    1.035873;    1.036446;    1.036737;    1.037951;    1.038267;    1.039366;    1.040563;    1.041219;    1.041641;    1.042128;    1.043213;    1.044031;    1.044121;    1.044712;    1.044937;    1.045256;    1.046035;    1.046691;    1.047176;    1.046966;    1.047478;    1.047989;    1.048101;    1.048008;    1.048447;    1.048475;    1.048723;    1.048768;
 61;    6.552177;    1.417430;    1.369764;    1.350752;    1.334729;    1.314058;    1.282035;    1.257454;    1.223524;    1.183538;    1.131071;    1.071943;    1.056638;    1.039715;    1.031615;    1.031012;    1.028368;    1.029612;    1.031435;    1.033215;    1.033689;    1.033539;    1.034990;    1.036129;    1.036423;    1.037222;    1.037777;    1.039059;    1.039829;    1.040170;    1.041036;    1.041700;    1.041580;    1.041907;    1.042703;    1.043723;    1.044616;    1.045405;    1.045806;    1.045372;    1.045921;    1.045802;    1.046138;    1.046464;    1.046292;    1.046515;    1.046942;    1.047111;    1.047409;    1.047627;    1.047644;
 62;    6.570578;    1.415250;    1.366265;    1.349478;    1.328331;    1.300759;    1.272170;    1.248325;    1.208820;    1.165264;    1.121615;    1.066740;    1.059278;    1.031974;    1.024488;    1.023681;    1.021821;    1.023095;    1.024251;    1.024907;    1.025073;    1.026975;    1.028115;    1.028824;    1.029183;    1.029670;    1.029904;    1.030193;    1.030682;    1.031744;    1.032263;    1.033097;    1.033745;    1.034288;    1.034631;    1.035034;    1.035498;    1.036650;    1.037417;    1.038187;    1.038280;    1.038867;    1.039154;    1.039696;    1.040117;    1.040192;    1.040099;    1.040004;    1.040167;    1.040477;    1.040522;
 63;    6.589813;    1.419079;    1.366840;    1.348414;    1.323364;    1.302046;    1.272877;    1.251857;    1.221489;    1.187624;    1.137282;    1.072275;    1.060022;    1.034977;    1.027460;    1.026150;    1.025203;    1.027048;    1.028167;    1.027257;    1.028335;    1.029873;    1.030682;    1.030629;    1.031562;    1.032158;    1.033049;    1.033805;    1.034606;    1.036205;    1.037202;    1.037610;    1.038105;    1.039015;    1.039776;    1.039877;    1.040030;    1.040182;    1.040589;    1.041316;    1.041961;    1.042646;    1.043286;    1.044041;    1.044442;    1.044549;    1.044202;    1.043394;    1.043270;    1.043548;    1.043747;
 64;    6.641094;    1.421516;    1.372826;    1.358860;    1.334046;    1.314204;    1.289688;    1.264240;    1.229021;    1.186397;    1.131371;    1.072020;    1.058086;    1.038365;    1.030609;    1.028850;    1.027244;    1.028837;    1.029809;    1.030653;    1.031502;    1.032198;    1.032723;    1.034049;    1.035036;    1.035920;    1.036575;    1.037263;    1.038524;    1.039352;    1.039647;    1.040736;    1.042168;    1.043205;    1.044126;    1.044656;    1.045600;    1.046513;    1.046747;    1.046438;    1.046742;    1.047068;    1.047594;    1.047763;    1.048327;    1.048228;    1.048664;    1.048761;    1.048468;    1.048298;    1.048680;
 65;    6.578555;    1.409395;    1.364081;    1.344134;    1.327939;    1.304622;    1.281974;    1.242925;    1.208091;    1.169825;    1.119855;    1.069274;    1.053175;    1.034998;    1.029197;    1.028258;    1.026949;    1.027511;    1.027613;    1.029247;    1.030017;    1.031055;    1.032640;    1.033440;    1.034321;    1.035499;    1.036014;    1.036460;    1.036711;    1.036895;    1.036869;    1.037315;    1.038463;    1.039386;    1.040031;    1.040666;    1.041458;    1.041925;    1.042229;    1.042409;    1.042969;    1.043249;    1.043643;    1.044167;    1.044380;    1.045160;    1.045734;    1.045896;    1.045824;    1.045950;    1.045998;
 66;    6.611689;    1.419968;    1.373360;    1.357179;    1.337666;    1.313209;    1.285897;    1.262641;    1.223707;    1.175264;    1.132969;    1.069459;    1.058982;    1.034485;    1.026020;    1.024850;    1.024055;    1.025095;    1.025298;    1.026372;    1.027535;    1.028935;    1.029964;    1.030757;    1.031868;    1.032921;    1.032823;    1.032339;    1.032416;    1.033463;    1.034456;    1.035648;    1.036794;    1.037851;    1.038720;    1.039302;    1.039480;    1.040553;    1.041248;    1.041721;    1.041826;    1.042367;    1.042067;    1.042539;    1.042317;    1.042304;    1.042757;    1.042622;    1.042935;    1.042964;    1.043073;
 67;    6.558860;    1.416857;    1.371165;    1.348468;    1.330565;    1.308967;    1.280194;    1.239034;    1.209690;    1.169473;    1.128507;    1.069580;    1.056814;    1.039195;    1.031899;    1.030854;    1.028826;    1.030111;    1.030738;    1.031779;    1.032947;    1.032942;    1.032983;    1.033064;    1.034621;    1.035600;    1.036430;    1.037373;    1.038100;    1.038509;    1.039521;    1.040276;    1.041046;    1.041647;    1.041549;    1.042287;    1.042778;    1.043640;    1.043739;    1.043531;    1.044685;    1.045509;    1.045890;    1.045997;    1.045809;    1.046421;    1.046348;    1.046200;    1.046376;    1.046806;    1.046925;
 68;    6.703764;    1.419955;    1.371850;    1.353728;    1.327872;    1.307325;    1.281633;    1.259930;    1.215652;    1.181624;    1.128088;    1.070294;    1.054832;    1.035671;    1.028340;    1.028497;    1.026236;    1.027836;    1.027684;    1.028834;    1.030107;    1.030019;    1.031267;    1.031317;    1.032445;    1.034166;    1.035094;    1.035644;    1.036845;    1.037506;    1.037592;    1.037398;    1.038615;    1.039627;    1.040681;    1.041524;    1.042314;    1.043023;    1.043527;    1.043855;    1.043897;    1.044559;    1.045519;    1.046194;    1.046806;    1.046668;    1.046937;    1.047112;    1.046786;    1.047019;    1.047046;
 69;    6.535897;    1.416790;    1.373170;    1.354170;    1.337360;    1.316882;    1.298883;    1.272107;    1.236833;    1.189503;    1.134195;    1.077613;    1.066390;    1.043561;    1.035051;    1.034512;    1.032383;    1.032792;    1.034733;    1.035590;    1.036840;    1.037546;    1.038777;    1.039593;    1.039821;    1.040975;    1.042144;    1.043030;    1.043695;    1.044622;    1.045500;    1.045687;    1.045856;    1.046845;    1.047069;    1.047776;    1.047495;    1.048390;    1.049038;    1.049577;    1.049871;    1.050262;    1.050473;    1.050713;    1.051430;    1.051411;    1.051716;    1.052089;    1.052507;    1.052669;    1.052682;
 70;    6.757221;    1.425709;    1.377983;    1.357035;    1.341259;    1.314752;    1.283790;    1.249531;    1.219064;    1.169547;    1.121653;    1.069043;    1.054416;    1.039479;    1.032603;    1.032004;    1.029863;    1.030971;    1.032265;    1.032962;    1.034454;    1.035263;    1.035663;    1.037472;    1.038064;    1.038096;    1.038854;    1.040061;    1.040728;    1.041530;    1.041860;    1.041878;    1.041918;    1.042970;    1.043966;    1.044432;    1.044782;    1.045177;    1.045170;    1.044910;    1.045568;    1.045447;    1.046253;    1.046879;    1.047424;    1.047888;    1.048226;    1.048586;    1.048913;    1.049160;    1.049131;
 71;    6.495889;    1.420709;    1.371462;    1.351918;    1.329780;    1.309899;    1.283148;    1.253009;    1.224200;    1.174329;    1.119618;    1.068291;    1.053937;    1.035551;    1.029102;    1.027856;    1.026415;    1.027686;    1.028556;    1.029197;    1.030548;    1.031553;    1.032193;    1.033754;    1.034845;    1.036262;    1.037332;    1.037920;    1.038079;    1.039286;    1.040611;    1.041308;    1.041556;    1.041685;    1.041426;    1.040868;    1.041006;    1.041706;    1.042238;    1.042856;    1.043424;    1.043690;    1.044206;    1.044823;    1.045259;    1.045633;    1.046011;    1.046321;    1.046206;    1.046353;    1.046475;
 72;    6.584621;    1.422883;    1.372819;    1.358498;    1.339971;    1.315092;    1.289553;    1.257449;    1.225361;    1.174906;    1.136180;    1.067862;    1.055550;    1.036567;    1.030030;    1.029028;    1.027343;    1.028141;    1.028785;    1.030058;    1.031633;    1.032510;    1.033150;    1.033779;    1.034892;    1.035763;    1.036322;    1.037729;    1.038462;    1.039004;    1.040495;    1.041349;    1.041331;    1.041627;    1.041989;    1.041960;    1.042712;    1.043459;    1.043955;    1.044749;    1.045010;    1.045217;    1.045287;    1.045235;    1.045621;    1.045921;    1.046193;    1.046384;    1.046257;    1.046440;    1.046487;
 73;    6.542564;    1.434324;    1.384201;    1.369217;    1.344105;    1.323280;    1.305239;    1.275016;    1.230398;    1.191380;    1.133516;    1.081213;    1.067358;    1.044260;    1.036881;    1.037953;    1.036037;    1.036429;    1.037215;    1.039434;    1.040548;    1.040759;    1.041473;    1.041633;    1.042124;    1.042858;    1.043143;    1.044605;    1.045594;    1.046131;    1.047327;    1.048837;    1.049657;    1.050578;    1.051211;    1.051487;    1.051461;    1.051517;    1.052084;    1.052364;    1.053119;    1.053920;    1.054539;    1.054764;    1.054635;    1.054759;    1.054800;    1.055089;    1.055482;    1.055626;    1.055509;
 74;    6.582611;    1.423160;    1.370548;    1.350232;    1.335992;    1.312703;    1.282311;    1.252703;    1.219410;    1.175268;    1.127066;    1.073741;    1.060542;    1.041777;    1.035007;    1.034344;    1.032639;    1.033911;    1.035225;    1.036563;    1.038344;    1.039102;    1.039301;    1.040403;    1.041008;    1.041943;    1.042266;    1.043320;    1.044147;    1.044680;    1.045334;    1.045971;    1.046837;    1.048266;    1.049374;    1.050272;    1.051080;    1.051317;    1.051928;    1.052449;    1.052922;    1.052914;    1.053483;    1.053804;    1.053761;    1.054121;    1.054027;    1.054463;    1.054663;    1.054765;    1.054787;
 75;    6.625522;    1.414387;    1.365340;    1.345421;    1.326867;    1.307212;    1.284744;    1.249165;    1.208531;    1.167173;    1.119674;    1.062155;    1.050697;    1.029319;    1.023436;    1.023326;    1.022529;    1.022911;    1.023950;    1.025483;    1.026527;    1.027283;    1.028914;    1.029747;    1.030966;    1.031845;    1.032149;    1.033126;    1.033991;    1.034418;    1.034403;    1.033891;    1.034590;    1.035653;    1.036591;    1.037340;    1.038014;    1.038114;    1.037420;    1.037541;    1.038379;    1.038626;    1.039429;    1.040127;    1.040561;    1.040721;    1.040941;    1.040969;    1.041277;    1.041319;    1.041546;
 76;    6.541695;    1.424116;    1.372544;    1.357729;    1.331943;    1.312337;    1.278440;    1.254625;    1.214124;    1.182980;    1.132913;    1.071668;    1.056767;    1.040752;    1.035155;    1.034057;    1.032824;    1.033741;    1.034802;    1.035781;    1.036031;    1.037417;    1.037885;    1.038907;    1.039586;    1.040411;    1.041278;    1.042058;    1.042940;    1.044467;    1.045413;    1.046063;    1.046612;    1.046837;    1.047518;    1.048493;    1.049317;    1.050002;    1.050775;    1.051372;    1.051098;    1.051519;    1.051599;    1.051143;    1.051465;    1.051820;    1.052072;    1.052643;    1.052864;    1.052939;    1.052888;
 77;    6.561618;    1.405783;    1.357829;    1.336839;    1.319502;    1.297738;    1.273650;    1.241108;    1.203210;    1.168633;    1.114950;    1.060861;    1.049605;    1.026112;    1.019501;    1.017562;    1.016981;    1.018068;    1.019410;    1.020079;    1.021677;    1.022271;    1.023507;    1.024537;    1.025857;    1.026503;    1.027422;    1.028198;    1.028281;    1.029291;    1.030292;    1.030918;    1.031778;    1.032837;    1.033264;    1.033517;    1.034503;    1.034816;    1.035032;    1.035065;    1.035386;    1.035875;    1.036052;    1.036118;    1.036549;    1.037019;    1.037362;    1.037496;    1.037684;    1.037929;    1.037974;
 78;    6.528826;    1.414142;    1.369205;    1.348433;    1.329260;    1.305344;    1.279633;    1.243857;    1.205275;    1.163392;    1.125910;    1.068895;    1.057013;    1.033819;    1.027122;    1.025653;    1.023353;    1.024256;    1.026017;    1.026543;    1.028385;    1.028637;    1.029666;    1.030298;    1.030292;    1.031976;    1.033259;    1.034210;    1.034816;    1.035547;    1.036439;    1.036698;    1.037387;    1.037432;    1.037972;    1.038388;    1.039406;    1.040217;    1.040676;    1.040979;    1.040416;    1.041170;    1.041530;    1.041551;    1.042070;    1.042331;    1.042814;    1.042850;    1.042921;    1.043159;    1.043352;
 79;    6.557167;    1.420384;    1.372212;    1.349090;    1.329042;    1.310564;    1.275654;    1.244152;    1.218412;    1.178057;    1.115010;    1.061333;    1.050169;    1.029265;    1.023238;    1.022213;    1.020826;    1.022621;    1.023375;    1.023137;    1.024379;    1.025400;    1.025974;    1.026850;    1.027870;    1.028281;    1.029351;    1.030589;    1.031369;    1.032036;    1.032424;    1.032863;    1.033769;    1.035146;    1.035853;    1.035929;    1.036058;    1.035825;    1.036341;    1.037517;    1.038256;    1.038339;    1.038123;    1.038047;    1.037653;    1.037609;    1.038106;    1.038066;    1.038354;    1.038527;    1.038663;
 80;    6.495603;    1.411214;    1.360625;    1.347639;    1.327233;    1.302068;    1.272533;    1.237864;    1.209529;    1.165492;    1.114680;    1.057477;    1.045168;    1.025029;    1.018933;    1.017533;    1.017882;    1.017860;    1.018408;    1.020580;    1.022346;    1.022988;    1.023141;    1.023766;    1.024426;    1.025618;    1.026329;    1.027249;    1.028203;    1.028824;    1.028953;    1.029383;    1.029704;    1.030656;    1.031344;    1.031525;    1.032309;    1.032623;    1.033772;    1.034393;    1.034993;    1.035108;    1.034865;    1.035551;    1.035706;    1.036110;    1.035977;    1.036522;    1.036725;    1.036831;    1.036845;
 81;    6.560151;    1.413923;    1.366021;    1.348515;    1.324764;    1.302828;    1.278861;    1.256084;    1.224588;    1.182542;    1.124520;    1.066476;    1.050175;    1.034133;    1.027652;    1.027813;    1.025918;    1.027262;    1.026635;    1.027487;    1.028702;    1.030073;    1.031370;    1.031950;    1.032393;    1.033854;    1.034306;    1.034687;    1.034827;    1.035086;    1.036060;    1.037115;    1.037698;    1.038355;    1.038572;    1.039695;    1.040287;    1.040556;    1.040936;    1.041107;    1.041859;    1.042288;    1.042638;    1.043109;    1.043816;    1.044236;    1.044295;    1.043755;    1.043758;    1.043980;    1.043610;
 82;    6.594959;    1.411146;    1.362330;    1.348417;    1.328057;    1.308356;    1.285282;    1.259425;    1.221889;    1.173948;    1.121711;    1.062655;    1.051049;    1.029291;    1.023381;    1.023124;    1.021015;    1.022936;    1.024473;    1.025480;    1.025362;    1.025992;    1.026126;    1.026761;    1.026678;    1.027230;    1.028500;    1.029409;    1.030743;    1.031652;    1.032874;    1.033216;    1.032915;    1.032421;    1.033417;    1.034223;    1.034868;    1.035225;    1.035449;    1.036503;    1.037154;    1.038028;    1.038164;    1.037965;    1.038036;    1.038458;    1.038668;    1.038361;    1.038535;    1.038805;    1.038832;
 83;    6.660442;    1.408591;    1.363709;    1.343636;    1.322987;    1.305357;    1.284328;    1.256257;    1.225669;    1.180053;    1.130322;    1.069320;    1.053204;    1.036806;    1.029834;    1.028832;    1.027083;    1.027557;    1.028461;    1.028775;    1.030366;    1.031644;    1.032150;    1.032998;    1.033824;    1.033827;    1.035442;    1.036470;    1.036516;    1.037407;    1.037969;    1.038323;    1.039144;    1.040400;    1.041091;    1.041588;    1.041697;    1.042361;    1.042921;    1.043525;    1.044085;    1.044738;    1.045132;    1.045272;    1.045000;    1.045398;    1.045849;    1.045978;    1.046292;    1.046431;    1.046313;
 84;    6.531703;    1.417403;    1.375251;    1.357537;    1.336420;    1.311422;    1.282993;    1.258201;    1.224616;    1.172197;    1.128299;    1.069664;    1.056194;    1.038121;    1.031189;    1.030389;    1.028303;    1.029191;    1.030529;    1.032285;    1.032855;    1.033252;    1.034463;    1.034841;    1.035778;    1.036469;    1.036942;    1.036519;    1.037043;    1.038512;    1.039534;    1.040212;    1.040782;    1.041017;    1.041050;    1.041758;    1.041712;    1.043002;    1.043796;    1.044417;    1.044279;    1.044813;    1.044957;    1.045290;    1.045650;    1.045974;    1.046275;    1.046524;    1.046506;    1.046665;    1.046753;
 85;    6.553820;    1.421339;    1.376485;    1.360660;    1.339757;    1.315898;    1.290097;    1.259618;    1.229890;    1.185210;    1.138166;    1.069901;    1.054771;    1.035034;    1.027852;    1.029553;    1.025391;    1.026644;    1.027220;    1.027799;    1.029328;    1.031035;    1.031872;    1.032911;    1.032886;    1.033390;    1.034185;    1.034649;    1.035928;    1.036581;    1.037001;    1.037421;    1.037898;    1.038564;    1.038804;    1.039081;    1.039600;    1.040165;    1.040822;    1.041547;    1.042008;    1.042356;    1.042499;    1.042206;    1.042884;    1.043216;    1.043287;    1.043827;    1.043994;    1.044244;    1.044264;
 86;    6.619007;    1.421094;    1.368081;    1.348288;    1.328590;    1.303558;    1.278013;    1.250346;    1.214350;    1.179071;    1.132416;    1.069097;    1.060044;    1.036293;    1.027529;    1.027415;    1.026578;    1.026924;    1.027582;    1.029322;    1.029826;    1.031282;    1.032180;    1.032159;    1.033377;    1.034403;    1.035327;    1.035949;    1.036237;    1.036629;    1.037444;    1.038365;    1.038962;    1.039766;    1.040131;    1.040829;    1.041821;    1.042837;    1.043404;    1.043318;    1.043601;    1.043827;    1.044480;    1.044452;    1.044891;    1.045391;    1.045507;    1.045612;    1.045993;    1.046222;    1.046229;
 87;    6.576971;    1.418973;    1.368677;    1.352516;    1.326206;    1.303592;    1.275390;    1.252206;    1.207774;    1.169765;    1.130411;    1.070185;    1.055532;    1.033610;    1.025575;    1.024688;    1.023678;    1.024450;    1.024852;    1.026447;    1.027506;    1.027649;    1.027188;    1.028884;    1.029748;    1.030830;    1.031356;    1.032144;    1.033032;    1.034066;    1.034911;    1.035246;    1.035360;    1.036295;    1.037642;    1.038684;    1.039162;    1.038675;    1.037764;    1.037977;    1.038325;    1.039097;    1.039355;    1.039877;    1.040212;    1.040777;    1.040720;    1.040557;    1.040592;    1.040630;    1.040449;
 88;    6.534431;    1.423991;    1.372274;    1.354086;    1.338542;    1.312836;    1.295454;    1.270841;    1.235275;    1.190295;    1.124943;    1.067367;    1.052792;    1.030581;    1.025410;    1.024890;    1.023991;    1.024553;    1.025451;    1.027024;    1.028107;    1.028914;    1.030232;    1.031259;    1.031386;    1.032004;    1.033219;    1.034377;    1.034571;    1.036000;    1.036905;    1.036691;    1.036384;    1.037157;    1.038120;    1.038492;    1.039055;    1.039501;    1.040142;    1.040713;    1.041065;    1.040644;    1.040632;    1.041007;    1.041718;    1.041419;    1.041639;    1.041448;    1.041472;    1.041785;    1.041444;
 89;    6.541357;    1.423457;    1.375141;    1.360490;    1.336136;    1.317520;    1.287640;    1.250828;    1.218425;    1.163549;    1.123903;    1.067207;    1.055213;    1.036010;    1.029615;    1.030703;    1.028082;    1.028883;    1.029283;    1.030638;    1.031680;    1.032721;    1.033225;    1.034731;    1.035198;    1.036172;    1.037276;    1.038100;    1.037993;    1.039683;    1.040500;    1.040413;    1.040154;    1.040231;    1.040935;    1.041764;    1.042493;    1.043268;    1.043894;    1.044718;    1.045342;    1.046006;    1.046597;    1.046424;    1.045981;    1.046164;    1.045751;    1.046004;    1.046468;    1.046630;    1.046782;
 90;    6.601729;    1.418294;    1.371930;    1.352519;    1.331011;    1.314552;    1.286215;    1.265387;    1.222793;    1.182643;    1.134952;    1.071727;    1.059285;    1.035144;    1.028070;    1.028012;    1.026290;    1.027820;    1.027748;    1.029068;    1.029520;    1.030507;    1.030474;    1.032355;    1.033898;    1.034577;    1.034936;    1.036200;    1.036780;    1.036965;    1.037960;    1.038658;    1.039534;    1.040234;    1.040512;    1.041451;    1.042007;    1.042730;    1.043370;    1.043542;    1.043565;    1.043887;    1.044266;    1.044539;    1.044346;    1.044620;    1.044872;    1.045063;    1.045306;    1.045438;    1.045685;
 91;    6.617795;    1.422871;    1.372723;    1.359512;    1.336054;    1.307613;    1.285694;    1.252483;    1.219488;    1.173863;    1.128940;    1.067840;    1.058311;    1.035404;    1.028900;    1.029433;    1.027890;    1.029540;    1.030184;    1.030889;    1.031609;    1.032496;    1.032717;    1.032931;    1.034413;    1.035446;    1.035949;    1.037206;    1.038039;    1.038520;    1.039157;    1.039969;    1.040608;    1.040976;    1.041746;    1.042321;    1.042943;    1.044090;    1.044809;    1.044896;    1.044476;    1.045056;    1.045805;    1.046711;    1.047111;    1.047423;    1.047798;    1.048288;    1.048575;    1.048586;    1.048549;
 92;    6.596318;    1.415015;    1.366684;    1.346342;    1.329489;    1.306918;    1.275173;    1.245577;    1.210359;    1.175859;    1.124517;    1.066090;    1.054304;    1.032460;    1.026575;    1.025263;    1.023221;    1.025623;    1.027311;    1.028456;    1.029367;    1.029354;    1.028546;    1.030007;    1.030596;    1.031228;    1.031616;    1.032915;    1.034124;    1.034866;    1.035247;    1.035500;    1.036381;    1.037753;    1.038256;    1.038872;    1.038643;    1.039459;    1.039867;    1.040510;    1.040888;    1.040844;    1.041499;    1.042082;    1.042276;    1.042171;    1.042739;    1.043058;    1.043261;    1.042915;    1.043084;
 93;    6.581252;    1.421853;    1.374660;    1.359054;    1.337996;    1.317636;    1.296529;    1.262739;    1.226611;    1.182671;    1.132373;    1.072229;    1.057904;    1.039614;    1.030940;    1.030494;    1.029763;    1.029954;    1.031378;    1.032000;    1.034043;    1.034960;    1.035096;    1.036378;    1.037363;    1.038185;    1.038847;    1.039810;    1.040140;    1.041550;    1.042248;    1.042373;    1.042908;    1.043282;    1.043368;    1.044591;    1.044637;    1.044878;    1.045154;    1.045615;    1.046169;    1.046385;    1.047139;    1.047209;    1.047579;    1.047574;    1.047970;    1.048245;    1.048433;    1.048595;    1.048921;
 94;    6.566979;    1.421086;    1.372876;    1.356828;    1.329325;    1.305697;    1.281240;    1.244891;    1.206972;    1.179481;    1.124005;    1.067478;    1.050003;    1.034968;    1.028356;    1.027748;    1.026904;    1.027226;    1.028812;    1.029301;    1.029918;    1.030957;    1.031613;    1.032986;    1.034272;    1.035510;    1.036314;    1.036604;    1.037338;    1.037768;    1.038389;    1.038625;    1.038548;    1.039374;    1.040172;    1.040021;    1.041371;    1.041908;    1.042170;    1.042204;    1.042979;    1.043399;    1.043757;    1.043993;    1.043706;    1.044087;    1.044183;    1.044196;    1.044362;    1.044603;    1.044568;
 95;    6.590510;    1.424627;    1.374565;    1.355911;    1.338420;    1.314530;    1.293693;    1.260835;    1.224373;    1.188565;    1.128507;    1.070950;    1.056815;    1.037784;    1.030290;    1.031232;    1.028593;    1.030364;    1.030622;    1.031221;    1.031961;    1.032942;    1.034599;    1.036038;    1.036356;    1.036323;    1.038031;    1.038908;    1.039246;    1.039969;    1.041014;    1.041740;    1.042378;    1.043530;    1.043848;    1.044410;    1.045246;    1.046039;    1.046611;    1.046352;    1.045741;    1.046401;    1.046873;    1.047486;    1.048151;    1.048583;    1.048592;    1.048831;    1.048983;    1.048940;    1.049156;
 96;    6.552607;    1.417988;    1.365477;    1.347659;    1.333143;    1.308886;    1.287846;    1.254208;    1.214762;    1.180016;    1.122380;    1.065269;    1.052015;    1.032505;    1.024524;    1.024512;    1.024023;    1.025520;    1.026410;    1.026694;    1.028612;    1.030115;    1.030972;    1.031549;    1.032372;    1.033676;    1.034571;    1.035581;    1.035524;    1.036310;    1.036965;    1.037024;    1.038079;    1.038749;    1.039047;    1.038911;    1.039836;    1.040607;    1.040732;    1.041211;    1.041811;    1.042075;    1.041546;    1.041397;    1.041980;    1.042846;    1.043462;    1.043758;    1.043976;    1.043882;    1.043939;
 97;    6.545963;    1.425907;    1.380492;    1.357083;    1.336646;    1.307751;    1.285633;    1.258261;    1.214768;    1.174833;    1.126531;    1.064696;    1.055257;    1.031594;    1.023225;    1.021546;    1.020195;    1.021519;    1.023332;    1.024373;    1.025049;    1.025826;    1.026793;    1.027261;    1.027872;    1.029580;    1.030941;    1.031691;    1.032267;    1.032577;    1.033022;    1.033352;    1.034138;    1.034356;    1.035110;    1.035986;    1.036772;    1.037543;    1.038371;    1.038690;    1.039051;    1.039629;    1.039871;    1.040440;    1.040470;    1.040715;    1.040446;    1.040668;    1.041024;    1.041200;    1.041076;
 98;    6.569302;    1.420456;    1.373177;    1.354063;    1.336777;    1.313275;    1.281908;    1.258591;    1.223766;    1.184353;    1.130737;    1.069093;    1.058806;    1.039867;    1.033045;    1.034686;    1.031223;    1.031967;    1.033608;    1.034173;    1.035927;    1.036507;    1.037857;    1.038949;    1.039703;    1.039963;    1.041346;    1.042192;    1.042209;    1.042067;    1.042564;    1.043090;    1.044004;    1.044673;    1.045779;    1.046584;    1.047341;    1.048098;    1.048249;    1.048164;    1.048992;    1.049488;    1.049774;    1.050343;    1.051009;    1.051497;    1.051683;    1.051920;    1.052042;    1.052425;    1.052223;
 99;    6.612735;    1.416843;    1.364622;    1.352627;    1.332254;    1.313765;    1.280587;    1.254387;    1.219513;    1.179391;    1.130474;    1.073555;    1.060410;    1.040727;    1.033379;    1.033845;    1.031595;    1.033047;    1.033396;    1.034768;    1.035603;    1.036967;    1.038277;    1.039004;    1.039626;    1.039519;    1.040682;    1.041722;    1.042815;    1.043715;    1.044336;    1.045606;    1.046552;    1.047443;    1.048111;    1.049140;    1.049174;    1.049435;    1.050171;    1.050607;    1.050840;    1.051016;    1.051851;    1.052352;    1.052151;    1.052274;    1.052014;    1.052228;    1.051909;    1.052131;    1.052292;
100;    6.557796;    1.416007;    1.365725;    1.350759;    1.333948;    1.308290;    1.286884;    1.251595;    1.205901;    1.170597;    1.125390;    1.068517;    1.055999;    1.031704;    1.024539;    1.023552;    1.023553;    1.024182;    1.025644;    1.026114;    1.027288;    1.027902;    1.028102;    1.029188;    1.029654;    1.030316;    1.031087;    1.031916;    1.033587;    1.034789;    1.035792;    1.036055;    1.036197;    1.036086;    1.036551;    1.036650;    1.037037;    1.038149;    1.038844;    1.039529;    1.040134;    1.039893;    1.039668;    1.040121;    1.040563;    1.040686;    1.041197;    1.041434;    1.041721;    1.041907;    1.041903;
