Simulation;Time;PC 0;PC 1;PC 2;PC 3;PC 4;PC 5;PC 6;PC 7;PC 8;PC 9;PC10;PC11;PC12;PC13;PC14;PC15;PC16;PC17;PC18;PC19;PC20;PC21;PC22;PC23;PC24;PC25;PC26;PC27;PC28;PC29;PC30;PC31;PC32;PC33;PC34;PC35;PC36;PC37;PC38;PC39;PC40;PC41;PC42;PC43;PC44;PC45;PC46;PC47;PC48;PC49;
Nan;Nan;0;0;0;0;0;0;0;0;0;0;0;0;0;0;0;1;0;0;0;0;0;0;0;0;0;0;0;0;0;0;0;0;0;0;0;0;0;0;0;0;0;0;0;0;0;0;0;0;0;0;
  0;    0.087993;    0.705706;    0.686880;    0.680055;    0.675232;    0.669272;    0.660074;    0.647129;    0.638208;    0.622248;    0.607348;    0.592113;    0.585620;    0.579638;    0.575867;    0.575276;    0.575141;    0.575483;    0.575623;    0.575857;    0.576126;    0.576356;    0.576616;    0.576876;    0.576877;    0.576940;    0.576949;    0.576865;    0.577137;    0.577320;    0.577485;    0.577587;    0.577653;    0.577760;    0.577826;    0.577927;    0.578050;    0.578183;    0.578276;    0.578319;    0.578310;    0.578389;    0.578411;    0.578415;    0.578457;    0.578485;    0.578493;    0.578489;    0.578562;    0.578551;    0.578549;
  1;    0.089588;    0.711620;    0.692767;    0.685474;    0.681263;    0.671380;    0.661958;    0.653386;    0.643466;    0.629938;    0.617177;    0.598819;    0.590496;    0.583043;    0.579634;    0.579276;    0.578997;    0.579285;    0.579521;    0.579707;    0.579972;    0.580354;    0.580576;    0.580760;    0.580736;    0.580856;    0.581037;    0.581127;    0.581333;    0.581473;    0.581541;    0.581700;    0.581835;    0.581948;    0.581953;    0.581856;    0.581907;    0.581989;    0.582199;    0.582225;    0.582273;    0.582398;    0.582485;    0.582493;    0.582498;    0.582455;    0.582458;    0.582452;    0.582463;    0.582491;    0.582509;
  2;    0.086127;    0.713018;    0.694886;    0.688387;    0.684240;    0.676226;    0.663869;    0.656710;    0.643030;    0.632471;    0.617150;    0.596646;    0.590401;    0.583324;    0.579253;    0.578878;    0.578820;    0.579085;    0.579378;    0.579347;    0.579529;    0.579721;    0.580065;    0.580175;    0.580461;    0.580734;    0.580959;    0.581197;    0.581385;    0.581428;    0.581456;    0.581638;    0.581697;    0.581802;    0.581857;    0.581978;    0.582099;    0.582221;    0.582333;    0.582273;    0.582188;    0.582227;    0.582315;    0.582372;    0.582298;    0.582264;    0.582316;    0.582357;    0.582386;    0.582427;    0.582376;
  3;    0.081831;    0.711482;    0.694512;    0.687977;    0.682422;    0.673544;    0.667111;    0.658806;    0.646333;    0.634077;    0.616727;    0.598315;    0.591405;    0.583488;    0.579305;    0.578850;    0.578573;    0.578719;    0.579019;    0.579431;    0.579638;    0.579793;    0.579945;    0.580036;    0.580197;    0.580511;    0.580766;    0.580901;    0.580958;    0.581182;    0.581366;    0.581406;    0.581468;    0.581538;    0.581672;    0.581716;    0.581879;    0.582018;    0.582087;    0.582035;    0.582059;    0.582003;    0.582133;    0.582199;    0.582302;    0.582383;    0.582443;    0.582499;    0.582506;    0.582463;    0.582481;
  4;    0.085190;    0.715549;    0.697368;    0.691474;    0.685230;    0.674518;    0.664623;    0.658461;    0.647808;    0.631627;    0.617577;    0.598724;    0.591929;    0.585366;    0.581641;    0.581742;    0.581125;    0.581447;    0.581754;    0.582077;    0.582151;    0.582284;    0.582413;    0.582636;    0.582916;    0.583185;    0.583282;    0.583343;    0.583467;    0.583520;    0.583769;    0.583936;    0.584017;    0.583953;    0.584089;    0.584230;    0.584313;    0.584393;    0.584376;    0.584543;    0.584680;    0.584782;    0.584850;    0.584864;    0.584838;    0.584872;    0.584888;    0.584958;    0.584977;    0.585001;    0.585015;
  5;    0.088917;    0.710562;    0.691906;    0.685390;    0.679141;    0.672169;    0.663415;    0.655035;    0.643867;    0.631482;    0.616792;    0.597523;    0.588960;    0.581915;    0.578681;    0.578319;    0.577968;    0.578352;    0.578484;    0.578764;    0.579248;    0.579498;    0.579574;    0.579666;    0.579743;    0.580106;    0.580293;    0.580397;    0.580371;    0.580504;    0.580392;    0.580567;    0.580579;    0.580730;    0.580704;    0.580790;    0.581003;    0.581101;    0.581092;    0.581173;    0.581178;    0.581336;    0.581425;    0.581530;    0.581584;    0.581526;    0.581468;    0.581366;    0.581412;    0.581432;    0.581423;
  6;    0.082906;    0.709232;    0.690986;    0.685161;    0.676948;    0.669568;    0.661007;    0.653040;    0.643166;    0.627498;    0.613723;    0.595954;    0.588860;    0.581896;    0.577023;    0.576511;    0.576348;    0.576602;    0.576764;    0.576995;    0.577244;    0.577520;    0.577721;    0.577950;    0.578033;    0.578065;    0.578218;    0.578101;    0.578199;    0.578255;    0.578465;    0.578680;    0.578783;    0.578898;    0.578898;    0.579032;    0.579100;    0.579107;    0.579229;    0.579349;    0.579458;    0.579602;    0.579689;    0.579711;    0.579657;    0.579749;    0.579820;    0.579824;    0.579815;    0.579828;    0.579785;
  7;    0.082212;    0.713422;    0.694725;    0.687482;    0.681459;    0.674404;    0.664878;    0.655735;    0.641630;    0.628652;    0.613518;    0.596923;    0.589689;    0.582925;    0.579265;    0.579129;    0.578972;    0.579312;    0.579470;    0.579562;    0.579690;    0.580061;    0.580273;    0.580505;    0.580514;    0.580482;    0.580797;    0.581092;    0.581361;    0.581524;    0.581704;    0.581800;    0.581931;    0.582034;    0.582043;    0.582150;    0.582130;    0.582189;    0.582298;    0.582453;    0.582519;    0.582508;    0.582417;    0.582345;    0.582428;    0.582535;    0.582574;    0.582542;    0.582588;    0.582614;    0.582645;
  8;    0.083104;    0.707031;    0.688785;    0.683051;    0.677622;    0.668224;    0.662005;    0.650597;    0.638711;    0.627347;    0.610671;    0.592843;    0.586089;    0.580156;    0.576269;    0.575931;    0.575785;    0.576224;    0.576289;    0.576564;    0.576550;    0.576516;    0.576808;    0.577089;    0.577342;    0.577491;    0.577499;    0.577617;    0.577800;    0.577966;    0.578008;    0.578100;    0.578106;    0.578255;    0.578402;    0.578494;    0.578477;    0.578705;    0.578854;    0.578972;    0.579023;    0.579095;    0.579113;    0.579173;    0.579264;    0.579310;    0.579329;    0.579356;    0.579319;    0.579343;    0.579367;
  9;    0.085186;    0.712362;    0.694587;    0.689413;    0.681389;    0.673434;    0.667375;    0.655399;    0.645423;    0.635993;    0.618850;    0.597256;    0.591836;    0.582880;    0.578737;    0.578337;    0.577875;    0.578312;    0.578490;    0.578702;    0.578792;    0.579137;    0.579123;    0.579341;    0.579569;    0.579710;    0.579775;    0.579928;    0.580197;    0.580389;    0.580399;    0.580598;    0.580772;    0.580919;    0.580968;    0.580999;    0.580954;    0.581112;    0.581299;    0.581424;    0.581497;    0.581595;    0.581674;    0.581676;    0.581728;    0.581685;    0.581765;    0.581822;    0.581902;    0.581902;    0.581920;
 10;    0.082893;    0.711607;    0.693488;    0.688304;    0.681825;    0.675606;    0.667500;    0.661099;    0.649117;    0.636629;    0.616422;    0.596547;    0.590022;    0.582594;    0.577499;    0.577410;    0.576860;    0.577204;    0.577457;    0.577684;    0.578042;    0.578305;    0.578413;    0.578664;    0.578999;    0.579225;    0.579519;    0.579713;    0.579862;    0.579993;    0.580117;    0.580260;    0.580436;    0.580576;    0.580627;    0.580692;    0.580757;    0.580782;    0.580772;    0.580880;    0.580884;    0.581009;    0.581116;    0.581138;    0.581275;    0.581350;    0.581347;    0.581260;    0.581290;    0.581265;    0.581271;
 11;    0.083702;    0.708627;    0.691133;    0.686313;    0.680912;    0.671564;    0.664671;    0.655524;    0.642388;    0.632338;    0.613538;    0.596639;    0.589601;    0.581317;    0.577933;    0.577547;    0.577342;    0.577505;    0.577779;    0.577952;    0.577966;    0.578435;    0.578674;    0.578794;    0.578646;    0.579011;    0.579227;    0.579447;    0.579634;    0.579657;    0.579641;    0.579736;    0.579907;    0.580053;    0.580206;    0.580337;    0.580397;    0.580557;    0.580670;    0.580756;    0.580751;    0.580784;    0.580842;    0.580875;    0.580877;    0.580860;    0.580910;    0.580987;    0.581042;    0.581063;    0.581090;
 12;    0.087804;    0.707261;    0.690530;    0.686731;    0.680381;    0.670112;    0.661097;    0.652002;    0.638371;    0.625348;    0.613614;    0.594703;    0.586581;    0.578632;    0.574997;    0.574770;    0.574504;    0.574668;    0.575050;    0.574865;    0.575295;    0.575519;    0.575675;    0.576030;    0.576272;    0.576519;    0.576771;    0.576946;    0.577116;    0.577200;    0.577187;    0.577141;    0.577111;    0.576951;    0.577065;    0.577072;    0.577185;    0.577350;    0.577480;    0.577615;    0.577629;    0.577763;    0.577835;    0.577879;    0.577863;    0.577923;    0.577932;    0.577849;    0.577883;    0.577867;    0.577888;
 13;    0.090133;    0.710791;    0.691164;    0.685184;    0.680141;    0.670527;    0.662256;    0.653104;    0.641281;    0.629146;    0.612936;    0.597206;    0.589606;    0.582423;    0.578509;    0.578334;    0.578195;    0.578265;    0.578642;    0.578743;    0.578865;    0.579285;    0.579524;    0.579720;    0.579816;    0.579867;    0.579987;    0.580214;    0.580362;    0.580598;    0.580724;    0.580753;    0.580839;    0.580969;    0.581080;    0.581215;    0.581202;    0.581290;    0.581266;    0.581328;    0.581328;    0.581403;    0.581492;    0.581547;    0.581571;    0.581636;    0.581715;    0.581739;    0.581736;    0.581778;    0.581775;
 14;    0.082425;    0.706223;    0.688589;    0.683964;    0.675829;    0.670382;    0.662045;    0.653383;    0.640385;    0.625273;    0.610498;    0.595583;    0.590162;    0.582001;    0.577974;    0.577673;    0.577418;    0.577757;    0.577850;    0.577926;    0.578338;    0.578547;    0.578730;    0.578963;    0.579296;    0.579552;    0.579737;    0.579900;    0.579980;    0.580114;    0.580176;    0.580232;    0.580297;    0.580269;    0.580471;    0.580677;    0.580750;    0.580798;    0.580821;    0.580953;    0.581019;    0.581107;    0.581139;    0.581285;    0.581344;    0.581412;    0.581394;    0.581426;    0.581471;    0.581500;    0.581491;
 15;    0.088448;    0.708286;    0.687192;    0.680836;    0.672609;    0.666245;    0.657381;    0.648609;    0.637733;    0.623427;    0.608940;    0.592840;    0.585171;    0.578618;    0.575474;    0.575101;    0.574844;    0.575083;    0.575478;    0.575742;    0.575896;    0.576083;    0.576311;    0.576423;    0.576495;    0.576682;    0.576928;    0.577080;    0.576962;    0.577162;    0.577244;    0.577360;    0.577471;    0.577725;    0.577892;    0.577949;    0.578022;    0.578140;    0.578211;    0.578227;    0.578324;    0.578433;    0.578475;    0.578524;    0.578604;    0.578681;    0.578682;    0.578592;    0.578606;    0.578607;    0.578623;
 16;    0.083835;    0.714427;    0.697447;    0.689797;    0.683263;    0.676020;    0.666060;    0.659140;    0.647424;    0.633865;    0.619600;    0.601192;    0.594675;    0.586287;    0.582101;    0.581630;    0.581096;    0.581309;    0.581716;    0.581929;    0.582250;    0.582499;    0.582782;    0.582945;    0.583174;    0.583409;    0.583644;    0.583822;    0.583998;    0.584053;    0.584080;    0.584153;    0.584342;    0.584489;    0.584578;    0.584762;    0.584880;    0.585051;    0.585062;    0.585132;    0.585137;    0.585153;    0.585216;    0.585228;    0.585239;    0.585300;    0.585285;    0.585222;    0.585247;    0.585252;    0.585272;
 17;    0.083939;    0.706840;    0.689244;    0.682718;    0.675671;    0.668773;    0.659071;    0.647878;    0.636978;    0.625239;    0.611665;    0.594170;    0.586527;    0.578914;    0.575044;    0.574901;    0.574843;    0.575294;    0.575377;    0.575417;    0.575482;    0.575628;    0.575886;    0.576033;    0.576236;    0.576242;    0.576488;    0.576625;    0.576896;    0.577097;    0.577294;    0.577448;    0.577667;    0.577765;    0.577745;    0.577795;    0.578001;    0.578072;    0.578160;    0.578112;    0.578081;    0.578200;    0.578283;    0.578365;    0.578448;    0.578454;    0.578415;    0.578382;    0.578409;    0.578435;    0.578450;
 18;    0.096079;    0.705629;    0.689293;    0.682963;    0.677857;    0.669305;    0.662071;    0.650416;    0.638016;    0.629846;    0.617196;    0.595323;    0.588178;    0.580553;    0.577044;    0.576870;    0.576467;    0.576867;    0.576970;    0.577267;    0.577458;    0.577893;    0.578143;    0.578319;    0.578336;    0.578151;    0.578385;    0.578534;    0.578715;    0.578873;    0.579071;    0.579123;    0.579253;    0.579350;    0.579465;    0.579534;    0.579603;    0.579631;    0.579774;    0.579794;    0.579910;    0.579952;    0.580073;    0.580152;    0.580195;    0.580227;    0.580254;    0.580335;    0.580362;    0.580352;    0.580359;
 19;    0.087934;    0.708559;    0.689669;    0.683211;    0.678985;    0.672265;    0.665544;    0.653901;    0.644597;    0.630622;    0.613625;    0.597080;    0.590153;    0.583283;    0.578935;    0.578685;    0.578513;    0.578890;    0.579034;    0.578956;    0.579286;    0.579557;    0.579758;    0.579897;    0.580075;    0.580247;    0.580444;    0.580635;    0.580809;    0.580938;    0.581047;    0.581157;    0.581296;    0.581479;    0.581662;    0.581820;    0.581918;    0.581997;    0.581935;    0.582068;    0.582163;    0.582179;    0.582179;    0.582235;    0.582336;    0.582379;    0.582276;    0.582239;    0.582272;    0.582282;    0.582296;
 20;    0.090135;    0.711870;    0.691767;    0.687745;    0.679757;    0.672556;    0.665725;    0.658827;    0.649265;    0.634650;    0.617729;    0.596816;    0.590042;    0.581921;    0.577441;    0.577250;    0.576790;    0.577060;    0.577098;    0.577402;    0.577596;    0.577935;    0.578110;    0.578346;    0.578547;    0.578766;    0.578949;    0.579161;    0.579369;    0.579511;    0.579500;    0.579624;    0.579797;    0.579917;    0.580019;    0.580050;    0.580043;    0.580213;    0.580360;    0.580434;    0.580503;    0.580591;    0.580711;    0.580793;    0.580855;    0.580856;    0.580901;    0.580920;    0.580929;    0.580940;    0.580958;
 21;    0.090882;    0.711162;    0.690947;    0.685574;    0.678867;    0.672902;    0.663581;    0.653061;    0.641628;    0.628431;    0.615080;    0.596568;    0.589700;    0.581162;    0.577791;    0.577151;    0.576871;    0.577108;    0.577248;    0.577646;    0.577974;    0.578199;    0.578297;    0.578436;    0.578663;    0.578884;    0.579090;    0.579288;    0.579467;    0.579551;    0.579561;    0.579739;    0.579814;    0.579881;    0.579747;    0.579860;    0.580041;    0.580146;    0.580163;    0.580258;    0.580351;    0.580400;    0.580447;    0.580493;    0.580598;    0.580664;    0.580707;    0.580732;    0.580684;    0.580666;    0.580684;
 22;    0.088903;    0.712808;    0.693684;    0.687550;    0.680516;    0.670850;    0.663305;    0.652656;    0.644395;    0.634903;    0.616871;    0.597815;    0.590598;    0.582715;    0.578723;    0.578271;    0.577947;    0.578101;    0.578390;    0.578631;    0.578921;    0.578953;    0.579066;    0.579266;    0.579595;    0.579724;    0.579766;    0.579834;    0.579886;    0.580125;    0.580377;    0.580510;    0.580687;    0.580866;    0.580911;    0.580847;    0.580889;    0.581031;    0.581157;    0.581242;    0.581341;    0.581477;    0.581596;    0.581656;    0.581748;    0.581806;    0.581868;    0.581888;    0.581892;    0.581831;    0.581836;
 23;    0.084514;    0.710435;    0.692336;    0.688683;    0.683855;    0.676881;    0.667482;    0.654308;    0.644996;    0.631087;    0.614396;    0.598523;    0.590281;    0.583003;    0.579445;    0.579047;    0.578623;    0.578694;    0.579053;    0.579227;    0.579533;    0.579742;    0.579908;    0.580185;    0.580441;    0.580629;    0.580733;    0.580919;    0.581048;    0.581204;    0.581431;    0.581518;    0.581599;    0.581648;    0.581743;    0.581628;    0.581718;    0.581859;    0.581956;    0.582012;    0.582096;    0.582236;    0.582300;    0.582350;    0.582359;    0.582456;    0.582516;    0.582504;    0.582444;    0.582439;    0.582449;
 24;    0.082936;    0.713590;    0.694685;    0.689746;    0.681463;    0.673553;    0.664574;    0.654612;    0.643953;    0.629883;    0.615810;    0.596596;    0.589639;    0.580619;    0.576759;    0.576371;    0.576296;    0.576394;    0.576837;    0.577101;    0.577487;    0.577618;    0.577597;    0.577750;    0.577930;    0.578165;    0.578276;    0.578295;    0.578303;    0.578456;    0.578645;    0.578842;    0.578935;    0.579037;    0.579250;    0.579513;    0.579631;    0.579666;    0.579804;    0.579817;    0.579849;    0.579858;    0.579827;    0.579872;    0.579973;    0.579951;    0.579900;    0.579910;    0.579912;    0.579878;    0.579908;
 25;    0.087148;    0.707646;    0.690094;    0.685208;    0.679367;    0.668965;    0.662012;    0.652472;    0.643234;    0.626482;    0.612188;    0.595709;    0.588441;    0.580555;    0.576520;    0.576016;    0.575811;    0.575971;    0.576251;    0.576422;    0.576795;    0.577133;    0.577206;    0.577248;    0.577441;    0.577743;    0.577941;    0.578099;    0.578292;    0.578441;    0.578559;    0.578548;    0.578572;    0.578771;    0.578905;    0.578958;    0.579014;    0.579168;    0.579253;    0.579246;    0.579288;    0.579380;    0.579442;    0.579515;    0.579494;    0.579581;    0.579614;    0.579628;    0.579657;    0.579649;    0.579624;
 26;    0.089154;    0.713582;    0.695533;    0.689813;    0.683371;    0.677003;    0.669987;    0.661164;    0.649411;    0.632621;    0.620732;    0.598731;    0.591868;    0.583759;    0.580843;    0.580425;    0.580025;    0.580292;    0.580716;    0.580918;    0.581103;    0.581037;    0.581490;    0.581715;    0.582022;    0.582042;    0.582151;    0.582237;    0.582345;    0.582350;    0.582261;    0.582248;    0.582451;    0.582680;    0.582854;    0.582966;    0.583001;    0.582998;    0.583121;    0.583286;    0.583416;    0.583415;    0.583516;    0.583587;    0.583588;    0.583622;    0.583643;    0.583664;    0.583719;    0.583728;    0.583737;
 27;    0.084665;    0.711207;    0.691334;    0.684195;    0.677938;    0.672098;    0.666079;    0.656276;    0.645240;    0.630284;    0.615855;    0.596985;    0.589563;    0.580813;    0.577039;    0.576728;    0.576437;    0.576671;    0.577088;    0.577149;    0.577441;    0.577633;    0.577790;    0.577731;    0.578049;    0.578213;    0.578404;    0.578625;    0.578743;    0.579020;    0.579241;    0.579359;    0.579437;    0.579363;    0.579278;    0.579331;    0.579430;    0.579578;    0.579639;    0.579675;    0.579732;    0.579780;    0.579762;    0.579850;    0.579922;    0.579991;    0.579984;    0.580079;    0.580114;    0.580087;    0.580113;
 28;    0.087957;    0.712051;    0.691847;    0.686999;    0.678863;    0.669767;    0.662968;    0.652562;    0.644054;    0.631313;    0.612862;    0.594587;    0.587545;    0.580262;    0.577051;    0.576805;    0.576549;    0.576811;    0.577202;    0.577461;    0.577354;    0.577406;    0.577483;    0.577580;    0.577986;    0.578163;    0.578249;    0.578309;    0.578416;    0.578553;    0.578769;    0.578921;    0.579070;    0.579201;    0.579384;    0.579537;    0.579575;    0.579616;    0.579711;    0.579828;    0.579890;    0.579896;    0.579930;    0.579963;    0.580038;    0.580096;    0.580072;    0.580093;    0.580151;    0.580113;    0.580127;
 29;    0.085707;    0.714602;    0.693186;    0.687608;    0.682147;    0.673838;    0.666999;    0.656249;    0.643860;    0.627330;    0.611392;    0.594138;    0.586621;    0.581184;    0.577769;    0.577682;    0.577311;    0.577641;    0.578002;    0.578337;    0.578508;    0.578677;    0.578645;    0.578624;    0.578713;    0.578838;    0.579049;    0.579169;    0.579446;    0.579560;    0.579586;    0.579744;    0.579845;    0.579976;    0.579992;    0.580158;    0.580269;    0.580375;    0.580509;    0.580515;    0.580587;    0.580711;    0.580732;    0.580742;    0.580755;    0.580740;    0.580824;    0.580867;    0.580868;    0.580874;    0.580902;
 30;    0.086594;    0.712350;    0.693201;    0.688853;    0.681661;    0.674975;    0.665748;    0.659252;    0.648239;    0.632796;    0.619189;    0.598239;    0.591174;    0.584176;    0.580970;    0.580799;    0.580520;    0.580725;    0.581009;    0.581374;    0.581559;    0.581689;    0.581861;    0.581967;    0.581907;    0.582116;    0.582357;    0.582513;    0.582619;    0.582691;    0.582751;    0.582952;    0.583133;    0.583223;    0.583379;    0.583576;    0.583676;    0.583759;    0.583763;    0.583906;    0.583973;    0.584025;    0.584199;    0.584307;    0.584344;    0.584309;    0.584262;    0.584320;    0.584341;    0.584311;    0.584308;
 31;    0.086528;    0.710742;    0.691745;    0.685855;    0.679928;    0.672240;    0.666747;    0.656463;    0.644825;    0.632453;    0.616207;    0.597370;    0.590184;    0.581906;    0.578284;    0.577728;    0.577293;    0.577641;    0.577643;    0.577997;    0.578227;    0.578330;    0.578358;    0.578544;    0.578711;    0.578828;    0.578768;    0.578818;    0.578899;    0.579175;    0.579465;    0.579660;    0.579712;    0.579614;    0.579809;    0.580072;    0.580105;    0.580151;    0.580128;    0.579860;    0.579979;    0.580057;    0.580155;    0.580247;    0.580303;    0.580345;    0.580337;    0.580298;    0.580360;    0.580386;    0.580396;
 32;    0.083427;    0.708998;    0.692124;    0.685319;    0.679865;    0.673233;    0.660996;    0.653989;    0.643697;    0.627681;    0.611961;    0.595797;    0.591529;    0.582049;    0.576882;    0.576665;    0.576384;    0.576696;    0.576943;    0.577307;    0.577527;    0.577608;    0.577924;    0.578127;    0.578280;    0.578518;    0.578631;    0.578772;    0.578731;    0.578798;    0.578865;    0.578925;    0.579114;    0.579278;    0.579380;    0.579399;    0.579392;    0.579469;    0.579546;    0.579699;    0.579791;    0.579862;    0.579959;    0.579900;    0.579845;    0.579979;    0.580019;    0.580052;    0.580083;    0.580103;    0.580114;
 33;    0.080497;    0.708752;    0.688029;    0.681895;    0.675967;    0.669142;    0.658019;    0.651050;    0.640149;    0.629173;    0.614909;    0.592300;    0.585578;    0.577992;    0.574973;    0.574473;    0.574155;    0.574377;    0.574788;    0.575019;    0.575292;    0.575442;    0.575693;    0.575661;    0.575808;    0.576006;    0.576057;    0.576244;    0.576426;    0.576730;    0.576904;    0.577059;    0.577249;    0.577449;    0.577593;    0.577620;    0.577657;    0.577655;    0.577814;    0.577932;    0.578017;    0.578001;    0.577966;    0.578020;    0.577963;    0.578065;    0.578028;    0.578083;    0.578008;    0.578056;    0.578080;
 34;    0.085843;    0.714065;    0.693779;    0.688891;    0.683240;    0.673152;    0.663165;    0.655565;    0.645715;    0.631253;    0.615891;    0.597502;    0.589854;    0.582791;    0.579304;    0.579213;    0.578375;    0.578655;    0.578750;    0.578878;    0.579184;    0.579332;    0.579375;    0.579739;    0.580040;    0.580225;    0.580369;    0.580538;    0.580600;    0.580768;    0.580879;    0.580978;    0.581106;    0.581163;    0.581265;    0.581202;    0.581358;    0.581493;    0.581633;    0.581726;    0.581779;    0.581744;    0.581795;    0.581828;    0.581840;    0.581855;    0.581791;    0.581839;    0.581892;    0.581882;    0.581877;
 35;    0.084274;    0.709600;    0.691413;    0.687200;    0.678737;    0.669623;    0.660566;    0.650798;    0.643850;    0.632069;    0.616948;    0.596195;    0.589499;    0.582146;    0.578137;    0.577720;    0.577106;    0.577315;    0.577810;    0.578102;    0.578089;    0.578297;    0.578395;    0.578658;    0.578809;    0.579130;    0.579321;    0.579437;    0.579397;    0.579589;    0.579699;    0.579897;    0.580034;    0.580139;    0.580281;    0.580414;    0.580583;    0.580657;    0.580679;    0.580632;    0.580628;    0.580763;    0.580899;    0.580932;    0.580861;    0.580931;    0.580927;    0.581008;    0.581047;    0.581031;    0.581055;
 36;    0.077478;    0.705388;    0.689250;    0.684575;    0.676126;    0.668902;    0.662132;    0.653028;    0.638535;    0.624979;    0.614161;    0.592916;    0.586844;    0.579829;    0.576012;    0.575495;    0.575180;    0.575554;    0.575743;    0.576115;    0.576312;    0.576430;    0.576592;    0.576781;    0.577002;    0.577051;    0.576923;    0.576959;    0.577196;    0.577472;    0.577640;    0.577637;    0.577627;    0.577820;    0.577854;    0.577994;    0.578078;    0.578164;    0.578283;    0.578342;    0.578346;    0.578276;    0.578385;    0.578507;    0.578617;    0.578684;    0.578742;    0.578699;    0.578606;    0.578624;    0.578643;
 37;    0.086738;    0.707840;    0.690121;    0.685103;    0.677709;    0.668537;    0.660578;    0.652725;    0.640860;    0.627411;    0.612272;    0.595557;    0.588005;    0.581069;    0.576830;    0.576398;    0.576051;    0.576320;    0.576602;    0.576688;    0.576962;    0.577198;    0.577326;    0.577538;    0.577733;    0.577851;    0.577948;    0.578236;    0.578385;    0.578647;    0.578749;    0.578881;    0.578974;    0.579182;    0.579446;    0.579582;    0.579639;    0.579668;    0.579563;    0.579636;    0.579760;    0.579761;    0.579615;    0.579650;    0.579709;    0.579793;    0.579821;    0.579748;    0.579810;    0.579831;    0.579816;
 38;    0.082073;    0.709029;    0.689877;    0.683902;    0.676497;    0.669816;    0.661653;    0.650872;    0.641782;    0.627053;    0.610881;    0.595807;    0.589325;    0.581932;    0.578626;    0.578461;    0.578073;    0.578249;    0.578555;    0.578765;    0.578912;    0.579036;    0.579296;    0.579332;    0.579598;    0.579688;    0.579573;    0.579827;    0.580060;    0.580287;    0.580397;    0.580555;    0.580703;    0.580823;    0.580867;    0.580872;    0.581001;    0.581087;    0.581266;    0.581360;    0.581411;    0.581438;    0.581520;    0.581597;    0.581625;    0.581654;    0.581745;    0.581778;    0.581775;    0.581766;    0.581790;
 39;    0.080832;    0.704000;    0.687003;    0.681995;    0.674792;    0.667244;    0.657142;    0.647360;    0.636411;    0.623745;    0.611808;    0.595302;    0.589228;    0.580697;    0.576589;    0.576302;    0.575949;    0.576279;    0.576316;    0.576570;    0.576794;    0.577061;    0.577226;    0.577235;    0.577370;    0.577580;    0.577577;    0.577858;    0.578138;    0.578291;    0.578329;    0.578417;    0.578601;    0.578616;    0.578655;    0.578703;    0.578846;    0.578939;    0.578936;    0.579021;    0.579054;    0.579202;    0.579296;    0.579360;    0.579394;    0.579450;    0.579484;    0.579534;    0.579591;    0.579629;    0.579648;
 40;    0.081644;    0.709727;    0.691132;    0.684627;    0.679489;    0.671926;    0.663844;    0.651384;    0.638203;    0.628057;    0.610718;    0.594382;    0.587273;    0.579439;    0.574990;    0.574617;    0.574339;    0.574704;    0.574945;    0.574980;    0.575276;    0.575424;    0.575654;    0.575763;    0.575986;    0.576170;    0.576303;    0.576327;    0.576581;    0.576878;    0.577017;    0.577080;    0.577120;    0.577075;    0.577211;    0.577285;    0.577282;    0.577200;    0.577347;    0.577438;    0.577420;    0.577482;    0.577586;    0.577644;    0.577690;    0.577808;    0.577904;    0.577958;    0.577953;    0.577874;    0.577868;
 41;    0.085491;    0.707994;    0.689337;    0.684461;    0.675834;    0.670704;    0.660925;    0.649556;    0.640221;    0.625684;    0.612168;    0.593998;    0.588019;    0.580943;    0.577629;    0.577113;    0.576691;    0.576851;    0.577254;    0.577595;    0.577741;    0.578003;    0.578094;    0.578287;    0.578425;    0.578491;    0.578677;    0.578855;    0.578957;    0.579062;    0.579066;    0.579212;    0.579317;    0.579373;    0.579441;    0.579543;    0.579614;    0.579608;    0.579701;    0.579859;    0.579955;    0.580018;    0.580029;    0.580142;    0.580187;    0.580190;    0.580188;    0.580144;    0.580200;    0.580229;    0.580242;
 42;    0.089923;    0.712946;    0.691819;    0.685669;    0.680462;    0.674009;    0.665592;    0.652466;    0.642891;    0.628597;    0.614642;    0.596598;    0.589793;    0.582733;    0.578905;    0.578368;    0.578059;    0.578262;    0.578515;    0.578844;    0.579240;    0.579356;    0.579707;    0.579857;    0.579905;    0.579971;    0.580037;    0.580321;    0.580488;    0.580626;    0.580611;    0.580849;    0.581065;    0.581174;    0.581215;    0.581326;    0.581569;    0.581741;    0.581772;    0.581789;    0.581780;    0.581652;    0.581614;    0.581710;    0.581752;    0.581841;    0.581866;    0.581892;    0.581966;    0.581994;    0.582004;
 43;    0.087583;    0.711144;    0.691522;    0.684943;    0.680532;    0.671405;    0.663494;    0.656041;    0.644336;    0.630498;    0.613312;    0.594035;    0.586643;    0.579708;    0.576773;    0.576474;    0.576385;    0.576811;    0.576849;    0.576962;    0.577295;    0.577620;    0.577771;    0.577813;    0.578041;    0.578210;    0.578298;    0.578508;    0.578683;    0.578849;    0.578942;    0.579094;    0.579155;    0.579080;    0.579279;    0.579500;    0.579629;    0.579710;    0.579761;    0.579864;    0.579878;    0.579895;    0.579980;    0.580046;    0.580022;    0.580035;    0.580056;    0.580052;    0.580115;    0.580086;    0.580126;
 44;    0.088983;    0.711310;    0.693060;    0.687508;    0.684367;    0.676743;    0.666478;    0.657195;    0.646212;    0.630879;    0.612739;    0.596766;    0.590540;    0.584163;    0.580263;    0.579817;    0.579281;    0.579541;    0.579880;    0.580226;    0.580471;    0.580686;    0.580924;    0.580993;    0.581122;    0.581339;    0.581513;    0.581683;    0.581664;    0.581614;    0.581778;    0.581893;    0.582102;    0.582220;    0.582455;    0.582586;    0.582694;    0.582777;    0.582772;    0.582628;    0.582803;    0.582824;    0.582786;    0.582747;    0.582844;    0.582856;    0.582920;    0.582952;    0.583010;    0.583038;    0.583054;
 45;    0.084096;    0.707695;    0.689011;    0.682026;    0.674603;    0.668141;    0.662193;    0.654209;    0.642879;    0.627229;    0.614793;    0.595993;    0.589206;    0.582522;    0.578857;    0.578686;    0.578277;    0.578599;    0.578948;    0.579123;    0.579387;    0.579601;    0.579861;    0.580128;    0.580189;    0.580451;    0.580550;    0.580660;    0.580709;    0.580927;    0.581099;    0.581268;    0.581418;    0.581528;    0.581613;    0.581678;    0.581786;    0.581886;    0.581988;    0.582098;    0.582241;    0.582363;    0.582422;    0.582371;    0.582351;    0.582349;    0.582372;    0.582374;    0.582351;    0.582382;    0.582355;
 46;    0.089585;    0.711168;    0.691120;    0.683460;    0.678184;    0.672532;    0.661990;    0.653431;    0.642614;    0.626200;    0.610765;    0.592691;    0.586124;    0.579368;    0.576331;    0.575949;    0.575645;    0.575938;    0.576004;    0.576301;    0.576491;    0.576584;    0.576881;    0.577092;    0.577135;    0.577300;    0.577594;    0.577794;    0.577904;    0.578026;    0.578170;    0.578311;    0.578516;    0.578484;    0.578507;    0.578674;    0.578797;    0.578824;    0.578704;    0.578856;    0.579022;    0.579084;    0.579117;    0.579129;    0.579191;    0.579279;    0.579265;    0.579238;    0.579268;    0.579249;    0.579264;
 47;    0.084266;    0.714003;    0.694233;    0.687291;    0.682982;    0.677618;    0.668985;    0.656488;    0.646501;    0.632009;    0.618038;    0.597679;    0.591418;    0.583716;    0.579361;    0.578977;    0.578541;    0.578474;    0.578872;    0.578831;    0.579234;    0.579491;    0.579692;    0.579933;    0.580043;    0.580052;    0.580261;    0.580394;    0.580556;    0.580681;    0.580854;    0.581019;    0.581198;    0.581365;    0.581411;    0.581394;    0.581578;    0.581704;    0.581731;    0.581865;    0.581954;    0.582000;    0.582073;    0.582139;    0.582124;    0.582221;    0.582280;    0.582309;    0.582342;    0.582287;    0.582301;
 48;    0.080492;    0.709053;    0.691659;    0.685616;    0.677651;    0.671384;    0.662159;    0.654197;    0.640881;    0.628463;    0.614977;    0.597112;    0.591767;    0.581453;    0.577897;    0.577667;    0.576886;    0.577182;    0.577719;    0.578082;    0.578284;    0.578189;    0.578308;    0.578572;    0.578721;    0.578942;    0.579075;    0.578988;    0.579176;    0.579327;    0.579440;    0.579609;    0.579698;    0.579649;    0.579825;    0.579832;    0.579867;    0.579899;    0.580027;    0.580215;    0.580325;    0.580415;    0.580428;    0.580366;    0.580445;    0.580524;    0.580528;    0.580517;    0.580532;    0.580570;    0.580587;
 49;    0.086144;    0.709013;    0.690895;    0.684812;    0.678514;    0.667584;    0.660324;    0.654295;    0.643027;    0.633474;    0.616640;    0.597886;    0.590683;    0.582593;    0.578416;    0.578155;    0.577710;    0.578113;    0.578198;    0.578637;    0.578920;    0.579133;    0.579210;    0.579141;    0.579363;    0.579455;    0.579788;    0.580160;    0.580426;    0.580599;    0.580695;    0.580812;    0.580946;    0.581055;    0.581103;    0.581030;    0.580788;    0.580889;    0.581007;    0.581051;    0.581111;    0.581184;    0.581208;    0.581171;    0.581266;    0.581330;    0.581392;    0.581403;    0.581447;    0.581482;    0.581499;
 50;    0.077233;    0.709814;    0.690311;    0.684924;    0.678259;    0.672302;    0.661293;    0.654563;    0.643797;    0.627732;    0.617155;    0.598447;    0.590708;    0.582458;    0.578634;    0.578442;    0.578289;    0.578697;    0.578582;    0.578911;    0.579073;    0.579399;    0.579390;    0.579652;    0.579850;    0.579872;    0.580223;    0.580524;    0.580751;    0.580916;    0.581103;    0.581169;    0.581174;    0.581154;    0.581201;    0.581374;    0.581475;    0.581553;    0.581635;    0.581624;    0.581796;    0.581902;    0.581946;    0.582037;    0.582094;    0.582078;    0.582104;    0.582116;    0.582197;    0.582227;    0.582175;
 51;    0.089225;    0.715870;    0.696369;    0.691017;    0.681775;    0.675582;    0.666838;    0.659285;    0.649357;    0.632873;    0.618384;    0.597628;    0.590934;    0.583591;    0.579719;    0.579538;    0.579314;    0.579461;    0.579978;    0.580335;    0.580473;    0.580677;    0.580765;    0.580816;    0.581031;    0.581293;    0.581410;    0.581695;    0.581798;    0.581770;    0.581845;    0.581934;    0.582135;    0.582269;    0.582417;    0.582598;    0.582608;    0.582729;    0.582813;    0.582864;    0.582919;    0.582960;    0.583026;    0.583053;    0.583104;    0.583141;    0.583235;    0.583237;    0.583179;    0.583222;    0.583233;
 52;    0.086063;    0.708590;    0.689841;    0.684602;    0.676230;    0.671060;    0.661424;    0.650575;    0.637738;    0.624956;    0.609277;    0.594699;    0.588079;    0.581493;    0.577659;    0.577575;    0.576848;    0.577107;    0.577400;    0.577528;    0.577751;    0.577862;    0.578122;    0.578305;    0.578490;    0.578509;    0.578492;    0.578696;    0.578703;    0.578943;    0.579066;    0.579310;    0.579530;    0.579628;    0.579582;    0.579507;    0.579666;    0.579790;    0.579833;    0.579977;    0.580016;    0.579999;    0.580154;    0.580203;    0.580217;    0.580318;    0.580374;    0.580384;    0.580418;    0.580412;    0.580418;
 53;    0.089071;    0.707266;    0.691794;    0.684918;    0.680899;    0.672393;    0.662748;    0.654493;    0.644216;    0.629163;    0.616634;    0.594613;    0.589261;    0.580699;    0.576312;    0.575931;    0.575763;    0.576087;    0.576469;    0.576671;    0.576761;    0.576894;    0.577125;    0.577297;    0.577477;    0.577476;    0.577689;    0.577841;    0.577939;    0.578199;    0.578342;    0.578455;    0.578625;    0.578662;    0.578766;    0.578813;    0.578920;    0.579049;    0.579048;    0.578926;    0.579111;    0.579271;    0.579340;    0.579325;    0.579294;    0.579304;    0.579383;    0.579456;    0.579482;    0.579490;    0.579516;
 54;    0.082027;    0.711708;    0.692481;    0.684747;    0.679021;    0.672091;    0.665597;    0.657469;    0.645559;    0.628140;    0.611121;    0.594171;    0.586499;    0.580797;    0.577471;    0.577088;    0.576944;    0.577267;    0.577537;    0.577744;    0.578175;    0.578413;    0.578431;    0.578733;    0.579026;    0.579234;    0.579326;    0.579301;    0.579332;    0.579419;    0.579639;    0.579810;    0.579998;    0.580195;    0.580340;    0.580410;    0.580421;    0.580388;    0.580456;    0.580474;    0.580613;    0.580709;    0.580718;    0.580748;    0.580806;    0.580840;    0.580903;    0.580934;    0.580931;    0.580835;    0.580862;
 55;    0.082681;    0.706471;    0.686866;    0.682216;    0.677182;    0.669564;    0.659887;    0.651274;    0.643295;    0.630750;    0.613556;    0.595921;    0.590011;    0.581130;    0.576445;    0.576095;    0.576003;    0.576261;    0.576460;    0.576817;    0.577069;    0.577349;    0.577564;    0.577681;    0.577727;    0.577946;    0.578149;    0.578246;    0.578307;    0.578470;    0.578771;    0.578972;    0.579034;    0.579198;    0.579302;    0.579315;    0.579303;    0.579397;    0.579478;    0.579460;    0.579563;    0.579619;    0.579672;    0.579722;    0.579756;    0.579828;    0.579879;    0.579898;    0.579860;    0.579881;    0.579886;
 56;    0.087072;    0.707954;    0.688714;    0.682509;    0.674498;    0.666505;    0.657331;    0.648585;    0.636814;    0.625918;    0.611953;    0.596619;    0.589308;    0.580807;    0.576982;    0.576685;    0.576175;    0.576411;    0.576672;    0.576808;    0.577091;    0.577240;    0.577475;    0.577664;    0.577912;    0.578046;    0.578186;    0.578403;    0.578501;    0.578546;    0.578649;    0.578833;    0.578939;    0.579012;    0.579087;    0.579077;    0.579119;    0.579277;    0.579412;    0.579519;    0.579631;    0.579683;    0.579731;    0.579703;    0.579767;    0.579866;    0.579845;    0.579780;    0.579790;    0.579818;    0.579840;
 57;    0.086823;    0.713322;    0.694690;    0.689174;    0.681394;    0.675220;    0.664633;    0.655188;    0.644126;    0.630531;    0.617320;    0.598341;    0.591734;    0.584200;    0.580965;    0.581081;    0.580273;    0.580548;    0.580483;    0.580543;    0.580892;    0.580926;    0.581277;    0.581427;    0.581586;    0.581629;    0.581864;    0.581874;    0.581863;    0.581964;    0.582198;    0.582349;    0.582465;    0.582630;    0.582722;    0.582819;    0.582876;    0.583080;    0.583168;    0.583209;    0.583204;    0.583175;    0.583319;    0.583423;    0.583474;    0.583592;    0.583648;    0.583652;    0.583561;    0.583559;    0.583590;
 58;    0.084630;    0.710986;    0.691987;    0.685316;    0.678052;    0.672042;    0.662358;    0.655304;    0.643487;    0.630786;    0.616572;    0.596944;    0.590879;    0.582923;    0.579211;    0.579180;    0.578326;    0.578496;    0.578886;    0.578961;    0.579226;    0.579390;    0.579658;    0.579839;    0.580043;    0.580238;    0.580430;    0.580566;    0.580735;    0.580743;    0.580706;    0.580886;    0.580891;    0.581136;    0.581289;    0.581349;    0.581435;    0.581428;    0.581505;    0.581643;    0.581743;    0.581746;    0.581767;    0.581796;    0.581852;    0.581891;    0.581912;    0.581977;    0.582000;    0.581986;    0.581984;
 59;    0.082395;    0.708467;    0.690795;    0.683744;    0.676010;    0.670520;    0.662834;    0.650046;    0.638755;    0.628247;    0.616834;    0.595100;    0.587460;    0.580180;    0.576669;    0.576324;    0.576143;    0.576404;    0.576810;    0.577024;    0.577247;    0.577457;    0.577533;    0.577853;    0.578064;    0.578191;    0.578332;    0.578514;    0.578759;    0.578851;    0.578847;    0.578908;    0.578783;    0.578967;    0.579161;    0.579232;    0.579375;    0.579424;    0.579588;    0.579727;    0.579797;    0.579879;    0.579909;    0.579929;    0.579953;    0.580042;    0.580072;    0.580112;    0.580121;    0.580135;    0.580160;
 60;    0.087551;    0.710703;    0.692106;    0.686760;    0.680573;    0.673040;    0.666109;    0.656938;    0.642808;    0.627733;    0.613305;    0.597503;    0.590221;    0.583309;    0.579393;    0.578908;    0.578598;    0.579062;    0.579343;    0.579577;    0.579681;    0.579832;    0.579914;    0.580271;    0.580392;    0.580451;    0.580703;    0.580762;    0.580985;    0.581207;    0.581328;    0.581402;    0.581483;    0.581685;    0.581829;    0.581846;    0.581951;    0.581981;    0.582027;    0.582155;    0.582264;    0.582334;    0.582296;    0.582379;    0.582461;    0.582476;    0.582457;    0.582520;    0.582525;    0.582562;    0.582567;
 61;    0.083898;    0.708715;    0.690335;    0.684215;    0.679355;    0.672966;    0.662427;    0.655026;    0.644449;    0.631982;    0.615379;    0.597072;    0.590526;    0.583274;    0.578974;    0.578526;    0.577926;    0.578218;    0.578626;    0.579020;    0.579130;    0.579103;    0.579411;    0.579657;    0.579723;    0.579890;    0.579999;    0.580252;    0.580412;    0.580473;    0.580632;    0.580758;    0.580721;    0.580774;    0.580926;    0.581113;    0.581268;    0.581406;    0.581470;    0.581380;    0.581474;    0.581442;    0.581491;    0.581534;    0.581506;    0.581534;    0.581602;    0.581623;    0.581666;    0.581697;    0.581699;
 62;    0.082610;    0.707625;    0.688680;    0.683370;    0.676566;    0.667478;    0.658307;    0.651139;    0.638420;    0.624708;    0.611496;    0.594828;    0.590136;    0.580203;    0.576124;    0.575674;    0.575270;    0.575583;    0.575860;    0.576019;    0.576071;    0.576486;    0.576733;    0.576881;    0.576958;    0.577059;    0.577107;    0.577157;    0.577244;    0.577455;    0.577549;    0.577707;    0.577818;    0.577912;    0.577972;    0.578038;    0.578118;    0.578315;    0.578441;    0.578573;    0.578584;    0.578680;    0.578728;    0.578816;    0.578876;    0.578884;    0.578865;    0.578848;    0.578873;    0.578920;    0.578926;
 63;    0.084055;    0.709539;    0.689197;    0.683281;    0.674985;    0.668387;    0.659058;    0.652982;    0.643680;    0.633452;    0.617642;    0.597154;    0.591015;    0.581637;    0.577540;    0.577054;    0.576793;    0.577226;    0.577488;    0.577283;    0.577510;    0.577843;    0.578022;    0.578013;    0.578214;    0.578338;    0.578529;    0.578681;    0.578838;    0.579148;    0.579344;    0.579414;    0.579498;    0.579667;    0.579807;    0.579821;    0.579843;    0.579858;    0.579932;    0.580052;    0.580161;    0.580268;    0.580371;    0.580493;    0.580553;    0.580564;    0.580498;    0.580367;    0.580345;    0.580388;    0.580417;
 64;    0.084548;    0.710758;    0.691926;    0.687726;    0.679529;    0.673388;    0.665752;    0.657952;    0.646887;    0.633444;    0.616089;    0.597771;    0.590248;    0.583302;    0.579156;    0.578575;    0.578141;    0.578525;    0.578750;    0.578951;    0.579152;    0.579316;    0.579424;    0.579712;    0.579918;    0.580098;    0.580226;    0.580360;    0.580606;    0.580770;    0.580824;    0.581038;    0.581303;    0.581496;    0.581660;    0.581745;    0.581911;    0.582067;    0.582099;    0.582040;    0.582086;    0.582143;    0.582228;    0.582245;    0.582327;    0.582309;    0.582372;    0.582382;    0.582332;    0.582305;    0.582360;
 65;    0.089294;    0.704698;    0.687313;    0.680814;    0.675881;    0.668428;    0.661439;    0.648556;    0.637630;    0.625763;    0.610141;    0.594886;    0.588118;    0.580534;    0.577241;    0.576770;    0.576484;    0.576643;    0.576693;    0.577067;    0.577240;    0.577468;    0.577801;    0.577982;    0.578163;    0.578403;    0.578493;    0.578580;    0.578625;    0.578663;    0.578654;    0.578730;    0.578947;    0.579118;    0.579232;    0.579346;    0.579486;    0.579562;    0.579606;    0.579631;    0.579721;    0.579764;    0.579831;    0.579916;    0.579949;    0.580071;    0.580161;    0.580185;    0.580169;    0.580187;    0.580194;
 66;    0.084267;    0.709984;    0.692057;    0.687029;    0.680790;    0.672897;    0.664094;    0.657213;    0.644759;    0.629308;    0.616445;    0.596478;    0.590926;    0.581858;    0.577671;    0.577219;    0.577001;    0.577272;    0.577332;    0.577567;    0.577829;    0.578127;    0.578349;    0.578521;    0.578751;    0.578960;    0.578953;    0.578854;    0.578864;    0.579073;    0.579261;    0.579495;    0.579710;    0.579905;    0.580056;    0.580147;    0.580175;    0.580363;    0.580483;    0.580561;    0.580573;    0.580659;    0.580599;    0.580673;    0.580634;    0.580629;    0.580699;    0.580675;    0.580723;    0.580727;    0.580743;
 67;    0.081818;    0.708428;    0.690896;    0.683361;    0.677860;    0.671170;    0.661914;    0.648173;    0.639188;    0.626609;    0.614246;    0.595938;    0.589979;    0.582702;    0.578901;    0.578311;    0.577874;    0.578191;    0.578341;    0.578580;    0.578851;    0.578861;    0.578871;    0.578891;    0.579218;    0.579420;    0.579577;    0.579767;    0.579902;    0.579976;    0.580165;    0.580303;    0.580448;    0.580554;    0.580526;    0.580659;    0.580747;    0.580895;    0.580897;    0.580856;    0.581054;    0.581191;    0.581253;    0.581258;    0.581222;    0.581314;    0.581295;    0.581270;    0.581295;    0.581359;    0.581376;
 68;    0.086022;    0.709977;    0.691417;    0.685598;    0.676974;    0.670560;    0.662444;    0.656123;    0.641719;    0.631478;    0.614589;    0.596834;    0.589773;    0.582141;    0.578286;    0.578069;    0.577557;    0.577954;    0.577924;    0.578193;    0.578489;    0.578474;    0.578739;    0.578743;    0.578977;    0.579337;    0.579519;    0.579617;    0.579848;    0.579966;    0.579971;    0.579931;    0.580163;    0.580353;    0.580545;    0.580697;    0.580839;    0.580952;    0.581037;    0.581087;    0.581088;    0.581197;    0.581357;    0.581464;    0.581562;    0.581530;    0.581575;    0.581598;    0.581541;    0.581576;    0.581579;
 69;    0.086741;    0.708395;    0.691755;    0.685576;    0.680410;    0.674045;    0.668812;    0.660539;    0.649472;    0.634358;    0.616870;    0.599538;    0.594037;    0.584798;    0.580541;    0.580129;    0.579659;    0.579780;    0.580220;    0.580411;    0.580702;    0.580858;    0.581134;    0.581308;    0.581353;    0.581586;    0.581819;    0.581997;    0.582127;    0.582314;    0.582469;    0.582501;    0.582532;    0.582709;    0.582748;    0.582871;    0.582803;    0.582959;    0.583063;    0.583147;    0.583196;    0.583257;    0.583284;    0.583319;    0.583430;    0.583426;    0.583474;    0.583531;    0.583594;    0.583618;    0.583620;
 70;    0.087053;    0.712855;    0.694421;    0.687492;    0.682745;    0.674101;    0.664039;    0.653049;    0.643722;    0.627796;    0.612801;    0.596797;    0.590377;    0.583885;    0.580366;    0.579920;    0.579444;    0.579726;    0.580033;    0.580188;    0.580518;    0.580703;    0.580786;    0.581165;    0.581281;    0.581301;    0.581451;    0.581694;    0.581825;    0.581983;    0.582041;    0.582038;    0.582048;    0.582247;    0.582422;    0.582498;    0.582548;    0.582608;    0.582602;    0.582551;    0.582662;    0.582636;    0.582768;    0.582866;    0.582957;    0.583032;    0.583083;    0.583137;    0.583185;    0.583224;    0.583218;
 71;    0.088688;    0.710354;    0.691279;    0.684886;    0.677695;    0.671553;    0.663089;    0.653531;    0.644855;    0.628766;    0.611437;    0.595886;    0.588896;    0.581705;    0.578365;    0.577775;    0.577479;    0.577796;    0.578000;    0.578153;    0.578456;    0.578677;    0.578818;    0.579147;    0.579377;    0.579669;    0.579893;    0.580011;    0.580031;    0.580260;    0.580509;    0.580638;    0.580680;    0.580697;    0.580640;    0.580526;    0.580546;    0.580664;    0.580749;    0.580851;    0.580947;    0.580981;    0.581061;    0.581159;    0.581230;    0.581287;    0.581344;    0.581390;    0.581371;    0.581393;    0.581411;
 72;    0.086253;    0.711441;    0.692012;    0.687657;    0.681857;    0.673743;    0.665654;    0.655356;    0.645475;    0.629180;    0.617675;    0.596032;    0.589520;    0.582724;    0.579133;    0.578631;    0.578289;    0.578482;    0.578636;    0.578943;    0.579295;    0.579491;    0.579629;    0.579744;    0.579978;    0.580157;    0.580270;    0.580562;    0.580710;    0.580816;    0.581102;    0.581268;    0.581248;    0.581287;    0.581348;    0.581328;    0.581464;    0.581595;    0.581680;    0.581811;    0.581852;    0.581875;    0.581877;    0.581860;    0.581919;    0.581966;    0.582007;    0.582034;    0.582013;    0.582041;    0.582047;
 73;    0.086068;    0.717162;    0.697730;    0.693148;    0.684781;    0.678322;    0.673072;    0.663479;    0.648870;    0.636790;    0.618340;    0.602519;    0.596356;    0.587490;    0.583423;    0.583423;    0.582986;    0.583093;    0.583292;    0.583783;    0.584024;    0.584095;    0.584268;    0.584293;    0.584409;    0.584563;    0.584616;    0.584911;    0.585100;    0.585203;    0.585430;    0.585713;    0.585862;    0.586027;    0.586130;    0.586172;    0.586154;    0.586156;    0.586253;    0.586298;    0.586421;    0.586550;    0.586652;    0.586685;    0.586656;    0.586675;    0.586679;    0.586723;    0.586784;    0.586805;    0.586786;
 74;    0.083074;    0.711580;    0.691058;    0.684393;    0.680180;    0.672742;    0.662858;    0.653522;    0.643198;    0.629263;    0.614212;    0.598005;    0.591017;    0.584421;    0.580690;    0.580241;    0.579880;    0.580183;    0.580491;    0.580793;    0.581193;    0.581360;    0.581409;    0.581648;    0.581776;    0.581967;    0.582025;    0.582240;    0.582399;    0.582498;    0.582619;    0.582736;    0.582898;    0.583149;    0.583355;    0.583516;    0.583662;    0.583702;    0.583808;    0.583886;    0.583963;    0.583960;    0.584051;    0.584101;    0.584090;    0.584143;    0.584124;    0.584191;    0.584221;    0.584233;    0.584235;
 75;    0.085059;    0.707194;    0.688194;    0.681688;    0.675847;    0.669787;    0.662841;    0.651259;    0.638124;    0.625096;    0.610326;    0.592617;    0.587220;    0.579067;    0.575888;    0.575710;    0.575475;    0.575603;    0.575844;    0.576183;    0.576416;    0.576586;    0.576933;    0.577119;    0.577385;    0.577578;    0.577628;    0.577824;    0.577990;    0.578068;    0.578055;    0.577956;    0.578085;    0.578281;    0.578445;    0.578580;    0.578696;    0.578714;    0.578577;    0.578591;    0.578736;    0.578771;    0.578902;    0.579013;    0.579079;    0.579101;    0.579134;    0.579134;    0.579179;    0.579180;    0.579210;
 76;    0.086321;    0.712058;    0.691972;    0.687446;    0.678833;    0.672741;    0.661506;    0.654375;    0.641297;    0.632036;    0.616288;    0.597185;    0.590385;    0.584058;    0.580963;    0.580499;    0.580196;    0.580425;    0.580667;    0.580882;    0.580952;    0.581254;    0.581345;    0.581560;    0.581703;    0.581871;    0.582051;    0.582201;    0.582369;    0.582663;    0.582847;    0.582963;    0.583061;    0.583090;    0.583219;    0.583393;    0.583533;    0.583651;    0.583786;    0.583883;    0.583828;    0.583894;    0.583898;    0.583813;    0.583863;    0.583918;    0.583956;    0.584041;    0.584074;    0.584086;    0.584077;
 77;    0.077221;    0.702891;    0.684398;    0.677479;    0.672081;    0.665152;    0.657658;    0.647217;    0.635046;    0.624658;    0.607816;    0.591293;    0.585263;    0.576606;    0.573068;    0.572448;    0.572288;    0.572547;    0.572866;    0.573034;    0.573392;    0.573511;    0.573766;    0.573980;    0.574254;    0.574379;    0.574570;    0.574731;    0.574745;    0.574936;    0.575128;    0.575243;    0.575396;    0.575594;    0.575674;    0.575708;    0.575877;    0.575933;    0.575965;    0.575954;    0.576005;    0.576084;    0.576106;    0.576111;    0.576180;    0.576255;    0.576307;    0.576323;    0.576351;    0.576389;    0.576395;
 78;    0.085580;    0.707071;    0.689880;    0.683036;    0.676993;    0.669297;    0.661211;    0.649678;    0.637408;    0.624423;    0.613421;    0.595827;    0.589249;    0.580680;    0.577015;    0.576484;    0.575906;    0.576136;    0.576524;    0.576649;    0.577062;    0.577123;    0.577343;    0.577471;    0.577458;    0.577807;    0.578068;    0.578264;    0.578378;    0.578520;    0.578689;    0.578731;    0.578849;    0.578844;    0.578931;    0.578999;    0.579185;    0.579325;    0.579408;    0.579452;    0.579337;    0.579460;    0.579518;    0.579519;    0.579599;    0.579641;    0.579717;    0.579720;    0.579730;    0.579767;    0.579795;
 79;    0.084006;    0.710192;    0.691572;    0.683802;    0.677412;    0.671803;    0.660167;    0.650213;    0.642671;    0.630048;    0.609682;    0.593311;    0.587427;    0.579576;    0.576346;    0.575928;    0.575483;    0.575919;    0.576092;    0.576059;    0.576334;    0.576570;    0.576705;    0.576885;    0.577100;    0.577184;    0.577401;    0.577649;    0.577796;    0.577926;    0.577997;    0.578078;    0.578244;    0.578492;    0.578623;    0.578633;    0.578648;    0.578593;    0.578680;    0.578876;    0.578995;    0.579001;    0.578960;    0.578946;    0.578878;    0.578863;    0.578939;    0.578930;    0.578972;    0.578998;    0.579018;
 80;    0.084009;    0.705607;    0.685939;    0.682094;    0.675528;    0.667387;    0.657869;    0.646566;    0.637975;    0.623931;    0.608018;    0.590257;    0.584261;    0.576762;    0.573631;    0.573158;    0.573186;    0.573204;    0.573345;    0.573825;    0.574201;    0.574322;    0.574362;    0.574501;    0.574634;    0.574887;    0.575025;    0.575201;    0.575392;    0.575506;    0.575526;    0.575607;    0.575657;    0.575835;    0.575958;    0.575986;    0.576123;    0.576175;    0.576372;    0.576473;    0.576569;    0.576581;    0.576534;    0.576648;    0.576669;    0.576730;    0.576706;    0.576788;    0.576820;    0.576835;    0.576836;
 81;    0.085408;    0.706962;    0.688471;    0.682864;    0.675036;    0.668119;    0.660583;    0.653833;    0.644198;    0.630934;    0.612230;    0.594315;    0.587526;    0.580548;    0.577177;    0.576986;    0.576511;    0.576841;    0.576711;    0.576912;    0.577175;    0.577478;    0.577765;    0.577885;    0.577976;    0.578277;    0.578369;    0.578427;    0.578450;    0.578495;    0.578685;    0.578875;    0.578987;    0.579097;    0.579134;    0.579335;    0.579437;    0.579472;    0.579539;    0.579558;    0.579680;    0.579753;    0.579806;    0.579881;    0.579988;    0.580047;    0.580052;    0.579960;    0.579957;    0.579988;    0.579933;
 82;    0.081217;    0.705573;    0.686693;    0.682476;    0.675917;    0.669773;    0.662662;    0.654716;    0.642749;    0.627367;    0.610917;    0.592640;    0.586856;    0.578610;    0.575302;    0.575050;    0.574534;    0.574983;    0.575334;    0.575574;    0.575558;    0.575704;    0.575741;    0.575887;    0.575868;    0.575979;    0.576241;    0.576418;    0.576685;    0.576848;    0.577081;    0.577135;    0.577070;    0.576962;    0.577142;    0.577282;    0.577392;    0.577448;    0.577481;    0.577656;    0.577763;    0.577910;    0.577927;    0.577889;    0.577898;    0.577967;    0.577996;    0.577943;    0.577967;    0.578008;    0.578012;
 83;    0.086066;    0.704296;    0.687111;    0.680491;    0.673829;    0.668572;    0.662190;    0.653447;    0.644075;    0.629554;    0.614060;    0.594909;    0.588177;    0.581153;    0.577254;    0.576721;    0.576345;    0.576471;    0.576699;    0.576778;    0.577134;    0.577415;    0.577529;    0.577706;    0.577880;    0.577869;    0.578192;    0.578395;    0.578407;    0.578575;    0.578673;    0.578731;    0.578879;    0.579109;    0.579231;    0.579307;    0.579319;    0.579426;    0.579524;    0.579622;    0.579718;    0.579830;    0.579893;    0.579908;    0.579859;    0.579924;    0.579995;    0.580014;    0.580063;    0.580084;    0.580064;
 84;    0.079480;    0.708701;    0.692671;    0.687041;    0.680249;    0.672140;    0.662994;    0.655523;    0.645116;    0.628092;    0.614733;    0.596561;    0.589826;    0.582837;    0.579052;    0.578524;    0.578098;    0.578310;    0.578627;    0.579030;    0.579152;    0.579245;    0.579522;    0.579600;    0.579803;    0.579944;    0.580039;    0.579938;    0.580032;    0.580317;    0.580517;    0.580638;    0.580739;    0.580782;    0.580789;    0.580908;    0.580890;    0.581118;    0.581254;    0.581354;    0.581326;    0.581412;    0.581431;    0.581479;    0.581534;    0.581586;    0.581630;    0.581670;    0.581666;    0.581689;    0.581702;
 85;    0.089535;    0.710670;    0.693490;    0.688564;    0.681835;    0.674129;    0.665952;    0.656380;    0.647346;    0.633204;    0.618726;    0.597168;    0.589983;    0.582421;    0.578510;    0.578525;    0.577667;    0.577968;    0.578105;    0.578246;    0.578582;    0.578957;    0.579134;    0.579356;    0.579345;    0.579446;    0.579606;    0.579695;    0.579947;    0.580076;    0.580155;    0.580232;    0.580316;    0.580434;    0.580470;    0.580515;    0.580603;    0.580692;    0.580803;    0.580920;    0.580999;    0.581054;    0.581074;    0.581019;    0.581133;    0.581186;    0.581193;    0.581274;    0.581300;    0.581336;    0.581337;
 86;    0.086545;    0.710547;    0.689866;    0.683425;    0.677148;    0.669009;    0.660863;    0.652274;    0.640876;    0.630062;    0.615675;    0.595842;    0.591266;    0.582346;    0.577915;    0.577667;    0.577472;    0.577565;    0.577726;    0.578119;    0.578234;    0.578556;    0.578753;    0.578754;    0.579020;    0.579229;    0.579422;    0.579541;    0.579593;    0.579668;    0.579825;    0.579995;    0.580101;    0.580247;    0.580308;    0.580430;    0.580605;    0.580775;    0.580871;    0.580852;    0.580893;    0.580929;    0.581033;    0.581019;    0.581091;    0.581170;    0.581187;    0.581201;    0.581257;    0.581293;    0.581293;
 87;    0.084760;    0.709487;    0.689972;    0.684950;    0.676202;    0.669025;    0.660038;    0.653161;    0.638765;    0.627023;    0.615288;    0.596480;    0.589699;    0.581332;    0.577013;    0.576624;    0.576339;    0.576532;    0.576633;    0.577002;    0.577247;    0.577291;    0.577183;    0.577556;    0.577731;    0.577949;    0.578055;    0.578208;    0.578389;    0.578583;    0.578737;    0.578795;    0.578812;    0.578984;    0.579226;    0.579404;    0.579472;    0.579374;    0.579201;    0.579230;    0.579289;    0.579421;    0.579462;    0.579541;    0.579588;    0.579674;    0.579662;    0.579633;    0.579635;    0.579638;    0.579611;
 88;    0.083436;    0.711995;    0.691854;    0.685995;    0.681289;    0.672853;    0.667851;    0.660362;    0.649179;    0.634909;    0.613690;    0.595969;    0.589543;    0.580608;    0.577801;    0.577457;    0.577242;    0.577381;    0.577592;    0.577953;    0.578195;    0.578374;    0.578660;    0.578878;    0.578908;    0.579030;    0.579276;    0.579497;    0.579530;    0.579812;    0.579983;    0.579931;    0.579867;    0.580008;    0.580188;    0.580240;    0.580345;    0.580419;    0.580524;    0.580621;    0.580673;    0.580585;    0.580579;    0.580631;    0.580740;    0.580684;    0.580719;    0.580685;    0.580684;    0.580728;    0.580677;
 89;    0.089183;    0.711728;    0.693050;    0.688561;    0.680509;    0.674842;    0.665136;    0.653144;    0.643116;    0.625194;    0.613263;    0.595848;    0.589593;    0.582536;    0.579068;    0.579062;    0.578431;    0.578635;    0.578737;    0.579046;    0.579280;    0.579523;    0.579636;    0.579956;    0.580054;    0.580262;    0.580492;    0.580648;    0.580617;    0.580947;    0.581096;    0.581066;    0.581004;    0.581012;    0.581138;    0.581280;    0.581408;    0.581538;    0.581644;    0.581781;    0.581887;    0.581988;    0.582083;    0.582042;    0.581962;    0.581988;    0.581918;    0.581953;    0.582024;    0.582047;    0.582070;
 90;    0.097814;    0.709147;    0.691350;    0.685062;    0.678088;    0.673234;    0.664109;    0.658116;    0.644306;    0.631857;    0.617022;    0.597231;    0.590548;    0.581959;    0.578157;    0.577880;    0.577497;    0.577865;    0.577871;    0.578173;    0.578279;    0.578507;    0.578511;    0.578919;    0.579242;    0.579378;    0.579438;    0.579684;    0.579794;    0.579821;    0.580007;    0.580132;    0.580298;    0.580424;    0.580475;    0.580643;    0.580739;    0.580857;    0.580962;    0.580992;    0.580984;    0.581029;    0.581087;    0.581127;    0.581088;    0.581128;    0.581166;    0.581193;    0.581230;    0.581249;    0.581286;
 91;    0.089840;    0.711435;    0.691974;    0.688049;    0.680252;    0.670773;    0.664065;    0.653278;    0.643002;    0.628448;    0.614713;    0.595671;    0.590770;    0.582058;    0.578958;    0.578896;    0.578520;    0.578923;    0.579074;    0.579244;    0.579416;    0.579610;    0.579656;    0.579705;    0.579999;    0.580208;    0.580298;    0.580547;    0.580715;    0.580809;    0.580915;    0.581068;    0.581180;    0.581249;    0.581386;    0.581484;    0.581595;    0.581793;    0.581908;    0.581915;    0.581833;    0.581928;    0.582053;    0.582203;    0.582262;    0.582307;    0.582368;    0.582442;    0.582485;    0.582485;    0.582478;
 92;    0.084525;    0.707507;    0.688841;    0.682148;    0.676977;    0.669802;    0.659388;    0.650143;    0.639024;    0.628614;    0.612521;    0.594392;    0.588357;    0.580007;    0.576719;    0.576124;    0.575685;    0.576246;    0.576640;    0.576903;    0.577121;    0.577130;    0.576954;    0.577279;    0.577400;    0.577544;    0.577618;    0.577885;    0.578132;    0.578280;    0.578354;    0.578392;    0.578553;    0.578808;    0.578894;    0.578998;    0.578951;    0.579096;    0.579168;    0.579276;    0.579327;    0.579307;    0.579410;    0.579507;    0.579532;    0.579510;    0.579597;    0.579645;    0.579675;    0.579621;    0.579645;
 93;    0.086581;    0.710927;    0.692751;    0.687870;    0.681138;    0.674852;    0.668514;    0.657620;    0.646237;    0.632397;    0.616497;    0.597651;    0.591186;    0.583799;    0.579587;    0.579229;    0.579043;    0.579112;    0.579443;    0.579592;    0.580053;    0.580243;    0.580283;    0.580555;    0.580762;    0.580924;    0.581060;    0.581251;    0.581316;    0.581592;    0.581730;    0.581749;    0.581841;    0.581910;    0.581922;    0.582143;    0.582145;    0.582174;    0.582210;    0.582292;    0.582381;    0.582411;    0.582536;    0.582544;    0.582599;    0.582596;    0.582657;    0.582697;    0.582727;    0.582750;    0.582796;
 94;    0.096915;    0.710543;    0.691899;    0.686905;    0.677649;    0.670092;    0.662398;    0.650566;    0.638565;    0.630664;    0.612925;    0.595416;    0.588137;    0.581952;    0.578515;    0.578198;    0.578022;    0.578107;    0.578483;    0.578598;    0.578745;    0.578969;    0.579104;    0.579390;    0.579658;    0.579900;    0.580052;    0.580106;    0.580252;    0.580327;    0.580445;    0.580482;    0.580460;    0.580622;    0.580766;    0.580717;    0.580960;    0.581048;    0.581082;    0.581086;    0.581215;    0.581283;    0.581340;    0.581375;    0.581319;    0.581371;    0.581384;    0.581384;    0.581407;    0.581442;    0.581435;
 95;    0.082020;    0.712313;    0.692894;    0.686908;    0.681469;    0.673779;    0.667503;    0.656988;    0.645380;    0.634541;    0.615282;    0.597427;    0.591048;    0.583548;    0.579519;    0.579444;    0.578841;    0.579247;    0.579313;    0.579449;    0.579631;    0.579842;    0.580204;    0.580508;    0.580577;    0.580559;    0.580910;    0.581088;    0.581147;    0.581284;    0.581479;    0.581612;    0.581730;    0.581947;    0.581999;    0.582094;    0.582237;    0.582372;    0.582474;    0.582413;    0.582299;    0.582414;    0.582488;    0.582589;    0.582697;    0.582762;    0.582762;    0.582795;    0.582815;    0.582809;    0.582841;
 96;    0.086717;    0.708994;    0.688514;    0.682779;    0.678503;    0.670676;    0.664287;    0.653444;    0.640774;    0.630258;    0.611830;    0.594237;    0.588483;    0.580599;    0.576511;    0.576317;    0.576190;    0.576550;    0.576756;    0.576837;    0.577271;    0.577598;    0.577805;    0.577930;    0.578101;    0.578376;    0.578558;    0.578758;    0.578741;    0.578895;    0.579015;    0.579014;    0.579206;    0.579320;    0.579367;    0.579338;    0.579508;    0.579635;    0.579646;    0.579726;    0.579820;    0.579863;    0.579759;    0.579731;    0.579823;    0.579958;    0.580053;    0.580099;    0.580129;    0.580113;    0.580120;
 97;    0.084033;    0.712953;    0.695548;    0.687699;    0.681215;    0.671686;    0.664950;    0.656529;    0.642433;    0.629980;    0.615004;    0.595802;    0.590796;    0.581690;    0.577251;    0.576656;    0.576287;    0.576600;    0.576993;    0.577225;    0.577377;    0.577541;    0.577746;    0.577845;    0.577971;    0.578324;    0.578602;    0.578748;    0.578849;    0.578894;    0.578977;    0.579036;    0.579182;    0.579217;    0.579355;    0.579513;    0.579658;    0.579784;    0.579927;    0.579970;    0.580024;    0.580123;    0.580158;    0.580245;    0.580246;    0.580279;    0.580233;    0.580266;    0.580321;    0.580346;    0.580325;
 98;    0.082323;    0.710228;    0.692001;    0.685789;    0.680487;    0.672953;    0.662637;    0.655716;    0.644804;    0.632573;    0.615573;    0.596255;    0.590505;    0.583633;    0.579885;    0.579935;    0.579156;    0.579337;    0.579729;    0.579867;    0.580260;    0.580391;    0.580690;    0.580918;    0.581077;    0.581135;    0.581416;    0.581580;    0.581575;    0.581541;    0.581626;    0.581720;    0.581890;    0.582003;    0.582206;    0.582353;    0.582482;    0.582610;    0.582623;    0.582600;    0.582736;    0.582819;    0.582861;    0.582952;    0.583057;    0.583137;    0.583164;    0.583198;    0.583215;    0.583272;    0.583240;
 99;    0.085447;    0.708422;    0.688075;    0.684644;    0.678125;    0.672491;    0.661481;    0.653404;    0.642360;    0.629842;    0.614591;    0.597104;    0.590711;    0.583285;    0.579434;    0.579309;    0.578752;    0.579103;    0.579184;    0.579493;    0.579702;    0.579995;    0.580284;    0.580433;    0.580558;    0.580534;    0.580771;    0.580986;    0.581204;    0.581382;    0.581507;    0.581739;    0.581916;    0.582085;    0.582205;    0.582386;    0.582388;    0.582429;    0.582553;    0.582619;    0.582647;    0.582674;    0.582806;    0.582885;    0.582848;    0.582866;    0.582815;    0.582844;    0.582789;    0.582820;    0.582843;
100;    0.085177;    0.708003;    0.688500;    0.683947;    0.678796;    0.670455;    0.663971;    0.652581;    0.637620;    0.626830;    0.612913;    0.595405;    0.588890;    0.580308;    0.576500;    0.576079;    0.576052;    0.576218;    0.576556;    0.576672;    0.576945;    0.577089;    0.577137;    0.577368;    0.577458;    0.577582;    0.577727;    0.577891;    0.578223;    0.578459;    0.578653;    0.578697;    0.578714;    0.578689;    0.578770;    0.578773;    0.578834;    0.579031;    0.579146;    0.579257;    0.579356;    0.579303;    0.579257;    0.579327;    0.579399;    0.579414;    0.579495;    0.579531;    0.579576;    0.579603;    0.579600;
