Simulation;Time;PC 0;PC 1;PC 2;PC 3;PC 4;PC 5;PC 6;PC 7;PC 8;PC 9;PC10;PC11;PC12;PC13;PC14;PC15;PC16;PC17;PC18;PC19;PC20;PC21;PC22;PC23;PC24;PC25;PC26;PC27;PC28;PC29;PC30;PC31;PC32;PC33;PC34;PC35;PC36;PC37;PC38;PC39;PC40;PC41;PC42;PC43;PC44;PC45;PC46;PC47;PC48;PC49;
Nan;Nan;0;0;0;0;0;0;0;0;0;0;0;0;0;0;0;1;0;0;0;0;0;0;0;0;0;0;0;0;0;0;0;0;0;0;0;0;0;0;0;0;0;0;0;0;0;0;0;0;0;0;
  0;   16.131098;    0.982222;    0.859277;    0.807775;    0.765940;    0.717225;    0.651338;    0.568725;    0.507093;    0.414942;    0.331521;    0.251082;    0.245097;    0.225572;    0.226320;    0.226497;    0.225844;    0.229111;    0.231710;    0.234653;    0.237287;    0.240208;    0.242377;    0.244772;    0.245857;    0.247449;    0.248527;    0.249169;    0.251569;    0.253330;    0.254749;    0.255784;    0.256580;    0.257189;    0.257590;    0.257914;    0.258481;    0.258801;    0.259041;    0.258177;    0.256716;    0.256192;    0.254437;    0.252587;    0.250987;    0.248835;    0.246142;    0.243130;    0.241004;    0.236433;    0.232575;
  1;   16.172770;    1.008439;    0.882412;    0.827235;    0.788311;    0.716885;    0.648771;    0.586843;    0.517667;    0.433098;    0.355486;    0.260406;    0.250660;    0.228303;    0.228200;    0.229135;    0.229099;    0.232010;    0.234881;    0.237327;    0.240207;    0.243541;    0.246242;    0.248247;    0.249399;    0.251428;    0.253223;    0.254590;    0.256366;    0.258095;    0.259145;    0.260729;    0.261811;    0.262582;    0.262284;    0.261099;    0.261003;    0.261339;    0.262448;    0.261625;    0.260469;    0.260165;    0.259434;    0.257325;    0.255120;    0.251667;    0.248893;    0.245772;    0.242691;    0.240373;    0.237333;
  2;   16.010938;    1.015961;    0.893700;    0.843246;    0.805811;    0.743902;    0.659384;    0.603589;    0.517997;    0.446128;    0.358085;    0.253746;    0.245418;    0.226537;    0.226689;    0.228005;    0.227379;    0.230377;    0.233260;    0.235081;    0.237793;    0.240563;    0.243147;    0.245440;    0.248134;    0.250738;    0.253052;    0.255222;    0.257120;    0.258136;    0.258483;    0.260109;    0.260628;    0.261245;    0.261633;    0.262166;    0.262713;    0.262960;    0.262956;    0.261072;    0.258527;    0.257324;    0.256835;    0.255413;    0.252049;    0.249033;    0.247686;    0.245163;    0.242295;    0.239420;    0.233975;
  3;   16.159713;    1.008573;    0.892927;    0.842104;    0.796557;    0.730211;    0.677715;    0.614192;    0.531277;    0.451994;    0.354441;    0.258783;    0.255963;    0.229264;    0.229101;    0.230708;    0.229831;    0.232421;    0.235493;    0.238894;    0.241316;    0.243528;    0.245757;    0.247677;    0.249928;    0.252679;    0.255058;    0.256736;    0.257820;    0.260055;    0.261582;    0.262051;    0.262638;    0.263207;    0.264085;    0.264193;    0.264708;    0.265239;    0.264805;    0.263098;    0.261916;    0.259669;    0.259577;    0.258683;    0.257909;    0.256582;    0.254385;    0.251832;    0.247816;    0.242193;    0.237780;
  4;   15.993530;    1.026623;    0.902638;    0.854984;    0.804456;    0.728841;    0.657977;    0.605835;    0.531393;    0.435796;    0.353724;    0.256091;    0.251657;    0.228746;    0.228695;    0.230840;    0.229238;    0.232264;    0.235447;    0.238695;    0.241129;    0.242958;    0.245467;    0.247895;    0.250670;    0.253336;    0.255086;    0.256481;    0.257759;    0.258403;    0.260641;    0.262044;    0.262877;    0.262254;    0.263151;    0.263726;    0.264023;    0.264105;    0.262342;    0.263222;    0.263645;    0.262873;    0.261712;    0.259061;    0.256088;    0.254310;    0.251760;    0.250062;    0.245931;    0.242899;    0.238399;
  5;   16.128124;    1.004431;    0.879918;    0.829077;    0.779675;    0.726421;    0.661143;    0.597588;    0.522306;    0.443821;    0.357432;    0.258387;    0.240921;    0.226188;    0.226685;    0.228043;    0.227002;    0.230330;    0.232771;    0.235715;    0.239377;    0.242262;    0.244207;    0.245917;    0.247440;    0.250388;    0.252501;    0.254165;    0.255083;    0.256119;    0.255879;    0.257840;    0.258237;    0.258528;    0.258182;    0.258588;    0.259990;    0.260197;    0.259132;    0.258912;    0.257782;    0.258081;    0.256655;    0.256129;    0.254354;    0.250762;    0.247048;    0.242566;    0.240599;    0.237675;    0.233587;
  6;   16.162156;    0.999647;    0.878094;    0.832120;    0.771450;    0.715226;    0.651679;    0.591926;    0.523623;    0.430044;    0.347680;    0.256828;    0.252388;    0.228847;    0.228252;    0.228478;    0.229048;    0.231784;    0.234356;    0.237123;    0.239889;    0.242393;    0.244787;    0.247217;    0.248905;    0.250500;    0.252171;    0.252531;    0.253817;    0.254886;    0.256771;    0.258441;    0.259276;    0.260124;    0.260041;    0.260854;    0.260863;    0.260209;    0.260921;    0.260982;    0.260835;    0.260919;    0.260007;    0.258148;    0.254780;    0.253669;    0.251939;    0.248389;    0.244328;    0.240817;    0.235343;
  7;   16.122762;    1.018174;    0.892437;    0.837349;    0.789120;    0.734012;    0.664214;    0.598854;    0.509863;    0.428952;    0.342681;    0.254764;    0.244760;    0.224529;    0.225593;    0.227140;    0.226301;    0.229521;    0.232295;    0.234725;    0.236762;    0.240172;    0.242703;    0.244704;    0.246348;    0.247480;    0.250048;    0.252782;    0.255136;    0.256697;    0.258280;    0.259195;    0.260366;    0.261118;    0.261301;    0.261304;    0.260400;    0.260083;    0.260525;    0.260708;    0.259592;    0.257653;    0.255063;    0.252234;    0.250928;    0.250350;    0.248084;    0.244261;    0.242120;    0.239226;    0.235469;
  8;   16.122814;    0.988710;    0.868405;    0.823109;    0.778429;    0.711180;    0.661218;    0.585440;    0.507456;    0.435112;    0.342314;    0.250781;    0.243525;    0.225312;    0.225883;    0.226676;    0.226482;    0.229837;    0.232114;    0.234884;    0.236712;    0.238482;    0.241181;    0.243761;    0.246465;    0.248169;    0.249398;    0.250908;    0.252533;    0.254101;    0.254869;    0.255940;    0.256142;    0.257207;    0.258216;    0.258728;    0.258115;    0.259894;    0.260613;    0.260586;    0.259920;    0.258751;    0.256940;    0.255687;    0.254816;    0.252553;    0.249654;    0.246526;    0.241663;    0.238611;    0.234901;
  9;   15.997064;    1.014011;    0.893856;    0.850774;    0.788975;    0.729162;    0.679020;    0.598715;    0.529742;    0.462921;    0.364461;    0.255632;    0.249610;    0.228076;    0.228450;    0.229712;    0.228476;    0.231979;    0.234696;    0.237248;    0.239436;    0.242560;    0.244017;    0.246667;    0.248881;    0.250709;    0.251960;    0.254033;    0.256212;    0.257818;    0.258315;    0.260182;    0.261575;    0.262747;    0.262738;    0.262493;    0.261495;    0.262179;    0.263351;    0.263594;    0.263126;    0.262859;    0.261671;    0.258904;    0.257309;    0.253855;    0.252509;    0.250001;    0.247855;    0.242727;    0.238704;
 10;   16.154747;    1.011439;    0.889450;    0.846525;    0.794406;    0.744001;    0.682447;    0.628825;    0.549189;    0.467398;    0.357043;    0.256311;    0.243516;    0.227970;    0.228137;    0.231006;    0.228834;    0.232110;    0.234868;    0.237886;    0.241398;    0.244082;    0.246158;    0.248951;    0.252091;    0.254601;    0.257374;    0.259274;    0.260784;    0.262266;    0.263302;    0.264832;    0.265936;    0.266816;    0.266962;    0.266766;    0.266624;    0.266159;    0.264840;    0.264750;    0.263017;    0.262852;    0.262287;    0.260123;    0.259482;    0.257802;    0.254265;    0.248803;    0.245996;    0.241335;    0.237268;
 11;   15.938262;    0.995537;    0.878255;    0.838564;    0.793062;    0.725863;    0.670928;    0.604839;    0.518210;    0.449986;    0.347426;    0.257585;    0.254833;    0.226086;    0.227008;    0.228679;    0.227855;    0.230458;    0.233269;    0.235731;    0.237649;    0.241234;    0.243830;    0.245916;    0.246707;    0.249609;    0.251787;    0.253994;    0.255877;    0.256620;    0.256818;    0.257815;    0.258990;    0.260245;    0.261257;    0.262061;    0.261937;    0.262795;    0.262903;    0.262404;    0.260654;    0.259638;    0.258559;    0.256979;    0.254404;    0.251484;    0.249732;    0.248361;    0.246449;    0.242425;    0.238003;
 12;   16.041744;    0.990582;    0.878327;    0.843043;    0.793657;    0.721401;    0.656827;    0.591569;    0.505772;    0.425743;    0.352269;    0.256854;    0.250439;    0.222135;    0.222901;    0.224609;    0.223491;    0.226353;    0.229255;    0.230463;    0.233951;    0.236463;    0.238865;    0.241776;    0.244348;    0.246511;    0.248998;    0.250661;    0.252584;    0.253543;    0.253850;    0.254004;    0.254080;    0.253075;    0.254051;    0.253653;    0.253902;    0.254761;    0.255498;    0.255579;    0.254460;    0.253674;    0.252491;    0.251400;    0.248937;    0.247247;    0.244451;    0.239752;    0.236976;    0.233027;    0.230081;
 13;   15.926209;    1.005436;    0.875657;    0.828142;    0.784580;    0.716611;    0.655950;    0.589157;    0.512016;    0.434657;    0.343151;    0.257694;    0.248292;    0.226076;    0.227155;    0.229204;    0.227973;    0.230338;    0.233479;    0.235806;    0.238404;    0.241263;    0.243723;    0.246003;    0.248004;    0.249680;    0.251631;    0.253630;    0.255222;    0.257251;    0.258343;    0.259315;    0.260249;    0.261172;    0.261609;    0.262097;    0.261382;    0.261550;    0.259971;    0.259925;    0.258839;    0.258258;    0.257198;    0.255879;    0.253715;    0.252530;    0.250756;    0.248008;    0.244355;    0.241166;    0.235818;
 14;   16.024041;    0.982208;    0.865366;    0.825831;    0.766028;    0.721188;    0.659477;    0.595238;    0.512614;    0.423011;    0.338101;    0.255754;    0.246897;    0.228710;    0.228566;    0.229707;    0.229101;    0.232195;    0.234410;    0.236992;    0.240251;    0.242773;    0.245252;    0.248001;    0.251266;    0.253704;    0.255323;    0.256865;    0.258186;    0.259823;    0.260394;    0.261090;    0.261789;    0.261573;    0.263275;    0.264400;    0.264667;    0.264616;    0.263829;    0.263911;    0.263086;    0.262409;    0.260673;    0.260955;    0.259094;    0.257361;    0.253595;    0.250815;    0.248164;    0.244159;    0.237937;
 15;   16.035838;    0.995920;    0.859814;    0.810663;    0.749163;    0.699424;    0.636464;    0.574089;    0.503118;    0.418969;    0.337281;    0.252000;    0.236483;    0.223338;    0.224112;    0.225748;    0.224489;    0.227314;    0.230623;    0.233374;    0.235859;    0.238116;    0.240660;    0.242577;    0.244490;    0.246547;    0.248617;    0.250267;    0.250343;    0.252225;    0.253503;    0.255038;    0.255919;    0.257672;    0.258505;    0.258606;    0.258564;    0.258721;    0.258503;    0.257428;    0.257087;    0.256610;    0.255183;    0.253708;    0.252230;    0.250551;    0.247427;    0.242445;    0.239233;    0.235358;    0.232456;
 16;   16.956121;    1.020533;    0.903412;    0.845399;    0.792877;    0.737415;    0.664900;    0.609512;    0.530820;    0.444252;    0.358804;    0.261264;    0.250858;    0.232358;    0.232816;    0.233948;    0.233033;    0.235833;    0.239410;    0.242021;    0.245373;    0.248136;    0.250942;    0.252920;    0.255539;    0.257878;    0.260072;    0.262033;    0.263866;    0.264638;    0.265339;    0.266437;    0.267912;    0.269021;    0.269416;    0.270694;    0.271006;    0.271414;    0.270821;    0.269916;    0.268389;    0.266843;    0.265489;    0.263282;    0.260709;    0.258930;    0.255731;    0.251321;    0.248702;    0.245103;    0.242430;
 17;   16.066533;    0.988489;    0.871560;    0.822124;    0.768289;    0.712360;    0.648007;    0.572805;    0.501317;    0.426318;    0.347102;    0.256172;    0.249238;    0.221666;    0.222240;    0.222911;    0.223477;    0.226933;    0.229347;    0.231240;    0.233229;    0.235650;    0.238146;    0.240259;    0.242284;    0.243718;    0.246220;    0.248364;    0.250442;    0.252568;    0.254175;    0.255378;    0.256118;    0.256782;    0.256817;    0.256801;    0.258028;    0.258106;    0.257787;    0.256137;    0.254336;    0.254303;    0.253546;    0.252444;    0.251210;    0.248353;    0.245082;    0.240718;    0.238324;    0.235011;    0.230682;
 18;   16.127450;    0.980477;    0.870880;    0.821127;    0.778268;    0.715220;    0.659481;    0.581668;    0.502821;    0.443160;    0.363828;    0.256194;    0.252793;    0.225806;    0.226523;    0.228108;    0.227106;    0.230582;    0.233023;    0.236125;    0.238591;    0.242132;    0.244774;    0.247132;    0.248629;    0.248673;    0.250905;    0.252497;    0.254541;    0.256344;    0.257990;    0.258687;    0.259653;    0.260458;    0.261325;    0.261612;    0.261384;    0.260845;    0.261432;    0.260755;    0.260619;    0.259167;    0.258986;    0.258005;    0.256141;    0.253639;    0.251143;    0.249274;    0.245749;    0.240816;    0.235737;
 19;   15.982597;    0.993363;    0.868599;    0.818670;    0.779947;    0.726889;    0.672688;    0.595104;    0.528566;    0.440841;    0.346468;    0.257477;    0.246048;    0.228944;    0.229641;    0.230551;    0.230929;    0.234105;    0.236891;    0.238536;    0.241479;    0.244350;    0.246785;    0.248805;    0.251024;    0.253000;    0.255221;    0.257224;    0.259123;    0.260714;    0.261832;    0.262712;    0.264072;    0.265397;    0.266350;    0.267054;    0.267197;    0.266889;    0.265170;    0.265661;    0.265063;    0.263475;    0.261532;    0.260111;    0.258949;    0.256591;    0.252136;    0.248173;    0.245651;    0.242308;    0.238980;
 20;   16.186724;    1.012985;    0.880008;    0.843759;    0.782979;    0.727220;    0.673297;    0.615706;    0.548955;    0.459211;    0.363018;    0.257636;    0.245901;    0.226381;    0.226826;    0.228739;    0.227135;    0.229923;    0.232191;    0.235111;    0.237553;    0.240723;    0.242981;    0.245446;    0.247856;    0.250163;    0.252037;    0.254158;    0.256120;    0.257591;    0.257982;    0.258887;    0.260165;    0.261156;    0.261742;    0.261672;    0.260954;    0.261851;    0.262427;    0.261916;    0.261651;    0.260940;    0.260727;    0.259556;    0.257579;    0.254060;    0.251961;    0.248785;    0.244819;    0.240813;    0.236377;
 21;   16.005232;    1.008686;    0.875573;    0.831966;    0.779443;    0.730852;    0.663348;    0.590025;    0.513495;    0.433127;    0.352635;    0.256901;    0.250140;    0.226594;    0.226565;    0.226490;    0.226947;    0.229892;    0.232099;    0.235714;    0.238749;    0.241128;    0.243140;    0.245220;    0.247691;    0.249755;    0.252104;    0.254162;    0.255899;    0.256686;    0.257216;    0.258679;    0.259441;    0.259968;    0.258981;    0.259136;    0.260361;    0.260548;    0.259568;    0.259521;    0.259281;    0.258569;    0.257342;    0.255725;    0.254940;    0.253274;    0.250488;    0.247225;    0.241898;    0.237794;    0.234533;
 22;   16.245000;    1.015914;    0.887849;    0.839338;    0.784818;    0.714546;    0.656813;    0.583444;    0.523078;    0.456821;    0.356707;    0.257685;    0.245232;    0.227054;    0.227131;    0.227354;    0.227081;    0.229585;    0.232589;    0.235310;    0.238164;    0.240246;    0.241900;    0.244560;    0.247215;    0.249239;    0.250360;    0.251813;    0.252861;    0.255278;    0.257457;    0.258482;    0.260320;    0.261561;    0.261517;    0.260471;    0.260376;    0.261198;    0.261728;    0.261453;    0.260821;    0.260712;    0.260036;    0.258657;    0.257221;    0.255127;    0.252873;    0.249385;    0.245232;    0.239322;    0.235122;
 23;   16.042187;    1.002774;    0.881415;    0.847094;    0.804756;    0.748420;    0.679986;    0.591740;    0.523990;    0.439483;    0.347086;    0.260279;    0.253131;    0.228933;    0.229774;    0.231410;    0.230352;    0.232538;    0.235838;    0.238512;    0.241491;    0.244081;    0.246760;    0.249317;    0.251657;    0.253865;    0.255355;    0.257540;    0.259201;    0.260821;    0.262782;    0.263640;    0.264469;    0.264729;    0.265155;    0.263898;    0.264307;    0.264795;    0.264829;    0.264121;    0.263379;    0.263662;    0.262522;    0.260980;    0.258611;    0.257374;    0.254977;    0.251169;    0.246132;    0.242116;    0.238362;
 24;   16.076144;    1.022267;    0.895357;    0.853064;    0.790676;    0.729673;    0.664770;    0.594124;    0.521482;    0.435066;    0.353746;    0.255492;    0.242797;    0.222572;    0.222813;    0.224344;    0.223519;    0.226059;    0.229383;    0.232315;    0.235644;    0.237657;    0.239059;    0.241410;    0.243568;    0.245904;    0.247554;    0.248489;    0.249346;    0.250780;    0.252401;    0.254223;    0.255067;    0.255749;    0.257670;    0.259427;    0.259801;    0.259136;    0.259309;    0.258025;    0.256712;    0.255368;    0.253536;    0.251793;    0.250607;    0.247070;    0.243747;    0.240401;    0.237608;    0.233358;    0.230988;
 25;   15.886369;    0.991544;    0.874463;    0.833784;    0.786655;    0.713128;    0.659012;    0.592243;    0.526228;    0.427632;    0.344441;    0.256933;    0.245567;    0.226739;    0.226942;    0.228935;    0.228116;    0.230680;    0.233648;    0.236083;    0.239598;    0.242542;    0.244404;    0.245774;    0.248273;    0.251025;    0.253120;    0.254851;    0.256630;    0.258403;    0.259494;    0.259577;    0.259927;    0.261530;    0.262417;    0.262303;    0.262167;    0.262778;    0.262765;    0.261655;    0.260710;    0.260094;    0.259039;    0.257934;    0.255353;    0.253953;    0.251215;    0.248030;    0.245016;    0.240471;    0.235468;
 26;   16.707244;    1.017666;    0.895281;    0.848466;    0.796486;    0.744171;    0.687178;    0.621444;    0.541919;    0.443142;    0.368713;    0.258899;    0.249903;    0.228123;    0.228934;    0.230614;    0.229173;    0.232131;    0.235923;    0.238688;    0.241112;    0.242355;    0.245691;    0.248300;    0.251206;    0.252676;    0.254271;    0.255148;    0.256543;    0.257408;    0.257457;    0.257854;    0.259665;    0.261675;    0.263003;    0.263420;    0.263030;    0.262418;    0.262469;    0.263314;    0.263307;    0.261572;    0.261278;    0.260167;    0.257404;    0.255228;    0.252367;    0.249646;    0.246851;    0.242490;    0.237699;
 27;   15.924322;    1.010104;    0.878725;    0.824345;    0.775016;    0.726684;    0.678250;    0.607708;    0.531842;    0.441186;    0.355829;    0.258358;    0.255428;    0.225607;    0.225787;    0.227338;    0.227066;    0.229741;    0.233047;    0.235121;    0.238160;    0.240560;    0.242680;    0.244038;    0.246716;    0.248597;    0.250731;    0.252925;    0.254241;    0.256686;    0.258709;    0.259609;    0.260205;    0.259528;    0.258707;    0.258952;    0.259247;    0.259974;    0.259452;    0.258716;    0.258201;    0.257223;    0.255067;    0.253819;    0.252800;    0.251076;    0.248173;    0.247155;    0.244143;    0.239089;    0.235277;
 28;   16.186499;    1.014155;    0.880931;    0.840633;    0.779999;    0.713773;    0.660118;    0.588159;    0.527460;    0.446744;    0.346466;    0.251945;    0.248639;    0.223364;    0.223543;    0.225347;    0.224446;    0.227345;    0.230582;    0.233354;    0.234723;    0.236629;    0.238567;    0.240521;    0.243913;    0.246060;    0.247487;    0.248904;    0.250316;    0.251879;    0.253893;    0.255330;    0.256791;    0.257667;    0.258734;    0.259766;    0.259365;    0.258907;    0.258927;    0.258809;    0.257713;    0.255665;    0.254574;    0.252900;    0.251302;    0.249585;    0.246027;    0.243266;    0.240427;    0.235618;    0.232001;
 29;   15.993670;    1.026815;    0.885927;    0.840361;    0.794874;    0.733299;    0.679311;    0.604158;    0.523873;    0.427982;    0.338697;    0.249839;    0.241815;    0.223483;    0.224516;    0.225628;    0.224983;    0.228169;    0.231367;    0.234327;    0.237088;    0.239489;    0.240737;    0.242158;    0.244440;    0.245783;    0.247898;    0.249471;    0.252012;    0.253315;    0.253755;    0.255331;    0.256413;    0.257270;    0.257168;    0.258473;    0.259048;    0.258798;    0.259218;    0.258031;    0.257245;    0.257168;    0.255286;    0.253415;    0.251269;    0.248147;    0.247138;    0.244782;    0.240971;    0.236937;    0.234178;
 30;   16.093585;    1.010677;    0.882727;    0.844749;    0.789244;    0.736562;    0.669894;    0.616923;    0.538352;    0.446697;    0.365736;    0.258136;    0.248576;    0.227914;    0.228703;    0.231914;    0.229676;    0.232655;    0.235781;    0.238781;    0.241275;    0.243623;    0.245926;    0.247922;    0.248973;    0.251275;    0.253671;    0.255337;    0.256720;    0.257872;    0.258655;    0.260423;    0.262106;    0.262793;    0.263916;    0.265010;    0.265454;    0.265371;    0.264190;    0.264613;    0.263983;    0.262812;    0.263189;    0.262368;    0.259908;    0.256139;    0.252170;    0.249981;    0.246500;    0.241540;    0.236845;
 31;   16.089912;    1.005970;    0.879642;    0.832905;    0.784483;    0.725734;    0.677431;    0.604592;    0.527424;    0.446919;    0.355517;    0.258704;    0.255705;    0.227724;    0.228175;    0.229899;    0.227838;    0.230883;    0.232997;    0.235956;    0.238619;    0.240777;    0.242975;    0.244911;    0.246618;    0.248453;    0.249288;    0.250777;    0.251713;    0.254025;    0.256257;    0.257779;    0.258361;    0.257679;    0.258847;    0.260648;    0.260393;    0.260146;    0.259355;    0.255721;    0.255704;    0.255414;    0.255032;    0.254636;    0.253155;    0.251110;    0.248103;    0.243800;    0.242466;    0.239823;    0.235573;
 32;   15.810724;    0.997913;    0.884159;    0.831977;    0.786308;    0.733438;    0.650790;    0.596427;    0.525285;    0.430913;    0.341155;    0.255139;    0.255851;    0.227378;    0.227105;    0.229663;    0.228204;    0.231288;    0.234091;    0.237289;    0.240048;    0.242179;    0.244952;    0.247272;    0.249498;    0.251663;    0.253058;    0.254545;    0.255356;    0.256284;    0.257251;    0.257843;    0.258926;    0.260202;    0.260833;    0.260690;    0.260252;    0.260318;    0.260209;    0.260556;    0.259780;    0.259459;    0.258461;    0.255485;    0.252530;    0.252341;    0.250003;    0.247492;    0.244698;    0.241062;    0.236428;
 33;   16.095803;    0.999701;    0.865495;    0.817723;    0.770827;    0.718316;    0.642210;    0.588822;    0.515357;    0.443832;    0.359936;    0.250432;    0.237468;    0.222388;    0.223136;    0.223313;    0.223193;    0.226043;    0.229357;    0.231939;    0.234922;    0.237115;    0.239668;    0.241067;    0.243168;    0.244991;    0.246047;    0.248306;    0.249984;    0.252594;    0.254028;    0.255497;    0.256792;    0.258208;    0.259550;    0.259378;    0.258988;    0.257615;    0.258785;    0.258837;    0.258139;    0.255842;    0.253293;    0.251868;    0.248641;    0.247636;    0.244106;    0.241966;    0.237210;    0.234832;    0.231538;
 34;   15.991220;    1.021878;    0.887017;    0.844996;    0.798240;    0.725876;    0.656598;    0.598267;    0.529040;    0.440886;    0.351717;    0.256166;    0.252263;    0.227627;    0.227204;    0.229539;    0.227288;    0.230261;    0.232366;    0.234762;    0.237920;    0.239938;    0.241781;    0.245018;    0.247962;    0.250076;    0.252238;    0.253859;    0.254940;    0.256605;    0.257811;    0.258308;    0.259403;    0.259709;    0.260737;    0.259915;    0.260505;    0.261212;    0.261860;    0.261891;    0.260466;    0.258499;    0.257170;    0.255264;    0.252752;    0.250617;    0.246640;    0.244793;    0.242615;    0.238299;    0.234159;
 35;   15.967557;    1.000498;    0.879099;    0.842153;    0.779659;    0.712850;    0.647854;    0.579888;    0.525374;    0.448740;    0.360762;    0.255608;    0.242790;    0.229044;    0.229282;    0.231523;    0.229568;    0.232196;    0.235897;    0.239048;    0.240828;    0.243407;    0.245500;    0.248007;    0.250202;    0.252978;    0.254930;    0.256427;    0.256921;    0.258360;    0.259789;    0.261427;    0.262499;    0.263286;    0.264224;    0.264717;    0.265707;    0.265499;    0.264500;    0.262793;    0.261583;    0.261294;    0.260992;    0.259298;    0.256064;    0.254635;    0.251307;    0.249663;    0.246966;    0.242460;    0.238643;
 36;   15.800542;    0.981099;    0.873047;    0.833606;    0.771955;    0.716361;    0.663410;    0.597098;    0.507275;    0.424412;    0.356030;    0.250622;    0.239730;    0.225748;    0.226439;    0.226674;    0.226552;    0.229778;    0.232297;    0.235411;    0.237947;    0.240174;    0.242435;    0.244494;    0.246860;    0.248232;    0.248530;    0.249769;    0.252040;    0.254300;    0.255954;    0.256476;    0.256301;    0.257352;    0.257753;    0.258909;    0.258839;    0.258861;    0.258914;    0.258335;    0.257077;    0.254964;    0.254686;    0.254473;    0.253733;    0.251876;    0.249755;    0.245417;    0.240208;    0.236752;    0.234316;
 37;   15.987216;    0.992716;    0.874551;    0.832209;    0.778467;    0.711817;    0.651350;    0.591449;    0.514254;    0.432194;    0.345759;    0.256820;    0.248675;    0.227303;    0.228014;    0.230002;    0.228789;    0.231491;    0.234651;    0.236812;    0.239821;    0.242271;    0.244351;    0.246732;    0.248843;    0.250834;    0.252349;    0.255067;    0.256632;    0.258900;    0.260079;    0.261311;    0.262501;    0.263661;    0.265500;    0.265928;    0.265679;    0.264986;    0.262861;    0.262135;    0.262284;    0.260333;    0.257005;    0.255502;    0.254078;    0.252888;    0.250303;    0.245770;    0.244374;    0.240868;    0.236182;
 38;   15.891960;    0.996102;    0.869632;    0.823146;    0.766926;    0.714991;    0.653057;    0.579609;    0.515156;    0.427053;    0.336776;    0.254537;    0.251951;    0.227771;    0.227603;    0.229364;    0.228331;    0.231041;    0.233850;    0.236613;    0.239058;    0.241474;    0.243818;    0.245677;    0.248175;    0.249779;    0.250409;    0.252946;    0.255251;    0.257414;    0.258880;    0.260046;    0.261361;    0.261743;    0.261682;    0.261526;    0.261908;    0.262023;    0.263000;    0.262884;    0.261889;    0.260568;    0.259802;    0.258674;    0.256568;    0.254020;    0.252735;    0.249692;    0.245538;    0.240779;    0.237685;
 39;   16.005690;    0.972675;    0.860206;    0.819645;    0.764527;    0.707423;    0.637026;    0.569577;    0.496888;    0.418384;    0.345515;    0.257954;    0.254572;    0.227787;    0.227988;    0.228668;    0.228384;    0.231390;    0.233566;    0.236434;    0.238773;    0.241623;    0.243918;    0.245260;    0.247090;    0.249636;    0.250621;    0.253464;    0.255872;    0.257408;    0.258282;    0.259255;    0.260803;    0.260842;    0.260997;    0.261239;    0.261947;    0.261918;    0.261289;    0.260834;    0.259282;    0.259777;    0.259441;    0.258214;    0.256402;    0.254899;    0.252431;    0.250016;    0.247760;    0.244550;    0.239221;
 40;   15.962618;    1.003863;    0.880293;    0.830524;    0.787140;    0.729460;    0.668070;    0.585856;    0.502732;    0.434860;    0.340480;    0.254432;    0.250288;    0.223977;    0.224010;    0.225924;    0.224024;    0.227077;    0.229804;    0.232001;    0.234868;    0.237144;    0.239521;    0.241875;    0.243881;    0.245890;    0.247678;    0.248458;    0.250987;    0.253496;    0.254796;    0.255409;    0.255832;    0.255710;    0.255941;    0.256040;    0.255880;    0.254762;    0.255169;    0.254494;    0.253206;    0.252568;    0.252077;    0.250891;    0.249459;    0.248651;    0.247280;    0.244586;    0.240739;    0.235078;    0.230952;
 41;   15.934845;    0.992416;    0.869370;    0.828733;    0.766089;    0.720942;    0.651575;    0.576779;    0.511262;    0.424773;    0.344753;    0.252017;    0.250413;    0.227045;    0.228053;    0.228987;    0.227768;    0.230344;    0.233758;    0.236889;    0.239254;    0.242102;    0.244259;    0.246149;    0.248171;    0.249508;    0.251751;    0.253598;    0.254797;    0.256164;    0.256545;    0.258037;    0.259061;    0.258937;    0.259272;    0.260072;    0.259978;    0.259452;    0.259546;    0.259939;    0.259915;    0.259057;    0.257814;    0.256926;    0.254792;    0.252248;    0.248925;    0.244726;    0.243245;    0.239969;    0.235574;
 42;   15.935970;    1.016696;    0.877832;    0.829457;    0.786102;    0.733312;    0.671445;    0.586570;    0.518957;    0.432847;    0.350314;    0.255634;    0.245781;    0.228338;    0.228174;    0.228414;    0.228526;    0.231337;    0.234109;    0.237272;    0.240565;    0.242730;    0.245928;    0.247898;    0.249742;    0.251452;    0.252442;    0.255071;    0.256859;    0.258235;    0.258401;    0.260337;    0.262219;    0.262990;    0.262877;    0.263915;    0.265328;    0.265851;    0.265154;    0.264087;    0.262356;    0.259100;    0.256734;    0.256357;    0.254285;    0.253488;    0.251016;    0.248232;    0.247204;    0.243940;    0.239270;
 43;   15.916052;    1.009940;    0.880246;    0.829494;    0.790433;    0.723394;    0.663203;    0.606051;    0.528968;    0.442227;    0.349452;    0.251424;    0.245087;    0.222608;    0.223052;    0.224850;    0.224743;    0.227831;    0.229905;    0.232595;    0.235585;    0.238758;    0.240775;    0.242386;    0.244801;    0.246797;    0.248331;    0.250339;    0.252119;    0.253987;    0.255017;    0.256561;    0.257141;    0.256720;    0.257937;    0.259466;    0.259857;    0.259839;    0.259423;    0.259111;    0.257926;    0.256507;    0.255601;    0.254029;    0.251053;    0.248621;    0.246062;    0.242756;    0.240654;    0.235847;    0.233405;
 44;   15.882553;    1.006705;    0.884284;    0.839552;    0.807101;    0.747427;    0.671767;    0.604657;    0.530959;    0.439580;    0.340905;    0.254490;    0.252081;    0.230587;    0.230908;    0.231920;    0.230681;    0.233722;    0.237046;    0.240212;    0.242839;    0.245642;    0.247998;    0.249422;    0.251684;    0.254020;    0.255988;    0.257777;    0.258661;    0.258905;    0.260261;    0.261629;    0.263271;    0.264250;    0.265898;    0.266631;    0.266815;    0.266765;    0.265553;    0.263029;    0.263442;    0.261910;    0.259354;    0.257112;    0.256305;    0.254035;    0.252460;    0.249606;    0.247254;    0.243979;    0.239474;
 45;   15.976682;    0.988961;    0.865624;    0.813230;    0.758095;    0.709175;    0.659373;    0.599214;    0.522298;    0.429452;    0.353408;    0.256831;    0.252588;    0.228459;    0.228826;    0.230726;    0.229405;    0.232562;    0.235886;    0.238653;    0.241520;    0.243962;    0.246672;    0.249254;    0.250918;    0.253477;    0.255187;    0.256510;    0.257545;    0.259661;    0.261187;    0.262781;    0.264135;    0.264927;    0.265184;    0.265348;    0.265932;    0.266199;    0.266142;    0.265702;    0.265972;    0.265331;    0.263681;    0.260655;    0.257892;    0.255184;    0.252441;    0.249055;    0.244710;    0.241679;    0.236837;
 46;   15.879850;    1.010040;    0.878244;    0.821923;    0.778937;    0.731105;    0.658231;    0.595826;    0.523395;    0.428300;    0.341676;    0.249316;    0.244375;    0.223474;    0.223698;    0.225568;    0.224186;    0.227016;    0.229319;    0.232093;    0.234560;    0.236659;    0.239345;    0.241956;    0.243350;    0.245421;    0.247912;    0.250285;    0.251879;    0.253425;    0.254347;    0.255773;    0.257282;    0.256775;    0.256575;    0.257634;    0.258068;    0.257757;    0.255524;    0.256270;    0.256953;    0.255608;    0.254073;    0.252135;    0.250838;    0.249280;    0.246119;    0.242261;    0.239519;    0.235167;    0.231905;
 47;   15.935827;    1.021777;    0.889731;    0.836422;    0.797028;    0.750649;    0.685756;    0.602910;    0.532780;    0.442842;    0.360692;    0.256855;    0.251069;    0.229368;    0.229993;    0.231030;    0.230842;    0.232839;    0.236103;    0.237936;    0.241433;    0.243992;    0.246389;    0.248859;    0.250657;    0.252176;    0.254500;    0.256134;    0.258020;    0.259340;    0.260675;    0.261836;    0.263282;    0.264459;    0.264721;    0.264251;    0.265230;    0.265679;    0.264893;    0.265027;    0.264759;    0.263590;    0.262533;    0.261221;    0.258443;    0.257237;    0.255093;    0.251833;    0.248604;    0.242923;    0.239578;
 48;   15.794810;    0.997686;    0.880788;    0.832089;    0.771974;    0.722171;    0.655358;    0.595807;    0.509702;    0.432298;    0.351478;    0.257784;    0.253418;    0.227256;    0.227925;    0.229287;    0.227441;    0.230371;    0.234246;    0.237377;    0.240211;    0.241454;    0.243933;    0.246055;    0.248051;    0.250234;    0.251897;    0.252437;    0.254321;    0.256063;    0.257049;    0.258581;    0.259337;    0.259209;    0.260177;    0.260003;    0.259755;    0.259497;    0.260044;    0.260720;    0.260344;    0.259548;    0.257696;    0.254802;    0.253744;    0.252345;    0.249047;    0.246025;    0.241922;    0.240043;    0.235879;
 49;   15.984098;    0.996451;    0.875559;    0.827330;    0.776853;    0.701363;    0.646752;    0.596264;    0.520334;    0.453381;    0.357691;    0.260505;    0.246208;    0.229002;    0.229509;    0.231776;    0.231073;    0.234427;    0.236953;    0.240230;    0.243545;    0.246091;    0.247911;    0.249055;    0.251320;    0.253195;    0.255830;    0.258855;    0.260967;    0.262488;    0.263344;    0.264105;    0.265466;    0.266126;    0.266346;    0.265408;    0.262834;    0.263119;    0.263321;    0.262783;    0.261797;    0.261307;    0.259613;    0.257340;    0.256508;    0.255020;    0.253127;    0.250391;    0.248264;    0.245306;    0.240830;
 50;   15.750771;    1.000440;    0.871573;    0.828556;    0.775476;    0.726454;    0.650380;    0.596149;    0.523398;    0.427249;    0.358770;    0.260728;    0.243953;    0.226511;    0.226679;    0.228798;    0.227896;    0.230792;    0.232917;    0.235814;    0.238220;    0.241315;    0.242897;    0.245425;    0.247630;    0.249163;    0.252233;    0.254850;    0.256956;    0.258590;    0.260231;    0.261391;    0.261215;    0.260938;    0.261174;    0.262075;    0.262526;    0.262457;    0.262296;    0.260832;    0.261221;    0.260848;    0.259315;    0.258298;    0.256175;    0.253385;    0.250767;    0.247494;    0.245957;    0.241831;    0.235392;
 51;   15.816730;    1.030921;    0.899508;    0.855221;    0.786899;    0.737772;    0.671233;    0.612339;    0.541284;    0.444156;    0.357312;    0.255253;    0.240770;    0.225903;    0.225985;    0.227097;    0.227107;    0.229632;    0.233259;    0.236493;    0.238803;    0.241501;    0.243496;    0.245092;    0.247625;    0.249822;    0.251686;    0.254221;    0.255695;    0.256304;    0.257153;    0.258268;    0.259898;    0.260800;    0.261670;    0.262629;    0.262359;    0.262592;    0.262481;    0.261749;    0.260595;    0.259303;    0.258324;    0.256440;    0.254801;    0.252513;    0.250868;    0.247033;    0.242293;    0.239607;    0.235572;
 52;   15.759384;    0.995086;    0.871247;    0.828376;    0.767541;    0.723152;    0.654584;    0.581143;    0.498499;    0.424876;    0.333850;    0.254085;    0.248911;    0.227279;    0.227540;    0.230561;    0.227473;    0.230162;    0.233178;    0.235612;    0.238382;    0.240281;    0.242970;    0.244961;    0.247285;    0.248775;    0.249912;    0.251726;    0.252864;    0.254835;    0.256009;    0.258191;    0.259834;    0.260590;    0.260124;    0.258458;    0.259633;    0.260103;    0.259636;    0.259998;    0.259143;    0.257167;    0.257408;    0.255761;    0.253620;    0.252836;    0.250509;    0.247213;    0.244020;    0.239662;    0.234996;
 53;   15.989838;    0.989748;    0.884406;    0.831870;    0.794596;    0.732290;    0.664132;    0.602224;    0.531274;    0.440633;    0.362792;    0.253945;    0.249015;    0.225200;    0.225216;    0.226821;    0.225878;    0.229030;    0.232663;    0.234982;    0.236925;    0.239396;    0.241946;    0.244146;    0.246301;    0.247308;    0.249678;    0.251279;    0.252926;    0.255239;    0.256723;    0.257176;    0.258507;    0.258964;    0.259612;    0.259725;    0.260196;    0.260615;    0.259750;    0.257216;    0.258364;    0.258613;    0.257256;    0.254566;    0.251728;    0.249309;    0.248116;    0.246446;    0.243220;    0.238654;    0.234755;
 54;   15.745341;    1.011253;    0.883407;    0.826320;    0.780444;    0.726618;    0.673475;    0.611801;    0.532418;    0.432833;    0.339486;    0.251124;    0.243268;    0.223154;    0.223656;    0.224613;    0.223777;    0.227013;    0.229796;    0.232547;    0.236076;    0.238595;    0.240301;    0.243073;    0.245995;    0.248540;    0.250248;    0.250971;    0.251190;    0.252655;    0.254729;    0.256173;    0.257937;    0.259357;    0.260017;    0.259868;    0.259253;    0.258452;    0.258079;    0.257002;    0.256747;    0.256300;    0.254809;    0.252741;    0.251332;    0.248869;    0.247164;    0.244230;    0.240100;    0.234170;    0.231383;
 55;   15.831790;    0.985756;    0.858162;    0.819642;    0.776322;    0.719180;    0.650780;    0.588118;    0.527740;    0.446704;    0.351019;    0.258090;    0.254538;    0.226231;    0.226483;    0.228290;    0.226913;    0.229866;    0.232577;    0.235750;    0.238689;    0.240983;    0.243529;    0.246063;    0.247496;    0.249349;    0.251611;    0.253041;    0.254222;    0.255873;    0.258339;    0.260091;    0.260552;    0.261708;    0.262235;    0.261910;    0.261398;    0.261742;    0.261601;    0.259781;    0.259418;    0.258727;    0.257568;    0.256157;    0.254308;    0.252677;    0.250037;    0.246626;    0.241909;    0.238851;    0.234684;
 56;   15.761107;    0.992843;    0.866271;    0.817936;    0.758806;    0.700598;    0.635170;    0.571210;    0.494941;    0.423594;    0.342668;    0.259860;    0.244957;    0.227840;    0.227935;    0.230170;    0.228426;    0.231125;    0.234056;    0.236281;    0.239303;    0.241620;    0.244176;    0.246780;    0.248910;    0.250808;    0.252784;    0.254583;    0.255835;    0.256756;    0.258177;    0.260077;    0.260331;    0.260431;    0.260847;    0.260490;    0.260863;    0.261734;    0.261753;    0.261831;    0.261654;    0.260451;    0.258772;    0.256538;    0.254940;    0.253581;    0.250083;    0.245661;    0.242720;    0.239940;    0.236485;
 57;   15.764788;    1.015750;    0.890048;    0.844513;    0.785344;    0.735076;    0.661176;    0.592813;    0.518451;    0.433363;    0.354647;    0.257207;    0.253338;    0.228698;    0.229317;    0.231223;    0.229762;    0.232657;    0.234478;    0.236665;    0.239705;    0.241667;    0.244730;    0.247033;    0.248987;    0.250199;    0.252517;    0.253614;    0.254361;    0.255778;    0.257399;    0.258909;    0.259909;    0.261189;    0.261705;    0.262158;    0.262228;    0.263831;    0.263711;    0.262971;    0.261409;    0.259470;    0.259587;    0.258893;    0.257075;    0.256161;    0.253806;    0.250101;    0.244501;    0.240361;    0.237784;
 58;   15.906117;    1.006645;    0.880181;    0.828557;    0.773700;    0.724788;    0.656225;    0.600329;    0.522602;    0.442041;    0.356182;    0.255929;    0.249273;    0.229502;    0.230580;    0.232677;    0.231307;    0.233840;    0.237038;    0.239165;    0.242043;    0.244359;    0.247086;    0.249502;    0.251968;    0.254083;    0.255952;    0.257781;    0.259391;    0.259905;    0.260382;    0.261903;    0.262142;    0.263887;    0.264952;    0.265010;    0.265188;    0.264295;    0.264031;    0.264320;    0.263948;    0.262394;    0.260594;    0.258611;    0.257419;    0.255356;    0.252831;    0.250522;    0.247389;    0.242720;    0.238052;
 59;   15.900787;    0.995900;    0.877894;    0.824888;    0.766833;    0.720156;    0.660698;    0.578805;    0.503749;    0.435368;    0.362280;    0.255371;    0.238950;    0.224368;    0.224464;    0.226681;    0.225586;    0.228549;    0.232001;    0.234614;    0.237355;    0.239923;    0.241753;    0.244658;    0.247072;    0.249060;    0.250837;    0.252834;    0.254689;    0.256022;    0.256194;    0.256734;    0.256443;    0.258076;    0.259399;    0.259619;    0.259980;    0.259761;    0.260447;    0.260880;    0.260132;    0.259424;    0.257589;    0.255730;    0.253401;    0.252495;    0.249702;    0.246813;    0.242790;    0.238771;    0.235440;
 60;   15.943923;    1.004138;    0.880088;    0.836100;    0.785270;    0.726665;    0.672822;    0.605321;    0.516939;    0.427621;    0.343110;    0.256770;    0.253448;    0.228837;    0.228885;    0.229415;    0.229292;    0.232839;    0.235817;    0.238616;    0.240870;    0.243090;    0.245172;    0.248125;    0.249920;    0.251403;    0.253846;    0.255072;    0.256800;    0.259026;    0.260423;    0.261312;    0.262157;    0.263620;    0.264706;    0.264504;    0.264699;    0.264162;    0.263697;    0.263754;    0.263372;    0.262434;    0.259872;    0.258913;    0.257837;    0.255319;    0.251736;    0.249398;    0.245754;    0.242663;    0.238005;
 61;   15.794053;    0.994841;    0.872751;    0.824797;    0.782657;    0.731603;    0.658206;    0.600131;    0.527578;    0.448413;    0.353459;    0.257816;    0.245006;    0.230951;    0.231055;    0.233301;    0.231387;    0.234472;    0.238035;    0.241258;    0.243428;    0.244698;    0.247714;    0.250333;    0.251981;    0.253668;    0.255312;    0.257578;    0.259285;    0.260559;    0.261909;    0.263064;    0.262979;    0.263623;    0.264152;    0.265568;    0.266426;    0.266731;    0.266085;    0.264123;    0.263735;    0.261843;    0.260750;    0.259269;    0.256539;    0.254165;    0.252806;    0.249813;    0.247566;    0.244128;    0.239639;
 62;   15.861276;    0.991757;    0.867328;    0.824205;    0.771953;    0.707141;    0.640232;    0.586068;    0.505288;    0.421937;    0.343037;    0.254942;    0.255229;    0.226471;    0.226907;    0.228426;    0.227098;    0.230179;    0.232948;    0.235471;    0.237497;    0.240879;    0.243156;    0.245378;    0.247101;    0.248931;    0.250138;    0.251566;    0.252601;    0.254628;    0.255640;    0.257253;    0.257911;    0.258547;    0.258979;    0.259296;    0.259756;    0.260679;    0.261040;    0.260844;    0.259639;    0.259084;    0.257846;    0.256694;    0.255179;    0.252021;    0.248865;    0.245293;    0.242368;    0.240219;    0.235678;
 63;   15.877543;    1.000309;    0.867273;    0.820401;    0.759496;    0.708501;    0.641616;    0.590923;    0.525883;    0.456019;    0.364546;    0.259879;    0.254462;    0.227723;    0.227897;    0.228826;    0.228850;    0.232293;    0.235044;    0.236279;    0.238895;    0.241962;    0.244319;    0.245718;    0.247933;    0.249935;    0.252133;    0.253763;    0.255451;    0.257923;    0.259389;    0.260394;    0.261166;    0.262454;    0.263339;    0.263363;    0.262753;    0.261623;    0.261991;    0.262086;    0.261907;    0.261663;    0.260915;    0.260146;    0.258098;    0.255218;    0.250699;    0.245424;    0.241899;    0.239967;    0.237187;
 64;   15.867471;    1.004956;    0.879629;    0.842452;    0.780439;    0.731617;    0.670935;    0.612082;    0.535541;    0.451024;    0.353439;    0.258141;    0.254572;    0.230159;    0.230451;    0.231365;    0.230471;    0.233930;    0.236865;    0.239414;    0.241996;    0.244473;    0.246459;    0.249201;    0.251709;    0.253870;    0.255631;    0.257493;    0.259683;    0.261223;    0.261926;    0.263893;    0.266201;    0.267807;    0.268907;    0.268854;    0.269273;    0.269514;    0.268727;    0.266815;    0.266334;    0.264762;    0.263930;    0.261946;    0.260378;    0.256927;    0.254683;    0.251277;    0.246324;    0.242236;    0.240434;
 65;   15.860674;    0.975822;    0.860852;    0.811345;    0.769523;    0.712417;    0.658043;    0.574192;    0.500898;    0.426822;    0.337962;    0.255763;    0.242693;    0.226587;    0.227737;    0.228953;    0.227729;    0.230568;    0.232398;    0.235660;    0.238119;    0.240786;    0.243860;    0.246127;    0.248227;    0.250508;    0.252107;    0.253358;    0.254612;    0.255553;    0.256182;    0.256746;    0.258793;    0.259706;    0.260735;    0.261331;    0.261710;    0.261898;    0.261559;    0.260794;    0.260334;    0.259127;    0.258026;    0.257142;    0.255007;    0.254471;    0.252970;    0.249603;    0.245175;    0.241219;    0.236317;
 66;   15.801219;    1.002479;    0.882337;    0.840283;    0.790309;    0.730164;    0.665339;    0.610228;    0.527885;    0.435234;    0.359105;    0.257709;    0.256006;    0.227693;    0.226760;    0.227770;    0.227444;    0.230221;    0.232963;    0.235027;    0.238111;    0.241069;    0.243651;    0.245926;    0.248251;    0.250389;    0.251412;    0.251812;    0.252782;    0.254765;    0.256674;    0.258670;    0.260356;    0.261727;    0.262672;    0.263308;    0.262984;    0.263306;    0.263285;    0.263037;    0.261676;    0.260928;    0.258475;    0.257240;    0.253961;    0.251129;    0.249658;    0.245770;    0.243924;    0.239706;    0.235963;
 67;   15.890986;    0.993537;    0.876037;    0.820328;    0.774911;    0.720984;    0.655886;    0.567103;    0.503411;    0.425699;    0.350072;    0.256334;    0.249178;    0.230784;    0.230652;    0.231698;    0.231311;    0.234367;    0.236921;    0.239583;    0.242376;    0.244127;    0.245769;    0.247313;    0.250194;    0.252301;    0.254158;    0.256425;    0.258128;    0.259140;    0.260551;    0.261641;    0.262732;    0.263446;    0.262987;    0.263520;    0.263550;    0.264160;    0.263415;    0.261980;    0.263009;    0.263103;    0.261936;    0.259687;    0.256991;    0.255848;    0.252384;    0.248540;    0.245633;    0.243543;    0.239491;
 68;   15.768828;    1.001916;    0.878357;    0.832051;    0.769044;    0.718378;    0.657138;    0.605070;    0.514287;    0.445055;    0.349263;    0.256925;    0.246974;    0.227769;    0.228058;    0.229523;    0.228487;    0.231764;    0.233716;    0.236540;    0.239373;    0.241116;    0.244033;    0.245738;    0.247756;    0.250721;    0.252942;    0.255046;    0.256979;    0.258132;    0.258464;    0.258413;    0.260338;    0.261751;    0.263424;    0.264685;    0.265467;    0.265765;    0.265562;    0.264621;    0.262773;    0.262601;    0.263091;    0.262094;    0.260688;    0.256762;    0.254106;    0.250658;    0.245416;    0.242326;    0.237562;
 69;   15.771770;    0.991059;    0.878279;    0.829751;    0.785137;    0.733818;    0.687314;    0.624425;    0.546534;    0.453401;    0.355053;    0.261284;    0.257801;    0.232929;    0.232717;    0.234621;    0.232931;    0.235441;    0.239283;    0.241740;    0.244320;    0.246859;    0.249664;    0.251838;    0.253465;    0.256097;    0.258233;    0.260181;    0.261771;    0.263513;    0.264942;    0.265458;    0.265634;    0.267152;    0.267226;    0.267748;    0.266529;    0.267590;    0.267525;    0.267055;    0.265983;    0.265412;    0.263663;    0.261622;    0.261127;    0.258106;    0.255940;    0.253850;    0.252063;    0.248053;    0.242461;
 70;   15.698353;    1.014167;    0.890036;    0.836795;    0.795574;    0.731856;    0.659246;    0.583759;    0.518225;    0.424997;    0.340052;    0.254300;    0.243497;    0.229950;    0.229961;    0.231875;    0.229994;    0.233037;    0.235992;    0.238534;    0.241649;    0.244228;    0.246357;    0.249128;    0.251054;    0.252139;    0.254269;    0.256884;    0.258430;    0.260051;    0.260740;    0.260938;    0.261093;    0.262850;    0.264199;    0.264560;    0.264492;    0.263734;    0.262795;    0.261046;    0.261273;    0.259530;    0.259379;    0.258942;    0.258197;    0.257052;    0.254825;    0.252587;    0.249554;    0.245278;    0.239134;
 71;   15.944648;    1.003454;    0.877164;    0.827387;    0.772155;    0.723553;    0.660990;    0.593283;    0.530036;    0.436101;    0.339748;    0.255611;    0.248554;    0.228743;    0.228303;    0.229872;    0.229059;    0.232151;    0.234804;    0.237311;    0.240498;    0.242910;    0.245196;    0.248398;    0.250773;    0.252831;    0.255318;    0.256737;    0.257998;    0.260027;    0.262021;    0.262981;    0.262807;    0.263200;    0.262793;    0.261310;    0.260948;    0.261422;    0.261397;    0.261725;    0.261285;    0.260021;    0.259583;    0.258402;    0.257316;    0.255701;    0.253550;    0.250802;    0.245989;    0.242566;    0.238060;
 72;   15.870324;    1.008387;    0.879587;    0.841585;    0.793417;    0.732085;    0.672482;    0.600174;    0.528779;    0.433102;    0.361582;    0.254000;    0.250000;    0.227556;    0.228316;    0.229612;    0.228122;    0.230845;    0.233204;    0.236210;    0.239221;    0.241991;    0.244138;    0.245929;    0.248333;    0.250571;    0.252265;    0.254793;    0.256594;    0.257719;    0.259966;    0.261559;    0.261460;    0.261267;    0.261329;    0.260950;    0.261544;    0.262166;    0.262242;    0.262539;    0.261586;    0.259965;    0.258099;    0.255974;    0.254403;    0.252229;    0.250036;    0.247264;    0.243135;    0.240357;    0.235882;
 73;   16.040097;    1.033425;    0.901404;    0.861125;    0.796806;    0.743759;    0.696891;    0.627941;    0.533361;    0.453673;    0.351097;    0.263903;    0.254254;    0.230482;    0.231618;    0.234155;    0.232750;    0.235197;    0.237967;    0.241587;    0.244306;    0.246323;    0.248778;    0.250564;    0.252328;    0.254251;    0.255498;    0.258268;    0.260344;    0.261822;    0.263599;    0.265815;    0.266931;    0.268111;    0.268828;    0.268403;    0.267744;    0.267068;    0.267170;    0.266086;    0.266305;    0.266372;    0.265671;    0.263752;    0.260551;    0.258198;    0.254791;    0.252801;    0.250995;    0.247234;    0.240864;
 74;   15.757298;    1.007412;    0.872770;    0.821685;    0.783973;    0.725594;    0.654805;    0.587446;    0.516811;    0.429871;    0.345537;    0.257935;    0.254091;    0.230482;    0.231369;    0.232764;    0.231448;    0.234619;    0.237863;    0.241095;    0.244387;    0.246784;    0.248478;    0.250971;    0.253274;    0.255278;    0.256529;    0.258869;    0.260779;    0.262184;    0.263577;    0.264855;    0.266551;    0.268371;    0.269518;    0.270476;    0.270945;    0.270556;    0.270620;    0.270263;    0.269230;    0.267189;    0.266326;    0.264682;    0.261741;    0.259715;    0.255818;    0.254137;    0.250570;    0.246014;    0.241113;
 75;   15.711747;    0.989866;    0.865457;    0.815776;    0.769065;    0.719377;    0.665729;    0.588914;    0.505923;    0.426840;    0.342503;    0.250470;    0.245942;    0.222344;    0.222914;    0.225171;    0.223367;    0.225835;    0.228659;    0.231735;    0.234495;    0.236970;    0.240017;    0.242212;    0.244688;    0.246829;    0.248488;    0.250406;    0.252247;    0.253194;    0.253684;    0.253001;    0.254394;    0.256082;    0.257353;    0.257521;    0.257896;    0.257455;    0.255112;    0.254140;    0.254487;    0.252796;    0.252899;    0.252505;    0.250858;    0.248511;    0.245887;    0.242249;    0.239641;    0.235445;    0.231936;
 76;   15.892299;    1.009650;    0.876841;    0.838634;    0.774817;    0.725514;    0.647948;    0.592909;    0.508215;    0.443699;    0.353885;    0.255255;    0.245569;    0.228985;    0.229673;    0.230731;    0.229532;    0.232450;    0.235471;    0.237948;    0.240094;    0.243096;    0.245077;    0.247421;    0.249538;    0.251890;    0.253735;    0.255832;    0.257714;    0.260044;    0.261827;    0.262757;    0.263458;    0.263877;    0.264693;    0.265652;    0.266513;    0.266537;    0.266674;    0.266410;    0.264454;    0.263694;    0.261348;    0.257232;    0.255469;    0.254097;    0.252014;    0.250593;    0.247824;    0.243157;    0.237826;
 77;   15.891737;    0.971860;    0.852010;    0.800224;    0.756648;    0.704058;    0.648154;    0.577295;    0.499161;    0.431747;    0.338736;    0.252269;    0.249980;    0.223468;    0.223337;    0.224081;    0.223780;    0.226550;    0.229546;    0.232082;    0.235197;    0.237362;    0.240135;    0.242523;    0.245207;    0.247488;    0.248964;    0.250815;    0.251265;    0.253533;    0.255128;    0.256210;    0.257276;    0.258793;    0.258878;    0.258680;    0.259533;    0.259381;    0.258794;    0.257318;    0.255943;    0.255584;    0.253664;    0.251697;    0.250804;    0.248784;    0.246356;    0.243149;    0.240262;    0.237681;    0.232980;
 78;   15.791936;    0.988499;    0.873635;    0.821768;    0.773790;    0.715694;    0.653755;    0.577065;    0.498584;    0.419368;    0.349309;    0.256693;    0.254109;    0.227706;    0.228073;    0.229807;    0.227976;    0.230892;    0.233908;    0.236398;    0.239704;    0.241621;    0.244141;    0.246238;    0.247489;    0.250656;    0.253137;    0.255258;    0.256540;    0.258225;    0.260163;    0.260726;    0.261827;    0.261870;    0.262190;    0.262193;    0.263155;    0.263430;    0.263020;    0.262207;    0.259670;    0.259309;    0.258267;    0.256140;    0.255178;    0.253053;    0.251704;    0.248034;    0.244501;    0.242188;    0.238121;
 79;   15.813377;    1.005176;    0.881497;    0.824128;    0.773972;    0.727161;    0.648881;    0.580080;    0.523125;    0.442436;    0.336557;    0.251201;    0.246665;    0.224486;    0.224944;    0.225671;    0.225270;    0.228636;    0.231218;    0.233012;    0.235780;    0.238245;    0.240304;    0.242393;    0.244951;    0.246738;    0.248775;    0.251101;    0.252640;    0.254131;    0.255096;    0.255518;    0.257123;    0.258863;    0.259333;    0.259000;    0.258653;    0.257444;    0.257384;    0.258288;    0.258030;    0.256388;    0.253902;    0.251633;    0.248599;    0.245904;    0.245053;    0.241780;    0.240055;    0.237188;    0.233652;
 80;   15.696819;    0.984363;    0.857155;    0.823723;    0.772439;    0.713920;    0.645615;    0.570153;    0.510132;    0.427719;    0.339075;    0.248842;    0.244415;    0.221268;    0.221407;    0.221294;    0.221492;    0.223809;    0.226163;    0.229774;    0.232924;    0.235292;    0.237021;    0.238892;    0.240835;    0.243523;    0.245454;    0.247475;    0.249007;    0.250335;    0.250608;    0.251803;    0.252345;    0.253624;    0.254488;    0.254552;    0.254838;    0.254735;    0.255851;    0.255685;    0.255344;    0.253648;    0.251150;    0.250795;    0.248749;    0.246651;    0.243362;    0.241973;    0.238491;    0.234652;    0.229651;
 81;   15.831153;    0.987474;    0.865740;    0.820352;    0.762549;    0.708346;    0.651879;    0.598666;    0.531769;    0.447438;    0.347341;    0.253924;    0.241005;    0.226942;    0.226760;    0.229109;    0.227691;    0.230733;    0.232340;    0.234959;    0.237817;    0.240851;    0.243663;    0.245615;    0.247058;    0.249627;    0.251344;    0.252639;    0.253634;    0.254263;    0.256009;    0.257797;    0.258708;    0.259321;    0.259535;    0.260899;    0.261318;    0.260876;    0.260406;    0.259404;    0.259412;    0.258793;    0.257448;    0.256291;    0.255325;    0.253216;    0.249964;    0.245284;    0.241791;    0.238652;    0.233422;
 82;   15.779121;    0.982845;    0.859728;    0.822508;    0.772629;    0.723009;    0.668586;    0.608250;    0.528498;    0.438157;    0.346252;    0.251763;    0.247383;    0.223822;    0.224401;    0.226901;    0.224513;    0.227947;    0.231118;    0.233806;    0.235485;    0.237797;    0.239595;    0.241821;    0.243468;    0.244736;    0.247075;    0.248993;    0.251371;    0.253148;    0.254856;    0.255030;    0.254535;    0.253996;    0.255326;    0.256161;    0.256717;    0.256564;    0.256250;    0.256781;    0.256322;    0.256739;    0.255078;    0.252209;    0.249659;    0.248350;    0.245884;    0.241649;    0.239149;    0.236614;    0.232383;
 83;   15.837327;    0.974051;    0.860210;    0.809748;    0.758881;    0.714198;    0.661748;    0.597690;    0.530915;    0.441679;    0.353401;    0.256649;    0.243441;    0.228751;    0.230004;    0.231248;    0.229985;    0.232365;    0.234835;    0.237160;    0.240316;    0.243271;    0.245589;    0.247762;    0.249744;    0.251067;    0.253778;    0.255708;    0.256732;    0.258428;    0.259591;    0.260417;    0.261834;    0.263552;    0.264287;    0.264441;    0.263918;    0.263953;    0.264087;    0.263847;    0.263643;    0.263581;    0.262501;    0.260287;    0.256872;    0.255647;    0.253668;    0.250187;    0.247486;    0.243659;    0.237777;
 84;   15.824988;    0.994601;    0.885536;    0.839506;    0.786655;    0.725687;    0.657670;    0.600172;    0.527966;    0.430455;    0.350408;    0.255683;    0.250641;    0.230001;    0.230456;    0.232283;    0.230821;    0.233578;    0.236554;    0.240013;    0.242485;    0.244267;    0.247146;    0.249140;    0.251217;    0.252829;    0.254451;    0.254901;    0.256623;    0.258657;    0.260155;    0.261579;    0.262388;    0.262791;    0.262751;    0.263322;    0.262710;    0.264030;    0.264422;    0.264207;    0.262403;    0.261943;    0.260301;    0.258895;    0.257362;    0.255790;    0.253552;    0.250687;    0.246621;    0.243580;    0.239406;
 85;   15.832503;    1.005432;    0.889118;    0.847458;    0.794825;    0.734965;    0.673177;    0.604641;    0.539510;    0.451757;    0.364286;    0.257222;    0.249160;    0.227605;    0.228114;    0.232261;    0.228748;    0.231750;    0.234218;    0.236680;    0.239713;    0.243059;    0.245333;    0.247896;    0.249533;    0.250277;    0.252290;    0.253867;    0.255948;    0.257434;    0.258412;    0.259314;    0.260087;    0.261132;    0.261258;    0.260880;    0.261179;    0.261172;    0.261505;    0.261698;    0.261123;    0.260095;    0.258465;    0.255893;    0.255316;    0.253499;    0.250751;    0.249101;    0.245832;    0.242437;    0.237341;
 86;   15.866875;    1.004742;    0.869615;    0.820155;    0.771282;    0.711535;    0.650489;    0.586670;    0.512103;    0.441512;    0.356570;    0.256511;    0.253604;    0.227538;    0.227428;    0.229496;    0.228116;    0.230504;    0.233094;    0.236325;    0.238729;    0.241874;    0.244227;    0.245971;    0.248688;    0.251296;    0.253192;    0.254657;    0.255551;    0.256836;    0.258303;    0.259489;    0.260588;    0.261690;    0.261753;    0.262474;    0.263092;    0.263777;    0.263789;    0.262406;    0.261300;    0.260103;    0.259673;    0.256852;    0.255758;    0.254693;    0.251664;    0.248498;    0.245982;    0.242743;    0.237843;
 87;   15.778637;    1.000658;    0.872146;    0.830326;    0.767079;    0.712936;    0.647258;    0.592146;    0.503510;    0.428180;    0.356154;    0.258243;    0.249154;    0.226783;    0.227209;    0.228377;    0.228067;    0.230624;    0.232782;    0.235949;    0.238464;    0.240340;    0.241849;    0.244938;    0.247138;    0.249212;    0.250786;    0.252402;    0.254260;    0.256211;    0.257527;    0.258368;    0.258975;    0.259948;    0.261388;    0.262348;    0.262500;    0.260945;    0.258472;    0.257778;    0.257152;    0.257274;    0.256004;    0.254838;    0.253234;    0.251959;    0.248588;    0.245024;    0.241861;    0.238492;    0.233977;
 88;   15.729050;    1.012682;    0.879692;    0.833606;    0.793077;    0.729551;    0.684392;    0.625683;    0.548952;    0.459969;    0.348189;    0.254946;    0.245790;    0.223935;    0.224286;    0.226005;    0.224883;    0.227335;    0.230168;    0.233132;    0.235906;    0.238283;    0.241025;    0.243523;    0.245078;    0.247104;    0.249249;    0.250956;    0.252032;    0.254036;    0.255447;    0.255723;    0.255640;    0.256735;    0.257920;    0.258164;    0.258540;    0.258215;    0.258060;    0.257676;    0.257023;    0.254426;    0.252584;    0.251050;    0.250365;    0.247201;    0.244957;    0.241522;    0.238244;    0.235659;    0.230612;
 89;   15.892415;    1.009913;    0.885081;    0.845764;    0.785202;    0.737309;    0.666757;    0.586242;    0.517933;    0.416821;    0.344332;    0.253230;    0.249222;    0.227265;    0.228065;    0.231148;    0.228706;    0.231325;    0.233680;    0.236792;    0.239390;    0.242043;    0.244303;    0.247335;    0.249091;    0.251212;    0.253542;    0.255264;    0.256012;    0.258532;    0.259732;    0.259848;    0.259649;    0.259715;    0.260484;    0.261491;    0.262339;    0.262583;    0.263095;    0.263072;    0.262306;    0.261637;    0.260904;    0.258151;    0.254914;    0.252406;    0.248272;    0.246081;    0.244656;    0.241466;    0.237944;
 90;   15.809892;    0.997670;    0.878569;    0.829441;    0.776154;    0.733162;    0.664497;    0.614134;    0.526351;    0.446803;    0.359888;    0.258860;    0.255689;    0.227602;    0.227769;    0.229536;    0.228976;    0.232126;    0.234225;    0.237216;    0.239449;    0.242000;    0.243463;    0.246770;    0.249621;    0.251524;    0.253038;    0.255349;    0.256516;    0.257625;    0.259230;    0.260515;    0.261961;    0.262782;    0.263050;    0.263972;    0.264390;    0.264667;    0.264595;    0.263864;    0.262230;    0.260735;    0.259430;    0.257425;    0.254387;    0.252344;    0.250514;    0.247968;    0.245495;    0.241524;    0.238558;
 91;   15.903669;    1.008100;    0.879260;    0.845139;    0.786492;    0.718192;    0.665898;    0.591352;    0.520217;    0.432662;    0.351199;    0.253647;    0.250088;    0.226033;    0.225192;    0.226993;    0.225699;    0.229002;    0.231827;    0.234195;    0.236675;    0.239094;    0.240726;    0.242382;    0.245435;    0.247833;    0.249412;    0.251918;    0.253692;    0.254722;    0.255509;    0.256856;    0.257859;    0.258555;    0.259430;    0.260131;    0.260683;    0.261673;    0.261791;    0.260569;    0.258374;    0.257314;    0.257244;    0.257626;    0.255913;    0.253627;    0.251428;    0.249015;    0.245460;    0.240436;    0.234684;
 92;   15.864603;    0.991223;    0.868124;    0.817582;    0.774815;    0.719842;    0.647307;    0.580708;    0.506205;    0.439396;    0.347611;    0.254975;    0.250895;    0.226614;    0.227046;    0.227817;    0.227195;    0.231163;    0.234581;    0.237202;    0.239576;    0.241704;    0.242283;    0.245371;    0.247362;    0.249224;    0.250724;    0.253273;    0.255556;    0.257029;    0.258284;    0.258926;    0.259992;    0.261494;    0.262144;    0.262496;    0.261698;    0.261749;    0.261231;    0.261158;    0.260280;    0.258427;    0.258136;    0.256973;    0.254806;    0.251666;    0.250411;    0.248215;    0.244869;    0.238774;    0.235309;
 93;   16.013484;    1.005255;    0.883423;    0.842492;    0.789498;    0.737878;    0.686286;    0.609567;    0.532001;    0.446073;    0.355339;    0.258055;    0.248677;    0.230228;    0.229785;    0.231159;    0.230475;    0.232886;    0.235922;    0.238480;    0.241930;    0.244316;    0.246346;    0.249095;    0.251438;    0.253311;    0.255234;    0.257463;    0.258616;    0.260543;    0.261873;    0.262543;    0.263431;    0.263794;    0.263648;    0.264979;    0.264856;    0.264658;    0.263669;    0.263265;    0.262899;    0.261657;    0.261302;    0.259146;    0.257638;    0.254840;    0.252957;    0.250436;    0.247268;    0.243439;    0.240120;
 94;   15.944218;    1.003990;    0.879818;    0.837424;    0.770527;    0.713347;    0.655495;    0.577889;    0.499824;    0.442010;    0.345252;    0.253920;    0.239459;    0.225546;    0.225797;    0.226914;    0.225711;    0.228087;    0.231198;    0.233786;    0.235985;    0.238552;    0.240987;    0.243780;    0.246365;    0.248957;    0.250787;    0.252606;    0.253847;    0.254615;    0.255799;    0.256362;    0.256201;    0.257544;    0.258484;    0.258160;    0.259826;    0.259650;    0.258745;    0.257945;    0.257749;    0.257154;    0.255937;    0.254134;    0.250968;    0.249176;    0.246323;    0.243943;    0.240030;    0.237400;    0.232660;
 95;   15.889682;    1.012778;    0.883447;    0.836138;    0.790333;    0.731784;    0.679259;    0.604111;    0.528721;    0.456302;    0.350728;    0.257201;    0.249927;    0.228668;    0.229206;    0.232305;    0.230103;    0.233320;    0.235746;    0.238233;    0.240670;    0.243352;    0.246250;    0.249134;    0.250936;    0.251754;    0.254495;    0.256732;    0.257945;    0.259454;    0.261219;    0.262557;    0.263510;    0.265252;    0.265341;    0.265837;    0.266254;    0.266753;    0.266342;    0.264683;    0.262048;    0.261809;    0.261338;    0.260545;    0.260096;    0.258217;    0.254887;    0.252087;    0.248515;    0.243348;    0.239834;
 96;   15.872529;    0.998330;    0.865048;    0.819913;    0.782157;    0.723555;    0.672212;    0.598446;    0.515554;    0.444624;    0.344320;    0.253425;    0.244320;    0.225059;    0.225082;    0.226600;    0.226050;    0.229303;    0.231791;    0.233999;    0.237718;    0.240699;    0.243385;    0.245540;    0.247933;    0.249998;    0.252114;    0.254119;    0.254623;    0.256420;    0.257879;    0.258327;    0.259262;    0.260072;    0.260138;    0.259416;    0.260328;    0.260576;    0.260081;    0.259532;    0.259521;    0.258105;    0.254546;    0.252505;    0.251531;    0.251780;    0.250905;    0.248288;    0.244789;    0.239057;    0.234732;
 97;   15.863011;    1.018578;    0.899940;    0.841089;    0.790863;    0.721992;    0.671032;    0.607261;    0.517369;    0.439526;    0.352512;    0.254380;    0.249841;    0.226832;    0.227071;    0.227703;    0.227560;    0.230537;    0.233819;    0.236633;    0.239107;    0.241485;    0.243895;    0.245607;    0.247471;    0.250375;    0.252949;    0.254675;    0.256032;    0.256803;    0.258025;    0.259008;    0.259750;    0.259884;    0.261046;    0.262116;    0.263040;    0.263216;    0.263555;    0.262709;    0.261685;    0.261378;    0.259948;    0.258593;    0.255883;    0.253820;    0.250111;    0.247159;    0.244817;    0.241274;    0.235540;
 98;   15.832047;    1.001479;    0.879744;    0.830667;    0.786416;    0.726502;    0.655429;    0.600374;    0.526893;    0.447627;    0.352901;    0.254448;    0.253212;    0.229885;    0.230915;    0.234637;    0.231643;    0.234367;    0.237793;    0.240164;    0.243447;    0.245704;    0.248365;    0.250915;    0.253100;    0.254572;    0.257240;    0.258841;    0.259637;    0.260028;    0.261243;    0.262219;    0.263715;    0.264251;    0.265659;    0.266681;    0.267347;    0.267894;    0.266941;    0.265468;    0.265617;    0.265226;    0.263476;    0.262221;    0.261454;    0.259780;    0.256620;    0.253473;    0.249799;    0.246780;    0.240077;
 99;   15.806139;    0.992303;    0.859534;    0.828328;    0.777480;    0.729348;    0.653390;    0.593657;    0.520661;    0.439642;    0.351020;    0.258031;    0.251847;    0.230077;    0.230692;    0.231933;    0.231136;    0.234498;    0.236760;    0.239698;    0.242315;    0.245364;    0.248338;    0.250588;    0.252266;    0.253528;    0.255941;    0.258087;    0.260235;    0.262049;    0.263794;    0.265512;    0.266981;    0.268134;    0.268885;    0.270111;    0.269313;    0.268732;    0.268874;    0.268249;    0.267068;    0.265495;    0.265054;    0.263786;    0.260632;    0.258045;    0.253825;    0.251249;    0.246334;    0.243623;    0.240202;
100;   15.888688;    0.993641;    0.865947;    0.827387;    0.782280;    0.721818;    0.669634;    0.592293;    0.499344;    0.429484;    0.348356;    0.256693;    0.253216;    0.224350;    0.225008;    0.226104;    0.225585;    0.228094;    0.231343;    0.233532;    0.236193;    0.238406;    0.240359;    0.242693;    0.244660;    0.246382;    0.248688;    0.250789;    0.252534;    0.254861;    0.256436;    0.257135;    0.257292;    0.257325;    0.257664;    0.257472;    0.257551;    0.258224;    0.258563;    0.258343;    0.257973;    0.255637;    0.253680;    0.252556;    0.251310;    0.249004;    0.247500;    0.245351;    0.243005;    0.238925;    0.233568;
