Simulation;Time;PC 0;PC 1;PC 2;PC 3;PC 4;PC 5;PC 6;PC 7;PC 8;PC 9;PC10;PC11;PC12;PC13;PC14;PC15;PC16;PC17;PC18;PC19;PC20;PC21;PC22;PC23;PC24;PC25;PC26;PC27;PC28;PC29;PC30;PC31;PC32;PC33;PC34;PC35;PC36;PC37;PC38;PC39;PC40;PC41;PC42;PC43;PC44;PC45;PC46;PC47;PC48;PC49;
Nan;Nan;0;0;0;0;0;0;0;0;0;0;0;0;0;0;0;1;0;0;0;0;0;0;0;0;0;0;0;0;0;0;0;0;0;0;0;0;0;0;0;0;0;0;0;0;0;0;0;0;0;0;
  0;   15.929123;    0.983890;    0.882501;    0.840961;    0.809619;    0.772026;    0.719079;    0.653113;    0.604736;    0.530053;    0.463884;    0.400179;    0.397635;    0.384699;    0.385965;    0.387034;    0.387760;    0.393585;    0.398445;    0.403796;    0.409085;    0.414186;    0.418966;    0.423787;    0.425875;    0.428668;    0.430359;    0.431107;    0.435673;    0.438986;    0.441790;    0.443945;    0.444935;    0.446022;    0.446803;    0.447827;    0.448388;    0.448928;    0.448721;    0.447178;    0.444188;    0.443003;    0.439328;    0.435531;    0.432159;    0.427766;    0.422679;    0.416395;    0.412379;    0.403600;    0.395772;
  1;   16.108366;    1.008490;    0.904431;    0.860461;    0.831465;    0.774148;    0.720532;    0.670282;    0.615301;    0.548471;    0.487383;    0.410486;    0.404648;    0.389117;    0.389800;    0.391903;    0.392860;    0.398358;    0.403941;    0.408777;    0.414163;    0.420369;    0.425203;    0.429306;    0.431580;    0.435202;    0.438620;    0.441591;    0.445214;    0.447854;    0.449302;    0.452127;    0.454057;    0.455252;    0.454732;    0.452310;    0.452080;    0.452209;    0.454504;    0.452587;    0.450720;    0.450329;    0.448772;    0.444594;    0.440078;    0.433260;    0.427699;    0.421256;    0.415235;    0.410738;    0.404441;
  2;   16.088393;    1.014841;    0.913841;    0.873383;    0.844588;    0.795067;    0.726663;    0.683578;    0.613663;    0.558724;    0.488112;    0.403727;    0.399637;    0.386576;    0.387564;    0.389664;    0.390675;    0.396346;    0.402094;    0.405409;    0.410350;    0.415463;    0.420839;    0.424768;    0.430035;    0.435234;    0.439855;    0.444098;    0.447751;    0.449589;    0.450063;    0.452949;    0.453520;    0.454638;    0.455144;    0.455989;    0.456800;    0.457222;    0.457341;    0.453230;    0.448455;    0.446237;    0.444495;    0.441698;    0.434682;    0.428865;    0.425524;    0.421015;    0.415254;    0.409623;    0.398898;
  3;   16.070968;    1.008228;    0.913180;    0.872693;    0.836314;    0.782991;    0.743086;    0.692857;    0.626349;    0.563506;    0.484751;    0.407839;    0.408191;    0.389274;    0.389949;    0.392453;    0.392531;    0.397392;    0.403292;    0.410097;    0.414973;    0.419431;    0.423843;    0.427257;    0.431140;    0.436535;    0.441291;    0.444500;    0.446267;    0.450443;    0.453503;    0.454264;    0.455259;    0.456212;    0.457592;    0.457651;    0.458997;    0.459996;    0.459015;    0.455012;    0.452631;    0.447707;    0.447363;    0.445221;    0.444231;    0.441492;    0.437308;    0.432167;    0.423833;    0.412399;    0.404137;
  4;   16.282118;    1.025268;    0.923058;    0.885896;    0.845537;    0.783990;    0.727146;    0.687379;    0.629034;    0.552052;    0.485724;    0.407700;    0.406069;    0.390531;    0.391156;    0.395365;    0.394114;    0.400150;    0.405910;    0.412377;    0.416617;    0.420438;    0.424837;    0.429688;    0.435129;    0.439936;    0.442734;    0.444763;    0.447477;    0.448895;    0.452828;    0.455730;    0.457153;    0.456009;    0.457573;    0.458885;    0.459364;    0.459801;    0.456913;    0.458342;    0.458683;    0.457355;    0.455056;    0.449862;    0.443797;    0.439874;    0.434182;    0.430828;    0.422995;    0.416432;    0.407350;
  5;   16.127925;    1.004333;    0.901575;    0.861455;    0.821864;    0.778987;    0.728325;    0.678746;    0.618734;    0.555432;    0.486906;    0.407815;    0.395721;    0.386394;    0.387590;    0.390109;    0.389864;    0.396417;    0.400995;    0.406615;    0.413658;    0.418734;    0.422341;    0.425617;    0.428647;    0.434496;    0.438347;    0.441188;    0.442651;    0.445052;    0.444454;    0.447802;    0.448368;    0.449418;    0.448576;    0.449163;    0.451824;    0.452118;    0.450000;    0.449158;    0.446973;    0.447444;    0.445468;    0.443718;    0.440056;    0.433029;    0.425747;    0.416546;    0.412330;    0.406569;    0.398368;
  6;   16.151783;    0.999194;    0.898992;    0.862900;    0.813523;    0.769039;    0.719888;    0.672957;    0.618486;    0.543368;    0.479034;    0.404805;    0.403816;    0.387642;    0.387426;    0.388985;    0.390621;    0.395706;    0.400610;    0.406111;    0.411360;    0.416155;    0.420695;    0.425419;    0.428434;    0.430853;    0.434172;    0.434647;    0.437216;    0.439251;    0.442923;    0.446383;    0.447285;    0.448916;    0.448418;    0.450386;    0.450320;    0.448654;    0.449248;    0.449483;    0.449077;    0.448713;    0.447115;    0.443269;    0.437047;    0.434469;    0.431189;    0.424006;    0.415820;    0.408878;    0.398173;
  7;   16.069009;    1.016710;    0.912750;    0.869393;    0.831083;    0.787518;    0.732938;    0.680129;    0.608345;    0.543935;    0.474573;    0.404995;    0.398844;    0.384894;    0.386486;    0.389527;    0.390382;    0.396251;    0.401477;    0.405784;    0.410061;    0.416452;    0.421574;    0.425797;    0.428257;    0.430189;    0.435703;    0.440628;    0.445175;    0.448254;    0.451673;    0.453288;    0.455411;    0.456651;    0.456651;    0.456756;    0.455013;    0.453935;    0.454097;    0.454208;    0.452377;    0.448368;    0.442749;    0.437002;    0.434683;    0.433267;    0.428811;    0.420815;    0.416506;    0.410118;    0.403163;
  8;   16.055915;    0.989666;    0.890498;    0.855606;    0.820962;    0.766643;    0.728156;    0.666713;    0.604097;    0.547491;    0.473132;    0.399675;    0.396041;    0.384333;    0.385447;    0.387343;    0.388600;    0.395199;    0.399418;    0.405089;    0.408071;    0.411224;    0.416548;    0.421603;    0.426515;    0.429896;    0.431993;    0.435071;    0.438391;    0.441809;    0.442833;    0.444523;    0.444755;    0.447067;    0.448715;    0.449395;    0.448075;    0.451147;    0.452389;    0.452508;    0.450454;    0.448480;    0.444871;    0.442435;    0.440665;    0.436408;    0.430625;    0.424012;    0.414806;    0.407646;    0.399937;
  9;   15.996421;    1.012453;    0.913185;    0.880375;    0.831693;    0.784135;    0.744634;    0.678977;    0.623969;    0.571730;    0.492490;    0.404348;    0.402926;    0.387320;    0.388100;    0.390407;    0.390084;    0.396952;    0.401932;    0.406809;    0.410969;    0.416939;    0.419542;    0.424356;    0.428600;    0.432204;    0.434572;    0.437967;    0.442425;    0.445626;    0.446563;    0.450274;    0.453035;    0.454799;    0.454926;    0.454676;    0.452510;    0.453923;    0.456011;    0.456498;    0.455172;    0.454275;    0.451863;    0.446656;    0.443084;    0.435970;    0.433210;    0.428371;    0.423745;    0.413701;    0.405372;
 10;   16.116359;    1.009555;    0.908824;    0.875121;    0.835085;    0.795892;    0.746752;    0.705501;    0.640886;    0.575734;    0.485434;    0.404040;    0.396363;    0.386251;    0.386970;    0.391882;    0.389730;    0.395985;    0.401566;    0.406930;    0.413549;    0.418840;    0.422960;    0.428026;    0.433950;    0.438617;    0.443724;    0.447934;    0.450793;    0.453503;    0.455628;    0.458241;    0.460363;    0.461854;    0.462205;    0.461919;    0.461303;    0.459754;    0.457249;    0.456818;    0.453713;    0.453366;    0.451711;    0.447654;    0.446622;    0.443205;    0.435963;    0.425063;    0.419255;    0.409916;    0.401956;
 11;   15.841166;    0.996156;    0.899649;    0.868445;    0.833936;    0.780057;    0.736808;    0.683562;    0.614614;    0.561022;    0.477512;    0.406588;    0.406743;    0.385841;    0.387463;    0.390134;    0.390658;    0.395548;    0.401109;    0.405989;    0.409443;    0.416196;    0.421253;    0.424886;    0.426321;    0.432202;    0.436596;    0.440570;    0.444060;    0.445328;    0.445984;    0.447940;    0.450325;    0.452411;    0.453937;    0.455088;    0.455013;    0.456420;    0.456385;    0.455429;    0.451941;    0.449396;    0.446580;    0.443075;    0.438284;    0.432407;    0.428630;    0.426282;    0.422329;    0.414538;    0.406067;
 12;   16.170313;    0.990833;    0.898410;    0.872813;    0.833828;    0.775228;    0.722939;    0.670994;    0.602492;    0.538206;    0.480719;    0.403911;    0.400502;    0.379740;    0.381128;    0.384184;    0.384392;    0.389651;    0.395664;    0.397407;    0.404006;    0.408777;    0.413181;    0.419119;    0.423627;    0.428040;    0.432655;    0.436059;    0.439140;    0.440958;    0.441623;    0.441236;    0.440871;    0.438826;    0.440077;    0.439515;    0.440577;    0.441932;    0.442709;    0.443122;    0.440666;    0.440292;    0.437949;    0.434773;    0.429773;    0.426495;    0.420873;    0.411470;    0.406531;    0.398151;    0.392548;
 13;   16.961334;    1.005254;    0.897728;    0.860713;    0.827864;    0.771851;    0.723252;    0.671361;    0.609365;    0.548879;    0.474824;    0.407488;    0.401856;    0.386242;    0.387912;    0.391420;    0.391763;    0.396189;    0.402498;    0.406472;    0.411226;    0.417430;    0.422097;    0.426243;    0.429413;    0.432610;    0.436404;    0.440168;    0.443126;    0.446977;    0.448884;    0.449781;    0.451456;    0.453333;    0.454783;    0.455894;    0.454109;    0.454278;    0.451649;    0.450526;    0.448055;    0.446713;    0.445037;    0.442060;    0.437827;    0.435199;    0.432417;    0.426283;    0.418376;    0.412489;    0.401789;
 14;   16.115622;    0.985264;    0.889097;    0.859546;    0.811201;    0.777106;    0.728743;    0.677761;    0.610481;    0.537566;    0.470450;    0.406034;    0.401999;    0.389385;    0.389841;    0.392126;    0.392938;    0.399203;    0.403161;    0.407261;    0.413860;    0.418767;    0.423286;    0.428426;    0.434588;    0.439291;    0.442494;    0.445227;    0.447483;    0.450329;    0.451578;    0.452879;    0.454021;    0.453752;    0.456798;    0.459043;    0.459130;    0.458064;    0.456815;    0.457277;    0.455821;    0.454473;    0.450789;    0.451180;    0.447420;    0.443586;    0.436223;    0.430709;    0.425334;    0.417545;    0.405081;
 15;   15.861728;    0.995443;    0.882374;    0.844338;    0.796386;    0.756722;    0.706200;    0.657430;    0.601158;    0.533734;    0.468160;    0.400311;    0.390011;    0.381898;    0.383242;    0.385598;    0.386031;    0.391342;    0.397665;    0.403175;    0.407781;    0.411989;    0.416519;    0.420213;    0.423522;    0.427487;    0.431931;    0.434970;    0.434780;    0.438194;    0.440212;    0.442697;    0.444615;    0.448609;    0.450509;    0.450457;    0.450459;    0.450861;    0.450023;    0.447622;    0.446882;    0.446030;    0.443074;    0.440094;    0.437367;    0.433486;    0.427020;    0.417060;    0.410339;    0.402385;    0.396723;
 16;   16.169814;    1.020159;    0.923923;    0.876519;    0.835288;    0.791145;    0.733702;    0.690248;    0.627286;    0.558356;    0.490068;    0.411922;    0.406621;    0.393742;    0.394952;    0.397002;    0.396764;    0.402078;    0.409092;    0.414122;    0.420300;    0.425483;    0.431165;    0.435204;    0.440408;    0.444780;    0.449265;    0.453129;    0.456418;    0.458108;    0.459362;    0.460936;    0.464029;    0.466128;    0.466611;    0.468450;    0.468822;    0.470003;    0.467913;    0.466421;    0.463538;    0.460157;    0.457588;    0.453036;    0.448264;    0.444686;    0.437585;    0.428812;    0.423323;    0.416139;    0.410607;
 17;   16.078339;    0.989090;    0.892796;    0.852841;    0.810250;    0.768249;    0.713940;    0.654076;    0.597640;    0.538760;    0.476423;    0.403902;    0.399874;    0.379647;    0.380942;    0.383452;    0.385089;    0.391560;    0.396226;    0.399967;    0.403604;    0.407848;    0.412611;    0.416545;    0.420855;    0.422887;    0.427638;    0.431393;    0.435698;    0.439572;    0.442690;    0.445028;    0.447591;    0.448507;    0.447824;    0.447826;    0.450072;    0.449612;    0.448905;    0.445638;    0.442051;    0.441828;    0.440220;    0.437955;    0.435438;    0.429418;    0.422121;    0.414369;    0.409290;    0.402853;    0.394374;
 18;   16.188574;    0.983137;    0.893203;    0.854497;    0.820950;    0.770960;    0.727617;    0.664068;    0.600594;    0.555179;    0.493087;    0.405390;    0.404921;    0.385533;    0.386898;    0.390045;    0.389886;    0.396446;    0.400863;    0.406690;    0.411360;    0.418109;    0.423283;    0.427794;    0.430536;    0.430441;    0.434691;    0.437791;    0.441677;    0.444639;    0.447951;    0.448725;    0.450631;    0.452084;    0.453871;    0.454126;    0.453447;    0.452441;    0.453703;    0.451513;    0.451237;    0.448723;    0.448292;    0.446339;    0.442652;    0.438159;    0.432490;    0.428838;    0.421990;    0.411624;    0.401695;
 19;   16.005223;    0.995179;    0.892116;    0.852567;    0.824468;    0.782831;    0.740059;    0.676330;    0.623978;    0.554074;    0.478158;    0.407944;    0.400978;    0.389806;    0.391026;    0.393386;    0.394901;    0.400994;    0.406072;    0.409164;    0.415025;    0.420404;    0.425243;    0.429182;    0.433596;    0.437601;    0.441769;    0.445453;    0.448870;    0.451399;    0.453527;    0.455424;    0.457476;    0.459838;    0.461833;    0.463308;    0.463724;    0.463321;    0.459440;    0.460128;    0.458841;    0.455505;    0.451400;    0.448379;    0.446369;    0.441776;    0.432306;    0.424265;    0.419179;    0.412459;    0.405909;
 20;   16.101089;    1.010835;    0.900632;    0.873448;    0.825705;    0.781794;    0.739459;    0.695535;    0.641843;    0.568457;    0.490283;    0.405681;    0.398649;    0.384899;    0.386004;    0.389021;    0.388353;    0.393641;    0.397884;    0.403710;    0.408392;    0.414393;    0.418883;    0.423607;    0.428031;    0.432212;    0.436493;    0.440023;    0.443694;    0.446233;    0.446762;    0.448485;    0.451043;    0.452798;    0.453991;    0.453277;    0.451930;    0.453607;    0.454293;    0.453192;    0.451973;    0.450713;    0.450036;    0.447589;    0.443984;    0.437352;    0.432825;    0.426213;    0.418446;    0.410759;    0.402513;
 21;   15.933172;    1.007423;    0.897015;    0.863590;    0.822780;    0.785197;    0.731260;    0.671990;    0.611237;    0.545734;    0.481629;    0.405418;    0.403153;    0.385721;    0.386580;    0.387288;    0.388706;    0.394220;    0.398641;    0.405408;    0.411390;    0.415960;    0.419922;    0.423837;    0.428532;    0.432596;    0.436770;    0.440743;    0.443958;    0.445588;    0.446744;    0.449847;    0.450956;    0.451595;    0.449013;    0.449871;    0.452221;    0.452468;    0.450635;    0.450355;    0.449456;    0.447801;    0.445041;    0.442081;    0.440451;    0.437122;    0.431877;    0.425152;    0.414831;    0.406234;    0.399679;
 22;   16.103035;    1.014298;    0.908486;    0.870598;    0.827278;    0.770350;    0.725159;    0.666092;    0.619484;    0.567703;    0.486147;    0.406795;    0.399305;    0.386644;    0.387321;    0.388882;    0.389459;    0.394279;    0.400272;    0.405238;    0.410796;    0.414499;    0.417869;    0.422557;    0.428004;    0.431477;    0.433808;    0.436298;    0.437966;    0.442210;    0.446402;    0.448590;    0.451229;    0.453783;    0.453898;    0.452168;    0.451708;    0.452991;    0.453032;    0.453075;    0.452053;    0.451624;    0.450648;    0.447375;    0.444590;    0.440129;    0.435471;    0.428480;    0.420232;    0.408737;    0.400173;
 23;   15.865789;    1.003410;    0.903316;    0.878100;    0.845333;    0.801214;    0.746039;    0.674457;    0.621685;    0.552515;    0.478050;    0.409908;    0.406212;    0.389455;    0.390915;    0.393601;    0.393520;    0.397733;    0.404132;    0.408994;    0.414973;    0.419949;    0.424834;    0.429760;    0.434565;    0.438455;    0.441404;    0.445240;    0.448143;    0.451081;    0.454920;    0.456570;    0.457574;    0.457982;    0.458871;    0.455866;    0.456481;    0.457681;    0.457650;    0.456219;    0.455202;    0.455427;    0.453048;    0.450096;    0.445010;    0.442191;    0.437819;    0.430293;    0.420093;    0.412193;    0.404798;
 24;   16.193255;    1.018625;    0.913521;    0.881042;    0.831638;    0.784055;    0.731030;    0.674318;    0.617619;    0.548025;    0.481313;    0.402719;    0.395041;    0.380289;    0.381106;    0.383648;    0.384282;    0.388893;    0.395268;    0.400848;    0.407089;    0.411195;    0.413605;    0.417963;    0.422177;    0.426678;    0.429724;    0.431373;    0.432878;    0.435979;    0.438901;    0.441917;    0.443497;    0.444564;    0.447902;    0.451368;    0.452083;    0.450705;    0.450706;    0.448189;    0.445668;    0.442368;    0.438182;    0.434995;    0.432963;    0.426396;    0.419286;    0.413528;    0.407372;    0.398882;    0.394050;
 25;   16.110901;    0.992222;    0.895790;    0.864892;    0.827755;    0.767679;    0.725521;    0.671516;    0.619858;    0.539351;    0.473740;    0.404900;    0.397678;    0.385087;    0.386122;    0.388832;    0.389198;    0.393936;    0.399595;    0.404133;    0.410651;    0.416943;    0.420439;    0.423068;    0.427822;    0.433160;    0.436918;    0.440414;    0.443899;    0.446935;    0.448932;    0.449193;    0.449493;    0.452541;    0.453865;    0.453692;    0.453044;    0.454127;    0.453861;    0.451097;    0.449134;    0.447925;    0.445795;    0.443469;    0.437839;    0.435479;    0.430402;    0.424495;    0.418195;    0.409175;    0.399291;
 26;   16.020036;    1.016946;    0.915938;    0.878973;    0.837647;    0.797055;    0.753353;    0.701257;    0.637649;    0.556857;    0.498547;    0.409225;    0.404411;    0.389330;    0.390788;    0.393311;    0.393217;    0.398912;    0.405990;    0.411215;    0.416158;    0.418401;    0.424845;    0.429881;    0.435447;    0.437953;    0.440950;    0.442854;    0.445191;    0.446369;    0.446208;    0.447044;    0.450417;    0.454127;    0.456779;    0.457626;    0.457100;    0.455396;    0.455525;    0.456772;    0.456606;    0.453083;    0.451623;    0.449614;    0.444423;    0.440016;    0.434344;    0.428258;    0.423023;    0.414575;    0.405052;
 27;   15.936492;    1.008058;    0.899217;    0.855763;    0.817004;    0.779847;    0.741430;    0.685481;    0.625252;    0.552030;    0.483891;    0.406008;    0.405843;    0.383884;    0.384909;    0.387614;    0.388322;    0.393517;    0.399829;    0.403524;    0.409016;    0.413577;    0.417660;    0.420031;    0.425417;    0.429040;    0.433089;    0.437031;    0.439746;    0.444632;    0.448284;    0.450038;    0.451331;    0.450072;    0.448261;    0.448094;    0.448530;    0.449924;    0.449042;    0.447427;    0.446267;    0.444495;    0.439849;    0.438038;    0.435505;    0.432178;    0.425903;    0.423760;    0.417312;    0.407167;    0.399881;
 28;   16.050636;    1.011691;    0.901227;    0.870047;    0.821455;    0.768710;    0.728172;    0.670421;    0.621776;    0.557180;    0.475531;    0.400519;    0.400096;    0.382226;    0.383295;    0.386438;    0.386404;    0.391791;    0.398234;    0.403513;    0.406203;    0.409712;    0.413074;    0.416442;    0.422914;    0.426956;    0.429638;    0.432236;    0.434914;    0.437977;    0.441909;    0.444556;    0.447010;    0.448636;    0.451355;    0.452970;    0.452071;    0.451126;    0.450501;    0.450625;    0.448418;    0.445164;    0.442076;    0.438222;    0.435481;    0.431404;    0.424469;    0.418918;    0.413536;    0.403573;    0.396464;
 29;   15.988534;    1.022877;    0.905738;    0.870848;    0.835881;    0.786297;    0.743258;    0.683960;    0.619286;    0.540895;    0.469300;    0.398847;    0.394190;    0.382535;    0.384145;    0.386934;    0.387015;    0.393186;    0.399346;    0.405273;    0.410375;    0.414722;    0.416965;    0.419499;    0.423340;    0.426172;    0.430373;    0.433323;    0.438175;    0.440584;    0.441702;    0.444285;    0.445869;    0.447655;    0.447468;    0.449938;    0.450880;    0.451024;    0.451819;    0.449234;    0.447648;    0.447197;    0.443496;    0.439443;    0.434793;    0.428979;    0.426669;    0.422031;    0.414139;    0.405984;    0.400231;
 30;   15.904549;    1.011208;    0.905465;    0.876789;    0.832399;    0.791280;    0.737531;    0.696354;    0.634881;    0.559765;    0.496039;    0.409615;    0.403786;    0.389926;    0.391456;    0.395235;    0.394835;    0.400272;    0.406109;    0.412592;    0.416892;    0.421245;    0.425489;    0.429188;    0.431055;    0.435605;    0.440050;    0.443552;    0.446156;    0.448411;    0.450188;    0.453508;    0.456711;    0.457766;    0.459976;    0.462472;    0.462474;    0.462449;    0.460141;    0.460750;    0.458926;    0.456812;    0.457530;    0.455470;    0.450583;    0.442806;    0.434694;    0.430459;    0.423564;    0.413669;    0.404265;
 31;   15.936069;    1.005329;    0.900919;    0.864262;    0.826331;    0.778874;    0.742946;    0.684355;    0.622797;    0.559372;    0.484582;    0.407313;    0.407110;    0.387134;    0.388352;    0.390822;    0.389803;    0.395632;    0.399448;    0.405434;    0.410480;    0.414338;    0.417916;    0.421962;    0.425622;    0.429235;    0.430941;    0.433175;    0.435281;    0.439745;    0.444506;    0.447232;    0.448154;    0.446590;    0.448831;    0.451921;    0.451147;    0.450229;    0.448608;    0.440986;    0.441051;    0.439910;    0.439168;    0.437926;    0.434833;    0.431097;    0.425234;    0.416870;    0.414333;    0.408662;    0.400361;
 32;   15.952254;    0.998006;    0.904410;    0.862928;    0.828088;    0.786304;    0.718416;    0.676491;    0.619914;    0.542973;    0.470948;    0.403311;    0.407138;    0.385937;    0.386268;    0.389622;    0.389603;    0.395751;    0.401253;    0.407398;    0.412511;    0.416385;    0.421789;    0.426299;    0.430394;    0.434624;    0.437279;    0.440294;    0.441203;    0.443203;    0.444432;    0.445691;    0.448031;    0.450428;    0.451211;    0.450600;    0.449539;    0.449631;    0.449372;    0.450127;    0.448938;    0.447659;    0.446090;    0.439771;    0.433674;    0.433581;    0.428736;    0.423338;    0.417401;    0.410389;    0.401679;
 33;   15.956779;    0.997988;    0.886624;    0.849676;    0.813015;    0.771161;    0.710126;    0.667704;    0.609491;    0.553266;    0.486791;    0.397753;    0.389622;    0.380053;    0.381500;    0.382619;    0.383475;    0.388694;    0.394912;    0.399946;    0.405529;    0.409790;    0.414766;    0.417460;    0.421460;    0.425207;    0.427488;    0.431615;    0.434968;    0.439841;    0.442462;    0.445051;    0.447771;    0.450202;    0.452247;    0.451892;    0.450971;    0.448462;    0.450103;    0.450108;    0.448941;    0.444466;    0.439593;    0.436582;    0.430004;    0.427874;    0.420800;    0.416580;    0.406794;    0.402031;    0.395335;
 34;   16.220578;    1.019718;    0.907904;    0.876985;    0.840695;    0.781482;    0.725271;    0.679969;    0.624699;    0.553107;    0.481866;    0.405599;    0.404503;    0.387577;    0.387904;    0.392587;    0.389529;    0.394928;    0.399116;    0.403534;    0.409394;    0.413442;    0.416930;    0.423130;    0.428484;    0.432821;    0.436579;    0.440020;    0.442129;    0.445157;    0.447511;    0.448372;    0.450468;    0.450987;    0.452338;    0.450542;    0.451908;    0.452965;    0.453593;    0.452775;    0.450801;    0.446478;    0.444125;    0.440553;    0.435589;    0.430835;    0.423138;    0.419429;    0.415339;    0.406463;    0.398177;
 35;   17.009274;    1.000431;    0.900338;    0.872586;    0.822149;    0.769296;    0.717002;    0.663020;    0.621324;    0.559917;    0.489473;    0.404359;    0.396741;    0.388475;    0.389467;    0.392534;    0.391216;    0.396322;    0.403610;    0.409541;    0.412689;    0.417627;    0.421419;    0.426476;    0.430529;    0.435957;    0.439907;    0.442830;    0.443682;    0.447302;    0.449383;    0.452724;    0.454480;    0.455828;    0.457609;    0.458839;    0.460880;    0.460119;    0.457995;    0.453911;    0.451334;    0.450748;    0.450049;    0.446392;    0.439524;    0.436391;    0.430082;    0.427173;    0.421350;    0.411826;    0.404161;
 36;   15.922469;    0.982781;    0.894053;    0.864437;    0.815421;    0.772144;    0.730754;    0.677748;    0.604218;    0.537792;    0.484437;    0.399106;    0.392998;    0.384388;    0.385710;    0.386659;    0.387649;    0.393871;    0.398799;    0.404724;    0.409731;    0.413859;    0.418315;    0.422406;    0.426573;    0.429481;    0.429894;    0.431904;    0.436220;    0.440695;    0.443612;    0.444193;    0.443902;    0.446451;    0.446590;    0.448440;    0.448878;    0.448719;    0.448821;    0.447531;    0.444504;    0.440386;    0.439504;    0.438990;    0.437269;    0.433960;    0.429675;    0.421047;    0.410428;    0.403746;    0.398853;
 37;   15.958127;    0.993142;    0.895983;    0.863387;    0.819226;    0.764809;    0.717775;    0.671793;    0.610111;    0.545489;    0.475504;    0.404949;    0.400447;    0.386034;    0.387435;    0.390331;    0.390197;    0.395460;    0.401280;    0.405523;    0.411034;    0.416114;    0.420253;    0.424451;    0.429026;    0.432459;    0.435687;    0.440541;    0.443581;    0.447944;    0.449855;    0.451914;    0.453195;    0.455811;    0.459109;    0.459936;    0.459284;    0.458278;    0.453990;    0.452782;    0.452690;    0.448821;    0.441846;    0.438839;    0.435951;    0.433437;    0.428224;    0.419308;    0.416537;    0.409591;    0.400092;
 38;   15.804585;    0.997394;    0.893020;    0.856602;    0.811633;    0.770201;    0.721911;    0.663416;    0.612426;    0.541555;    0.469313;    0.405022;    0.405498;    0.388699;    0.389118;    0.392558;    0.392174;    0.397192;    0.402783;    0.407735;    0.412207;    0.416569;    0.421710;    0.424693;    0.429413;    0.432376;    0.433307;    0.437729;    0.442042;    0.446210;    0.448755;    0.451123;    0.453484;    0.454498;    0.454691;    0.454269;    0.455239;    0.455413;    0.457233;    0.456713;    0.454710;    0.452113;    0.450461;    0.447878;    0.443197;    0.438654;    0.435786;    0.429748;    0.421353;    0.411926;    0.405489;
 39;   15.913778;    0.976200;    0.883698;    0.851971;    0.808904;    0.764150;    0.707492;    0.654210;    0.597135;    0.534584;    0.476863;    0.407071;    0.406746;    0.387540;    0.388293;    0.390694;    0.390928;    0.396756;    0.400623;    0.406085;    0.411262;    0.416347;    0.420666;    0.423610;    0.427406;    0.431550;    0.433400;    0.438562;    0.443476;    0.446227;    0.447268;    0.449156;    0.452017;    0.452278;    0.452264;    0.452643;    0.453974;    0.453841;    0.451772;    0.451575;    0.448679;    0.449576;    0.448305;    0.445858;    0.441700;    0.438704;    0.434204;    0.429228;    0.425158;    0.418341;    0.407594;
 40;   15.917527;    1.001972;    0.899712;    0.860222;    0.827023;    0.781277;    0.732995;    0.666694;    0.599935;    0.546057;    0.469528;    0.400969;    0.399977;    0.380889;    0.381557;    0.384416;    0.383621;    0.389680;    0.394656;    0.398333;    0.403745;    0.408289;    0.412807;    0.416467;    0.420878;    0.424865;    0.428114;    0.430005;    0.434253;    0.439174;    0.441397;    0.442631;    0.443269;    0.442678;    0.443826;    0.443898;    0.443190;    0.440713;    0.441628;    0.440533;    0.437389;    0.435816;    0.435002;    0.432428;    0.429422;    0.427890;    0.425330;    0.420118;    0.411823;    0.400446;    0.392121;
 41;   15.890728;    0.993440;    0.891862;    0.861058;    0.810882;    0.777022;    0.721386;    0.660296;    0.608617;    0.539280;    0.475602;    0.401495;    0.403064;    0.386893;    0.388797;    0.390810;    0.390136;    0.394980;    0.401595;    0.407763;    0.412201;    0.417622;    0.421471;    0.425503;    0.429510;    0.431815;    0.436011;    0.439500;    0.441986;    0.444541;    0.445064;    0.447494;    0.449307;    0.449722;    0.450116;    0.451504;    0.451313;    0.449809;    0.449934;    0.450853;    0.450621;    0.448953;    0.445727;    0.444169;    0.440121;    0.434732;    0.427781;    0.419105;    0.416291;    0.409958;    0.401299;
 42;   15.867727;    1.014948;    0.899505;    0.861468;    0.828319;    0.787829;    0.738411;    0.668392;    0.615136;    0.545241;    0.479480;    0.405073;    0.399430;    0.388244;    0.388894;    0.389977;    0.390822;    0.396153;    0.401686;    0.407684;    0.413991;    0.418040;    0.424198;    0.428022;    0.430922;    0.434041;    0.436278;    0.441243;    0.444322;    0.447177;    0.447467;    0.451125;    0.454577;    0.456090;    0.455991;    0.457255;    0.460068;    0.461140;    0.459484;    0.457021;    0.453789;    0.447398;    0.442613;    0.441648;    0.437673;    0.436074;    0.431157;    0.425320;    0.422844;    0.416187;    0.406825;
 43;   15.879684;    1.007847;    0.900498;    0.860324;    0.831100;    0.777851;    0.730231;    0.685377;    0.623464;    0.554267;    0.477963;    0.399826;    0.396888;    0.381384;    0.382715;    0.385570;    0.386938;    0.393489;    0.397691;    0.401897;    0.408010;    0.413620;    0.417493;    0.420397;    0.424951;    0.429165;    0.431897;    0.435930;    0.438948;    0.441964;    0.443899;    0.446386;    0.447620;    0.446580;    0.449139;    0.452070;    0.453023;    0.452570;    0.451300;    0.450157;    0.447143;    0.444741;    0.443198;    0.440418;    0.434527;    0.429230;    0.424274;    0.417681;    0.413385;    0.403824;    0.398822;
 44;   15.852487;    1.007025;    0.906118;    0.871190;    0.847834;    0.801263;    0.741784;    0.687578;    0.628099;    0.553363;    0.473171;    0.405258;    0.406034;    0.391751;    0.392767;    0.394754;    0.394034;    0.399648;    0.406002;    0.412273;    0.417513;    0.422698;    0.427534;    0.430408;    0.434477;    0.438673;    0.442569;    0.445888;    0.447172;    0.447542;    0.450302;    0.452561;    0.455725;    0.457481;    0.460663;    0.461817;    0.462229;    0.461658;    0.459215;    0.454119;    0.455057;    0.452088;    0.447297;    0.442313;    0.440775;    0.435786;    0.432534;    0.427052;    0.422444;    0.415848;    0.406532;
 45;   15.988518;    0.991445;    0.889546;    0.848382;    0.803624;    0.764345;    0.726518;    0.678937;    0.618341;    0.544417;    0.484145;    0.407681;    0.406597;    0.389974;    0.390914;    0.394084;    0.393691;    0.399777;    0.406203;    0.411161;    0.416736;    0.421743;    0.427214;    0.432138;    0.435023;    0.439886;    0.443037;    0.445902;    0.447737;    0.451644;    0.454713;    0.457486;    0.460203;    0.461495;    0.461664;    0.462044;    0.462888;    0.463117;    0.462707;    0.462160;    0.462385;    0.461392;    0.458089;    0.451908;    0.446040;    0.440124;    0.434739;    0.427840;    0.419205;    0.413472;    0.403642;
 46;   15.940865;    1.007894;    0.898735;    0.853371;    0.819909;    0.783325;    0.724095;    0.674830;    0.617073;    0.540584;    0.470683;    0.397501;    0.395618;    0.381807;    0.382945;    0.385606;    0.385522;    0.391235;    0.395418;    0.400883;    0.405493;    0.409626;    0.414826;    0.419400;    0.422195;    0.425914;    0.430936;    0.435355;    0.438068;    0.440843;    0.443049;    0.445696;    0.448609;    0.447642;    0.446947;    0.448751;    0.449609;    0.448559;    0.443995;    0.444937;    0.446154;    0.443867;    0.440688;    0.436668;    0.433526;    0.430606;    0.423863;    0.416056;    0.410335;    0.402120;    0.395269;
 47;   15.886199;    1.019485;    0.910091;    0.867534;    0.837658;    0.801752;    0.750211;    0.682633;    0.627210;    0.555757;    0.489617;    0.405833;    0.403234;    0.388759;    0.390059;    0.392338;    0.392715;    0.396189;    0.402770;    0.405767;    0.412549;    0.417541;    0.422177;    0.427020;    0.430647;    0.433142;    0.437505;    0.440379;    0.443398;    0.446200;    0.449279;    0.451755;    0.454404;    0.456974;    0.456899;    0.455697;    0.457775;    0.458357;    0.456200;    0.456653;    0.456029;    0.453650;    0.451587;    0.448847;    0.443089;    0.440688;    0.436178;    0.429677;    0.423352;    0.412086;    0.405269;
 48;   15.919536;    0.998048;    0.901841;    0.864398;    0.816250;    0.777666;    0.724526;    0.677467;    0.607503;    0.545045;    0.480891;    0.406431;    0.406148;    0.386732;    0.388146;    0.391555;    0.389276;    0.395065;    0.402771;    0.408842;    0.414006;    0.416184;    0.420544;    0.425253;    0.429014;    0.433251;    0.436158;    0.437137;    0.440751;    0.443588;    0.445583;    0.448528;    0.449837;    0.449091;    0.451229;    0.450373;    0.449936;    0.448878;    0.449892;    0.450968;    0.450510;    0.449311;    0.445566;    0.439431;    0.437146;    0.434414;    0.428244;    0.421432;    0.414591;    0.409621;    0.401513;
 49;   15.920181;    0.997481;    0.897708;    0.860090;    0.820117;    0.758879;    0.715841;    0.677473;    0.616950;    0.565062;    0.488150;    0.409439;    0.400446;    0.388775;    0.390158;    0.393645;    0.393618;    0.400181;    0.404813;    0.411765;    0.417344;    0.422222;    0.425620;    0.427737;    0.432318;    0.435552;    0.441024;    0.446948;    0.451184;    0.454088;    0.455761;    0.457512;    0.459216;    0.460577;    0.460450;    0.458152;    0.453160;    0.453583;    0.454130;    0.453031;    0.451426;    0.449884;    0.446981;    0.441757;    0.440080;    0.437046;    0.433133;    0.427230;    0.422993;    0.417161;    0.408073;
 50;   15.862622;    1.000925;    0.894340;    0.860914;    0.820170;    0.781751;    0.719845;    0.678848;    0.620569;    0.543112;    0.489438;    0.410759;    0.399384;    0.387030;    0.387913;    0.391281;    0.391826;    0.398189;    0.401252;    0.406859;    0.411517;    0.417547;    0.420399;    0.425452;    0.429610;    0.432169;    0.437996;    0.443010;    0.447035;    0.449984;    0.453040;    0.454681;    0.454335;    0.454169;    0.454048;    0.456103;    0.456947;    0.456533;    0.455918;    0.453311;    0.453876;    0.453007;    0.449789;    0.447805;    0.443902;    0.437636;    0.432289;    0.425659;    0.422490;    0.414347;    0.401819;
 51;   15.843795;    1.027697;    0.918846;    0.884350;    0.829602;    0.790144;    0.738252;    0.691743;    0.635130;    0.556547;    0.488367;    0.404945;    0.395455;    0.385926;    0.386565;    0.389223;    0.390122;    0.394868;    0.402312;    0.408671;    0.412891;    0.417834;    0.421700;    0.424759;    0.429372;    0.434134;    0.437320;    0.442556;    0.445242;    0.445460;    0.447254;    0.449160;    0.452129;    0.454562;    0.456032;    0.458216;    0.457154;    0.457772;    0.457009;    0.455389;    0.453305;    0.450512;    0.448319;    0.444634;    0.440906;    0.436475;    0.433443;    0.426086;    0.416050;    0.410601;    0.402576;
 52;   15.793044;    0.995892;    0.893588;    0.860779;    0.811438;    0.778139;    0.723281;    0.663627;    0.597721;    0.535039;    0.465825;    0.403634;    0.401750;    0.387295;    0.387924;    0.392662;    0.389932;    0.395134;    0.400909;    0.405468;    0.410517;    0.414270;    0.419616;    0.423544;    0.427766;    0.430549;    0.432343;    0.436024;    0.437743;    0.441409;    0.443687;    0.447665;    0.450754;    0.452261;    0.450918;    0.448216;    0.450188;    0.450817;    0.449414;    0.450203;    0.447954;    0.444652;    0.445219;    0.441720;    0.437102;    0.435936;    0.431579;    0.424667;    0.418207;    0.409110;    0.400205;
 53;   15.863583;    0.990620;    0.904365;    0.862302;    0.835142;    0.784790;    0.729331;    0.681203;    0.625249;    0.552066;    0.490417;    0.402057;    0.401389;    0.383803;    0.384484;    0.387067;    0.387377;    0.393505;    0.400166;    0.405034;    0.408439;    0.413153;    0.418216;    0.422563;    0.426536;    0.428486;    0.432921;    0.435784;    0.438483;    0.442915;    0.445809;    0.447171;    0.449762;    0.450284;    0.451163;    0.450968;    0.451448;    0.451910;    0.450110;    0.445283;    0.447321;    0.447996;    0.445769;    0.440350;    0.434523;    0.429587;    0.427248;    0.423732;    0.417324;    0.408609;    0.400365;
 54;   15.839563;    1.009754;    0.904183;    0.857516;    0.821490;    0.778277;    0.738285;    0.690341;    0.627006;    0.545474;    0.470568;    0.400476;    0.395890;    0.382548;    0.383818;    0.385787;    0.386384;    0.392553;    0.397822;    0.402956;    0.409821;    0.414585;    0.417791;    0.423330;    0.428643;    0.433165;    0.436412;    0.437767;    0.438469;    0.441001;    0.444845;    0.447679;    0.450705;    0.453568;    0.454723;    0.454465;    0.453110;    0.450737;    0.449961;    0.447789;    0.447218;    0.446486;    0.442940;    0.439195;    0.436428;    0.432064;    0.428268;    0.422444;    0.414304;    0.402561;    0.396786;
 55;   16.008193;    0.987135;    0.881554;    0.851913;    0.819489;    0.774215;    0.719684;    0.670151;    0.623252;    0.559234;    0.481800;    0.406995;    0.407152;    0.385635;    0.386315;    0.388971;    0.389408;    0.394959;    0.400027;    0.406264;    0.411771;    0.416822;    0.421684;    0.426170;    0.428649;    0.432618;    0.436916;    0.439528;    0.441323;    0.444491;    0.449191;    0.452348;    0.453340;    0.455620;    0.456103;    0.455412;    0.454075;    0.454099;    0.453805;    0.450544;    0.450155;    0.448199;    0.445715;    0.443108;    0.439056;    0.435499;    0.430810;    0.424177;    0.414393;    0.408121;    0.399752;
 56;   15.849723;    0.993503;    0.888855;    0.851506;    0.804498;    0.757330;    0.704699;    0.654529;    0.594407;    0.538943;    0.474404;    0.408411;    0.398953;    0.387030;    0.387828;    0.390963;    0.390238;    0.395445;    0.400599;    0.405081;    0.410664;    0.414902;    0.420193;    0.424843;    0.429037;    0.432663;    0.436344;    0.440190;    0.442387;    0.443827;    0.446068;    0.449653;    0.450651;    0.451205;    0.451820;    0.450730;    0.450608;    0.452009;    0.452317;    0.451985;    0.451513;    0.449080;    0.446308;    0.441271;    0.438130;    0.435654;    0.428658;    0.419954;    0.413764;    0.408478;    0.401447;
 57;   15.856378;    1.015561;    0.911911;    0.876874;    0.829844;    0.790298;    0.729118;    0.675685;    0.617064;    0.548918;    0.486238;    0.408181;    0.407415;    0.390255;    0.391505;    0.396319;    0.394110;    0.399624;    0.402901;    0.407081;    0.413170;    0.416576;    0.422207;    0.426362;    0.430283;    0.432859;    0.437374;    0.439156;    0.440292;    0.442992;    0.446732;    0.449493;    0.451371;    0.453829;    0.455041;    0.455771;    0.455274;    0.457803;    0.457457;    0.455520;    0.452458;    0.448489;    0.448940;    0.447919;    0.444386;    0.442772;    0.438021;    0.430284;    0.418892;    0.410804;    0.405410;
 58;   15.683988;    1.006188;    0.901666;    0.860877;    0.817495;    0.779139;    0.723762;    0.680718;    0.618257;    0.553473;    0.486182;    0.405446;    0.402670;    0.389529;    0.391346;    0.395470;    0.394127;    0.398941;    0.405308;    0.409370;    0.414709;    0.419381;    0.424622;    0.429005;    0.433458;    0.437392;    0.440993;    0.444023;    0.447190;    0.448747;    0.449305;    0.452510;    0.452784;    0.456160;    0.457798;    0.457956;    0.458104;    0.456440;    0.455888;    0.456201;    0.455235;    0.451829;    0.448461;    0.444452;    0.441922;    0.437721;    0.432127;    0.427949;    0.421340;    0.412305;    0.403076;
 59;   15.901942;    0.995904;    0.898731;    0.855621;    0.808882;    0.773877;    0.727792;    0.660704;    0.601353;    0.547922;    0.490832;    0.403744;    0.392848;    0.383374;    0.384122;    0.387221;    0.387678;    0.393239;    0.399685;    0.404892;    0.409781;    0.414728;    0.418254;    0.423769;    0.428232;    0.431966;    0.435558;    0.439087;    0.443142;    0.445524;    0.446061;    0.446998;    0.445457;    0.448513;    0.451041;    0.451354;    0.452318;    0.451745;    0.453259;    0.454118;    0.452442;    0.450771;    0.447012;    0.443190;    0.438604;    0.436127;    0.430628;    0.424473;    0.416787;    0.408939;    0.401816;
 60;   15.756365;    1.004579;    0.902203;    0.868528;    0.829794;    0.783056;    0.740328;    0.686386;    0.614282;    0.541779;    0.474819;    0.406869;    0.406433;    0.389530;    0.390361;    0.391989;    0.392628;    0.399707;    0.405356;    0.410541;    0.414985;    0.419154;    0.422916;    0.428974;    0.432273;    0.435083;    0.439897;    0.441940;    0.445292;    0.449129;    0.451513;    0.453000;    0.454383;    0.457578;    0.459300;    0.458491;    0.458817;    0.457991;    0.456938;    0.456925;    0.456532;    0.454356;    0.448934;    0.447012;    0.444707;    0.439763;    0.432723;    0.428653;    0.421357;    0.414859;    0.405382;
 61;   15.858609;    0.996137;    0.895368;    0.858313;    0.826161;    0.786592;    0.726648;    0.681535;    0.622711;    0.559355;    0.483889;    0.407682;    0.400397;    0.391366;    0.392141;    0.395221;    0.393941;    0.399670;    0.406465;    0.412829;    0.416914;    0.419365;    0.425060;    0.429934;    0.433168;    0.436526;    0.439627;    0.443810;    0.446910;    0.449348;    0.452188;    0.454030;    0.454075;    0.454830;    0.456454;    0.458491;    0.459875;    0.460524;    0.459290;    0.455206;    0.454058;    0.450067;    0.447368;    0.444029;    0.438928;    0.434536;    0.431115;    0.425385;    0.421189;    0.414636;    0.405593;
 62;   15.866989;    0.992271;    0.889239;    0.856348;    0.814921;    0.762445;    0.710892;    0.668032;    0.602635;    0.535423;    0.473243;    0.403190;    0.407486;    0.384758;    0.386054;    0.388474;    0.387930;    0.393814;    0.399227;    0.403868;    0.407652;    0.414126;    0.418690;    0.423059;    0.426111;    0.429366;    0.431659;    0.433729;    0.435741;    0.439520;    0.441654;    0.444466;    0.446009;    0.447468;    0.447867;    0.448072;    0.448354;    0.450285;    0.450799;    0.450996;    0.448245;    0.446969;    0.444335;    0.442068;    0.438949;    0.433386;    0.426512;    0.419257;    0.413235;    0.409037;    0.399652;
 63;   15.825007;    1.000242;    0.889876;    0.852896;    0.802594;    0.763358;    0.710274;    0.671863;    0.620453;    0.565955;    0.493010;    0.408416;    0.406982;    0.387076;    0.388052;    0.389973;    0.391120;    0.397681;    0.403136;    0.405000;    0.410191;    0.416157;    0.420548;    0.422807;    0.427038;    0.430587;    0.434755;    0.438104;    0.441289;    0.446379;    0.449590;    0.451006;    0.452534;    0.455041;    0.456586;    0.456064;    0.454893;    0.453166;    0.452892;    0.453158;    0.452940;    0.452338;    0.450706;    0.449041;    0.444760;    0.439121;    0.430719;    0.419783;    0.412601;    0.408208;    0.402796;
 64;   15.835054;    1.004990;    0.901339;    0.873241;    0.822996;    0.785266;    0.738956;    0.692579;    0.631608;    0.563472;    0.484105;    0.407475;    0.406906;    0.390150;    0.391174;    0.392724;    0.392925;    0.399555;    0.404924;    0.410044;    0.414955;    0.419415;    0.423372;    0.428680;    0.433069;    0.437182;    0.440220;    0.443359;    0.447985;    0.451163;    0.452200;    0.455739;    0.460237;    0.463297;    0.465152;    0.465490;    0.466582;    0.467237;    0.465186;    0.461165;    0.459263;    0.456400;    0.454644;    0.450529;    0.447553;    0.440698;    0.436214;    0.429435;    0.420461;    0.411789;    0.408051;
 65;   15.847660;    0.979113;    0.884604;    0.845104;    0.813307;    0.768935;    0.726644;    0.658494;    0.600956;    0.541486;    0.470826;    0.405601;    0.397624;    0.386819;    0.388732;    0.390965;    0.390613;    0.395506;    0.399245;    0.405548;    0.409934;    0.414915;    0.420788;    0.425298;    0.429427;    0.434091;    0.436826;    0.439118;    0.441170;    0.443160;    0.444196;    0.445442;    0.448728;    0.450752;    0.452290;    0.453757;    0.454906;    0.455093;    0.454008;    0.451976;    0.450971;    0.448477;    0.446230;    0.444258;    0.439992;    0.438859;    0.435911;    0.429246;    0.419870;    0.412390;    0.402577;
 66;   15.860342;    1.002150;    0.903082;    0.870669;    0.831144;    0.783408;    0.732159;    0.689465;    0.623074;    0.548032;    0.487475;    0.406272;    0.407276;    0.386754;    0.386645;    0.388504;    0.389422;    0.394822;    0.399255;    0.403742;    0.409290;    0.415080;    0.420153;    0.424038;    0.428746;    0.433106;    0.434737;    0.435251;    0.437029;    0.440952;    0.444280;    0.448516;    0.452027;    0.454757;    0.456347;    0.457125;    0.456080;    0.457500;    0.457519;    0.456457;    0.453054;    0.451004;    0.445710;    0.443254;    0.436523;    0.430989;    0.428011;    0.420296;    0.416547;    0.408367;    0.400969;
 67;   15.814296;    0.994955;    0.898425;    0.854001;    0.818694;    0.776615;    0.724202;    0.652538;    0.602887;    0.539778;    0.481390;    0.406033;    0.402915;    0.391316;    0.391935;    0.393949;    0.394093;    0.399911;    0.404842;    0.409758;    0.415171;    0.418563;    0.421393;    0.424349;    0.430146;    0.434429;    0.438155;    0.442095;    0.444962;    0.446857;    0.449613;    0.452080;    0.453994;    0.455532;    0.454459;    0.455760;    0.456184;    0.457102;    0.455008;    0.451786;    0.453348;    0.453295;    0.450732;    0.446290;    0.440387;    0.437938;    0.431341;    0.424211;    0.418153;    0.414293;    0.405688;
 68;   15.782168;    1.001910;    0.899924;    0.863573;    0.813009;    0.772785;    0.724398;    0.684401;    0.610474;    0.556874;    0.479872;    0.406023;    0.400611;    0.387461;    0.388477;    0.391527;    0.390882;    0.397038;    0.400951;    0.406408;    0.411952;    0.414919;    0.420262;    0.422980;    0.427633;    0.433509;    0.437427;    0.440541;    0.444575;    0.446883;    0.447333;    0.447495;    0.451154;    0.454124;    0.457237;    0.459466;    0.460716;    0.461380;    0.460559;    0.458907;    0.455346;    0.454510;    0.455086;    0.453002;    0.450447;    0.442699;    0.437232;    0.430264;    0.419883;    0.413780;    0.404262;
 69;   15.728858;    0.993962;    0.901488;    0.862254;    0.828766;    0.788990;    0.753926;    0.704398;    0.642983;    0.567576;    0.486769;    0.412087;    0.411487;    0.394596;    0.394903;    0.397720;    0.396931;    0.401709;    0.408885;    0.413636;    0.419132;    0.423938;    0.429380;    0.433454;    0.436445;    0.441166;    0.445483;    0.449442;    0.452385;    0.456016;    0.458719;    0.459575;    0.459971;    0.462241;    0.462193;    0.462967;    0.460659;    0.462059;    0.462073;    0.461114;    0.459285;    0.457367;    0.454132;    0.449988;    0.448398;    0.442384;    0.438348;    0.434439;    0.430524;    0.422351;    0.410850;
 70;   15.722933;    1.013666;    0.911285;    0.869080;    0.837673;    0.786100;    0.728327;    0.667652;    0.616411;    0.540448;    0.471946;    0.404904;    0.398984;    0.391023;    0.391589;    0.394474;    0.393441;    0.399101;    0.405091;    0.409714;    0.415661;    0.420407;    0.424211;    0.430003;    0.433554;    0.435358;    0.439123;    0.443941;    0.446474;    0.449712;    0.450909;    0.451329;    0.451389;    0.454662;    0.456686;    0.457367;    0.457118;    0.456223;    0.454468;    0.450766;    0.450720;    0.446605;    0.446614;    0.446103;    0.444602;    0.442273;    0.437993;    0.433326;    0.427402;    0.419068;    0.406602;
 71;   15.910011;    1.003456;    0.899031;    0.859519;    0.815771;    0.776641;    0.727305;    0.673605;    0.624748;    0.548555;    0.471948;    0.404866;    0.401670;    0.388531;    0.388990;    0.391317;    0.391527;    0.397624;    0.402698;    0.407398;    0.413208;    0.418033;    0.422353;    0.428288;    0.432916;    0.437622;    0.442085;    0.444425;    0.446224;    0.450207;    0.454226;    0.456095;    0.456304;    0.456484;    0.455083;    0.452526;    0.451659;    0.452790;    0.452847;    0.452661;    0.451972;    0.449166;    0.447902;    0.445900;    0.443055;    0.439196;    0.434907;    0.429670;    0.420072;    0.412897;    0.404544;
 72;   15.718217;    1.007979;    0.901397;    0.872903;    0.836524;    0.788310;    0.740819;    0.682198;    0.626237;    0.547728;    0.491009;    0.403963;    0.403520;    0.387946;    0.389399;    0.391586;    0.391136;    0.396344;    0.401250;    0.407022;    0.412860;    0.417638;    0.421798;    0.425406;    0.430007;    0.434176;    0.437423;    0.442157;    0.445357;    0.447651;    0.452133;    0.454851;    0.454760;    0.454675;    0.454840;    0.453879;    0.455136;    0.455820;    0.455498;    0.455384;    0.453314;    0.450114;    0.445961;    0.441220;    0.438774;    0.434931;    0.430274;    0.424805;    0.416414;    0.410660;    0.402124;
 73;   15.835263;    1.031975;    0.922645;    0.891979;    0.840311;    0.799862;    0.763623;    0.707378;    0.629912;    0.567339;    0.484413;    0.415710;    0.410739;    0.393140;    0.395015;    0.399794;    0.398700;    0.403171;    0.408223;    0.415513;    0.420985;    0.424793;    0.428865;    0.432241;    0.435907;    0.439813;    0.441978;    0.447217;    0.451070;    0.453473;    0.457216;    0.461656;    0.463869;    0.465917;    0.467173;    0.466812;    0.464985;    0.463276;    0.463244;    0.461303;    0.461201;    0.461266;    0.459984;    0.456171;    0.449721;    0.444840;    0.438156;    0.434187;    0.430453;    0.422412;    0.409541;
 74;   15.919195;    1.008022;    0.896303;    0.855875;    0.827240;    0.781374;    0.724446;    0.671298;    0.615765;    0.546193;    0.477247;    0.409184;    0.408453;    0.392438;    0.393978;    0.396534;    0.395880;    0.402053;    0.408205;    0.414347;    0.420680;    0.425437;    0.428902;    0.433911;    0.437785;    0.441848;    0.444318;    0.448691;    0.451930;    0.454306;    0.456768;    0.458772;    0.461750;    0.465669;    0.468471;    0.469818;    0.470698;    0.469322;    0.469568;    0.468545;    0.466537;    0.462038;    0.459838;    0.456285;    0.450306;    0.446435;    0.439153;    0.436229;    0.428910;    0.419694;    0.409900;
 75;   15.751688;    0.990475;    0.887677;    0.848531;    0.812845;    0.774975;    0.732193;    0.669986;    0.602721;    0.539187;    0.472879;    0.399587;    0.397905;    0.381456;    0.382756;    0.385996;    0.385771;    0.390437;    0.395810;    0.401964;    0.407063;    0.411709;    0.417736;    0.421999;    0.426728;    0.430638;    0.433456;    0.437233;    0.440577;    0.442280;    0.443230;    0.441729;    0.444151;    0.446835;    0.449000;    0.449614;    0.450300;    0.449210;    0.444973;    0.443024;    0.443411;    0.440596;    0.440340;    0.439000;    0.436060;    0.431628;    0.426320;    0.419111;    0.413906;    0.405186;    0.398102;
 76;   15.802511;    1.010072;    0.900155;    0.870855;    0.819194;    0.780661;    0.717696;    0.674915;    0.607191;    0.557752;    0.485881;    0.407238;    0.401987;    0.391241;    0.392756;    0.394481;    0.394591;    0.400066;    0.405248;    0.410406;    0.414341;    0.420005;    0.423908;    0.428536;    0.432657;    0.436925;    0.440498;    0.444256;    0.447678;    0.452494;    0.455335;    0.457269;    0.458745;    0.459276;    0.461091;    0.463404;    0.464732;    0.464972;    0.465220;    0.464335;    0.459757;    0.457433;    0.453461;    0.445895;    0.442466;    0.439065;    0.434484;    0.431940;    0.426337;    0.416719;    0.406051;
 77;   15.887656;    0.973180;    0.874362;    0.833105;    0.799206;    0.757573;    0.713391;    0.656722;    0.594771;    0.542055;    0.467236;    0.398953;    0.399652;    0.380500;    0.381202;    0.382516;    0.383551;    0.388864;    0.394634;    0.399463;    0.405408;    0.409669;    0.414743;    0.419265;    0.423976;    0.428306;    0.431491;    0.435058;    0.436243;    0.439684;    0.442848;    0.444963;    0.447407;    0.450320;    0.450456;    0.449919;    0.451474;    0.450654;    0.448936;    0.446377;    0.444201;    0.442965;    0.439290;    0.435243;    0.433067;    0.429795;    0.424936;    0.418303;    0.412484;    0.406790;    0.397000;
 78;   15.755765;    0.989690;    0.895207;    0.854626;    0.816672;    0.770766;    0.722439;    0.660732;    0.596037;    0.533329;    0.478826;    0.404897;    0.405650;    0.386814;    0.387978;    0.390011;    0.389355;    0.394752;    0.401161;    0.405733;    0.412160;    0.415656;    0.420623;    0.424349;    0.426887;    0.432803;    0.437524;    0.441246;    0.444073;    0.446794;    0.450097;    0.450554;    0.452534;    0.452424;    0.453398;    0.453470;    0.455338;    0.455966;    0.455597;    0.453589;    0.448114;    0.447618;    0.445074;    0.440632;    0.438566;    0.434670;    0.432060;    0.424914;    0.417675;    0.412705;    0.404621;
 79;   15.859606;    1.003665;    0.901519;    0.855425;    0.816712;    0.780301;    0.716126;    0.661233;    0.617517;    0.553272;    0.466568;    0.398837;    0.398443;    0.382644;    0.383603;    0.385449;    0.385943;    0.392456;    0.397596;    0.401014;    0.406468;    0.411261;    0.415165;    0.419426;    0.423927;    0.426851;    0.430622;    0.434823;    0.437925;    0.440429;    0.441844;    0.443421;    0.446189;    0.449750;    0.451044;    0.449901;    0.448946;    0.446504;    0.446091;    0.447858;    0.447201;    0.443765;    0.438938;    0.434306;    0.428414;    0.423006;    0.421066;    0.414515;    0.410728;    0.404961;    0.397736;
 80;   15.754573;    0.984510;    0.879166;    0.854412;    0.814433;    0.766596;    0.711540;    0.651035;    0.604157;    0.537781;    0.467440;    0.396296;    0.394646;    0.378770;    0.379611;    0.380500;    0.382121;    0.386173;    0.390927;    0.398191;    0.403986;    0.408275;    0.411587;    0.415209;    0.418774;    0.423353;    0.427056;    0.430529;    0.434224;    0.436321;    0.436691;    0.438338;    0.439219;    0.441377;    0.442842;    0.442793;    0.443737;    0.443194;    0.445161;    0.444828;    0.443995;    0.440551;    0.435556;    0.434482;    0.430445;    0.426630;    0.420024;    0.417534;    0.410586;    0.402725;    0.392654;
 81;   15.865198;    0.989032;    0.888514;    0.853889;    0.807853;    0.766038;    0.721313;    0.679581;    0.626570;    0.559452;    0.477663;    0.403287;    0.395212;    0.386632;    0.387303;    0.390698;    0.390207;    0.395979;    0.398932;    0.403920;    0.409392;    0.414914;    0.420419;    0.423976;    0.427075;    0.432048;    0.435027;    0.437543;    0.439226;    0.440762;    0.444237;    0.447481;    0.449152;    0.450322;    0.450369;    0.452824;    0.453424;    0.452229;    0.450990;    0.448812;    0.448662;    0.447495;    0.444976;    0.442513;    0.440251;    0.435916;    0.429290;    0.420042;    0.413113;    0.407044;    0.396931;
 82;   15.723721;    0.983895;    0.882193;    0.854832;    0.815660;    0.776889;    0.734490;    0.687263;    0.623515;    0.549523;    0.475081;    0.400019;    0.399028;    0.382338;    0.383797;    0.387005;    0.385563;    0.392343;    0.398410;    0.403435;    0.406548;    0.410817;    0.414185;    0.418247;    0.420728;    0.423580;    0.428004;    0.431232;    0.435586;    0.438843;    0.442013;    0.443007;    0.442061;    0.440895;    0.443447;    0.445068;    0.445645;    0.445126;    0.444375;    0.445541;    0.444993;    0.445465;    0.441527;    0.436149;    0.431257;    0.428552;    0.423831;    0.414844;    0.409944;    0.404893;    0.396303;
 83;   15.840795;    0.977496;    0.883938;    0.844077;    0.804418;    0.770132;    0.730632;    0.679928;    0.627107;    0.554996;    0.483837;    0.406017;    0.397946;    0.388801;    0.390628;    0.392657;    0.392345;    0.397120;    0.402053;    0.406087;    0.412030;    0.417525;    0.421687;    0.425770;    0.429724;    0.432311;    0.437461;    0.441563;    0.443338;    0.446738;    0.448691;    0.450152;    0.452776;    0.456315;    0.457498;    0.457824;    0.456640;    0.456838;    0.456932;    0.456413;    0.455577;    0.455201;    0.452666;    0.448291;    0.441564;    0.438600;    0.434717;    0.428143;    0.422612;    0.414763;    0.403191;
 84;   15.775769;    0.996051;    0.906537;    0.871381;    0.829198;    0.780262;    0.727287;    0.682219;    0.624595;    0.544039;    0.480817;    0.405276;    0.403444;    0.390017;    0.391434;    0.394049;    0.393254;    0.398353;    0.404137;    0.410487;    0.415080;    0.419026;    0.424374;    0.427817;    0.432278;    0.435948;    0.438525;    0.439051;    0.441955;    0.446043;    0.449214;    0.451801;    0.453665;    0.453920;    0.453214;    0.454055;    0.452582;    0.455186;    0.455745;    0.455336;    0.451878;    0.450738;    0.447208;    0.444455;    0.441588;    0.438400;    0.433790;    0.428364;    0.420276;    0.413710;    0.405406;
 85;   15.867126;    1.004950;    0.909038;    0.877573;    0.835414;    0.788884;    0.739558;    0.684554;    0.633124;    0.562158;    0.492963;    0.405797;    0.401646;    0.386956;    0.388168;    0.394083;    0.390510;    0.396364;    0.400971;    0.405507;    0.411449;    0.417729;    0.422301;    0.426752;    0.429136;    0.431696;    0.435163;    0.438047;    0.442261;    0.444657;    0.446576;    0.447966;    0.449116;    0.451046;    0.451021;    0.450596;    0.451115;    0.451404;    0.451687;    0.451889;    0.450993;    0.448862;    0.445413;    0.439495;    0.438474;    0.434708;    0.428722;    0.425966;    0.419441;    0.412790;    0.402422;
 86;   15.781523;    1.004368;    0.892030;    0.852921;    0.814730;    0.766811;    0.718439;    0.669117;    0.609739;    0.554567;    0.487019;    0.405908;    0.406375;    0.387382;    0.387787;    0.390923;    0.390988;    0.395447;    0.400421;    0.406960;    0.411252;    0.416760;    0.421418;    0.424270;    0.429518;    0.434208;    0.438213;    0.441317;    0.443084;    0.444969;    0.447601;    0.450285;    0.451925;    0.453885;    0.454276;    0.455691;    0.457209;    0.458395;    0.458303;    0.455026;    0.452637;    0.450017;    0.449093;    0.444108;    0.441579;    0.439361;    0.433222;    0.426710;    0.421850;    0.415168;    0.405032;
 87;   15.799931;    1.000219;    0.893885;    0.862272;    0.811270;    0.768033;    0.716223;    0.673379;    0.599845;    0.540732;    0.484031;    0.406503;    0.401893;    0.385621;    0.386825;    0.389076;    0.389783;    0.394590;    0.398798;    0.404897;    0.409702;    0.413097;    0.415445;    0.421370;    0.425561;    0.429324;    0.432228;    0.435623;    0.438887;    0.442615;    0.445266;    0.446708;    0.447514;    0.449478;    0.452618;    0.454157;    0.453945;    0.450328;    0.445654;    0.444247;    0.442930;    0.443142;    0.440539;    0.438402;    0.435680;    0.432801;    0.425789;    0.418562;    0.412158;    0.405288;    0.396586;
 88;   15.746576;    1.011028;    0.900794;    0.864733;    0.833472;    0.782713;    0.749008;    0.703026;    0.640578;    0.568831;    0.477294;    0.403842;    0.398627;    0.383142;    0.384422;    0.387261;    0.387540;    0.392026;    0.397503;    0.403444;    0.408882;    0.413104;    0.418273;    0.423007;    0.425454;    0.429199;    0.433600;    0.437772;    0.439329;    0.443303;    0.446064;    0.446003;    0.445384;    0.447382;    0.449843;    0.449950;    0.450566;    0.450083;    0.449590;    0.448885;    0.447157;    0.441609;    0.437987;    0.435121;    0.433544;    0.426934;    0.422410;    0.415624;    0.408811;    0.403973;    0.393765;
 89;   15.915522;    1.009352;    0.906145;    0.876589;    0.828586;    0.791579;    0.735928;    0.671804;    0.616850;    0.532984;    0.475886;    0.403273;    0.402800;    0.387563;    0.388891;    0.393675;    0.391882;    0.396919;    0.401298;    0.407154;    0.412295;    0.417160;    0.421043;    0.426670;    0.430075;    0.434323;    0.438645;    0.442237;    0.443400;    0.448511;    0.450817;    0.450689;    0.450165;    0.450229;    0.451597;    0.453411;    0.454738;    0.455402;    0.455798;    0.455895;    0.454767;    0.453688;    0.451974;    0.446243;    0.439107;    0.434192;    0.426315;    0.421829;    0.418723;    0.412396;    0.405234;
 90;   15.778731;    0.998262;    0.900047;    0.861506;    0.819471;    0.787096;    0.732899;    0.693697;    0.622250;    0.559100;    0.489343;    0.407784;    0.407707;    0.387128;    0.388135;    0.391245;    0.391571;    0.397796;    0.401690;    0.407328;    0.411245;    0.416027;    0.418967;    0.425464;    0.431054;    0.434567;    0.437051;    0.441455;    0.443571;    0.445439;    0.448818;    0.451025;    0.453436;    0.455400;    0.455269;    0.456989;    0.457235;    0.458042;    0.457821;    0.455826;    0.452457;    0.450158;    0.447635;    0.444184;    0.437841;    0.434238;    0.430141;    0.424647;    0.419289;    0.411553;    0.405637;
 91;   15.931594;    1.007897;    0.901196;    0.875508;    0.828569;    0.773444;    0.732232;    0.672882;    0.616548;    0.545718;    0.482259;    0.404348;    0.404447;    0.386851;    0.386760;    0.389798;    0.389587;    0.395969;    0.400962;    0.405656;    0.410406;    0.415394;    0.418506;    0.421664;    0.427242;    0.431566;    0.434246;    0.438871;    0.442365;    0.444396;    0.446284;    0.448848;    0.450578;    0.451611;    0.453307;    0.454527;    0.455251;    0.457153;    0.457244;    0.454497;    0.449125;    0.448089;    0.447983;    0.448501;    0.445130;    0.440744;    0.436008;    0.431703;    0.424388;    0.414049;    0.402759;
 92;   15.846565;    0.991790;    0.890111;    0.849231;    0.816661;    0.773426;    0.715245;    0.663749;    0.604885;    0.551127;    0.478425;    0.403220;    0.402394;    0.385629;    0.386919;    0.388553;    0.388599;    0.396462;    0.402903;    0.408224;    0.412839;    0.416500;    0.417806;    0.423139;    0.426809;    0.430385;    0.433005;    0.437602;    0.441828;    0.444800;    0.446377;    0.447695;    0.450079;    0.453783;    0.454483;    0.455041;    0.452747;    0.453305;    0.452579;    0.452247;    0.450359;    0.446160;    0.445794;    0.443189;    0.438913;    0.432571;    0.429920;    0.425274;    0.418507;    0.406944;    0.400244;
 93;   15.890790;    1.005581;    0.904917;    0.873623;    0.832105;    0.791894;    0.751250;    0.689692;    0.626314;    0.557675;    0.484256;    0.408146;    0.403202;    0.390890;    0.390916;    0.393373;    0.394060;    0.398276;    0.404191;    0.409027;    0.415830;    0.420527;    0.423942;    0.429292;    0.433676;    0.437327;    0.440955;    0.445144;    0.447526;    0.451423;    0.453952;    0.455128;    0.456450;    0.457210;    0.456621;    0.459320;    0.457980;    0.456979;    0.455418;    0.454538;    0.453374;    0.450568;    0.449862;    0.445887;    0.442766;    0.437238;    0.433762;    0.428614;    0.422405;    0.415020;    0.408169;
 94;   15.907459;    1.004125;    0.901626;    0.869612;    0.815657;    0.770546;    0.725612;    0.662530;    0.600277;    0.556100;    0.477207;    0.404232;    0.394934;    0.386143;    0.387131;    0.389522;    0.389556;    0.393942;    0.400166;    0.404972;    0.409323;    0.414056;    0.418601;    0.424022;    0.428868;    0.433661;    0.437040;    0.439826;    0.442354;    0.444159;    0.446352;    0.447041;    0.446837;    0.449571;    0.451182;    0.450023;    0.453322;    0.452995;    0.451593;    0.449491;    0.449115;    0.447443;    0.444985;    0.441620;    0.435001;    0.431508;    0.425943;    0.420144;    0.413051;    0.407597;    0.398891;
 95;   15.870900;    1.011890;    0.904861;    0.867462;    0.832997;    0.786351;    0.745905;    0.685951;    0.623611;    0.566081;    0.480808;    0.406945;    0.402799;    0.388936;    0.390118;    0.394518;    0.393091;    0.399617;    0.403697;    0.408385;    0.413139;    0.418186;    0.424121;    0.429405;    0.432571;    0.434664;    0.440599;    0.444306;    0.446346;    0.449296;    0.452736;    0.454799;    0.456561;    0.459806;    0.460039;    0.460690;    0.461838;    0.462548;    0.462062;    0.457892;    0.452256;    0.451982;    0.450625;    0.449232;    0.448245;    0.444585;    0.437550;    0.432037;    0.424855;    0.414756;    0.407485;
 96;   15.805261;    0.998097;    0.887523;    0.852512;    0.824403;    0.777486;    0.737355;    0.677605;    0.611690;    0.556304;    0.475399;    0.402109;    0.397277;    0.384170;    0.384874;    0.387714;    0.388599;    0.394866;    0.399838;    0.403999;    0.410971;    0.416732;    0.421426;    0.425395;    0.429286;    0.433765;    0.437714;    0.441492;    0.442759;    0.445590;    0.447988;    0.448446;    0.450929;    0.452227;    0.452250;    0.450814;    0.452669;    0.452941;    0.451226;    0.450446;    0.449943;    0.447253;    0.440482;    0.436042;    0.434725;    0.435147;    0.433149;    0.427808;    0.420768;    0.409300;    0.400567;
 97;   15.924438;    1.015588;    0.917973;    0.870362;    0.829536;    0.773791;    0.733619;    0.683895;    0.611744;    0.549645;    0.479729;    0.401402;    0.401713;    0.384447;    0.385410;    0.386867;    0.387522;    0.393372;    0.399940;    0.405105;    0.409645;    0.414516;    0.419007;    0.422315;    0.425827;    0.431683;    0.436260;    0.439515;    0.442073;    0.443454;    0.445398;    0.446455;    0.448539;    0.449048;    0.451020;    0.452771;    0.454454;    0.455202;    0.455828;    0.453885;    0.451724;    0.450771;    0.447789;    0.445276;    0.440026;    0.435364;    0.427374;    0.422188;    0.417727;    0.410702;    0.399070;
 98;   15.872824;    1.002380;    0.901901;    0.863326;    0.829893;    0.783459;    0.725208;    0.682579;    0.623612;    0.561300;    0.484919;    0.405113;    0.406847;    0.391081;    0.392790;    0.398121;    0.395625;    0.400839;    0.407400;    0.411847;    0.418299;    0.422595;    0.428071;    0.432976;    0.437084;    0.439748;    0.444728;    0.447569;    0.448878;    0.449462;    0.451359;    0.453039;    0.456182;    0.457310;    0.460315;    0.461580;    0.462468;    0.463156;    0.461358;    0.458366;    0.458866;    0.457690;    0.454592;    0.452740;    0.450907;    0.447315;    0.440946;    0.434384;    0.426982;    0.421232;    0.407855;
 99;   15.988360;    0.994457;    0.884456;    0.861415;    0.821559;    0.785274;    0.723219;    0.675916;    0.617115;    0.553926;    0.483372;    0.409276;    0.406728;    0.391653;    0.392740;    0.395917;    0.395422;    0.401827;    0.406069;    0.412119;    0.416926;    0.422737;    0.428275;    0.432412;    0.435995;    0.438314;    0.442735;    0.446684;    0.451126;    0.454742;    0.457546;    0.461174;    0.463892;    0.466605;    0.467749;    0.469684;    0.467723;    0.466421;    0.466248;    0.465148;    0.462610;    0.459412;    0.458708;    0.456064;    0.449333;    0.443840;    0.435551;    0.430197;    0.420162;    0.415033;    0.408061;
100;   15.808971;    0.993862;    0.888009;    0.859198;    0.825375;    0.776248;    0.736205;    0.673875;    0.598693;    0.543570;    0.478570;    0.405172;    0.404614;    0.383480;    0.384671;    0.386992;    0.388117;    0.393092;    0.399173;    0.403551;    0.408754;    0.412906;    0.416571;    0.421124;    0.424528;    0.427771;    0.431630;    0.435455;    0.439934;    0.443683;    0.446689;    0.447709;    0.447684;    0.447412;    0.448138;    0.447483;    0.447514;    0.449298;    0.449515;    0.449402;    0.448673;    0.444273;    0.439723;    0.437718;    0.435408;    0.430386;    0.427909;    0.423136;    0.418078;    0.409854;    0.399118;
