Simulation;Time;PC 0;PC 1;PC 2;PC 3;PC 4;PC 5;PC 6;PC 7;PC 8;PC 9;PC10;PC11;PC12;PC13;PC14;PC15;PC16;PC17;PC18;PC19;PC20;PC21;PC22;PC23;PC24;PC25;PC26;PC27;PC28;PC29;PC30;PC31;PC32;PC33;PC34;PC35;PC36;PC37;PC38;PC39;PC40;PC41;PC42;PC43;PC44;PC45;PC46;PC47;PC48;PC49;
Nan;Nan;0;0;0;0;0;0;0;0;0;0;0;0;0;0;0;1;0;0;0;0;0;0;0;0;0;0;0;0;0;0;0;0;0;0;0;0;0;0;0;0;0;0;0;0;0;0;0;0;0;0;
  0;   18.966357;    0.983123;    0.854587;    0.795688;    0.747232;    0.693863;    0.627635;    0.549723;    0.491452;    0.411672;    0.341938;    0.277059;    0.256992;    0.230594;    0.210561;    0.197794;    0.182727;    0.181895;    0.180490;    0.179423;    0.178069;    0.176949;    0.175048;    0.173054;    0.169724;    0.166935;    0.163518;    0.159889;    0.157956;    0.155537;    0.152631;    0.149294;    0.145428;    0.141405;    0.137234;    0.132608;    0.128218;    0.123406;    0.117946;    0.111719;    0.104588;    0.098194;    0.090493;    0.082856;    0.075325;    0.066738;    0.056901;    0.046834;    0.037212;    0.024532;    0.012472;
  1;   19.299232;    1.008467;    0.876619;    0.813161;    0.766897;    0.693932;    0.627063;    0.566406;    0.502357;    0.428528;    0.363330;    0.286462;    0.261893;    0.232246;    0.212716;    0.199238;    0.183622;    0.182621;    0.181468;    0.179835;    0.178740;    0.178131;    0.176731;    0.174784;    0.171644;    0.169340;    0.166769;    0.163770;    0.161033;    0.158186;    0.154589;    0.151555;    0.148072;    0.143922;    0.138781;    0.132458;    0.127506;    0.122937;    0.119237;    0.113034;    0.106701;    0.100924;    0.094607;    0.086394;    0.077790;    0.067800;    0.058366;    0.047842;    0.036891;    0.026539;    0.014941;
  2;   19.206265;    1.015357;    0.886721;    0.827096;    0.781444;    0.716327;    0.634538;    0.578452;    0.500199;    0.437031;    0.363298;    0.280402;    0.258954;    0.231872;    0.210809;    0.200528;    0.184053;    0.183079;    0.181814;    0.179415;    0.178124;    0.176703;    0.175257;    0.173074;    0.171703;    0.170229;    0.168338;    0.166223;    0.163719;    0.160101;    0.155678;    0.152381;    0.148030;    0.143882;    0.139292;    0.135095;    0.130614;    0.125813;    0.120479;    0.112937;    0.105139;    0.099100;    0.092974;    0.085524;    0.075552;    0.065704;    0.057617;    0.048060;    0.037331;    0.026587;    0.012237;
  3;   19.077702;    1.008387;    0.886102;    0.826381;    0.773196;    0.704604;    0.649929;    0.588133;    0.512502;    0.443082;    0.361605;    0.284921;    0.265984;    0.233019;    0.211507;    0.200749;    0.182837;    0.181009;    0.180163;    0.179616;    0.178033;    0.176168;    0.174439;    0.172342;    0.170473;    0.169079;    0.167274;    0.164676;    0.161433;    0.159324;    0.156371;    0.152433;    0.148389;    0.144243;    0.140730;    0.136341;    0.132239;    0.127781;    0.122247;    0.115273;    0.108758;    0.100622;    0.094593;    0.087456;    0.080717;    0.072908;    0.064096;    0.054255;    0.041928;    0.027050;    0.013873;
  4;   19.012770;    1.025891;    0.895602;    0.838482;    0.780330;    0.702215;    0.632322;    0.580688;    0.512090;    0.429473;    0.360124;    0.282735;    0.263216;    0.233918;    0.213224;    0.204410;    0.185811;    0.184832;    0.184005;    0.183322;    0.181446;    0.179090;    0.177393;    0.175774;    0.174351;    0.172786;    0.170161;    0.166881;    0.163841;    0.159965;    0.157732;    0.154580;    0.150540;    0.145344;    0.141569;    0.137531;    0.132657;    0.127759;    0.121180;    0.117064;    0.111939;    0.105619;    0.098526;    0.089782;    0.079935;    0.071306;    0.061522;    0.052728;    0.040741;    0.029171;    0.015588;
  5;   19.331190;    1.004378;    0.874013;    0.814849;    0.758624;    0.700710;    0.636178;    0.574751;    0.505127;    0.435831;    0.363547;    0.284419;    0.255234;    0.230535;    0.211617;    0.199678;    0.183169;    0.182677;    0.181021;    0.179968;    0.179739;    0.178458;    0.176130;    0.173604;    0.171045;    0.170003;    0.167849;    0.165084;    0.161519;    0.158159;    0.153350;    0.150469;    0.146139;    0.141715;    0.136405;    0.132224;    0.128901;    0.123970;    0.117665;    0.112183;    0.105374;    0.100386;    0.093856;    0.087278;    0.078882;    0.068675;    0.057926;    0.045337;    0.035727;    0.024740;    0.012112;
  6;   19.305931;    0.999402;    0.871853;    0.817038;    0.750659;    0.691138;    0.627831;    0.569445;    0.505902;    0.425256;    0.356530;    0.282647;    0.262950;    0.232809;    0.209778;    0.195515;    0.181413;    0.180061;    0.178697;    0.177650;    0.176309;    0.174737;    0.173041;    0.171464;    0.168939;    0.166361;    0.163788;    0.159841;    0.156854;    0.153616;    0.151089;    0.148439;    0.144868;    0.141262;    0.136337;    0.132442;    0.127641;    0.121956;    0.117631;    0.112604;    0.106989;    0.101777;    0.095161;    0.087129;    0.077600;    0.069931;    0.061599;    0.050576;    0.038498;    0.027053;    0.012816;
  7;   19.359571;    1.017384;    0.885494;    0.822484;    0.766639;    0.707749;    0.638366;    0.574378;    0.494209;    0.423823;    0.351672;    0.281216;    0.257807;    0.230396;    0.210681;    0.198430;    0.184867;    0.183999;    0.182685;    0.180926;    0.178823;    0.178119;    0.176310;    0.174037;    0.171246;    0.168192;    0.166958;    0.165419;    0.163642;    0.160955;    0.158069;    0.154528;    0.151025;    0.147254;    0.142432;    0.137728;    0.131797;    0.126422;    0.121529;    0.116647;    0.110280;    0.102743;    0.094044;    0.085158;    0.077137;    0.070059;    0.060753;    0.049286;    0.039835;    0.028104;    0.015907;
  8;   19.156839;    0.989226;    0.862861;    0.808762;    0.756970;    0.687612;    0.634708;    0.562149;    0.491301;    0.427583;    0.350618;    0.277106;    0.256148;    0.230516;    0.210016;    0.198868;    0.182611;    0.181917;    0.180159;    0.178987;    0.176565;    0.174077;    0.172664;    0.171245;    0.169538;    0.166966;    0.163882;    0.161417;    0.158900;    0.156431;    0.152994;    0.149619;    0.145278;    0.141844;    0.137949;    0.133529;    0.127652;    0.124663;    0.120490;    0.115637;    0.109691;    0.103308;    0.095621;    0.088438;    0.081523;    0.072694;    0.062859;    0.052311;    0.039354;    0.027940;    0.015165;
  9;   19.240967;    1.013170;    0.886536;    0.834266;    0.767458;    0.704317;    0.651141;    0.574612;    0.509924;    0.449871;    0.368174;    0.282105;    0.262416;    0.231970;    0.211087;    0.197849;    0.181690;    0.181375;    0.180075;    0.178635;    0.176734;    0.175806;    0.173228;    0.171559;    0.169613;    0.167293;    0.164315;    0.162057;    0.160097;    0.157375;    0.153649;    0.151229;    0.148239;    0.144836;    0.140279;    0.135254;    0.129463;    0.125252;    0.121379;    0.116385;    0.110470;    0.104841;    0.097963;    0.089549;    0.081855;    0.071267;    0.063198;    0.053326;    0.043352;    0.029371;    0.015984;
 10;   19.155587;    1.010421;    0.882234;    0.830133;    0.771543;    0.715867;    0.652673;    0.598792;    0.525115;    0.453214;    0.362375;    0.282120;    0.257636;    0.232189;    0.208974;    0.199804;    0.180948;    0.180431;    0.179426;    0.178468;    0.177969;    0.176802;    0.174956;    0.173782;    0.172867;    0.171342;    0.170041;    0.167964;    0.165210;    0.162527;    0.159329;    0.156512;    0.153052;    0.149340;    0.144704;    0.139688;    0.134656;    0.128680;    0.122202;    0.116840;    0.109635;    0.103963;    0.097560;    0.089222;    0.082617;    0.074306;    0.063522;    0.050265;    0.039665;    0.026512;    0.013533;
 11;   19.119888;    0.995871;    0.872355;    0.823306;    0.770189;    0.699867;    0.643133;    0.579301;    0.502136;    0.440569;    0.354992;    0.283636;    0.264692;    0.230220;    0.211089;    0.201474;    0.182656;    0.181105;    0.180068;    0.178570;    0.176446;    0.176165;    0.174778;    0.172550;    0.169026;    0.167873;    0.165872;    0.163600;    0.161077;    0.157188;    0.153069;    0.149766;    0.146637;    0.143280;    0.139666;    0.135645;    0.130788;    0.126718;    0.121722;    0.115922;    0.108829;    0.102283;    0.095141;    0.087625;    0.079031;    0.069402;    0.060556;    0.052096;    0.042693;    0.030284;    0.017158;
 12;   19.228491;    0.990718;    0.871774;    0.826962;    0.770017;    0.695406;    0.630161;    0.566501;    0.489004;    0.419018;    0.358094;    0.281935;    0.259904;    0.226695;    0.207329;    0.196202;    0.180971;    0.179597;    0.178362;    0.175185;    0.174876;    0.173439;    0.171713;    0.170766;    0.169233;    0.167346;    0.165514;    0.163006;    0.160603;    0.157234;    0.153319;    0.148822;    0.144248;    0.138481;    0.134777;    0.129864;    0.125583;    0.121654;    0.117148;    0.112412;    0.105832;    0.100107;    0.093085;    0.085958;    0.077361;    0.069218;    0.059485;    0.047206;    0.037075;    0.024320;    0.013389;
 13;   19.054022;    1.005338;    0.870203;    0.813944;    0.763242;    0.692644;    0.630368;    0.566624;    0.496051;    0.427626;    0.351778;    0.283914;    0.260309;    0.231280;    0.210902;    0.202447;    0.183994;    0.182241;    0.181403;    0.179578;    0.178204;    0.177098;    0.175219;    0.173446;    0.171141;    0.168394;    0.166134;    0.163988;    0.161254;    0.158851;    0.155741;    0.152075;    0.148531;    0.144787;    0.140395;    0.135983;    0.130169;    0.124946;    0.118275;    0.112660;    0.106141;    0.100111;    0.093530;    0.086423;    0.078432;    0.070611;    0.062704;    0.052557;    0.040552;    0.028921;    0.014073;
 14;   19.076042;    0.983858;    0.860848;    0.812488;    0.747195;    0.696897;    0.634137;    0.571591;    0.496291;    0.418109;    0.347544;    0.282327;    0.261183;    0.233545;    0.212041;    0.198825;    0.184693;    0.183775;    0.181705;    0.180158;    0.179412;    0.177759;    0.176117;    0.174899;    0.173913;    0.172189;    0.169768;    0.167227;    0.164097;    0.161375;    0.157665;    0.153935;    0.150169;    0.145247;    0.142084;    0.138469;    0.133386;    0.127849;    0.121752;    0.116427;    0.110059;    0.103660;    0.095988;    0.090330;    0.082365;    0.074220;    0.063303;    0.053128;    0.042822;    0.030549;    0.014698;
 15;   19.138220;    0.995662;    0.854816;    0.798033;    0.733185;    0.678984;    0.615582;    0.554726;    0.488838;    0.415284;    0.346194;    0.278017;    0.251186;    0.228073;    0.209471;    0.200364;    0.181905;    0.180637;    0.180005;    0.178761;    0.177172;    0.175387;    0.173822;    0.171514;    0.169180;    0.167141;    0.165181;    0.162425;    0.158197;    0.155866;    0.152750;    0.149673;    0.146117;    0.143424;    0.139916;    0.135269;    0.130804;    0.126165;    0.121022;    0.114781;    0.109425;    0.103476;    0.096271;    0.088528;    0.080437;    0.071840;    0.061328;    0.048511;    0.037182;    0.024757;    0.013833;
 16;   19.207939;    1.020331;    0.896478;    0.830046;    0.770803;    0.710576;    0.639201;    0.583755;    0.511760;    0.437204;    0.365554;    0.287990;    0.264259;    0.235866;    0.214367;    0.199508;    0.184180;    0.182951;    0.182692;    0.181203;    0.180505;    0.179067;    0.177909;    0.175813;    0.174177;    0.172040;    0.170093;    0.167650;    0.165337;    0.161958;    0.158168;    0.154812;    0.151907;    0.148406;    0.144070;    0.140557;    0.136135;    0.131605;    0.125444;    0.119287;    0.112254;    0.104995;    0.097854;    0.089486;    0.080929;    0.072666;    0.062302;    0.050023;    0.039321;    0.027038;    0.015377;
 17;   18.887312;    0.988813;    0.865638;    0.807099;    0.747334;    0.688485;    0.622646;    0.551474;    0.485595;    0.420397;    0.354155;    0.281280;    0.259692;    0.227198;    0.207249;    0.194337;    0.181749;    0.181284;    0.179715;    0.177445;    0.175116;    0.173392;    0.171976;    0.170010;    0.168174;    0.165097;    0.163615;    0.161513;    0.159457;    0.157197;    0.154462;    0.151380;    0.148014;    0.143817;    0.138929;    0.134115;    0.130461;    0.125554;    0.120232;    0.113507;    0.106397;    0.100600;    0.094125;    0.087135;    0.079523;    0.069820;    0.059100;    0.047488;    0.037277;    0.026178;    0.013254;
 18;   19.280020;    0.981913;    0.865604;    0.808365;    0.758201;    0.691611;    0.633936;    0.560629;    0.488910;    0.435160;    0.368322;    0.282339;    0.263092;    0.230413;    0.210975;    0.200797;    0.183285;    0.182709;    0.181107;    0.180066;    0.178400;    0.177756;    0.176080;    0.174204;    0.171462;    0.167232;    0.165253;    0.162420;    0.160101;    0.157354;    0.154416;    0.150386;    0.146795;    0.143008;    0.139227;    0.134608;    0.129196;    0.123723;    0.119533;    0.113406;    0.108026;    0.101444;    0.095761;    0.088953;    0.080997;    0.072115;    0.062819;    0.053711;    0.042313;    0.028275;    0.014376;
 19;   19.162924;    0.994343;    0.864007;    0.805631;    0.760248;    0.702563;    0.646437;    0.571943;    0.509962;    0.433861;    0.354977;    0.284087;    0.259847;    0.233917;    0.212539;    0.199723;    0.184140;    0.183254;    0.181815;    0.178975;    0.177946;    0.176830;    0.175235;    0.173240;    0.171377;    0.168941;    0.166843;    0.164453;    0.162137;    0.159275;    0.156114;    0.152825;    0.149665;    0.146482;    0.142790;    0.138852;    0.134013;    0.128679;    0.121587;    0.116675;    0.110563;    0.103123;    0.095037;    0.087401;    0.080312;    0.071532;    0.059935;    0.048024;    0.037656;    0.026031;    0.014146;
 20;   19.223717;    1.011824;    0.873594;    0.827605;    0.762087;    0.702634;    0.646603;    0.589747;    0.526945;    0.448061;    0.367247;    0.283307;    0.259247;    0.230914;    0.208967;    0.200389;    0.181692;    0.180476;    0.178615;    0.177408;    0.175591;    0.174700;    0.173057;    0.171468;    0.169693;    0.167816;    0.165608;    0.163198;    0.160863;    0.158163;    0.154164;    0.150815;    0.147671;    0.144086;    0.139900;    0.135236;    0.129191;    0.125129;    0.120783;    0.115390;    0.109619;    0.103654;    0.097821;    0.090926;    0.082942;    0.072810;    0.063587;    0.052853;    0.040726;    0.028252;    0.015151;
 21;   19.101503;    1.008004;    0.869842;    0.817374;    0.759214;    0.705621;    0.637425;    0.567594;    0.498281;    0.427081;    0.359182;    0.282963;    0.261498;    0.230350;    0.211162;    0.195787;    0.181992;    0.180980;    0.179073;    0.178787;    0.178012;    0.176435;    0.174416;    0.172261;    0.170587;    0.168519;    0.166472;    0.164357;    0.161539;    0.158158;    0.154211;    0.151370;    0.147662;    0.143733;    0.138182;    0.133809;    0.130101;    0.125482;    0.119520;    0.114122;    0.108088;    0.101925;    0.094484;    0.086721;    0.080063;    0.072277;    0.062796;    0.052016;    0.038486;    0.025873;    0.013912;
 22;   19.131765;    1.015041;    0.881279;    0.823458;    0.762771;    0.691274;    0.631826;    0.562236;    0.505833;    0.446458;    0.362685;    0.283878;    0.258731;    0.231287;    0.210750;    0.197409;    0.182995;    0.181248;    0.180281;    0.179000;    0.177727;    0.175600;    0.172954;    0.171593;    0.170335;    0.168163;    0.165130;    0.162197;    0.159055;    0.157007;    0.154802;    0.151550;    0.148785;    0.145681;    0.140914;    0.135100;    0.130309;    0.126174;    0.121600;    0.116342;    0.110320;    0.104786;    0.098729;    0.091473;    0.083879;    0.074970;    0.065440;    0.053844;    0.041379;    0.026332;    0.012805;
 23;   19.098359;    1.003118;    0.875693;    0.831494;    0.781458;    0.721112;    0.652643;    0.570769;    0.508547;    0.433668;    0.355563;    0.286322;    0.263378;    0.232555;    0.212688;    0.202604;    0.183249;    0.181194;    0.180619;    0.179325;    0.178411;    0.176828;    0.175359;    0.173663;    0.171748;    0.169712;    0.167085;    0.164884;    0.162186;    0.159298;    0.157018;    0.153588;    0.149951;    0.145607;    0.141589;    0.135589;    0.131458;    0.127212;    0.122409;    0.116244;    0.110032;    0.104760;    0.097916;    0.090430;    0.081663;    0.073642;    0.064259;    0.052639;    0.039256;    0.026515;    0.014009;
 24;   19.257036;    1.020301;    0.887343;    0.835886;    0.768443;    0.705204;    0.639183;    0.570818;    0.503889;    0.428614;    0.359570;    0.281475;    0.256825;    0.227176;    0.207473;    0.197696;    0.180551;    0.178903;    0.178381;    0.177354;    0.176685;    0.174611;    0.171865;    0.170035;    0.168031;    0.166345;    0.163913;    0.160719;    0.157409;    0.154610;    0.151782;    0.149046;    0.145260;    0.141460;    0.138738;    0.135888;    0.131638;    0.126165;    0.121244;    0.114624;    0.107752;    0.100263;    0.092266;    0.084589;    0.077406;    0.067106;    0.056618;    0.046160;    0.035800;    0.023472;    0.013064;
 25;   19.067201;    0.991910;    0.868628;    0.818271;    0.764041;    0.689080;    0.633066;    0.568566;    0.506808;    0.422160;    0.352439;    0.282836;    0.258390;    0.230536;    0.210095;    0.200094;    0.181000;    0.179551;    0.178630;    0.177046;    0.176510;    0.175684;    0.173412;    0.170333;    0.168485;    0.167057;    0.164955;    0.162441;    0.160113;    0.157431;    0.154187;    0.149912;    0.145887;    0.143011;    0.139091;    0.134393;    0.129462;    0.124950;    0.119682;    0.113078;    0.106617;    0.100892;    0.094173;    0.087374;    0.078471;    0.070880;    0.061520;    0.051136;    0.040286;    0.027168;    0.012932;
 26;   19.338730;    1.017277;    0.888521;    0.833116;    0.775021;    0.717967;    0.659164;    0.594649;    0.521593;    0.435828;    0.372277;    0.284727;    0.261938;    0.231998;    0.213819;    0.203370;    0.184401;    0.183340;    0.182958;    0.181739;    0.180024;    0.176771;    0.176065;    0.174328;    0.173147;    0.170334;    0.167485;    0.164119;    0.161283;    0.157842;    0.153506;    0.149366;    0.146818;    0.144195;    0.140967;    0.136612;    0.131326;    0.125602;    0.120414;    0.115892;    0.110493;    0.103034;    0.097089;    0.090269;    0.081103;    0.071916;    0.062019;    0.051396;    0.040771;    0.027919;    0.014703;
 27;   19.238203;    1.008999;    0.872288;    0.810327;    0.754230;    0.701248;    0.649284;    0.581466;    0.512154;    0.432997;    0.361891;    0.284100;    0.264544;    0.229376;    0.209381;    0.195711;    0.180844;    0.179598;    0.178990;    0.177028;    0.175924;    0.174286;    0.172342;    0.169476;    0.168096;    0.166049;    0.164061;    0.162066;    0.159308;    0.157505;    0.155053;    0.151459;    0.147369;    0.142134;    0.136404;    0.131688;    0.127254;    0.123057;    0.117311;    0.111492;    0.105801;    0.099424;    0.091941;    0.084906;    0.077813;    0.069589;    0.059310;    0.051016;    0.040336;    0.026683;    0.014269;
 28;   19.353351;    1.012824;    0.874289;    0.824423;    0.758517;    0.690182;    0.634518;    0.565215;    0.507437;    0.436354;    0.353259;    0.278293;    0.259386;    0.228210;    0.209821;    0.200423;    0.182001;    0.181057;    0.180111;    0.178849;    0.176112;    0.173894;    0.171576;    0.169461;    0.168817;    0.166938;    0.164368;    0.161508;    0.158547;    0.155876;    0.153792;    0.150880;    0.147880;    0.144551;    0.141200;    0.137453;    0.132344;    0.126855;    0.121749;    0.116381;    0.109646;    0.101855;    0.094814;    0.086978;    0.079483;    0.071143;    0.060549;    0.050139;    0.039326;    0.025625;    0.013463;
 29;   19.027132;    1.024689;    0.878848;    0.824774;    0.772170;    0.706764;    0.649936;    0.578499;    0.505180;    0.421727;    0.347078;    0.276171;    0.254267;    0.228963;    0.209982;    0.197348;    0.182548;    0.181784;    0.180944;    0.179883;    0.178409;    0.176556;    0.173448;    0.170514;    0.168336;    0.165306;    0.163157;    0.160329;    0.158602;    0.155561;    0.151780;    0.149111;    0.145874;    0.142508;    0.137714;    0.134237;    0.129981;    0.125226;    0.120850;    0.114596;    0.108233;    0.102755;    0.095136;    0.087002;    0.078447;    0.068630;    0.060909;    0.051470;    0.039603;    0.027393;    0.015970;
 30;   19.186931;    1.010964;    0.877371;    0.829623;    0.767523;    0.709834;    0.642904;    0.589541;    0.518583;    0.438065;    0.369657;    0.284304;    0.261099;    0.233009;    0.213862;    0.204802;    0.185874;    0.184606;    0.183403;    0.182294;    0.180573;    0.178677;    0.176800;    0.174577;    0.171300;    0.169532;    0.167758;    0.165302;    0.162271;    0.158990;    0.155485;    0.152774;    0.150006;    0.146213;    0.142518;    0.138979;    0.134083;    0.128949;    0.122844;    0.117887;    0.111849;    0.105065;    0.099943;    0.093109;    0.084478;    0.073812;    0.062653;    0.053073;    0.041525;    0.027496;    0.013074;
 31;   20.176621;    1.005624;    0.873518;    0.817452;    0.762620;    0.700874;    0.650404;    0.580847;    0.509513;    0.439224;    0.361812;    0.284502;    0.265179;    0.231235;    0.211368;    0.201531;    0.182244;    0.181148;    0.179094;    0.178203;    0.176865;    0.174940;    0.172572;    0.170293;    0.167814;    0.165269;    0.161676;    0.158704;    0.155049;    0.153083;    0.150981;    0.147955;    0.144084;    0.138777;    0.135217;    0.132164;    0.126956;    0.121687;    0.115555;    0.106394;    0.101027;    0.095514;    0.090089;    0.084119;    0.076772;    0.068535;    0.058705;    0.046813;    0.038136;    0.027767;    0.015059;
 32;   19.128321;    0.997963;    0.877491;    0.816999;    0.764781;    0.707462;    0.626587;    0.572146;    0.506786;    0.424966;    0.350418;    0.281485;    0.266739;    0.232173;    0.208925;    0.199962;    0.181712;    0.180708;    0.179578;    0.179000;    0.177623;    0.175690;    0.174507;    0.172674;    0.170658;    0.168629;    0.165696;    0.163070;    0.159277;    0.155915;    0.152335;    0.148636;    0.144938;    0.141560;    0.137354;    0.132265;    0.126886;    0.122051;    0.117112;    0.112406;    0.106195;    0.100263;    0.093683;    0.084588;    0.074931;    0.068489;    0.059208;    0.049257;    0.038743;    0.027470;    0.014397;
 33;   19.055543;    0.998776;    0.859533;    0.803593;    0.749829;    0.693029;    0.618642;    0.565120;    0.497729;    0.433962;    0.363593;    0.276446;    0.251978;    0.226785;    0.208840;    0.195944;    0.180609;    0.179533;    0.178716;    0.177205;    0.176260;    0.174489;    0.173091;    0.170358;    0.168418;    0.166120;    0.162895;    0.160819;    0.158445;    0.156651;    0.153682;    0.150637;    0.147597;    0.144585;    0.141172;    0.136314;    0.131076;    0.124715;    0.120612;    0.115512;    0.109610;    0.101832;    0.093398;    0.085893;    0.076233;    0.068620;    0.057784;    0.048131;    0.035269;    0.024941;    0.013140;
 34;   19.067716;    1.020711;    0.880537;    0.829836;    0.776073;    0.701709;    0.631927;    0.574634;    0.510042;    0.432908;    0.358755;    0.282518;    0.262518;    0.231492;    0.212364;    0.202054;    0.182843;    0.181618;    0.179565;    0.177971;    0.176909;    0.174738;    0.172440;    0.171672;    0.170458;    0.168445;    0.166208;    0.163560;    0.160357;    0.157615;    0.154160;    0.150099;    0.146920;    0.142623;    0.138828;    0.133102;    0.128853;    0.124527;    0.120132;    0.114919;    0.108411;    0.100382;    0.093275;    0.085489;    0.077070;    0.068206;    0.056867;    0.047908;    0.038325;    0.025420;    0.012487;
 35;   19.067140;    1.000462;    0.873097;    0.826167;    0.757908;    0.688891;    0.624215;    0.558738;    0.506477;    0.438809;    0.365261;    0.282005;    0.257215;    0.232684;    0.211816;    0.202383;    0.182055;    0.180619;    0.180356;    0.179377;    0.176896;    0.175577;    0.173558;    0.172048;    0.170036;    0.168809;    0.166369;    0.163481;    0.159478;    0.156741;    0.153495;    0.150837;    0.147610;    0.144007;    0.140341;    0.136460;    0.132762;    0.127676;    0.121549;    0.114478;    0.107729;    0.102035;    0.096188;    0.088010;    0.077848;    0.069377;    0.058401;    0.049834;    0.039666;    0.027181;    0.014711;
 36;   19.030756;    0.982007;    0.866927;    0.818221;    0.751314;    0.692727;    0.637443;    0.573139;    0.491877;    0.419923;    0.361267;    0.277221;    0.254571;    0.230266;    0.210375;    0.195485;    0.181423;    0.180851;    0.179348;    0.178434;    0.176957;    0.174885;    0.172760;    0.170767;    0.169022;    0.166230;    0.162431;    0.159354;    0.157294;    0.155239;    0.152434;    0.148421;    0.143952;    0.140523;    0.136022;    0.132521;    0.127815;    0.122891;    0.117808;    0.112173;    0.105398;    0.098006;    0.091907;    0.086001;    0.079272;    0.071013;    0.061914;    0.050010;    0.036568;    0.024979;    0.014373;
 37;   18.974984;    0.992946;    0.868661;    0.817671;    0.756769;    0.687596;    0.627253;    0.568886;    0.498001;    0.425922;    0.353390;    0.282586;    0.259911;    0.231304;    0.210394;    0.201122;    0.181495;    0.180041;    0.179223;    0.177406;    0.176419;    0.175103;    0.173184;    0.171401;    0.169481;    0.167100;    0.164235;    0.162625;    0.159867;    0.157958;    0.154867;    0.151767;    0.148368;    0.145100;    0.142412;    0.138249;    0.133055;    0.127367;    0.119967;    0.113883;    0.108599;    0.101220;    0.091606;    0.084277;    0.076366;    0.068697;    0.059213;    0.047255;    0.038717;    0.027091;    0.013092;
 38;   18.981857;    0.996800;    0.864881;    0.809531;    0.747322;    0.691180;    0.628862;    0.558653;    0.498998;    0.422652;    0.347159;    0.281366;    0.263287;    0.232308;    0.212916;    0.200696;    0.184300;    0.182898;    0.181583;    0.180292;    0.178721;    0.176981;    0.175239;    0.172698;    0.170807;    0.168167;    0.164254;    0.162502;    0.160536;    0.158354;    0.155313;    0.151895;    0.148814;    0.144647;    0.140053;    0.135291;    0.130864;    0.125941;    0.122011;    0.116577;    0.110325;    0.103247;    0.096663;    0.089116;    0.080415;    0.071619;    0.064016;    0.053735;    0.041712;    0.028037;    0.015979;
 39;   18.992318;    0.974578;    0.855761;    0.806018;    0.745463;    0.685174;    0.615278;    0.550182;    0.484164;    0.415796;    0.353969;    0.283897;    0.265248;    0.232218;    0.210985;    0.199249;    0.183053;    0.182199;    0.180200;    0.179049;    0.177396;    0.176152;    0.174221;    0.171629;    0.169259;    0.167651;    0.164217;    0.162735;    0.160966;    0.158120;    0.154581;    0.151032;    0.148012;    0.143602;    0.139024;    0.134378;    0.130235;    0.125559;    0.119510;    0.113844;    0.106778;    0.101739;    0.095439;    0.088110;    0.079884;    0.072112;    0.063335;    0.053965;    0.044355;    0.032985;    0.018365;
 40;   19.050686;    1.002842;    0.873332;    0.814973;    0.764224;    0.702655;    0.640270;    0.562928;    0.487981;    0.427686;    0.348989;    0.280002;    0.260366;    0.228298;    0.206979;    0.197831;    0.179615;    0.178700;    0.177431;    0.175448;    0.174415;    0.172795;    0.171184;    0.169276;    0.167161;    0.165023;    0.162414;    0.159008;    0.157093;    0.155343;    0.152346;    0.148650;    0.144629;    0.139933;    0.135917;    0.131258;    0.126251;    0.120056;    0.115291;    0.109345;    0.102478;    0.096648;    0.090929;    0.084151;    0.076109;    0.068981;    0.061173;    0.051646;    0.039794;    0.025388;    0.012448;
 41;   18.995104;    0.992969;    0.864060;    0.814373;    0.746859;    0.697361;    0.628693;    0.556823;    0.495587;    0.420030;    0.352796;    0.278552;    0.261752;    0.231376;    0.212158;    0.201167;    0.182909;    0.181476;    0.181119;    0.180335;    0.178615;    0.177267;    0.175124;    0.172997;    0.170748;    0.167979;    0.166209;    0.163788;    0.160601;    0.157490;    0.153410;    0.150472;    0.146900;    0.142237;    0.137880;    0.134236;    0.129360;    0.123822;    0.118801;    0.114003;    0.108126;    0.101796;    0.094709;    0.088230;    0.080139;    0.071105;    0.060838;    0.048587;    0.039609;    0.028098;    0.014808;
 42;   18.889963;    1.015752;    0.871985;    0.815248;    0.764652;    0.707694;    0.644145;    0.563317;    0.500746;    0.426046;    0.356870;    0.281870;    0.258878;    0.232475;    0.212032;    0.196989;    0.182891;    0.181702;    0.180384;    0.179561;    0.178846;    0.176958;    0.176102;    0.173961;    0.171389;    0.168658;    0.165348;    0.163609;    0.161015;    0.157921;    0.153625;    0.151142;    0.148441;    0.144756;    0.140124;    0.136171;    0.132503;    0.127965;    0.121949;    0.115346;    0.108004;    0.099213;    0.090595;    0.084076;    0.075690;    0.068654;    0.059534;    0.049853;    0.041693;    0.030414;    0.016943;
 43;   18.797533;    1.008810;    0.873549;    0.814680;    0.767600;    0.698163;    0.637316;    0.580703;    0.509274;    0.433772;    0.355277;    0.277644;    0.256593;    0.227466;    0.209433;    0.199021;    0.182115;    0.181214;    0.179257;    0.177850;    0.176810;    0.175996;    0.174005;    0.171402;    0.169671;    0.167699;    0.165183;    0.163023;    0.160334;    0.157938;    0.154560;    0.151712;    0.147859;    0.142848;    0.139541;    0.136316;    0.131881;    0.126921;    0.121303;    0.115723;    0.109024;    0.102070;    0.095263;    0.087998;    0.078466;    0.069439;    0.060218;    0.049374;    0.039618;    0.026074;    0.015075;
 44;   19.062550;    1.006878;    0.878412;    0.824339;    0.783325;    0.719839;    0.645652;    0.580772;    0.512577;    0.432587;    0.350210;    0.281240;    0.263530;    0.234775;    0.214159;    0.201128;    0.184188;    0.183269;    0.182530;    0.181702;    0.180137;    0.178836;    0.177174;    0.174350;    0.172368;    0.170234;    0.168068;    0.165521;    0.161770;    0.157664;    0.154685;    0.151412;    0.148349;    0.144394;    0.141342;    0.137347;    0.132897;    0.127811;    0.121573;    0.113578;    0.108640;    0.101444;    0.092993;    0.084393;    0.077384;    0.068544;    0.060022;    0.050102;    0.040266;    0.028630;    0.015005;
 45;   19.030348;    0.990303;    0.861321;    0.800988;    0.739733;    0.685544;    0.633524;    0.574655;    0.504149;    0.424076;    0.360004;    0.282979;    0.263651;    0.233305;    0.213288;    0.204267;    0.184686;    0.183874;    0.183260;    0.181979;    0.180921;    0.179329;    0.177957;    0.176246;    0.173485;    0.171801;    0.169161;    0.166321;    0.162884;    0.160637;    0.157629;    0.154774;    0.151617;    0.147957;    0.143355;    0.138930;    0.134796;    0.130178;    0.125129;    0.119102;    0.113896;    0.107617;    0.099969;    0.090285;    0.080637;    0.070784;    0.061372;    0.050773;    0.038189;    0.026808;    0.012435;
 46;   19.130660;    1.008881;    0.871651;    0.806966;    0.756706;    0.704230;    0.631640;    0.570876;    0.503689;    0.421440;    0.348996;    0.275415;    0.256069;    0.228127;    0.209813;    0.200062;    0.181698;    0.180650;    0.178845;    0.177617;    0.175985;    0.174126;    0.172977;    0.171481;    0.168756;    0.166506;    0.164834;    0.162861;    0.160291;    0.157550;    0.154316;    0.151161;    0.148165;    0.143028;    0.138089;    0.134473;    0.130009;    0.124567;    0.117346;    0.113050;    0.108518;    0.101773;    0.094460;    0.086527;    0.078819;    0.070979;    0.060674;    0.049211;    0.038339;    0.024994;    0.013600;
 47;   18.935635;    1.020539;    0.883006;    0.821119;    0.774165;    0.722600;    0.656681;    0.578184;    0.513023;    0.434937;    0.365506;    0.282952;    0.262497;    0.233104;    0.211851;    0.199619;    0.181967;    0.179584;    0.178873;    0.176484;    0.175966;    0.174462;    0.172756;    0.171171;    0.168862;    0.166082;    0.164242;    0.161585;    0.159151;    0.155899;    0.153088;    0.149861;    0.146951;    0.143863;    0.139521;    0.134324;    0.130749;    0.126338;    0.120506;    0.115393;    0.109756;    0.103041;    0.096158;    0.088819;    0.079399;    0.071790;    0.062663;    0.052017;    0.040910;    0.026470;    0.014681;
 48;   19.150492;    0.997881;    0.874622;    0.818237;    0.753157;    0.698816;    0.631981;    0.573229;    0.495568;    0.426931;    0.358859;    0.284160;    0.265101;    0.230907;    0.211325;    0.198665;    0.182330;    0.181112;    0.181308;    0.180553;    0.179058;    0.175897;    0.174273;    0.172445;    0.170200;    0.168160;    0.165486;    0.161542;    0.159295;    0.156801;    0.153616;    0.150665;    0.146923;    0.141971;    0.138651;    0.133434;    0.128271;    0.122839;    0.118340;    0.113898;    0.108416;    0.102098;    0.094376;    0.085017;    0.078298;    0.070562;    0.060547;    0.049792;    0.038139;    0.027838;    0.014789;
 49;   18.783489;    0.997007;    0.870143;    0.813148;    0.756687;    0.680339;    0.623659;    0.572928;    0.503765;    0.443702;    0.363799;    0.286358;    0.260038;    0.232790;    0.211799;    0.201073;    0.182547;    0.182119;    0.180350;    0.179713;    0.178875;    0.177303;    0.174981;    0.172060;    0.170281;    0.168061;    0.166697;    0.165523;    0.163497;    0.160738;    0.157118;    0.153464;    0.149955;    0.146028;    0.141452;    0.135778;    0.128220;    0.123266;    0.118386;    0.112530;    0.105531;    0.099366;    0.091831;    0.083221;    0.076076;    0.068006;    0.059447;    0.049522;    0.040202;    0.029508;    0.016269;
 50;   18.767027;    1.000702;    0.866638;    0.814096;    0.755207;    0.701606;    0.627081;    0.573120;    0.505301;    0.423175;    0.364826;    0.286911;    0.258917;    0.231451;    0.211293;    0.202197;    0.184397;    0.183107;    0.180867;    0.179584;    0.177848;    0.176709;    0.173960;    0.172509;    0.170536;    0.167869;    0.166708;    0.165168;    0.162894;    0.160218;    0.157436;    0.153987;    0.149073;    0.144114;    0.139449;    0.135757;    0.131166;    0.126308;    0.121215;    0.114744;    0.109705;    0.104004;    0.096958;    0.090097;    0.081921;    0.072038;    0.061808;    0.050347;    0.041397;    0.029005;    0.012899;
 51;   18.796992;    1.029180;    0.892010;    0.838041;    0.765086;    0.711435;    0.644989;    0.586806;    0.520260;    0.436593;    0.363576;    0.281497;    0.256057;    0.230976;    0.210900;    0.198364;    0.183217;    0.181696;    0.181508;    0.180773;    0.179058;    0.177745;    0.175544;    0.173028;    0.171375;    0.169700;    0.167323;    0.165773;    0.162950;    0.159156;    0.155730;    0.152435;    0.149640;    0.146024;    0.142186;    0.138389;    0.132974;    0.128149;    0.123065;    0.117194;    0.110847;    0.104292;    0.097201;    0.089145;    0.081182;    0.072079;    0.063451;    0.051879;    0.038804;    0.027940;    0.014745;
 52;   18.878002;    0.995521;    0.865873;    0.813775;    0.746965;    0.697568;    0.629103;    0.559263;    0.485193;    0.416866;    0.343952;    0.280201;    0.260486;    0.231922;    0.211836;    0.201572;    0.183068;    0.181663;    0.180643;    0.178870;    0.177494;    0.175356;    0.173939;    0.171629;    0.169614;    0.166981;    0.163759;    0.161387;    0.158072;    0.155658;    0.152265;    0.149837;    0.146795;    0.142993;    0.137688;    0.131332;    0.127699;    0.123146;    0.117491;    0.112500;    0.105999;    0.098553;    0.093421;    0.085837;    0.077570;    0.070497;    0.061357;    0.050968;    0.040237;    0.027342;    0.013988;
 53;   18.907132;    0.990219;    0.877605;    0.816803;    0.771563;    0.705154;    0.635751;    0.575697;    0.510611;    0.432282;    0.366394;    0.279988;    0.261460;    0.230037;    0.208826;    0.199331;    0.181860;    0.181142;    0.180733;    0.179088;    0.176856;    0.175140;    0.173721;    0.171861;    0.169860;    0.166548;    0.164883;    0.162156;    0.159551;    0.157529;    0.154584;    0.150765;    0.147619;    0.143537;    0.139394;    0.134710;    0.130444;    0.125798;    0.119568;    0.111807;    0.107830;    0.102931;    0.096271;    0.087470;    0.078529;    0.069113;    0.061207;    0.052364;    0.041520;    0.028442;    0.015433;
 54;   18.837966;    1.010444;    0.876935;    0.811665;    0.758596;    0.700463;    0.645672;    0.584958;    0.511972;    0.425242;    0.347799;    0.277337;    0.255331;    0.228778;    0.209817;    0.199446;    0.183575;    0.182745;    0.181567;    0.180367;    0.180018;    0.178482;    0.175864;    0.174704;    0.173500;    0.171676;    0.169036;    0.165670;    0.161807;    0.158910;    0.156445;    0.153282;    0.150377;    0.146937;    0.142641;    0.137571;    0.131953;    0.125908;    0.120362;    0.114194;    0.108420;    0.102300;    0.094753;    0.086584;    0.078815;    0.069818;    0.061353;    0.051137;    0.039300;    0.024644;    0.013187;
 55;   18.829288;    0.986501;    0.853764;    0.805729;    0.755876;    0.695114;    0.626517;    0.565794;    0.509307;    0.438390;    0.358706;    0.284185;    0.265636;    0.231383;    0.209382;    0.200343;    0.183122;    0.181967;    0.180743;    0.180088;    0.178975;    0.177312;    0.175839;    0.174126;    0.171173;    0.168835;    0.167080;    0.164274;    0.161029;    0.158618;    0.156873;    0.154193;    0.150108;    0.146454;    0.142339;    0.137228;    0.131658;    0.126689;    0.121308;    0.114171;    0.108402;    0.102040;    0.095019;    0.087508;    0.079408;    0.071177;    0.061669;    0.051081;    0.038139;    0.027221;    0.013867;
 56;   18.910769;    0.993199;    0.861255;    0.804495;    0.740146;    0.678392;    0.612616;    0.551748;    0.483035;    0.421002;    0.352876;    0.285452;    0.258972;    0.231427;    0.210745;    0.201505;    0.181789;    0.180469;    0.179404;    0.177765;    0.176819;    0.175128;    0.173779;    0.172200;    0.170538;    0.168228;    0.165956;    0.163539;    0.160543;    0.157171;    0.154061;    0.151657;    0.147568;    0.143026;    0.138588;    0.133386;    0.128698;    0.124146;    0.118989;    0.113669;    0.108139;    0.101347;    0.094097;    0.085874;    0.078115;    0.070137;    0.059505;    0.047248;    0.036332;    0.025672;    0.014026;
 57;   18.903725;    1.015648;    0.884076;    0.829483;    0.764783;    0.709296;    0.635600;    0.570339;    0.502389;    0.428603;    0.361746;    0.283696;    0.264484;    0.233007;    0.214140;    0.203465;    0.184684;    0.183671;    0.181222;    0.179119;    0.178154;    0.175752;    0.174754;    0.172812;    0.170512;    0.167406;    0.165530;    0.162091;    0.158398;    0.155535;    0.152990;    0.149997;    0.146389;    0.142991;    0.138838;    0.134609;    0.129515;    0.126061;    0.121065;    0.115015;    0.108286;    0.100543;    0.095127;    0.088486;    0.080810;    0.073648;    0.064504;    0.053004;    0.038440;    0.025830;    0.014926;
 58;   18.951336;    1.006398;    0.874235;    0.814705;    0.753450;    0.699306;    0.630747;    0.575927;    0.504417;    0.433302;    0.362387;    0.282545;    0.261796;    0.233178;    0.213045;    0.202157;    0.182611;    0.181146;    0.180578;    0.178673;    0.177548;    0.175765;    0.174625;    0.172909;    0.171145;    0.168898;    0.166678;    0.164039;    0.161514;    0.157642;    0.153573;    0.150674;    0.146267;    0.143661;    0.140086;    0.135237;    0.130535;    0.124669;    0.119293;    0.114599;    0.108892;    0.101794;    0.094331;    0.086345;    0.079011;    0.070310;    0.060594;    0.051193;    0.040098;    0.027168;    0.013208;
 59;   18.859217;    0.995902;    0.871597;    0.810107;    0.746471;    0.695172;    0.634878;    0.557157;    0.489056;    0.427620;    0.366356;    0.281169;    0.253666;    0.228918;    0.209891;    0.200934;    0.181985;    0.180951;    0.180575;    0.179322;    0.177938;    0.176455;    0.174264;    0.173267;    0.171712;    0.169538;    0.167237;    0.164922;    0.162588;    0.159413;    0.155239;    0.151411;    0.146581;    0.143758;    0.140422;    0.135970;    0.131724;    0.126670;    0.122374;    0.117498;    0.111426;    0.104968;    0.097326;    0.089162;    0.080374;    0.072987;    0.063182;    0.053056;    0.041093;    0.028334;    0.016207;
 60;   18.890276;    1.004376;    0.874454;    0.821505;    0.764975;    0.703478;    0.646891;    0.581253;    0.500333;    0.422727;    0.352196;    0.283515;    0.264202;    0.233211;    0.212653;    0.199249;    0.183840;    0.183373;    0.182364;    0.181169;    0.179308;    0.177432;    0.175399;    0.174304;    0.171850;    0.169132;    0.167453;    0.164288;    0.161864;    0.159314;    0.155968;    0.152342;    0.148559;    0.145596;    0.142015;    0.136899;    0.132349;    0.126816;    0.121102;    0.115881;    0.110231;    0.103656;    0.094922;    0.087994;    0.080942;    0.071822;    0.061170;    0.051715;    0.040346;    0.028831;    0.014851;
 61;   18.866723;    0.995541;    0.867580;    0.810680;    0.761521;    0.705710;    0.632893;    0.576005;    0.509125;    0.439039;    0.360111;    0.284131;    0.259605;    0.234564;    0.213287;    0.203491;    0.183098;    0.181921;    0.181143;    0.180324;    0.178181;    0.175372;    0.174573;    0.173189;    0.170710;    0.168182;    0.165647;    0.163704;    0.161021;    0.157731;    0.154743;    0.151321;    0.146498;    0.142057;    0.137707;    0.134086;    0.129870;    0.125177;    0.119601;    0.112266;    0.106244;    0.098700;    0.091901;    0.084503;    0.075583;    0.066444;    0.058190;    0.047741;    0.038617;    0.027215;    0.013893;
 62;   18.905517;    0.992034;    0.861984;    0.810023;    0.751474;    0.683890;    0.618473;    0.563966;    0.490078;    0.417502;    0.351419;    0.281246;    0.266211;    0.230542;    0.209902;    0.198996;    0.181017;    0.180229;    0.179114;    0.177490;    0.175386;    0.174877;    0.173380;    0.171452;    0.168966;    0.166665;    0.163700;    0.160691;    0.157310;    0.154914;    0.151805;    0.148660;    0.144775;    0.140896;    0.136980;    0.132526;    0.128325;    0.124500;    0.119922;    0.114919;    0.108177;    0.102178;    0.095345;    0.088177;    0.080366;    0.070798;    0.060260;    0.049243;    0.038749;    0.028662;    0.015161;
 63;   18.885144;    1.000273;    0.862256;    0.806742;    0.741091;    0.685527;    0.619490;    0.568898;    0.507822;    0.445403;    0.368741;    0.285631;    0.265549;    0.231540;    0.210986;    0.198206;    0.182343;    0.181940;    0.180659;    0.177513;    0.176148;    0.175236;    0.173478;    0.170545;    0.168511;    0.166440;    0.164508;    0.162006;    0.159462;    0.157751;    0.154990;    0.151672;    0.147717;    0.144323;    0.140454;    0.135579;    0.130353;    0.124749;    0.119832;    0.115063;    0.109716;    0.103928;    0.097605;    0.090815;    0.082429;    0.072989;    0.061293;    0.048131;    0.036401;    0.026393;    0.015061;
 64;   18.952797;    1.004974;    0.873846;    0.827397;    0.760256;    0.706692;    0.645444;    0.587032;    0.516786;    0.442189;    0.360361;    0.284492;    0.264708;    0.233758;    0.212490;    0.197728;    0.182884;    0.182177;    0.181020;    0.179511;    0.178175;    0.176638;    0.174686;    0.173499;    0.171605;    0.169400;    0.166658;    0.164289;    0.162275;    0.159340;    0.155330;    0.152696;    0.150415;    0.147619;    0.144027;    0.139399;    0.135021;    0.130301;    0.124428;    0.117325;    0.111355;    0.104578;    0.097830;    0.089611;    0.081664;    0.071449;    0.062415;    0.051631;    0.038311;    0.025210;    0.015240;
 65;   18.714756;    0.977599;    0.856494;    0.798695;    0.749457;    0.689230;    0.633134;    0.554620;    0.487513;    0.422215;    0.348573;    0.282097;    0.257253;    0.231172;    0.212066;    0.201643;    0.183596;    0.182270;    0.179659;    0.179044;    0.177543;    0.176047;    0.175074;    0.173147;    0.170961;    0.169109;    0.166447;    0.163260;    0.160200;    0.156889;    0.153333;    0.149377;    0.146953;    0.143673;    0.140052;    0.136022;    0.131802;    0.127078;    0.121638;    0.115522;    0.109662;    0.102788;    0.095725;    0.088869;    0.080437;    0.073762;    0.065410;    0.054472;    0.041926;    0.029248;    0.015123;
 66;   18.902330;    1.002302;    0.875952;    0.824896;    0.768055;    0.704695;    0.639454;    0.584147;    0.508927;    0.428602;    0.363747;    0.283186;    0.265758;    0.231796;    0.210114;    0.197933;    0.182344;    0.181287;    0.179826;    0.177594;    0.176491;    0.175485;    0.173902;    0.172053;    0.170262;    0.168320;    0.164995;    0.161123;    0.157793;    0.155410;    0.153029;    0.150639;    0.147997;    0.144879;    0.141295;    0.136983;    0.131679;    0.127150;    0.122085;    0.116546;    0.109583;    0.103299;    0.094779;    0.087885;    0.078638;    0.069179;    0.060896;    0.049236;    0.040051;    0.027538;    0.014712;
 67;   18.849764;    0.994303;    0.870699;    0.806552;    0.754046;    0.696658;    0.630733;    0.548693;    0.490097;    0.421672;    0.357986;    0.282358;    0.261638;    0.234283;    0.213879;    0.202175;    0.182949;    0.181943;    0.180339;    0.179123;    0.177781;    0.175421;    0.172684;    0.169879;    0.168574;    0.166590;    0.164120;    0.162042;    0.159244;    0.155825;    0.152737;    0.149401;    0.145935;    0.141954;    0.136720;    0.132681;    0.127896;    0.123455;    0.117303;    0.110053;    0.106050;    0.100730;    0.093710;    0.085603;    0.076917;    0.069558;    0.059345;    0.047592;    0.036899;    0.027470;    0.014687;
 68;   18.923676;    1.001913;    0.872397;    0.817157;    0.748901;    0.693231;    0.631799;    0.579836;    0.498323;    0.436969;    0.357545;    0.283246;    0.259825;    0.231962;    0.211319;    0.201187;    0.182870;    0.182214;    0.179965;    0.178839;    0.177628;    0.174843;    0.173663;    0.171239;    0.169120;    0.168373;    0.166602;    0.164223;    0.161988;    0.158774;    0.154471;    0.150089;    0.147626;    0.144607;    0.141672;    0.138155;    0.134050;    0.129488;    0.124268;    0.118031;    0.110656;    0.104562;    0.099513;    0.092716;    0.085122;    0.074387;    0.064799;    0.053625;    0.039857;    0.028608;    0.014953;
 69;   18.662145;    0.992626;    0.873345;    0.816435;    0.765234;    0.709530;    0.660095;    0.598057;    0.526515;    0.444907;    0.362641;    0.288039;    0.269594;    0.236477;    0.214312;    0.204864;    0.184525;    0.182829;    0.182684;    0.181030;    0.179746;    0.178102;    0.176854;    0.174930;    0.172298;    0.170737;    0.168766;    0.166438;    0.163676;    0.160902;    0.157808;    0.153577;    0.149074;    0.145508;    0.140694;    0.136541;    0.130630;    0.126681;    0.121754;    0.115830;    0.109508;    0.102789;    0.094898;    0.087025;    0.080572;    0.070963;    0.061833;    0.052362;    0.043010;    0.030222;    0.015174;
 70;   18.984256;    1.013897;    0.883690;    0.822185;    0.773403;    0.706539;    0.635044;    0.563590;    0.502537;    0.421184;    0.349515;    0.280886;    0.257665;    0.233974;    0.213952;    0.204539;    0.184167;    0.183182;    0.182163;    0.180412;    0.179358;    0.177884;    0.175826;    0.174475;    0.172033;    0.168769;    0.166652;    0.165013;    0.162213;    0.159516;    0.155824;    0.151662;    0.147338;    0.144479;    0.141062;    0.136719;    0.131946;    0.126308;    0.120139;    0.112842;    0.107597;    0.100390;    0.094778;    0.088523;    0.081739;    0.074043;    0.064724;    0.055142;    0.044167;    0.031400;    0.015561;
 71;   18.735657;    1.003455;    0.871371;    0.813199;    0.752461;    0.698380;    0.634778;    0.569397;    0.510152;    0.428313;    0.348493;    0.281637;    0.260186;    0.232328;    0.212498;    0.201918;    0.182582;    0.181793;    0.180454;    0.179037;    0.178249;    0.176681;    0.174788;    0.173962;    0.172343;    0.170355;    0.168593;    0.165858;    0.162715;    0.160358;    0.158076;    0.154715;    0.150232;    0.145779;    0.140378;    0.133902;    0.128604;    0.124274;    0.119238;    0.114243;    0.108705;    0.101781;    0.095720;    0.088555;    0.081300;    0.073117;    0.064384;    0.054473;    0.041357;    0.029248;    0.015589;
 72;   18.997922;    1.008167;    0.873740;    0.826493;    0.771515;    0.706914;    0.645557;    0.575484;    0.510109;    0.427511;    0.366109;    0.280527;    0.261579;    0.232196;    0.212513;    0.201855;    0.183626;    0.182443;    0.180625;    0.179630;    0.178851;    0.177439;    0.175449;    0.173209;    0.171370;    0.169304;    0.166644;    0.165029;    0.162529;    0.159463;    0.157437;    0.154559;    0.149894;    0.145150;    0.140749;    0.135533;    0.131469;    0.127252;    0.122144;    0.117106;    0.110702;    0.103419;    0.095627;    0.087322;    0.079652;    0.070753;    0.061361;    0.050991;    0.038443;    0.027466;    0.013950;
 73;   18.879497;    1.032642;    0.894912;    0.845392;    0.776345;    0.718914;    0.668539;    0.600587;    0.515150;    0.444991;    0.359456;    0.290052;    0.267092;    0.235474;    0.214415;    0.203103;    0.186479;    0.184659;    0.183393;    0.182930;    0.181545;    0.179295;    0.177463;    0.174946;    0.172539;    0.170099;    0.167078;    0.165480;    0.163153;    0.159974;    0.157055;    0.154750;    0.151315;    0.147827;    0.143665;    0.138292;    0.132789;    0.126884;    0.122016;    0.115913;    0.110968;    0.105456;    0.099093;    0.090943;    0.081086;    0.071956;    0.061195;    0.052282;    0.043026;    0.030386;    0.014076;
 74;   18.932915;    1.007741;    0.868000;    0.808348;    0.762898;    0.701823;    0.632056;    0.567387;    0.501944;    0.426719;    0.354450;    0.284545;    0.265168;    0.234923;    0.214701;    0.204525;    0.185143;    0.184120;    0.183471;    0.182727;    0.182095;    0.180509;    0.178149;    0.176362;    0.174255;    0.172095;    0.168965;    0.166988;    0.164607;    0.161479;    0.158297;    0.154672;    0.151630;    0.148843;    0.145546;    0.141815;    0.137567;    0.132143;    0.127064;    0.121471;    0.115202;    0.107418;    0.100761;    0.092981;    0.083560;    0.074615;    0.063249;    0.054182;    0.042379;    0.028829;    0.014557;
 75;   18.956067;    0.990195;    0.860082;    0.802429;    0.749250;    0.695493;    0.639061;    0.565170;    0.489238;    0.419187;    0.349444;    0.276816;    0.258120;    0.227910;    0.209409;    0.198276;    0.183278;    0.181667;    0.180378;    0.179418;    0.178102;    0.176318;    0.175166;    0.173186;    0.171558;    0.169340;    0.166656;    0.164430;    0.161960;    0.158443;    0.154407;    0.149053;    0.145933;    0.143240;    0.139978;    0.135678;    0.131259;    0.125701;    0.118060;    0.111857;    0.107037;    0.099991;    0.094383;    0.087978;    0.079920;    0.070713;    0.061067;    0.050367;    0.040146;    0.027163;    0.014768;
 76;   18.795765;    1.009878;    0.871791;    0.823645;    0.755002;    0.700818;    0.624744;    0.569601;    0.493757;    0.436141;    0.360637;    0.282125;    0.259252;    0.233895;    0.215036;    0.203749;    0.186122;    0.185018;    0.183894;    0.182271;    0.180216;    0.179066;    0.176783;    0.174796;    0.172538;    0.170552;    0.168352;    0.165989;    0.163527;    0.161648;    0.158996;    0.155511;    0.151680;    0.147435;    0.143665;    0.139985;    0.135886;    0.130740;    0.125851;    0.120267;    0.112525;    0.105901;    0.097751;    0.087425;    0.079559;    0.071669;    0.062676;    0.053978;    0.043096;    0.029573;    0.014460;
 77;   18.824571;    0.972573;    0.847094;    0.787722;    0.737235;    0.680940;    0.622673;    0.554906;    0.483995;    0.424023;    0.346871;    0.277884;    0.260162;    0.227399;    0.208261;    0.195923;    0.179648;    0.178551;    0.177799;    0.176525;    0.175813;    0.174005;    0.172809;    0.171253;    0.169861;    0.167928;    0.165238;    0.162722;    0.158873;    0.156633;    0.154167;    0.150941;    0.147613;    0.144683;    0.140137;    0.135118;    0.131249;    0.126123;    0.120183;    0.113320;    0.106488;    0.100395;    0.092815;    0.085266;    0.078447;    0.070483;    0.061548;    0.051167;    0.040571;    0.029369;    0.015361;
 78;   18.947045;    0.989142;    0.867869;    0.807816;    0.753422;    0.691642;    0.629418;    0.557007;    0.485124;    0.415867;    0.356711;    0.282989;    0.264476;    0.231125;    0.211354;    0.199607;    0.181512;    0.180380;    0.179573;    0.178085;    0.177497;    0.175342;    0.173775;    0.171607;    0.168780;    0.167898;    0.166304;    0.164335;    0.161434;    0.158526;    0.156162;    0.152085;    0.148819;    0.144317;    0.139925;    0.135037;    0.131147;    0.126171;    0.120782;    0.114375;    0.105706;    0.099762;    0.092862;    0.084902;    0.077953;    0.069295;    0.061292;    0.050343;    0.038942;    0.029115;    0.016509;
 79;   18.774095;    1.004360;    0.874654;    0.809436;    0.753113;    0.701433;    0.623951;    0.558151;    0.503884;    0.433338;    0.345468;    0.277051;    0.258297;    0.228502;    0.210244;    0.195992;    0.180655;    0.180292;    0.178866;    0.176557;    0.175344;    0.173720;    0.171684;    0.169664;    0.168087;    0.165719;    0.163579;    0.161608;    0.158795;    0.155858;    0.152369;    0.148444;    0.145524;    0.142607;    0.138705;    0.133435;    0.128189;    0.122244;    0.117378;    0.113157;    0.107614;    0.100391;    0.092085;    0.084007;    0.074689;    0.065183;    0.057962;    0.047585;    0.038174;    0.027229;    0.014998;
 80;   18.858563;    0.984442;    0.851827;    0.808522;    0.751213;    0.688521;    0.621304;    0.550007;    0.492896;    0.420509;    0.346402;    0.274434;    0.256118;    0.226403;    0.207643;    0.194277;    0.181169;    0.179543;    0.177902;    0.177630;    0.176799;    0.175013;    0.172407;    0.170037;    0.167800;    0.166196;    0.163998;    0.161619;    0.159062;    0.155838;    0.151854;    0.148454;    0.144618;    0.141468;    0.137738;    0.133227;    0.129014;    0.123936;    0.119962;    0.114721;    0.109074;    0.101869;    0.093594;    0.087063;    0.078724;    0.070142;    0.059753;    0.051298;    0.040209;    0.027970;    0.013850;
 81;   18.738248;    0.988315;    0.860743;    0.806873;    0.743681;    0.685996;    0.627941;    0.574461;    0.511540;    0.437672;    0.354320;    0.280082;    0.255428;    0.231242;    0.211632;    0.200304;    0.182875;    0.181896;    0.179260;    0.177821;    0.176678;    0.175668;    0.174360;    0.172094;    0.169433;    0.167825;    0.165067;    0.161948;    0.158535;    0.154820;    0.152376;    0.149653;    0.146208;    0.142278;    0.138068;    0.134787;    0.130377;    0.125134;    0.119558;    0.113376;    0.107990;    0.101691;    0.094547;    0.087145;    0.080127;    0.071630;    0.061423;    0.049256;    0.037838;    0.026502;    0.012026;
 82;   18.788288;    0.983412;    0.854660;    0.808772;    0.751877;    0.697418;    0.640072;    0.581159;    0.508302;    0.429382;    0.352855;    0.277959;    0.259289;    0.228439;    0.209612;    0.198841;    0.181542;    0.180979;    0.180185;    0.178826;    0.176320;    0.174431;    0.172104;    0.170224;    0.167509;    0.164378;    0.162568;    0.160127;    0.158180;    0.155566;    0.152755;    0.148537;    0.143517;    0.138518;    0.135121;    0.131205;    0.126798;    0.121590;    0.116468;    0.112046;    0.106262;    0.101144;    0.093702;    0.085013;    0.076496;    0.068796;    0.059499;    0.047695;    0.037710;    0.027401;    0.014260;
 83;   18.841134;    0.975911;    0.855921;    0.797105;    0.740597;    0.691192;    0.637087;    0.574969;    0.512746;    0.435145;    0.360538;    0.282656;    0.257756;    0.232870;    0.212385;    0.201902;    0.182649;    0.181014;    0.179613;    0.177895;    0.177185;    0.176185;    0.174478;    0.172273;    0.170180;    0.167164;    0.165465;    0.163149;    0.159663;    0.156946;    0.153587;    0.149849;    0.146653;    0.143703;    0.139586;    0.134898;    0.129633;    0.125130;    0.120485;    0.115142;    0.109507;    0.104120;    0.097054;    0.088715;    0.078723;    0.071014;    0.062690;    0.051919;    0.041817;    0.029539;    0.014079;
 84;   18.861149;    0.995384;    0.879207;    0.824682;    0.765577;    0.701101;    0.634081;    0.576828;    0.509710;    0.424409;    0.357595;    0.282230;    0.262120;    0.233648;    0.213038;    0.203343;    0.182758;    0.181519;    0.180450;    0.180122;    0.178375;    0.176112;    0.174825;    0.172459;    0.170256;    0.167815;    0.165128;    0.161343;    0.158671;    0.156384;    0.153414;    0.150271;    0.146513;    0.141939;    0.136959;    0.132817;    0.127445;    0.123924;    0.119286;    0.113510;    0.106237;    0.100223;    0.092964;    0.085702;    0.077716;    0.069877;    0.061065;    0.050837;    0.038663;    0.027492;    0.014728;
 85;   18.915843;    1.005172;    0.882186;    0.831565;    0.772256;    0.709788;    0.646728;    0.579955;    0.518140;    0.440896;    0.368214;    0.283202;    0.260803;    0.231474;    0.211231;    0.202801;    0.181797;    0.180813;    0.179349;    0.177756;    0.176896;    0.176140;    0.174285;    0.172636;    0.169806;    0.166581;    0.164205;    0.161358;    0.159308;    0.156231;    0.152819;    0.149164;    0.145090;    0.141352;    0.136616;    0.131780;    0.127458;    0.122559;    0.117913;    0.112540;    0.106681;    0.100341;    0.093228;    0.084613;    0.078321;    0.070339;    0.060620;    0.051747;    0.040760;    0.029335;    0.014614;
 86;   18.820679;    1.004540;    0.864463;    0.806609;    0.750944;    0.687800;    0.626696;    0.565110;    0.496026;    0.433025;    0.362147;    0.282224;    0.265402;    0.232474;    0.210675;    0.201973;    0.183319;    0.181601;    0.180087;    0.179542;    0.177749;    0.176859;    0.175159;    0.172794;    0.171541;    0.169998;    0.167731;    0.164697;    0.161109;    0.157748;    0.154789;    0.151539;    0.148070;    0.144687;    0.140188;    0.136275;    0.132326;    0.127856;    0.122815;    0.116209;    0.109776;    0.102753;    0.096626;    0.087636;    0.080226;    0.072889;    0.062859;    0.052125;    0.042003;    0.030313;    0.016055;
 87;   18.900862;    1.000421;    0.866544;    0.815553;    0.747246;    0.688955;    0.623727;    0.569333;    0.489510;    0.423645;    0.361953;    0.284074;    0.261435;    0.231076;    0.209887;    0.195247;    0.181843;    0.180306;    0.178274;    0.177258;    0.175751;    0.173342;    0.170602;    0.169561;    0.167553;    0.165380;    0.162701;    0.159971;    0.157377;    0.155027;    0.152098;    0.148439;    0.144382;    0.140784;    0.137676;    0.134099;    0.129286;    0.122723;    0.115420;    0.109809;    0.103907;    0.098475;    0.091495;    0.084422;    0.076791;    0.069056;    0.058981;    0.047831;    0.037053;    0.025318;    0.012020;
 88;   18.941200;    1.011789;    0.873521;    0.818306;    0.769740;    0.703342;    0.655220;    0.596352;    0.524867;    0.447256;    0.354701;    0.281003;    0.258632;    0.228504;    0.210271;    0.201137;    0.183199;    0.181274;    0.180215;    0.178938;    0.177556;    0.175740;    0.174651;    0.173024;    0.170361;    0.168080;    0.166119;    0.163693;    0.160315;    0.157751;    0.154637;    0.150367;    0.145462;    0.141705;    0.138276;    0.133715;    0.129133;    0.123847;    0.118593;    0.113064;    0.106815;    0.098290;    0.090743;    0.083404;    0.076291;    0.066289;    0.057558;    0.046791;    0.035522;    0.025158;    0.011166;
 89;   18.947559;    1.009610;    0.878624;    0.830090;    0.763963;    0.710917;    0.640751;    0.565365;    0.501089;    0.413644;    0.352726;    0.279855;    0.261077;    0.231761;    0.212385;    0.203758;    0.183290;    0.181919;    0.180180;    0.179293;    0.177937;    0.176638;    0.174742;    0.173641;    0.171129;    0.169276;    0.167576;    0.165256;    0.161763;    0.159837;    0.156686;    0.151964;    0.146648;    0.142004;    0.137996;    0.134376;    0.130407;    0.125806;    0.121402;    0.116172;    0.110281;    0.103746;    0.097052;    0.087761;    0.078053;    0.068741;    0.057306;    0.047900;    0.039177;    0.028020;    0.016007;
 90;   18.891369;    0.997990;    0.872750;    0.814942;    0.755432;    0.706913;    0.638980;    0.587974;    0.508463;    0.438416;    0.365320;    0.284683;    0.265778;    0.231454;    0.211278;    0.200311;    0.182289;    0.181570;    0.179496;    0.178509;    0.176629;    0.175245;    0.172579;    0.172045;    0.170755;    0.168419;    0.165661;    0.163856;    0.160660;    0.157254;    0.154626;    0.151459;    0.148374;    0.144730;    0.140505;    0.136861;    0.132081;    0.127586;    0.122251;    0.116320;    0.109279;    0.102272;    0.095358;    0.087343;    0.077688;    0.069441;    0.060719;    0.050856;    0.040894;    0.028442;    0.016659;
 91;   19.122075;    1.007990;    0.873496;    0.829114;    0.764580;    0.693471;    0.638262;    0.567372;    0.502079;    0.426185;    0.357674;    0.279986;    0.262551;    0.231217;    0.211763;    0.203187;    0.184969;    0.184368;    0.182915;    0.181040;    0.179299;    0.177586;    0.174931;    0.172460;    0.171303;    0.169446;    0.166858;    0.164896;    0.162150;    0.158668;    0.155043;    0.151695;    0.147770;    0.143889;    0.140154;    0.135722;    0.131423;    0.127421;    0.122499;    0.115674;    0.107696;    0.101119;    0.095374;    0.090365;    0.082742;    0.074339;    0.065399;    0.055967;    0.044684;    0.030677;    0.015324;
 92;   18.886326;    0.991529;    0.862761;    0.803362;    0.753455;    0.694248;    0.622878;    0.559651;    0.492491;    0.432286;    0.355263;    0.280715;    0.262049;    0.230233;    0.211483;    0.199365;    0.181359;    0.181644;    0.181083;    0.179698;    0.178138;    0.175908;    0.172429;    0.171471;    0.169414;    0.167271;    0.164636;    0.163103;    0.161328;    0.158600;    0.155385;    0.151291;    0.148071;    0.145379;    0.141370;    0.137036;    0.131177;    0.126462;    0.120878;    0.115479;    0.108991;    0.101470;    0.095522;    0.088340;    0.079733;    0.069526;    0.061552;    0.052072;    0.040827;    0.025827;    0.013830;
 93;   18.964398;    1.005431;    0.877436;    0.826918;    0.767869;    0.711362;    0.656627;    0.583303;    0.512616;    0.437498;    0.361553;    0.284066;    0.261543;    0.234453;    0.212377;    0.201948;    0.183840;    0.182093;    0.181277;    0.179803;    0.179436;    0.177763;    0.175542;    0.174305;    0.172466;    0.170219;    0.167683;    0.165436;    0.162125;    0.159921;    0.156788;    0.152891;    0.149144;    0.144877;    0.140246;    0.136804;    0.131558;    0.126323;    0.120202;    0.114519;    0.108749;    0.101884;    0.096048;    0.087906;    0.079906;    0.070229;    0.061289;    0.051669;    0.040779;    0.028835;    0.016480;
 94;   18.687993;    1.004063;    0.873849;    0.822733;    0.751789;    0.690910;    0.631371;    0.557109;    0.486628;    0.434155;    0.353289;    0.280138;    0.254238;    0.231000;    0.211176;    0.201369;    0.184894;    0.183252;    0.182332;    0.180715;    0.178838;    0.177424;    0.175788;    0.174474;    0.172914;    0.171320;    0.168927;    0.166155;    0.163053;    0.159229;    0.155864;    0.151703;    0.146727;    0.143427;    0.139491;    0.133935;    0.130645;    0.125503;    0.119362;    0.113082;    0.107563;    0.101312;    0.094586;    0.087123;    0.077973;    0.070007;    0.060118;    0.050032;    0.038227;    0.027422;    0.013876;
 95;   19.143114;    1.012299;    0.877378;    0.821182;    0.768646;    0.706052;    0.651569;    0.580261;    0.509808;    0.445058;    0.357682;    0.283256;    0.261933;    0.232994;    0.212317;    0.203074;    0.183134;    0.182616;    0.180852;    0.179256;    0.177590;    0.176056;    0.175089;    0.173929;    0.171621;    0.168273;    0.167319;    0.165207;    0.162163;    0.159305;    0.156832;    0.153507;    0.150047;    0.147293;    0.142754;    0.138344;    0.133880;    0.129366;    0.123969;    0.116577;    0.107916;    0.102346;    0.096277;    0.089722;    0.083129;    0.074825;    0.064440;    0.054415;    0.042991;    0.029033;    0.016073;
 96;   19.112166;    0.998204;    0.859974;    0.806001;    0.760437;    0.698107;    0.644106;    0.573472;    0.498692;    0.435872;    0.352647;    0.279589;    0.258152;    0.230393;    0.209237;    0.198232;    0.183036;    0.182452;    0.180802;    0.179008;    0.178890;    0.177895;    0.176282;    0.174387;    0.172425;    0.170393;    0.168321;    0.166158;    0.162587;    0.160098;    0.157005;    0.152803;    0.149173;    0.145172;    0.140319;    0.134756;    0.130683;    0.125600;    0.119525;    0.113753;    0.108159;    0.101200;    0.091643;    0.082703;    0.075798;    0.069969;    0.062806;    0.053046;    0.041918;    0.027622;    0.014552;
 97;   19.075951;    1.016963;    0.891856;    0.825097;    0.767532;    0.696262;    0.642220;    0.580118;    0.499212;    0.431235;    0.358213;    0.280150;    0.262090;    0.230512;    0.209150;    0.195877;    0.180027;    0.179027;    0.178360;    0.177196;    0.175566;    0.173907;    0.172174;    0.169815;    0.167711;    0.166702;    0.165284;    0.162990;    0.160044;    0.156640;    0.153218;    0.149556;    0.146010;    0.141897;    0.138463;    0.135084;    0.131323;    0.126711;    0.122215;    0.116190;    0.109832;    0.104272;    0.096978;    0.089844;    0.080450;    0.071424;    0.060105;    0.050350;    0.040510;    0.028632;    0.013287;
 98;   18.950767;    1.001966;    0.874057;    0.816478;    0.764934;    0.703163;    0.631217;    0.576769;    0.508807;    0.439492;    0.360369;    0.281057;    0.264490;    0.234228;    0.213889;    0.205183;    0.184130;    0.182730;    0.182101;    0.180225;    0.179594;    0.177725;    0.176225;    0.174551;    0.172564;    0.169992;    0.168323;    0.165633;    0.161966;    0.158115;    0.154925;    0.151534;    0.148654;    0.144876;    0.141741;    0.137820;    0.133443;    0.128933;    0.122921;    0.116181;    0.111111;    0.104813;    0.097712;    0.090636;    0.083701;    0.075513;    0.065519;    0.054703;    0.043009;    0.031437;    0.014669;
 99;   19.002180;    0.993466;    0.855898;    0.814388;    0.756984;    0.704318;    0.629196;    0.569811;    0.501985;    0.432401;    0.358864;    0.284572;    0.264223;    0.234581;    0.213931;    0.202253;    0.184934;    0.184250;    0.182326;    0.181098;    0.179717;    0.178603;    0.177575;    0.175702;    0.173508;    0.170594;    0.168621;    0.166228;    0.164109;    0.161677;    0.158914;    0.156373;    0.153249;    0.149852;    0.145990;    0.142345;    0.136586;    0.130885;    0.125922;    0.120031;    0.113221;    0.106020;    0.099835;    0.092506;    0.082592;    0.072824;    0.060688;    0.050753;    0.037722;    0.027062;    0.014929;
100;   18.939842;    0.993761;    0.860696;    0.813276;    0.761776;    0.697287;    0.642770;    0.569403;    0.486512;    0.424294;    0.355698;    0.282576;    0.263750;    0.229401;    0.209396;    0.199063;    0.182752;    0.181265;    0.180412;    0.178427;    0.177259;    0.175396;    0.173170;    0.171490;    0.169184;    0.166739;    0.164553;    0.162263;    0.159754;    0.157567;    0.154876;    0.151013;    0.146607;    0.141846;    0.137710;    0.132814;    0.128150;    0.123922;    0.118855;    0.113224;    0.107290;    0.099175;    0.091162;    0.084201;    0.076947;    0.068246;    0.060816;    0.051570;    0.041502;    0.028880;    0.013841;
