Simulation;Time;PC 0;PC 1;PC 2;PC 3;PC 4;PC 5;PC 6;PC 7;PC 8;PC 9;PC10;PC11;PC12;PC13;PC14;PC15;PC16;PC17;
Nan;Nan;0;0;0;1;0;0;0;0;0;0;0;0;0;0;0;0;0;0;
  0;    0.373947;    0.996791;    0.532778;    0.334422;    0.197949;    0.199030;    0.199708;    0.199575;    0.205050;    0.207489;    0.208497;    0.212157;    0.214857;    0.215118;    0.220402;    0.222807;    0.231027;    0.235032;    0.242192;
  1;    0.350381;    1.029633;    0.556245;    0.337429;    0.201963;    0.204052;    0.205148;    0.206789;    0.207842;    0.210610;    0.215238;    0.218635;    0.222557;    0.224294;    0.230136;    0.235904;    0.240053;    0.247040;    0.250927;
  2;    0.347107;    1.025107;    0.562030;    0.345069;    0.203187;    0.205685;    0.206131;    0.208771;    0.209020;    0.210921;    0.212151;    0.213619;    0.218166;    0.223203;    0.228635;    0.231116;    0.238329;    0.245032;    0.249101;
  3;    0.346377;    0.975783;    0.528715;    0.347892;    0.205170;    0.207476;    0.207489;    0.210198;    0.211396;    0.212674;    0.214237;    0.215575;    0.217520;    0.219960;    0.223077;    0.229226;    0.235533;    0.237249;    0.240609;
  4;    0.341922;    1.027966;    0.553176;    0.358912;    0.206635;    0.209788;    0.210992;    0.210955;    0.213431;    0.217675;    0.219141;    0.221498;    0.226268;    0.230011;    0.232537;    0.238639;    0.242331;    0.247183;    0.253076;
  5;    0.353772;    0.999671;    0.527112;    0.331932;    0.203361;    0.205340;    0.205418;    0.206595;    0.209118;    0.212834;    0.212112;    0.215637;    0.218850;    0.223715;    0.226489;    0.231389;    0.233622;    0.240153;    0.244828;
  6;    0.342558;    1.007764;    0.543515;    0.333620;    0.202465;    0.203738;    0.206652;    0.206439;    0.207632;    0.211094;    0.212154;    0.218099;    0.222426;    0.223608;    0.226955;    0.230714;    0.233702;    0.241540;    0.245657;
  7;    0.339870;    1.013405;    0.535852;    0.332766;    0.202739;    0.202635;    0.204649;    0.207334;    0.209636;    0.209335;    0.214159;    0.217162;    0.221029;    0.223872;    0.226396;    0.230207;    0.236642;    0.244393;    0.248536;
  8;    0.341426;    0.973458;    0.514172;    0.327202;    0.199782;    0.201898;    0.204169;    0.205174;    0.207641;    0.210625;    0.212806;    0.215587;    0.215901;    0.219573;    0.222208;    0.226048;    0.227591;    0.233327;    0.236888;
  9;    0.351456;    0.998000;    0.540224;    0.337791;    0.204569;    0.207170;    0.208339;    0.210159;    0.210316;    0.216637;    0.221103;    0.224362;    0.227453;    0.230729;    0.232906;    0.234102;    0.240120;    0.243914;    0.249336;
 10;    0.344172;    1.014730;    0.551846;    0.347105;    0.205176;    0.208071;    0.210260;    0.213515;    0.215537;    0.218081;    0.219405;    0.223483;    0.224088;    0.224622;    0.230212;    0.235642;    0.240897;    0.247216;    0.250433;
 11;    0.336026;    0.985003;    0.537992;    0.336023;    0.205551;    0.204881;    0.204101;    0.206696;    0.207981;    0.211792;    0.215239;    0.217403;    0.221669;    0.223609;    0.225434;    0.227792;    0.234005;    0.239479;    0.243632;
 12;    0.347859;    0.960427;    0.528323;    0.323938;    0.201622;    0.202242;    0.202891;    0.203973;    0.203949;    0.207138;    0.207387;    0.208843;    0.215297;    0.220535;    0.224118;    0.227436;    0.229655;    0.231124;    0.235030;
 13;    0.347592;    1.012020;    0.525892;    0.334133;    0.202556;    0.203217;    0.205471;    0.205837;    0.207396;    0.210845;    0.212097;    0.215912;    0.218227;    0.225775;    0.233389;    0.238894;    0.243307;    0.243844;    0.246174;
 14;    0.341612;    0.979805;    0.530926;    0.336012;    0.199209;    0.202118;    0.203925;    0.202782;    0.204611;    0.207724;    0.212751;    0.217040;    0.218565;    0.218349;    0.223174;    0.228055;    0.228933;    0.233545;    0.239925;
 15;    0.414589;    1.031658;    0.523879;    0.335858;    0.197399;    0.199010;    0.202446;    0.205554;    0.205214;    0.209726;    0.211005;    0.217565;    0.223085;    0.226904;    0.230376;    0.232142;    0.236063;    0.244229;    0.252607;
 16;    0.339972;    0.997806;    0.543931;    0.339314;    0.207330;    0.208389;    0.208893;    0.211776;    0.212067;    0.213581;    0.217047;    0.217748;    0.222675;    0.225430;    0.228581;    0.231282;    0.237109;    0.240989;    0.243630;
 17;    0.348592;    0.970277;    0.524971;    0.335758;    0.199385;    0.198944;    0.199006;    0.200192;    0.201841;    0.202884;    0.206643;    0.210519;    0.215304;    0.218377;    0.219259;    0.224327;    0.228679;    0.230489;    0.236593;
 18;    0.350341;    0.939446;    0.513289;    0.327764;    0.202122;    0.201551;    0.203809;    0.206310;    0.207453;    0.211359;    0.213743;    0.213079;    0.216827;    0.220419;    0.223525;    0.225392;    0.229255;    0.229688;    0.231123;
 19;    0.344499;    0.985360;    0.514478;    0.315047;    0.201300;    0.204346;    0.203634;    0.207911;    0.211049;    0.212954;    0.216952;    0.220882;    0.223763;    0.226325;    0.228422;    0.232961;    0.236184;    0.238148;    0.241456;
 20;    0.336525;    1.038426;    0.538144;    0.341945;    0.203456;    0.205453;    0.208846;    0.212105;    0.214762;    0.214881;    0.220250;    0.222539;    0.224524;    0.227965;    0.235980;    0.241511;    0.246014;    0.248251;    0.253723;
 21;    0.354212;    1.022981;    0.529457;    0.337075;    0.204620;    0.204426;    0.207290;    0.207932;    0.207538;    0.210302;    0.213182;    0.217485;    0.222000;    0.225133;    0.228632;    0.234978;    0.241221;    0.244581;    0.251741;
 22;    0.352401;    1.013584;    0.530777;    0.333780;    0.205061;    0.206722;    0.208648;    0.209491;    0.212369;    0.212736;    0.214757;    0.219982;    0.221829;    0.224780;    0.230248;    0.233769;    0.239004;    0.244519;    0.247500;
 23;    0.341844;    0.986839;    0.523550;    0.323914;    0.205480;    0.205379;    0.206085;    0.209832;    0.212956;    0.215007;    0.216910;    0.219478;    0.220361;    0.222768;    0.225421;    0.231839;    0.236442;    0.241355;    0.242726;
 24;    0.343658;    1.027735;    0.548073;    0.344150;    0.202900;    0.204253;    0.206549;    0.207633;    0.209032;    0.212778;    0.214662;    0.220222;    0.221522;    0.225929;    0.228221;    0.233641;    0.243819;    0.251780;    0.255372;
 25;    0.343095;    0.979930;    0.532785;    0.337805;    0.199846;    0.200515;    0.201871;    0.205492;    0.208260;    0.208192;    0.208945;    0.212355;    0.217129;    0.218833;    0.223080;    0.224791;    0.231784;    0.235814;    0.237973;
 26;    0.340722;    1.002375;    0.534430;    0.339603;    0.207401;    0.209313;    0.209760;    0.213547;    0.214501;    0.217924;    0.219925;    0.222637;    0.224892;    0.223400;    0.229332;    0.231703;    0.236988;    0.240077;    0.244860;
 27;    0.349615;    1.016298;    0.523658;    0.328534;    0.203265;    0.205884;    0.207983;    0.208791;    0.211129;    0.213890;    0.217653;    0.218718;    0.221415;    0.225458;    0.226601;    0.231143;    0.237419;    0.240293;    0.249241;
 28;    0.347600;    1.023531;    0.525136;    0.331433;    0.202358;    0.203182;    0.205783;    0.207917;    0.207247;    0.212221;    0.214112;    0.217375;    0.219577;    0.224260;    0.228856;    0.233491;    0.238156;    0.244514;    0.249039;
 29;    0.347942;    1.054351;    0.530065;    0.332643;    0.201254;    0.203218;    0.203539;    0.207575;    0.208333;    0.214214;    0.219324;    0.222547;    0.226588;    0.228934;    0.232360;    0.236745;    0.241956;    0.246497;    0.254475;
 30;    0.342212;    1.020583;    0.536306;    0.344406;    0.204267;    0.204480;    0.207129;    0.206573;    0.205912;    0.208191;    0.211459;    0.218188;    0.224197;    0.228214;    0.232606;    0.235799;    0.239729;    0.242934;    0.250477;
 31;    0.345070;    1.020058;    0.542698;    0.333013;    0.203395;    0.204523;    0.207498;    0.210986;    0.212791;    0.212906;    0.217479;    0.221188;    0.223312;    0.227898;    0.228936;    0.231245;    0.238878;    0.243711;    0.251414;
 32;    0.378248;    0.984878;    0.546777;    0.330276;    0.202336;    0.202426;    0.207005;    0.210245;    0.212326;    0.214680;    0.216231;    0.218735;    0.223145;    0.225849;    0.228325;    0.231282;    0.232908;    0.239384;    0.241481;
 33;    0.346659;    1.026911;    0.525654;    0.325367;    0.199021;    0.199718;    0.204024;    0.206814;    0.207998;    0.212475;    0.214689;    0.217493;    0.219524;    0.224358;    0.230370;    0.237218;    0.240468;    0.245407;    0.250107;
 34;    0.334935;    1.041974;    0.539267;    0.341392;    0.206153;    0.207038;    0.210749;    0.212765;    0.216510;    0.217917;    0.220434;    0.220132;    0.223312;    0.227432;    0.233805;    0.238775;    0.245911;    0.248359;    0.255096;
 35;    0.339676;    0.995779;    0.532198;    0.332535;    0.202557;    0.203192;    0.206577;    0.206420;    0.210402;    0.212543;    0.216212;    0.220445;    0.221413;    0.226649;    0.228064;    0.233249;    0.237072;    0.242351;    0.243927;
 36;    0.333337;    0.958374;    0.536957;    0.338488;    0.200140;    0.201141;    0.203530;    0.206289;    0.206731;    0.210656;    0.211606;    0.216911;    0.221369;    0.222989;    0.224425;    0.230341;    0.235795;    0.237777;    0.235477;
 37;    0.334910;    0.996535;    0.546151;    0.348392;    0.200500;    0.203502;    0.203749;    0.204576;    0.206029;    0.209689;    0.213969;    0.217808;    0.222094;    0.222348;    0.225818;    0.228572;    0.236229;    0.243361;    0.243791;
 38;    0.335731;    1.001482;    0.524134;    0.329988;    0.202829;    0.203320;    0.203102;    0.203987;    0.206970;    0.211638;    0.214023;    0.215144;    0.217226;    0.221434;    0.226137;    0.230088;    0.237210;    0.240430;    0.245776;
 39;    0.333149;    0.953825;    0.521000;    0.333261;    0.201307;    0.202144;    0.203663;    0.205827;    0.206589;    0.205784;    0.209345;    0.210554;    0.211271;    0.217733;    0.221438;    0.226078;    0.228157;    0.231407;    0.233324;
 40;    0.348678;    1.021656;    0.556147;    0.339873;    0.201042;    0.201377;    0.203259;    0.204102;    0.206006;    0.209860;    0.211624;    0.213825;    0.220068;    0.222404;    0.226830;    0.233219;    0.236126;    0.242035;    0.250471;
 41;    0.341777;    0.999182;    0.531666;    0.326715;    0.201579;    0.201843;    0.203835;    0.204375;    0.206352;    0.209919;    0.210649;    0.213231;    0.216011;    0.220768;    0.224645;    0.229906;    0.235086;    0.238662;    0.242198;
 42;    0.337776;    1.045253;    0.533427;    0.341064;    0.201455;    0.205344;    0.205867;    0.208669;    0.210167;    0.214868;    0.217832;    0.220194;    0.224250;    0.227516;    0.231161;    0.236839;    0.244184;    0.250431;    0.258483;
 43;    0.340260;    1.023024;    0.531303;    0.332808;    0.202456;    0.204215;    0.206988;    0.206115;    0.210840;    0.213284;    0.213931;    0.216843;    0.219395;    0.223212;    0.226229;    0.231052;    0.236532;    0.244771;    0.252246;
 44;    0.342138;    1.005049;    0.538561;    0.330718;    0.204077;    0.205069;    0.206698;    0.210000;    0.212745;    0.215248;    0.218607;    0.220566;    0.221369;    0.226641;    0.232966;    0.237378;    0.240740;    0.240157;    0.246105;
 45;    0.339334;    0.978681;    0.514836;    0.325969;    0.201772;    0.204765;    0.206346;    0.205570;    0.204964;    0.208280;    0.212281;    0.216122;    0.219051;    0.223020;    0.224733;    0.230036;    0.236140;    0.239381;    0.243022;
 46;    0.337523;    1.025445;    0.529454;    0.334859;    0.200619;    0.201425;    0.203751;    0.204779;    0.207882;    0.211502;    0.214801;    0.217129;    0.222273;    0.224620;    0.227584;    0.231383;    0.238192;    0.243164;    0.251455;
 47;    0.343163;    1.025882;    0.528331;    0.344086;    0.207436;    0.209452;    0.213497;    0.215226;    0.217008;    0.216300;    0.218452;    0.222199;    0.225767;    0.227296;    0.230369;    0.236833;    0.239508;    0.243444;    0.250223;
 48;    0.342829;    0.965795;    0.518217;    0.334103;    0.203862;    0.205863;    0.209589;    0.210579;    0.212856;    0.214191;    0.214563;    0.219131;    0.223274;    0.226577;    0.230563;    0.231912;    0.232739;    0.237662;    0.237756;
 49;    0.364825;    0.974530;    0.518753;    0.332747;    0.203007;    0.203932;    0.206193;    0.208710;    0.209614;    0.208247;    0.209800;    0.212364;    0.216629;    0.218924;    0.221817;    0.227357;    0.230953;    0.232843;    0.238344;
 50;    0.333916;    1.014528;    0.534034;    0.330172;    0.200830;    0.203196;    0.203993;    0.204820;    0.210488;    0.212608;    0.217559;    0.220835;    0.223667;    0.225915;    0.229505;    0.232938;    0.235635;    0.242029;    0.248736;
 51;    0.338373;    1.031330;    0.536539;    0.345714;    0.202924;    0.203799;    0.205075;    0.208958;    0.210699;    0.216070;    0.218650;    0.222635;    0.224684;    0.227214;    0.234207;    0.239639;    0.242568;    0.244425;    0.249763;
 52;    0.339932;    1.010298;    0.540913;    0.340592;    0.199256;    0.200774;    0.202045;    0.204171;    0.207400;    0.210100;    0.212042;    0.216697;    0.218610;    0.225596;    0.229696;    0.232926;    0.233694;    0.239189;    0.246536;
 53;    0.345432;    0.963183;    0.553270;    0.336348;    0.200659;    0.201359;    0.202448;    0.204167;    0.206102;    0.207914;    0.210784;    0.215412;    0.217567;    0.220438;    0.222735;    0.226717;    0.232138;    0.235259;    0.236322;
 54;    0.335234;    1.038611;    0.558102;    0.326782;    0.200742;    0.201992;    0.205892;    0.206108;    0.207999;    0.209597;    0.213276;    0.215013;    0.221007;    0.223371;    0.228794;    0.235232;    0.237379;    0.245838;    0.251778;
 55;    0.341494;    0.991783;    0.514351;    0.325278;    0.199504;    0.200387;    0.201357;    0.203159;    0.205601;    0.207813;    0.209680;    0.214241;    0.217288;    0.221039;    0.223540;    0.230989;    0.237599;    0.240353;    0.243512;
 56;    0.348402;    1.015518;    0.537981;    0.329195;    0.200852;    0.200475;    0.204431;    0.205176;    0.207427;    0.208367;    0.213420;    0.216576;    0.218480;    0.223312;    0.225836;    0.230086;    0.235327;    0.240428;    0.246675;
 57;    0.339646;    1.028756;    0.553517;    0.344668;    0.205144;    0.205310;    0.206733;    0.210257;    0.213131;    0.214197;    0.218167;    0.219414;    0.225150;    0.229190;    0.231059;    0.235374;    0.241740;    0.247999;    0.252357;
 58;    0.342232;    1.012811;    0.535731;    0.331259;    0.202985;    0.204327;    0.205098;    0.210198;    0.214254;    0.216019;    0.217645;    0.222369;    0.225549;    0.230583;    0.233588;    0.239016;    0.242891;    0.245114;    0.249683;
 59;    0.340935;    0.990056;    0.538714;    0.345201;    0.199896;    0.199272;    0.200673;    0.203634;    0.205334;    0.205275;    0.209082;    0.213885;    0.216820;    0.218171;    0.223556;    0.225676;    0.229680;    0.237556;    0.244556;
 60;    0.340413;    0.997684;    0.528609;    0.334025;    0.202377;    0.204880;    0.206711;    0.208562;    0.210557;    0.212374;    0.216365;    0.221412;    0.226305;    0.230315;    0.232549;    0.232808;    0.239212;    0.241792;    0.244010;
 61;    0.336464;    0.989762;    0.527455;    0.327422;    0.205690;    0.206064;    0.206544;    0.208678;    0.210878;    0.213600;    0.216204;    0.219725;    0.219488;    0.224430;    0.225248;    0.229958;    0.234160;    0.238817;    0.242158;
 62;    0.347735;    0.991885;    0.525571;    0.335186;    0.199361;    0.201589;    0.201878;    0.203457;    0.205502;    0.205479;    0.210503;    0.214686;    0.218897;    0.221417;    0.224974;    0.226914;    0.229954;    0.235116;    0.241896;
 63;    0.354873;    1.036010;    0.539418;    0.325913;    0.200600;    0.200692;    0.201469;    0.203853;    0.208352;    0.212805;    0.214369;    0.219079;    0.221366;    0.223920;    0.231641;    0.236475;    0.243686;    0.251574;    0.255311;
 64;    0.372150;    1.012009;    0.538392;    0.345741;    0.204269;    0.207456;    0.209136;    0.209842;    0.213053;    0.216127;    0.220441;    0.222349;    0.225162;    0.226835;    0.229637;    0.234839;    0.241080;    0.244470;    0.249444;
 65;    0.348778;    0.968580;    0.526339;    0.325759;    0.199306;    0.201134;    0.201150;    0.202076;    0.205233;    0.207463;    0.210051;    0.212402;    0.213814;    0.217010;    0.222452;    0.225845;    0.230257;    0.230426;    0.236482;
 66;    0.339864;    0.985357;    0.526710;    0.333579;    0.201925;    0.202551;    0.204932;    0.204915;    0.207823;    0.209354;    0.208795;    0.212705;    0.214083;    0.218071;    0.222065;    0.226817;    0.232963;    0.237227;    0.244541;
 67;    0.348335;    0.961787;    0.513664;    0.323743;    0.204909;    0.204769;    0.207280;    0.206382;    0.208274;    0.209266;    0.211932;    0.213699;    0.212428;    0.216839;    0.219257;    0.221964;    0.226467;    0.230850;    0.238111;
 68;    0.346997;    0.997651;    0.527267;    0.332041;    0.203300;    0.207166;    0.207536;    0.210959;    0.212913;    0.214021;    0.217238;    0.219502;    0.221312;    0.226653;    0.229279;    0.231015;    0.234133;    0.236800;    0.242842;
 69;    0.344366;    0.974558;    0.539909;    0.342895;    0.204391;    0.205123;    0.208328;    0.209988;    0.210848;    0.214100;    0.216411;    0.219661;    0.222147;    0.223422;    0.226973;    0.230563;    0.234314;    0.236990;    0.238600;
 70;    0.346303;    1.019515;    0.548094;    0.330401;    0.204323;    0.205544;    0.207781;    0.210573;    0.212644;    0.217691;    0.218908;    0.222822;    0.222938;    0.227822;    0.235218;    0.237750;    0.239133;    0.243554;    0.251219;
 71;    0.347757;    1.000765;    0.523699;    0.328164;    0.201495;    0.203438;    0.205252;    0.204547;    0.205907;    0.209034;    0.214135;    0.217602;    0.220163;    0.224853;    0.228157;    0.231940;    0.236311;    0.240282;    0.246659;
 72;    0.347296;    1.005896;    0.517864;    0.330954;    0.203243;    0.205594;    0.209127;    0.212073;    0.214410;    0.216380;    0.220011;    0.221413;    0.221540;    0.225271;    0.229434;    0.232706;    0.235618;    0.240539;    0.246903;
 73;    0.346975;    1.038852;    0.541440;    0.343205;    0.206345;    0.209637;    0.213006;    0.214897;    0.216949;    0.215808;    0.220257;    0.223398;    0.227575;    0.228229;    0.235500;    0.240565;    0.242708;    0.246967;    0.256067;
 74;    0.348835;    1.030989;    0.532537;    0.348532;    0.202171;    0.203646;    0.208382;    0.210366;    0.210096;    0.212382;    0.212856;    0.217120;    0.221919;    0.228112;    0.236177;    0.240389;    0.242974;    0.246920;    0.249467;
 75;    0.352816;    1.017785;    0.547153;    0.332159;    0.196722;    0.200271;    0.202029;    0.204176;    0.206934;    0.207934;    0.212727;    0.216564;    0.217190;    0.220977;    0.227020;    0.233367;    0.241246;    0.245859;    0.248812;
 76;    0.354739;    1.022787;    0.523762;    0.323098;    0.201214;    0.204054;    0.205120;    0.206139;    0.209850;    0.212027;    0.213219;    0.216439;    0.222960;    0.228719;    0.234546;    0.239712;    0.244320;    0.246135;    0.248749;
 77;    0.345319;    0.973437;    0.520923;    0.320128;    0.196516;    0.199392;    0.198036;    0.198500;    0.200459;    0.203500;    0.207344;    0.211920;    0.213821;    0.217048;    0.218277;    0.222440;    0.227735;    0.230981;    0.239045;
 78;    0.345640;    0.985612;    0.547251;    0.340416;    0.200778;    0.201378;    0.205863;    0.208893;    0.210377;    0.211627;    0.213369;    0.217216;    0.220679;    0.220777;    0.222779;    0.225841;    0.230288;    0.236282;    0.240447;
 79;    0.340870;    1.004515;    0.533230;    0.329767;    0.203598;    0.203864;    0.204682;    0.205519;    0.207579;    0.211020;    0.215018;    0.214804;    0.221590;    0.226159;    0.227300;    0.230870;    0.236291;    0.240195;    0.245577;
 80;    0.347155;    1.009408;    0.532334;    0.331236;    0.194717;    0.195559;    0.199067;    0.201246;    0.202500;    0.204877;    0.206008;    0.210927;    0.212914;    0.216204;    0.221882;    0.224966;    0.230197;    0.236609;    0.245397;
 81;    0.348836;    0.982283;    0.520438;    0.331175;    0.199186;    0.201324;    0.201225;    0.201004;    0.203816;    0.206098;    0.211692;    0.216326;    0.217813;    0.219669;    0.223109;    0.228722;    0.232419;    0.240056;    0.242907;
 82;    0.346729;    0.988789;    0.521746;    0.327915;    0.197510;    0.197885;    0.199590;    0.203564;    0.207455;    0.210169;    0.214017;    0.215691;    0.217458;    0.221890;    0.224174;    0.226241;    0.233205;    0.239293;    0.244181;
 83;    0.345731;    0.948950;    0.514823;    0.323635;    0.200463;    0.200439;    0.202735;    0.203777;    0.206788;    0.210043;    0.213087;    0.214294;    0.214375;    0.218764;    0.221988;    0.222171;    0.222965;    0.229608;    0.235191;
 84;    0.337330;    0.968863;    0.541677;    0.343678;    0.203156;    0.205322;    0.205153;    0.206359;    0.206926;    0.209395;    0.214027;    0.216302;    0.219368;    0.222339;    0.222219;    0.222191;    0.226782;    0.229710;    0.235465;
 85;    0.350405;    0.981534;    0.536185;    0.335732;    0.203854;    0.205006;    0.207327;    0.209397;    0.208900;    0.212464;    0.216247;    0.218644;    0.218434;    0.222899;    0.227730;    0.229494;    0.234004;    0.234793;    0.239713;
 86;    0.354293;    1.042906;    0.542295;    0.332880;    0.201501;    0.202422;    0.205819;    0.206586;    0.207041;    0.211169;    0.212917;    0.216389;    0.222754;    0.226943;    0.229084;    0.233704;    0.243509;    0.249254;    0.252666;
 87;    0.346467;    1.012602;    0.529433;    0.328925;    0.201865;    0.203864;    0.205138;    0.204749;    0.207220;    0.210376;    0.212866;    0.215787;    0.217157;    0.221602;    0.224649;    0.228515;    0.236777;    0.242617;    0.247691;
 88;    0.347887;    1.046936;    0.549297;    0.337193;    0.197924;    0.201700;    0.203645;    0.203828;    0.205833;    0.209574;    0.213606;    0.219661;    0.224312;    0.230188;    0.233988;    0.233084;    0.241937;    0.248580;    0.255189;
 89;    0.347532;    1.019620;    0.546093;    0.347034;    0.201290;    0.202921;    0.204307;    0.205746;    0.205947;    0.209325;    0.211170;    0.217097;    0.219750;    0.220425;    0.226462;    0.229335;    0.234174;    0.239537;    0.246655;
 90;    0.340330;    0.986680;    0.534242;    0.329924;    0.204696;    0.204673;    0.207180;    0.207936;    0.210594;    0.213976;    0.214993;    0.216777;    0.223550;    0.228551;    0.230492;    0.230318;    0.232842;    0.238620;    0.243709;
 91;    0.345763;    1.028149;    0.547069;    0.335872;    0.200477;    0.201417;    0.203193;    0.206838;    0.208329;    0.214321;    0.217616;    0.218079;    0.223408;    0.228582;    0.232258;    0.237082;    0.240988;    0.248276;    0.250446;
 92;    0.339092;    0.999146;    0.533828;    0.343232;    0.201829;    0.202374;    0.205280;    0.207182;    0.208671;    0.212169;    0.214441;    0.215983;    0.216923;    0.219875;    0.226120;    0.230599;    0.231794;    0.235296;    0.244768;
 93;    0.349098;    0.999033;    0.536214;    0.340514;    0.204227;    0.205397;    0.207728;    0.210628;    0.212121;    0.215826;    0.215926;    0.218878;    0.224802;    0.229776;    0.233234;    0.236957;    0.238617;    0.237977;    0.244471;
 94;    0.350616;    1.003123;    0.531009;    0.323475;    0.199323;    0.199648;    0.202080;    0.203431;    0.205921;    0.207169;    0.208816;    0.213492;    0.216126;    0.222858;    0.226669;    0.229093;    0.233166;    0.240837;    0.243534;
 95;    0.339341;    1.023290;    0.535778;    0.333501;    0.203660;    0.204372;    0.209037;    0.211095;    0.211911;    0.214285;    0.218478;    0.219461;    0.224254;    0.229187;    0.231462;    0.236451;    0.238820;    0.241787;    0.248415;
 96;    0.348536;    1.032288;    0.536108;    0.330981;    0.199864;    0.199648;    0.204115;    0.208753;    0.213472;    0.215449;    0.218236;    0.221493;    0.224837;    0.224865;    0.231913;    0.235802;    0.242288;    0.248460;    0.252031;
 97;    0.350441;    1.001586;    0.551699;    0.348890;    0.207418;    0.210075;    0.208841;    0.208021;    0.212498;    0.216075;    0.220286;    0.222971;    0.224336;    0.225135;    0.229354;    0.233768;    0.235443;    0.241118;    0.245035;
 98;    0.342523;    1.010334;    0.547186;    0.341464;    0.201775;    0.202260;    0.203553;    0.206782;    0.211531;    0.215166;    0.216713;    0.217089;    0.221846;    0.227852;    0.230611;    0.231816;    0.234883;    0.243167;    0.247404;
 99;    0.345067;    1.019891;    0.527421;    0.333833;    0.201900;    0.203372;    0.205881;    0.210014;    0.209206;    0.211862;    0.215351;    0.219916;    0.222314;    0.225739;    0.231937;    0.237402;    0.242526;    0.247222;    0.251510;
100;    0.358852;    0.995953;    0.521451;    0.330734;    0.201471;    0.203274;    0.206364;    0.207878;    0.210242;    0.211393;    0.213923;    0.215475;    0.220479;    0.223840;    0.226695;    0.229786;    0.236865;    0.241773;    0.243323;
