Simulation;Time;PC 0;PC 1;PC 2;PC 3;PC 4;PC 5;PC 6;PC 7;PC 8;PC 9;PC10;PC11;PC12;PC13;PC14;PC15;PC16;PC17;
Nan;Nan;0;0;0;0;0;0;0;0;0;0;0;0;0;1;0;0;0;0;
  0;    0.258191;    1.413341;    1.288234;    1.181776;    1.178438;    1.177781;    1.176750;    1.170052;    1.153928;    1.117262;    1.121388;    1.117525;    1.113724;    1.106834;    1.087927;    1.087764;    1.088858;    1.088301;    1.088559;
  1;    0.259727;    1.430111;    1.307198;    1.191920;    1.193086;    1.189707;    1.183733;    1.176928;    1.168055;    1.133539;    1.132049;    1.133602;    1.130017;    1.123225;    1.099625;    1.099618;    1.099984;    1.100276;    1.100299;
  2;    0.258917;    1.430430;    1.311093;    1.198697;    1.198499;    1.197299;    1.199044;    1.188412;    1.182632;    1.136039;    1.134644;    1.135583;    1.130900;    1.127013;    1.102644;    1.103608;    1.103320;    1.102839;    1.102749;
  3;    0.257597;    1.414037;    1.295881;    1.205430;    1.203135;    1.208051;    1.201988;    1.202239;    1.190142;    1.142556;    1.142404;    1.142762;    1.142668;    1.132431;    1.106815;    1.106899;    1.107469;    1.107784;    1.107922;
  4;    0.259221;    1.429471;    1.306412;    1.205977;    1.205676;    1.202435;    1.194492;    1.195140;    1.182332;    1.143412;    1.143066;    1.139024;    1.142444;    1.133530;    1.112079;    1.112705;    1.113606;    1.113517;    1.113838;
  5;    0.261703;    1.419514;    1.294064;    1.192245;    1.196942;    1.194361;    1.195007;    1.190437;    1.175492;    1.135922;    1.133986;    1.134191;    1.128412;    1.124758;    1.100852;    1.100981;    1.101425;    1.101843;    1.101541;
  6;    0.259666;    1.423787;    1.302593;    1.192104;    1.191384;    1.185068;    1.185526;    1.185709;    1.170761;    1.134327;    1.131326;    1.135295;    1.131038;    1.127711;    1.099926;    1.100822;    1.101027;    1.100829;    1.101088;
  7;    0.258569;    1.425814;    1.300505;    1.196986;    1.194127;    1.200199;    1.196652;    1.186125;    1.167182;    1.135380;    1.133174;    1.134699;    1.130842;    1.127424;    1.099644;    1.100048;    1.100563;    1.100523;    1.100763;
  8;    0.258789;    1.409204;    1.284982;    1.187213;    1.185672;    1.187338;    1.193087;    1.175888;    1.168328;    1.124963;    1.125623;    1.126224;    1.120745;    1.109403;    1.091761;    1.092283;    1.092538;    1.092683;    1.093006;
  9;    0.259241;    1.423718;    1.304579;    1.201136;    1.199114;    1.201121;    1.202617;    1.194744;    1.187499;    1.140196;    1.142348;    1.141458;    1.139982;    1.138110;    1.107298;    1.107436;    1.108167;    1.108315;    1.108410;
 10;    0.261542;    1.427485;    1.307523;    1.202225;    1.202393;    1.202754;    1.205181;    1.209810;    1.184805;    1.142384;    1.138802;    1.136788;    1.136779;    1.129517;    1.107553;    1.107834;    1.108556;    1.108253;    1.108467;
 11;    0.260375;    1.417204;    1.300092;    1.194587;    1.198537;    1.191936;    1.191318;    1.184479;    1.171804;    1.137139;    1.140566;    1.144403;    1.136562;    1.130216;    1.107527;    1.107559;    1.107372;    1.107677;    1.107872;
 12;    0.256796;    1.410743;    1.297021;    1.190331;    1.192203;    1.186586;    1.185013;    1.170956;    1.168159;    1.133456;    1.131158;    1.132870;    1.134083;    1.130629;    1.095390;    1.095987;    1.095981;    1.096434;    1.096706;
 13;    0.256711;    1.422131;    1.292094;    1.192341;    1.190660;    1.191425;    1.191979;    1.183854;    1.169840;    1.132629;    1.133262;    1.137156;    1.134525;    1.139067;    1.099549;    1.099583;    1.100205;    1.100531;    1.100532;
 14;    0.259790;    1.407367;    1.286790;    1.183979;    1.185001;    1.182448;    1.177087;    1.165949;    1.149431;    1.127408;    1.126738;    1.131342;    1.131565;    1.121672;    1.094029;    1.094132;    1.094657;    1.095039;    1.095111;
 15;    0.258795;    1.420479;    1.281714;    1.180608;    1.177723;    1.174159;    1.169888;    1.169871;    1.150937;    1.119880;    1.119149;    1.116869;    1.114931;    1.111710;    1.088226;    1.088432;    1.088500;    1.088658;    1.088972;
 16;    0.258362;    1.423962;    1.307343;    1.204913;    1.200990;    1.204660;    1.204935;    1.196768;    1.189744;    1.147630;    1.149107;    1.149799;    1.153057;    1.139356;    1.110671;    1.111092;    1.111544;    1.112064;    1.112211;
 17;    0.258425;    1.406276;    1.286225;    1.190295;    1.193718;    1.185656;    1.181949;    1.174091;    1.164395;    1.130345;    1.127237;    1.131258;    1.128894;    1.130510;    1.092789;    1.092684;    1.092794;    1.092807;    1.092800;
 18;    0.258392;    1.400181;    1.286028;    1.190009;    1.193038;    1.186370;    1.183514;    1.179881;    1.163075;    1.132232;    1.129955;    1.133018;    1.136595;    1.124297;    1.099935;    1.100596;    1.101030;    1.100875;    1.101162;
 19;    0.260300;    1.416385;    1.289887;    1.185026;    1.183376;    1.182720;    1.185776;    1.177420;    1.152118;    1.130246;    1.134314;    1.136046;    1.135366;    1.119122;    1.095214;    1.096103;    1.095984;    1.096293;    1.096456;
 20;    0.257883;    1.429830;    1.297466;    1.196573;    1.196456;    1.196084;    1.195949;    1.191720;    1.179603;    1.137496;    1.138034;    1.141994;    1.137116;    1.129682;    1.103102;    1.103716;    1.103628;    1.104080;    1.104292;
 21;    0.260720;    1.424198;    1.291852;    1.193384;    1.192025;    1.192223;    1.192329;    1.180240;    1.166407;    1.137038;    1.137479;    1.137142;    1.132481;    1.126084;    1.104256;    1.104130;    1.104255;    1.104688;    1.104791;
 22;    0.259137;    1.428856;    1.302102;    1.200795;    1.197580;    1.200225;    1.187185;    1.185440;    1.171305;    1.137897;    1.137414;    1.138556;    1.135145;    1.129668;    1.104795;    1.104529;    1.104945;    1.105278;    1.105431;
 23;    0.255438;    1.419857;    1.297860;    1.194253;    1.198663;    1.198544;    1.190603;    1.185133;    1.163291;    1.138041;    1.137380;    1.140723;    1.135688;    1.136017;    1.105234;    1.105289;    1.105573;    1.105817;    1.106288;
 24;    0.258556;    1.431767;    1.308476;    1.201427;    1.204365;    1.199376;    1.199305;    1.195516;    1.182140;    1.137990;    1.139937;    1.143561;    1.136749;    1.126058;    1.101438;    1.101550;    1.102037;    1.102497;    1.102795;
 25;    0.268607;    1.410836;    1.291673;    1.189062;    1.189330;    1.186717;    1.183697;    1.173882;    1.162428;    1.131114;    1.129621;    1.131477;    1.134599;    1.118667;    1.093671;    1.093755;    1.093647;    1.093769;    1.094057;
 26;    0.255894;    1.424520;    1.302745;    1.203730;    1.205539;    1.203050;    1.207581;    1.200969;    1.188008;    1.141286;    1.145380;    1.144366;    1.139694;    1.127772;    1.110891;    1.111503;    1.111963;    1.111761;    1.111838;
 27;    0.259876;    1.425969;    1.295117;    1.196325;    1.193263;    1.194181;    1.199168;    1.191656;    1.174791;    1.135017;    1.136093;    1.132991;    1.133068;    1.124325;    1.100094;    1.100749;    1.100955;    1.100947;    1.100943;
 28;    0.258202;    1.427566;    1.294532;    1.193619;    1.192399;    1.195646;    1.186711;    1.184260;    1.178159;    1.130253;    1.134322;    1.128564;    1.126161;    1.118754;    1.097574;    1.098069;    1.098772;    1.098152;    1.098299;
 29;    0.257292;    1.435188;    1.295688;    1.193061;    1.195885;    1.191637;    1.193548;    1.177836;    1.159019;    1.129718;    1.130974;    1.125644;    1.120667;    1.114867;    1.095001;    1.096004;    1.096235;    1.095978;    1.096129;
 30;    0.258380;    1.424445;    1.296420;    1.197092;    1.202012;    1.200964;    1.193811;    1.188974;    1.174375;    1.133680;    1.133455;    1.138502;    1.132681;    1.132526;    1.103248;    1.103691;    1.104251;    1.104771;    1.104995;
 31;    0.258851;    1.426929;    1.302113;    1.191989;    1.193152;    1.195779;    1.192566;    1.185024;    1.169539;    1.135845;    1.137831;    1.138042;    1.142648;    1.131722;    1.103373;    1.103107;    1.103439;    1.103749;    1.103690;
 32;    0.256151;    1.418690;    1.305185;    1.190980;    1.194163;    1.186988;    1.188146;    1.180419;    1.167107;    1.137840;    1.137345;    1.137455;    1.134037;    1.132868;    1.099568;    1.099934;    1.100251;    1.100588;    1.100649;
 33;    0.258926;    1.425102;    1.290465;    1.181917;    1.179637;    1.175806;    1.174263;    1.183231;    1.171588;    1.122322;    1.124552;    1.121379;    1.122248;    1.114653;    1.090872;    1.091812;    1.091373;    1.091291;    1.091402;
 34;    0.266380;    1.432344;    1.299427;    1.196921;    1.198820;    1.196865;    1.196429;    1.190314;    1.181903;    1.140025;    1.140383;    1.138168;    1.136796;    1.132145;    1.107915;    1.108535;    1.108654;    1.109344;    1.109079;
 35;    0.260071;    1.421424;    1.299941;    1.194681;    1.195407;    1.195543;    1.185678;    1.184075;    1.171334;    1.132087;    1.131437;    1.131573;    1.133048;    1.126260;    1.101342;    1.101179;    1.101588;    1.101721;    1.101549;
 36;    0.259892;    1.404210;    1.293831;    1.188557;    1.186250;    1.191981;    1.190213;    1.182231;    1.178559;    1.128753;    1.128871;    1.130253;    1.128626;    1.121949;    1.099282;    1.100334;    1.100105;    1.100171;    1.100251;
 37;    0.260726;    1.413799;    1.294285;    1.189912;    1.185719;    1.189908;    1.183405;    1.181557;    1.156156;    1.132642;    1.131616;    1.132895;    1.127624;    1.122784;    1.097724;    1.098634;    1.098772;    1.099242;    1.099165;
 38;    0.258934;    1.417771;    1.289881;    1.187631;    1.188765;    1.182451;    1.184239;    1.181322;    1.157761;    1.128775;    1.132352;    1.128638;    1.126616;    1.123406;    1.098854;    1.099289;    1.099899;    1.100110;    1.100309;
 39;    0.259854;    1.399909;    1.282779;    1.183787;    1.186359;    1.178077;    1.175450;    1.169963;    1.162311;    1.130268;    1.130025;    1.130247;    1.128992;    1.126550;    1.097341;    1.097810;    1.098452;    1.098716;    1.098423;
 40;    0.266926;    1.426993;    1.306524;    1.190936;    1.195958;    1.194940;    1.192394;    1.185757;    1.168326;    1.131403;    1.131612;    1.131361;    1.137567;    1.121851;    1.094978;    1.095494;    1.095611;    1.096020;    1.096293;
 41;    0.259553;    1.419169;    1.295966;    1.186563;    1.187503;    1.182417;    1.171067;    1.165710;    1.154253;    1.124167;    1.123200;    1.125327;    1.124815;    1.120865;    1.096572;    1.097667;    1.097186;    1.097086;    1.097137;
 42;    0.257481;    1.429531;    1.291668;    1.191377;    1.190604;    1.187480;    1.188899;    1.178900;    1.168215;    1.132154;    1.132602;    1.129350;    1.128800;    1.121662;    1.096476;    1.096723;    1.097031;    1.097440;    1.097639;
 43;    0.256056;    1.426029;    1.295682;    1.192813;    1.193602;    1.191228;    1.188561;    1.184301;    1.166110;    1.130238;    1.129720;    1.127127;    1.126183;    1.117134;    1.098189;    1.098856;    1.099634;    1.098995;    1.099445;
 44;    0.259558;    1.425554;    1.304656;    1.194702;    1.195624;    1.201683;    1.200665;    1.185209;    1.167786;    1.131424;    1.135121;    1.131452;    1.133850;    1.123833;    1.103299;    1.103489;    1.103665;    1.103986;    1.104065;
 45;    0.256951;    1.410116;    1.284108;    1.185629;    1.185842;    1.184722;    1.183584;    1.178011;    1.157674;    1.128438;    1.128638;    1.126865;    1.130093;    1.122965;    1.097057;    1.097244;    1.097611;    1.097737;    1.098010;
 46;    0.259060;    1.425857;    1.293196;    1.191662;    1.187604;    1.189112;    1.190514;    1.177901;    1.163486;    1.124631;    1.126581;    1.122332;    1.119281;    1.115499;    1.094343;    1.094755;    1.095107;    1.095299;    1.095583;
 47;    0.257507;    1.428127;    1.296774;    1.204024;    1.202373;    1.208694;    1.204122;    1.192223;    1.188111;    1.144042;    1.146123;    1.149439;    1.149029;    1.131394;    1.111858;    1.112301;    1.112939;    1.112907;    1.112897;
 48;    0.259575;    1.410633;    1.291168;    1.196798;    1.192780;    1.193348;    1.197544;    1.185418;    1.178472;    1.136439;    1.140118;    1.143669;    1.138519;    1.133981;    1.104707;    1.105057;    1.105740;    1.105666;    1.105732;
 49;    0.257530;    1.413642;    1.291899;    1.196376;    1.194354;    1.191916;    1.182224;    1.180560;    1.168971;    1.133212;    1.134069;    1.132423;    1.127559;    1.124234;    1.099097;    1.099712;    1.099949;    1.100080;    1.099839;
 50;    0.258239;    1.423781;    1.296281;    1.188500;    1.186569;    1.189407;    1.193525;    1.178756;    1.161026;    1.130135;    1.131163;    1.130682;    1.128776;    1.120908;    1.095427;    1.095886;    1.096101;    1.096264;    1.096529;
 51;    0.258872;    1.432041;    1.302158;    1.203736;    1.201728;    1.202672;    1.198244;    1.190167;    1.187069;    1.137687;    1.138240;    1.139188;    1.139089;    1.128683;    1.101168;    1.101784;    1.102070;    1.102233;    1.102348;
 52;    0.259055;    1.418429;    1.293843;    1.187072;    1.187090;    1.183818;    1.184620;    1.170483;    1.154159;    1.125307;    1.122971;    1.122631;    1.123465;    1.118627;    1.093336;    1.093994;    1.094202;    1.094659;    1.094140;
 53;    0.258082;    1.412304;    1.307932;    1.191916;    1.192933;    1.192703;    1.184081;    1.175092;    1.172262;    1.131930;    1.133428;    1.130737;    1.139870;    1.140479;    1.096785;    1.096997;    1.097660;    1.097660;    1.097769;
 54;    0.259565;    1.436332;    1.313590;    1.187702;    1.188963;    1.188900;    1.190421;    1.178895;    1.162788;    1.125156;    1.127990;    1.124297;    1.117006;    1.116310;    1.093301;    1.094142;    1.093618;    1.093497;    1.093779;
 55;    0.262285;    1.412264;    1.282034;    1.183135;    1.186439;    1.181127;    1.176747;    1.179072;    1.160530;    1.128815;    1.129154;    1.135163;    1.137636;    1.124584;    1.092844;    1.093097;    1.093023;    1.093202;    1.093432;
 56;    0.256391;    1.421692;    1.294861;    1.183573;    1.180553;    1.182682;    1.172860;    1.170166;    1.168569;    1.130622;    1.129623;    1.128562;    1.131006;    1.120974;    1.095647;    1.096109;    1.096255;    1.096194;    1.096387;
 57;    0.258886;    1.428922;    1.305874;    1.196371;    1.195170;    1.199342;    1.189731;    1.183526;    1.175994;    1.137661;    1.134605;    1.135570;    1.137665;    1.137468;    1.107012;    1.107161;    1.107915;    1.107942;    1.108262;
 58;    0.257443;    1.426491;    1.301590;    1.193150;    1.197016;    1.190622;    1.188987;    1.192475;    1.178416;    1.132190;    1.133254;    1.132524;    1.129524;    1.131613;    1.102153;    1.103351;    1.103238;    1.103985;    1.103758;
 59;    0.256507;    1.412908;    1.292399;    1.191169;    1.188995;    1.187638;    1.179223;    1.171829;    1.171344;    1.131040;    1.128988;    1.132879;    1.130932;    1.125691;    1.095370;    1.095917;    1.095695;    1.096037;    1.096313;
 60;    0.259849;    1.420873;    1.296599;    1.195601;    1.194688;    1.195182;    1.196156;    1.201318;    1.174267;    1.131727;    1.130985;    1.134544;    1.132337;    1.122439;    1.100878;    1.101894;    1.101580;    1.101900;    1.101847;
 61;    0.256137;    1.417584;    1.294932;    1.190654;    1.189527;    1.193966;    1.184609;    1.180391;    1.173718;    1.137809;    1.136944;    1.137233;    1.135056;    1.130209;    1.105852;    1.105974;    1.106091;    1.106475;    1.106671;
 62;    0.260321;    1.412291;    1.285723;    1.187057;    1.186039;    1.191540;    1.178871;    1.170405;    1.160774;    1.126711;    1.130979;    1.135621;    1.135980;    1.119914;    1.091465;    1.091401;    1.091648;    1.092077;    1.092107;
 63;    0.259266;    1.429932;    1.298728;    1.183996;    1.181727;    1.178773;    1.178482;    1.179336;    1.163524;    1.128401;    1.129592;    1.133675;    1.125483;    1.114130;    1.094289;    1.094815;    1.094538;    1.095056;    1.095205;
 64;    0.258332;    1.421114;    1.295436;    1.197115;    1.197752;    1.193525;    1.193567;    1.189765;    1.168142;    1.138946;    1.142230;    1.140533;    1.135855;    1.129297;    1.107344;    1.108184;    1.108385;    1.108717;    1.108793;
 65;    0.258902;    1.408549;    1.290736;    1.183889;    1.181737;    1.182923;    1.178580;    1.169866;    1.159425;    1.120831;    1.120517;    1.120789;    1.118418;    1.109948;    1.090863;    1.091307;    1.092026;    1.092240;    1.092241;
 66;    0.258727;    1.417055;    1.295334;    1.195587;    1.200760;    1.192296;    1.192608;    1.193524;    1.173954;    1.134603;    1.131362;    1.130363;    1.129341;    1.123620;    1.096370;    1.097818;    1.096845;    1.097125;    1.097420;
 67;    0.259336;    1.411229;    1.292630;    1.193463;    1.190259;    1.192171;    1.186839;    1.167642;    1.158146;    1.133041;    1.132058;    1.132190;    1.131035;    1.134607;    1.102810;    1.102949;    1.102584;    1.102857;    1.103022;
 68;    0.258008;    1.420025;    1.295753;    1.194353;    1.192966;    1.195004;    1.183959;    1.184372;    1.181900;    1.134262;    1.133378;    1.136741;    1.135032;    1.123615;    1.102030;    1.102153;    1.102342;    1.102497;    1.102732;
 69;    0.259140;    1.410863;    1.296213;    1.194529;    1.193895;    1.194320;    1.200577;    1.190827;    1.169940;    1.140169;    1.140180;    1.140898;    1.139351;    1.138235;    1.107176;    1.107265;    1.107464;    1.107439;    1.107635;
 70;    0.257389;    1.430391;    1.309280;    1.192806;    1.192348;    1.190281;    1.185260;    1.180498;    1.182386;    1.134168;    1.133056;    1.133466;    1.128803;    1.124853;    1.103976;    1.105121;    1.104881;    1.105175;    1.105479;
 71;    0.260637;    1.420229;    1.292536;    1.189787;    1.184589;    1.183567;    1.191769;    1.192020;    1.180248;    1.129563;    1.131649;    1.127926;    1.126871;    1.118265;    1.096208;    1.095902;    1.096011;    1.096231;    1.096527;
 72;    0.263161;    1.421537;    1.290538;    1.193860;    1.194040;    1.193928;    1.192747;    1.189121;    1.181112;    1.131746;    1.134374;    1.135705;    1.135274;    1.127090;    1.100569;    1.101054;    1.100989;    1.101119;    1.101258;
 73;    0.256623;    1.436636;    1.307891;    1.207291;    1.208442;    1.206822;    1.212593;    1.205549;    1.181466;    1.144140;    1.145296;    1.149535;    1.144061;    1.143946;    1.109219;    1.109480;    1.109799;    1.110096;    1.110290;
 74;    0.255718;    1.422605;    1.287570;    1.192190;    1.190287;    1.194029;    1.185716;    1.175437;    1.165222;    1.133072;    1.138144;    1.132511;    1.128270;    1.125737;    1.101930;    1.103144;    1.102817;    1.103149;    1.103112;
 75;    0.257881;    1.422005;    1.298537;    1.180267;    1.181689;    1.184638;    1.182220;    1.169884;    1.157517;    1.116683;    1.122061;    1.123021;    1.127827;    1.115883;    1.087245;    1.088242;    1.087829;    1.088259;    1.088566;
 76;    0.257820;    1.425620;    1.292077;    1.187171;    1.185448;    1.185522;    1.187098;    1.180289;    1.164769;    1.127450;    1.128945;    1.125537;    1.121274;    1.115570;    1.095646;    1.095649;    1.096473;    1.095847;    1.096070;
 77;    0.259909;    1.405990;    1.283743;    1.174434;    1.170606;    1.172477;    1.165927;    1.165571;    1.150202;    1.117878;    1.118460;    1.121455;    1.120821;    1.117020;    1.084871;    1.084568;    1.084436;    1.084590;    1.084786;
 78;    0.259753;    1.414630;    1.299474;    1.188977;    1.186778;    1.186249;    1.189605;    1.178158;    1.159381;    1.128721;    1.131225;    1.134209;    1.131434;    1.122421;    1.098813;    1.098869;    1.098987;    1.099079;    1.099315;
 79;    0.255726;    1.423135;    1.298753;    1.192447;    1.188055;    1.187876;    1.180261;    1.180713;    1.160205;    1.130452;    1.132969;    1.131269;    1.126524;    1.125731;    1.100953;    1.101443;    1.101504;    1.102094;    1.101708;
 80;    0.258239;    1.414854;    1.285166;    1.175923;    1.174632;    1.171463;    1.169515;    1.159854;    1.147132;    1.114777;    1.115606;    1.114757;    1.110039;    1.102117;    1.080821;    1.081309;    1.081645;    1.081576;    1.081581;
 81;    0.258703;    1.409992;    1.285050;    1.185579;    1.184899;    1.183034;    1.187668;    1.181001;    1.165285;    1.123502;    1.123615;    1.122066;    1.125458;    1.118528;    1.092376;    1.092407;    1.092774;    1.093118;    1.093296;
 82;    0.258202;    1.410868;    1.284254;    1.180310;    1.185520;    1.183993;    1.179145;    1.175046;    1.154097;    1.120211;    1.124105;    1.125168;    1.121552;    1.113200;    1.088200;    1.088620;    1.089128;    1.089402;    1.089571;
 83;    0.258556;    1.400734;    1.283475;    1.182285;    1.180925;    1.180659;    1.179250;    1.173960;    1.156866;    1.127738;    1.129253;    1.128844;    1.130051;    1.117324;    1.095308;    1.095588;    1.095936;    1.096131;    1.096385;
 84;    0.257091;    1.410061;    1.298645;    1.194921;    1.194047;    1.195498;    1.186787;    1.177007;    1.175022;    1.136510;    1.136020;    1.138922;    1.136973;    1.129839;    1.103666;    1.103641;    1.104176;    1.104085;    1.104266;
 85;    0.264875;    1.417950;    1.301360;    1.197558;    1.195309;    1.198458;    1.192102;    1.193198;    1.181065;    1.138979;    1.142175;    1.139473;    1.138973;    1.133022;    1.103320;    1.103717;    1.104031;    1.103978;    1.104254;
 86;    0.257231;    1.431172;    1.298104;    1.187002;    1.185535;    1.186832;    1.188157;    1.176998;    1.169595;    1.128655;    1.129290;    1.128993;    1.132652;    1.114643;    1.096603;    1.096478;    1.096660;    1.097066;    1.097163;
 87;    0.255974;    1.422886;    1.294283;    1.188551;    1.186895;    1.182923;    1.181234;    1.173888;    1.165468;    1.132072;    1.131103;    1.132658;    1.130946;    1.121205;    1.095530;    1.097036;    1.096653;    1.096916;    1.097089;
 88;    0.257998;    1.431129;    1.299317;    1.188118;    1.190029;    1.190282;    1.195947;    1.187294;    1.160520;    1.126751;    1.130492;    1.130286;    1.120003;    1.109322;    1.091079;    1.091820;    1.091528;    1.092136;    1.091637;
 89;    0.256577;    1.423820;    1.298900;    1.195584;    1.196290;    1.192580;    1.191534;    1.179433;    1.161180;    1.128806;    1.132901;    1.131653;    1.130103;    1.121726;    1.096247;    1.096633;    1.097121;    1.097031;    1.097281;
 90;    0.258544;    1.417680;    1.298737;    1.192447;    1.190067;    1.190541;    1.190171;    1.184644;    1.176735;    1.138368;    1.139911;    1.138221;    1.138319;    1.143171;    1.105575;    1.106660;    1.107057;    1.107269;    1.106599;
 91;    0.260585;    1.428332;    1.302057;    1.189283;    1.190086;    1.186887;    1.182429;    1.182374;    1.167573;    1.126923;    1.126191;    1.127328;    1.123901;    1.114389;    1.095843;    1.096514;    1.096763;    1.097133;    1.097150;
 92;    0.258944;    1.414251;    1.289244;    1.188823;    1.187796;    1.187751;    1.182632;    1.178832;    1.158911;    1.130012;    1.131502;    1.131405;    1.129157;    1.118524;    1.100457;    1.101412;    1.100687;    1.101371;    1.101400;
 93;    0.257958;    1.420177;    1.297685;    1.197184;    1.197159;    1.198369;    1.195863;    1.185101;    1.173717;    1.137861;    1.136706;    1.138089;    1.133045;    1.131451;    1.104698;    1.104868;    1.105118;    1.105620;    1.105757;
 94;    0.260470;    1.422551;    1.298214;    1.186762;    1.184400;    1.180474;    1.177670;    1.175478;    1.161931;    1.124456;    1.124956;    1.121259;    1.121003;    1.113375;    1.088941;    1.089095;    1.089489;    1.089582;    1.089675;
 95;    0.258810;    1.427797;    1.299141;    1.194703;    1.193437;    1.196871;    1.192761;    1.183368;    1.162662;    1.135665;    1.141526;    1.145228;    1.144019;    1.127718;    1.102924;    1.103455;    1.103443;    1.103648;    1.103580;
 96;    0.258828;    1.427507;    1.295160;    1.186506;    1.192773;    1.197059;    1.196307;    1.184070;    1.166220;    1.124625;    1.126738;    1.120725;    1.120067;    1.119623;    1.094475;    1.094672;    1.094847;    1.095305;    1.095364;
 97;    0.258021;    1.427116;    1.312807;    1.208722;    1.203987;    1.205053;    1.200763;    1.194942;    1.178755;    1.142456;    1.142025;    1.143091;    1.149397;    1.145426;    1.111912;    1.112680;    1.112506;    1.112402;    1.112650;
 98;    0.256283;    1.421200;    1.299670;    1.190066;    1.194289;    1.190829;    1.183505;    1.177680;    1.165157;    1.131438;    1.130219;    1.131878;    1.132921;    1.123983;    1.100167;    1.100804;    1.101219;    1.101419;    1.101540;
 99;    0.256352;    1.419533;    1.285823;    1.183698;    1.183707;    1.178930;    1.179032;    1.175395;    1.162061;    1.129289;    1.130519;    1.132713;    1.128664;    1.131482;    1.099489;    1.100229;    1.100351;    1.100694;    1.100945;
100;    0.260453;    1.414734;    1.285579;    1.187200;    1.190726;    1.192969;    1.185571;    1.177187;    1.173603;    1.132194;    1.134274;    1.129657;    1.129213;    1.120603;    1.098720;    1.099094;    1.099976;    1.100260;    1.099801;
