Simulation;Time;PC 0;PC 1;PC 2;PC 3;PC 4;PC 5;PC 6;PC 7;PC 8;PC 9;PC10;PC11;PC12;PC13;PC14;PC15;PC16;PC17;
Nan;Nan;0;1;0;0;0;0;0;0;0;0;0;0;0;0;0;0;0;0;
  0;    0.019710;    0.254217;    0.232831;    0.232906;    0.233044;    0.233027;    0.233107;    0.233260;    0.233398;    0.233465;    0.233414;    0.233439;    0.233460;    0.233414;    0.233455;    0.233390;    0.233443;    0.233431;    0.233448;
  1;    0.019558;    0.256220;    0.234835;    0.234853;    0.234967;    0.235025;    0.235225;    0.235254;    0.235349;    0.235396;    0.235396;    0.235381;    0.235431;    0.235494;    0.235498;    0.235561;    0.235563;    0.235589;    0.235600;
  2;    0.019486;    0.256069;    0.235344;    0.235577;    0.235670;    0.235728;    0.235812;    0.235923;    0.235861;    0.235941;    0.235894;    0.235830;    0.235870;    0.235931;    0.235988;    0.236022;    0.236049;    0.236075;    0.236060;
  3;    0.019486;    0.254908;    0.235169;    0.235385;    0.235394;    0.235626;    0.235745;    0.235706;    0.235777;    0.235796;    0.235796;    0.235776;    0.235844;    0.235878;    0.235905;    0.235962;    0.235978;    0.235999;    0.236007;
  4;    0.019242;    0.257382;    0.236507;    0.236620;    0.236758;    0.236871;    0.236800;    0.236910;    0.237048;    0.237106;    0.237186;    0.237161;    0.237228;    0.237315;    0.237286;    0.237343;    0.237348;    0.237336;    0.237352;
  5;    0.019601;    0.255880;    0.234574;    0.234662;    0.234770;    0.234865;    0.234866;    0.235066;    0.235108;    0.235159;    0.235185;    0.235184;    0.235273;    0.235295;    0.235347;    0.235342;    0.235350;    0.235378;    0.235379;
  6;    0.018546;    0.255555;    0.234655;    0.234876;    0.234939;    0.234916;    0.235012;    0.235085;    0.235210;    0.235200;    0.235314;    0.235457;    0.235492;    0.235385;    0.235447;    0.235482;    0.235441;    0.235486;    0.235457;
  7;    0.019748;    0.256179;    0.234621;    0.234644;    0.234884;    0.234933;    0.235078;    0.235137;    0.235027;    0.235161;    0.235230;    0.235234;    0.235271;    0.235340;    0.235323;    0.235339;    0.235354;    0.235387;    0.235409;
  8;    0.019547;    0.253969;    0.232913;    0.233125;    0.233289;    0.233375;    0.233250;    0.233353;    0.233541;    0.233531;    0.233515;    0.233595;    0.233591;    0.233680;    0.233669;    0.233713;    0.233741;    0.233710;    0.233728;
  9;    0.019154;    0.255619;    0.235245;    0.235412;    0.235444;    0.235589;    0.235694;    0.235774;    0.235877;    0.235969;    0.236006;    0.236025;    0.236125;    0.236184;    0.236190;    0.236247;    0.236248;    0.236288;    0.236310;
 10;    0.019007;    0.256195;    0.235687;    0.235789;    0.235982;    0.236169;    0.236161;    0.236260;    0.236283;    0.236401;    0.236446;    0.236531;    0.236554;    0.236461;    0.236533;    0.236540;    0.236580;    0.236601;    0.236602;
 11;    0.019100;    0.255149;    0.235415;    0.235451;    0.235495;    0.235672;    0.235648;    0.235801;    0.235844;    0.235911;    0.235990;    0.236051;    0.236065;    0.236094;    0.236107;    0.236096;    0.236143;    0.236161;    0.236178;
 12;    0.019307;    0.253057;    0.233677;    0.233788;    0.233883;    0.234052;    0.234097;    0.234060;    0.234005;    0.234022;    0.234060;    0.234182;    0.234289;    0.234358;    0.234373;    0.234396;    0.234342;    0.234376;    0.234378;
 13;    0.019911;    0.256495;    0.234376;    0.234498;    0.234708;    0.234792;    0.234866;    0.234925;    0.234872;    0.234908;    0.235012;    0.235027;    0.235090;    0.235195;    0.235281;    0.235298;    0.235288;    0.235278;    0.235244;
 14;    0.019689;    0.253427;    0.233037;    0.233237;    0.233427;    0.233378;    0.233506;    0.233491;    0.233609;    0.233652;    0.233746;    0.233819;    0.233755;    0.233804;    0.233911;    0.233930;    0.233846;    0.233879;    0.233905;
 15;    0.019556;    0.256490;    0.232717;    0.232993;    0.232967;    0.233045;    0.233219;    0.233178;    0.233269;    0.233268;    0.233335;    0.233437;    0.233506;    0.233538;    0.233422;    0.233412;    0.233446;    0.233478;    0.233485;
 16;    0.019502;    0.256155;    0.236266;    0.236417;    0.236571;    0.236606;    0.236635;    0.236610;    0.236629;    0.236737;    0.236857;    0.236905;    0.236877;    0.236929;    0.236968;    0.236989;    0.237030;    0.237076;    0.237040;
 17;    0.019338;    0.253309;    0.233019;    0.233015;    0.233137;    0.233098;    0.233263;    0.233358;    0.233372;    0.233396;    0.233512;    0.233562;    0.233654;    0.233638;    0.233554;    0.233599;    0.233596;    0.233629;    0.233639;
 18;    0.020936;    0.252475;    0.233527;    0.233594;    0.233760;    0.233940;    0.234071;    0.234039;    0.234167;    0.234135;    0.234234;    0.234345;    0.234382;    0.234369;    0.234415;    0.234437;    0.234416;    0.234428;    0.234457;
 19;    0.019450;    0.254911;    0.233319;    0.233563;    0.233559;    0.233692;    0.233855;    0.233986;    0.234038;    0.234109;    0.234166;    0.234167;    0.234263;    0.234311;    0.234321;    0.234298;    0.234295;    0.234335;    0.234347;
 20;    0.019224;    0.257728;    0.235061;    0.235217;    0.235472;    0.235589;    0.235634;    0.235640;    0.235629;    0.235793;    0.235902;    0.235948;    0.235945;    0.235924;    0.236023;    0.236049;    0.236019;    0.236039;    0.236048;
 21;    0.020947;    0.257481;    0.235192;    0.235196;    0.235439;    0.235460;    0.235456;    0.235469;    0.235645;    0.235662;    0.235756;    0.235816;    0.235792;    0.235839;    0.235847;    0.235913;    0.235945;    0.235942;    0.235958;
 22;    0.019681;    0.256965;    0.235304;    0.235477;    0.235636;    0.235693;    0.235773;    0.235748;    0.235767;    0.235794;    0.235914;    0.236007;    0.236072;    0.236008;    0.236072;    0.236132;    0.236171;    0.236162;    0.236157;
 23;    0.019174;    0.255684;    0.235073;    0.235161;    0.235249;    0.235486;    0.235582;    0.235607;    0.235697;    0.235743;    0.235788;    0.235814;    0.235804;    0.235842;    0.235898;    0.235918;    0.235925;    0.235959;    0.235963;
 24;    0.019785;    0.256579;    0.235070;    0.235290;    0.235398;    0.235425;    0.235513;    0.235525;    0.235640;    0.235701;    0.235675;    0.235774;    0.235678;    0.235712;    0.235742;    0.235801;    0.235872;    0.235912;    0.235936;
 25;    0.019088;    0.253651;    0.233297;    0.233425;    0.233446;    0.233702;    0.233839;    0.233832;    0.233836;    0.233898;    0.233816;    0.233936;    0.233908;    0.233934;    0.233991;    0.233974;    0.234015;    0.234033;    0.234003;
 26;    0.019840;    0.256840;    0.236268;    0.236422;    0.236488;    0.236623;    0.236761;    0.236704;    0.236742;    0.236886;    0.236962;    0.236930;    0.236867;    0.236931;    0.236953;    0.236958;    0.236983;    0.237015;    0.237025;
 27;    0.019602;    0.256917;    0.234577;    0.234753;    0.234867;    0.234960;    0.235052;    0.235156;    0.235164;    0.235265;    0.235308;    0.235318;    0.235390;    0.235318;    0.235367;    0.235410;    0.235455;    0.235424;    0.235458;
 28;    0.019470;    0.257147;    0.234361;    0.234508;    0.234543;    0.234721;    0.234721;    0.234754;    0.234870;    0.234899;    0.234863;    0.234981;    0.235021;    0.235039;    0.235150;    0.235159;    0.235143;    0.235161;    0.235167;
 29;    0.019425;    0.258422;    0.234247;    0.234416;    0.234455;    0.234681;    0.234693;    0.234736;    0.234850;    0.234975;    0.235017;    0.235075;    0.235135;    0.235131;    0.235100;    0.235169;    0.235133;    0.235102;    0.235108;
 30;    0.019585;    0.256950;    0.235323;    0.235444;    0.235663;    0.235682;    0.235630;    0.235530;    0.235640;    0.235697;    0.235797;    0.235867;    0.235875;    0.235957;    0.236015;    0.236065;    0.236085;    0.236047;    0.236079;
 31;    0.019631;    0.256526;    0.235072;    0.235207;    0.235458;    0.235588;    0.235708;    0.235804;    0.235746;    0.235597;    0.235735;    0.235782;    0.235852;    0.235889;    0.235822;    0.235821;    0.235863;    0.235901;    0.235918;
 32;    0.019410;    0.253908;    0.234395;    0.234436;    0.234496;    0.234647;    0.234786;    0.234876;    0.234957;    0.234976;    0.235094;    0.235093;    0.235150;    0.235189;    0.235210;    0.235217;    0.235126;    0.235163;    0.235168;
 33;    0.019425;    0.256337;    0.233110;    0.233138;    0.233424;    0.233558;    0.233662;    0.233648;    0.233717;    0.233779;    0.233769;    0.233833;    0.233881;    0.233956;    0.234038;    0.234088;    0.234059;    0.234036;    0.234052;
 34;    0.019703;    0.258647;    0.236134;    0.236250;    0.236459;    0.236559;    0.236650;    0.236561;    0.236607;    0.236597;    0.236597;    0.236701;    0.236724;    0.236772;    0.236813;    0.236844;    0.236882;    0.236907;    0.236917;
 35;    0.019309;    0.255246;    0.234441;    0.234492;    0.234636;    0.234734;    0.234918;    0.234935;    0.235020;    0.235060;    0.235148;    0.235177;    0.235140;    0.235179;    0.235274;    0.235316;    0.235349;    0.235344;    0.235359;
 36;    0.019998;    0.252110;    0.233447;    0.233605;    0.233735;    0.233827;    0.233821;    0.233932;    0.234007;    0.234124;    0.234206;    0.234275;    0.234284;    0.234347;    0.234394;    0.234463;    0.234495;    0.234494;    0.234468;
 37;    0.019713;    0.254259;    0.233888;    0.234007;    0.234021;    0.234110;    0.234227;    0.234226;    0.234407;    0.234500;    0.234547;    0.234579;    0.234560;    0.234639;    0.234597;    0.234612;    0.234651;    0.234703;    0.234698;
 38;    0.019666;    0.255918;    0.234339;    0.234372;    0.234428;    0.234453;    0.234556;    0.234758;    0.234898;    0.235001;    0.235044;    0.235044;    0.235025;    0.234965;    0.235020;    0.235119;    0.235140;    0.235139;    0.235129;
 39;    0.021235;    0.252848;    0.233365;    0.233457;    0.233685;    0.233752;    0.233700;    0.233714;    0.233861;    0.233853;    0.233934;    0.233897;    0.234020;    0.234071;    0.234132;    0.234142;    0.234155;    0.234153;    0.234140;
 40;    0.019847;    0.255463;    0.234340;    0.234464;    0.234473;    0.234610;    0.234627;    0.234824;    0.234939;    0.234950;    0.234856;    0.234821;    0.234914;    0.234944;    0.235012;    0.235030;    0.234993;    0.234996;    0.235022;
 41;    0.019783;    0.255177;    0.233902;    0.233943;    0.234064;    0.234105;    0.234235;    0.234443;    0.234541;    0.234591;    0.234584;    0.234487;    0.234601;    0.234660;    0.234628;    0.234693;    0.234687;    0.234748;    0.234721;
 42;    0.019757;    0.257821;    0.234269;    0.234422;    0.234404;    0.234554;    0.234594;    0.234629;    0.234726;    0.234830;    0.234859;    0.234910;    0.234889;    0.234907;    0.234956;    0.234998;    0.235027;    0.235053;    0.235077;
 43;    0.019494;    0.256868;    0.234579;    0.234758;    0.234902;    0.234887;    0.235024;    0.235019;    0.235129;    0.235162;    0.235208;    0.235264;    0.235325;    0.235278;    0.235291;    0.235237;    0.235270;    0.235299;    0.235329;
 44;    0.019702;    0.255876;    0.235076;    0.235204;    0.235380;    0.235503;    0.235472;    0.235637;    0.235753;    0.235782;    0.235784;    0.235736;    0.235841;    0.235847;    0.235913;    0.235900;    0.235900;    0.235923;    0.235943;
 45;    0.019197;    0.254823;    0.233746;    0.233759;    0.233976;    0.233975;    0.233926;    0.233967;    0.234132;    0.234140;    0.234209;    0.234338;    0.234371;    0.234304;    0.234396;    0.234455;    0.234505;    0.234506;    0.234442;
 46;    0.020848;    0.256643;    0.233883;    0.233946;    0.234128;    0.234149;    0.234295;    0.234443;    0.234528;    0.234564;    0.234618;    0.234547;    0.234587;    0.234656;    0.234665;    0.234646;    0.234677;    0.234695;    0.234715;
 47;    0.019491;    0.258446;    0.236357;    0.236473;    0.236632;    0.236787;    0.236875;    0.236955;    0.236952;    0.236952;    0.237127;    0.237148;    0.237088;    0.237143;    0.237127;    0.237152;    0.237164;    0.237184;    0.237208;
 48;    0.019829;    0.254395;    0.234396;    0.234657;    0.234787;    0.234775;    0.234905;    0.234922;    0.235050;    0.235034;    0.235146;    0.235257;    0.235307;    0.235362;    0.235361;    0.235350;    0.235371;    0.235402;    0.235403;
 49;    0.019653;    0.254763;    0.234301;    0.234371;    0.234562;    0.234730;    0.234752;    0.234787;    0.234693;    0.234726;    0.234738;    0.234825;    0.234820;    0.234829;    0.234893;    0.234905;    0.234948;    0.234917;    0.234917;
 50;    0.019110;    0.255845;    0.233853;    0.234064;    0.234203;    0.234343;    0.234367;    0.234379;    0.234449;    0.234536;    0.234704;    0.234787;    0.234821;    0.234788;    0.234782;    0.234816;    0.234706;    0.234725;    0.234740;
 51;    0.020625;    0.257230;    0.234997;    0.235139;    0.235264;    0.235235;    0.235449;    0.235488;    0.235652;    0.235629;    0.235698;    0.235660;    0.235714;    0.235705;    0.235788;    0.235800;    0.235833;    0.235808;    0.235819;
 52;    0.019716;    0.254919;    0.233481;    0.233539;    0.233668;    0.233780;    0.233853;    0.233980;    0.233988;    0.234097;    0.234108;    0.234210;    0.234217;    0.234289;    0.234313;    0.234219;    0.234269;    0.234259;    0.234264;
 53;    0.019778;    0.251931;    0.233705;    0.233764;    0.233910;    0.233981;    0.234141;    0.234236;    0.234236;    0.234280;    0.234295;    0.234403;    0.234378;    0.234441;    0.234503;    0.234506;    0.234556;    0.234570;    0.234538;
 54;    0.019477;    0.256272;    0.234364;    0.234353;    0.234661;    0.234790;    0.234753;    0.234803;    0.234770;    0.234889;    0.234892;    0.235026;    0.235051;    0.234969;    0.235056;    0.235093;    0.234985;    0.234989;    0.235015;
 55;    0.019523;    0.254887;    0.232897;    0.233035;    0.233064;    0.233111;    0.233261;    0.233255;    0.233385;    0.233469;    0.233460;    0.233576;    0.233634;    0.233621;    0.233648;    0.233709;    0.233741;    0.233776;    0.233783;
 56;    0.019154;    0.255888;    0.234137;    0.234162;    0.234200;    0.234287;    0.234433;    0.234460;    0.234579;    0.234627;    0.234724;    0.234778;    0.234664;    0.234676;    0.234670;    0.234716;    0.234706;    0.234732;    0.234753;
 57;    0.019138;    0.256956;    0.235833;    0.235993;    0.235974;    0.236123;    0.236268;    0.236364;    0.236356;    0.236430;    0.236523;    0.236505;    0.236599;    0.236614;    0.236571;    0.236590;    0.236640;    0.236673;    0.236687;
 58;    0.019979;    0.256162;    0.234701;    0.234852;    0.234897;    0.235056;    0.235177;    0.235287;    0.235394;    0.235398;    0.235442;    0.235549;    0.235651;    0.235675;    0.235709;    0.235732;    0.235772;    0.235766;    0.235772;
 59;    0.020648;    0.254078;    0.233626;    0.233673;    0.233898;    0.233951;    0.234119;    0.234168;    0.234170;    0.234068;    0.234212;    0.234252;    0.234288;    0.234300;    0.234293;    0.234327;    0.234363;    0.234377;    0.234394;
 60;    0.018908;    0.255420;    0.234199;    0.234412;    0.234530;    0.234659;    0.234674;    0.234778;    0.234825;    0.234853;    0.234950;    0.235078;    0.235146;    0.235200;    0.235208;    0.235180;    0.235224;    0.235259;    0.235247;
 61;    0.021632;    0.255825;    0.235281;    0.235379;    0.235454;    0.235650;    0.235698;    0.235716;    0.235774;    0.235810;    0.235882;    0.235852;    0.235893;    0.235930;    0.236013;    0.236058;    0.236041;    0.236058;    0.236057;
 62;    0.020319;    0.254550;    0.233167;    0.233324;    0.233357;    0.233493;    0.233592;    0.233671;    0.233611;    0.233569;    0.233681;    0.233751;    0.233786;    0.233803;    0.233846;    0.233757;    0.233800;    0.233783;    0.233791;
 63;    0.019600;    0.256863;    0.234070;    0.234197;    0.234139;    0.234175;    0.234282;    0.234435;    0.234529;    0.234515;    0.234616;    0.234580;    0.234597;    0.234677;    0.234677;    0.234741;    0.234790;    0.234814;    0.234821;
 64;    0.018943;    0.256473;    0.235280;    0.235397;    0.235498;    0.235698;    0.235790;    0.235773;    0.235973;    0.236115;    0.236180;    0.236081;    0.236084;    0.236162;    0.236167;    0.236184;    0.236254;    0.236263;    0.236288;
 65;    0.019809;    0.252995;    0.232895;    0.233127;    0.233211;    0.233222;    0.233395;    0.233452;    0.233540;    0.233556;    0.233568;    0.233585;    0.233607;    0.233679;    0.233742;    0.233742;    0.233787;    0.233721;    0.233709;
 66;    0.019556;    0.254576;    0.233816;    0.233902;    0.234092;    0.234101;    0.234258;    0.234311;    0.234269;    0.234403;    0.234418;    0.234449;    0.234506;    0.234536;    0.234534;    0.234569;    0.234608;    0.234626;    0.234659;
 67;    0.019624;    0.254545;    0.234641;    0.234693;    0.234905;    0.234932;    0.235103;    0.235167;    0.235119;    0.235198;    0.235140;    0.235176;    0.235225;    0.235214;    0.235234;    0.235261;    0.235300;    0.235307;    0.235314;
 68;    0.019869;    0.255693;    0.234582;    0.234768;    0.234846;    0.235011;    0.235117;    0.235066;    0.235213;    0.235268;    0.235384;    0.235396;    0.235455;    0.235452;    0.235482;    0.235525;    0.235515;    0.235459;    0.235480;
 69;    0.019528;    0.254130;    0.234980;    0.235055;    0.235138;    0.235324;    0.235450;    0.235588;    0.235685;    0.235749;    0.235792;    0.235725;    0.235816;    0.235757;    0.235814;    0.235819;    0.235863;    0.235850;    0.235858;
 70;    0.019503;    0.256467;    0.235456;    0.235625;    0.235685;    0.235756;    0.235810;    0.235925;    0.236003;    0.236077;    0.236055;    0.236165;    0.236192;    0.236214;    0.236315;    0.236328;    0.236229;    0.236250;    0.236276;
 71;    0.019284;    0.255633;    0.233863;    0.234008;    0.234164;    0.234085;    0.234187;    0.234250;    0.234345;    0.234356;    0.234513;    0.234540;    0.234482;    0.234529;    0.234572;    0.234591;    0.234602;    0.234625;    0.234640;
 72;    0.019607;    0.256567;    0.234443;    0.234534;    0.234735;    0.234862;    0.234969;    0.235101;    0.235140;    0.235193;    0.235150;    0.235223;    0.235284;    0.235348;    0.235301;    0.235286;    0.235315;    0.235319;    0.235340;
 73;    0.019742;    0.258370;    0.236242;    0.236389;    0.236612;    0.236723;    0.236817;    0.236845;    0.236914;    0.236869;    0.237024;    0.237113;    0.237110;    0.237065;    0.237141;    0.237197;    0.237124;    0.237156;    0.237165;
 74;    0.020646;    0.257345;    0.234548;    0.234663;    0.234855;    0.235063;    0.235100;    0.235243;    0.235201;    0.235137;    0.235281;    0.235343;    0.235383;    0.235453;    0.235517;    0.235485;    0.235523;    0.235533;    0.235495;
 75;    0.019502;    0.254403;    0.232632;    0.232802;    0.232883;    0.232971;    0.233048;    0.233205;    0.233253;    0.233270;    0.233341;    0.233395;    0.233460;    0.233415;    0.233473;    0.233496;    0.233558;    0.233555;    0.233575;
 76;    0.019392;    0.256863;    0.233904;    0.234153;    0.234226;    0.234258;    0.234303;    0.234436;    0.234480;    0.234373;    0.234431;    0.234558;    0.234639;    0.234663;    0.234695;    0.234715;    0.234710;    0.234725;    0.234737;
 77;    0.018750;    0.252786;    0.231707;    0.231993;    0.232017;    0.232002;    0.232065;    0.232082;    0.232186;    0.232232;    0.232357;    0.232459;    0.232473;    0.232442;    0.232485;    0.232477;    0.232470;    0.232501;    0.232510;
 78;    0.021087;    0.253690;    0.234004;    0.234034;    0.234150;    0.234335;    0.234576;    0.234668;    0.234644;    0.234767;    0.234884;    0.234905;    0.234911;    0.234853;    0.234732;    0.234757;    0.234822;    0.234842;    0.234851;
 79;    0.019359;    0.256051;    0.234863;    0.234932;    0.235028;    0.235104;    0.235250;    0.235295;    0.235378;    0.235494;    0.235455;    0.235395;    0.235453;    0.235549;    0.235607;    0.235607;    0.235624;    0.235563;    0.235591;
 80;    0.020781;    0.254157;    0.231655;    0.231826;    0.231917;    0.232117;    0.232120;    0.232230;    0.232319;    0.232290;    0.232309;    0.232400;    0.232285;    0.232383;    0.232348;    0.232349;    0.232369;    0.232370;    0.232392;
 81;    0.019596;    0.254138;    0.232927;    0.233082;    0.233097;    0.233086;    0.233182;    0.233215;    0.233354;    0.233473;    0.233577;    0.233610;    0.233613;    0.233647;    0.233615;    0.233673;    0.233720;    0.233762;    0.233778;
 82;    0.019348;    0.253981;    0.232341;    0.232397;    0.232531;    0.232654;    0.232707;    0.232917;    0.233002;    0.233094;    0.233064;    0.233121;    0.233155;    0.233171;    0.233165;    0.233188;    0.233254;    0.233276;    0.233286;
 83;    0.019571;    0.252552;    0.232900;    0.232975;    0.233171;    0.233229;    0.233417;    0.233491;    0.233564;    0.233676;    0.233734;    0.233657;    0.233751;    0.233766;    0.233816;    0.233746;    0.233775;    0.233825;    0.233843;
 84;    0.019750;    0.253347;    0.234613;    0.234909;    0.234815;    0.234901;    0.235007;    0.235004;    0.235223;    0.235315;    0.235364;    0.235472;    0.235559;    0.235573;    0.235424;    0.235453;    0.235468;    0.235465;    0.235463;
 85;    0.019748;    0.254540;    0.234717;    0.234885;    0.235091;    0.235130;    0.235208;    0.235228;    0.235349;    0.235460;    0.235509;    0.235527;    0.235610;    0.235610;    0.235593;    0.235624;    0.235645;    0.235643;    0.235651;
 86;    0.019689;    0.257373;    0.234462;    0.234492;    0.234580;    0.234780;    0.234771;    0.234753;    0.234914;    0.234876;    0.234947;    0.235104;    0.235144;    0.235114;    0.235150;    0.235155;    0.235206;    0.235176;    0.235185;
 87;    0.019550;    0.256149;    0.234048;    0.234205;    0.234358;    0.234270;    0.234457;    0.234554;    0.234665;    0.234648;    0.234727;    0.234643;    0.234774;    0.234806;    0.234755;    0.234765;    0.234802;    0.234830;    0.234841;
 88;    0.019700;    0.256489;    0.233435;    0.233451;    0.233696;    0.233709;    0.233704;    0.233902;    0.234004;    0.234089;    0.234196;    0.234221;    0.234243;    0.234306;    0.234311;    0.234190;    0.234237;    0.234271;    0.234290;
 89;    0.019400;    0.255931;    0.234480;    0.234624;    0.234709;    0.234843;    0.234823;    0.234818;    0.234942;    0.234892;    0.235050;    0.235105;    0.235158;    0.235117;    0.235137;    0.235072;    0.235042;    0.235074;    0.235076;
 90;    0.019369;    0.255132;    0.235018;    0.235183;    0.235209;    0.235306;    0.235436;    0.235563;    0.235645;    0.235772;    0.235792;    0.235733;    0.235829;    0.235861;    0.235854;    0.235923;    0.235929;    0.235960;    0.235953;
 91;    0.019477;    0.256241;    0.234259;    0.234359;    0.234409;    0.234569;    0.234713;    0.234710;    0.234770;    0.234837;    0.234831;    0.234921;    0.234969;    0.235046;    0.235001;    0.235054;    0.235072;    0.235112;    0.235077;
 92;    0.019479;    0.255273;    0.234228;    0.234341;    0.234445;    0.234554;    0.234700;    0.234728;    0.234927;    0.235035;    0.235078;    0.235000;    0.235066;    0.234997;    0.235083;    0.235100;    0.235024;    0.235035;    0.235060;
 93;    0.019499;    0.255719;    0.235031;    0.235130;    0.235345;    0.235475;    0.235605;    0.235639;    0.235513;    0.235562;    0.235632;    0.235784;    0.235841;    0.235916;    0.235948;    0.235961;    0.235964;    0.235911;    0.235932;
 94;    0.019683;    0.254875;    0.233152;    0.233316;    0.233324;    0.233434;    0.233424;    0.233510;    0.233573;    0.233616;    0.233591;    0.233632;    0.233733;    0.233722;    0.233800;    0.233829;    0.233846;    0.233893;    0.233864;
 95;    0.019273;    0.256999;    0.235020;    0.235161;    0.235328;    0.235456;    0.235533;    0.235637;    0.235695;    0.235603;    0.235612;    0.235731;    0.235816;    0.235912;    0.235949;    0.235956;    0.235912;    0.235883;    0.235910;
 96;    0.019147;    0.256631;    0.233746;    0.233756;    0.233974;    0.234084;    0.234251;    0.234367;    0.234469;    0.234437;    0.234587;    0.234633;    0.234630;    0.234547;    0.234606;    0.234635;    0.234669;    0.234657;    0.234684;
 97;    0.019368;    0.256170;    0.236573;    0.236700;    0.236747;    0.236715;    0.236787;    0.236905;    0.237085;    0.237143;    0.237217;    0.237271;    0.237245;    0.237131;    0.237193;    0.237238;    0.237290;    0.237279;    0.237291;
 98;    0.019740;    0.255393;    0.234559;    0.234620;    0.234848;    0.234840;    0.234911;    0.235088;    0.235192;    0.235234;    0.235225;    0.235335;    0.235366;    0.235411;    0.235322;    0.235324;    0.235371;    0.235407;    0.235424;
 99;    0.020552;    0.256744;    0.234244;    0.234335;    0.234305;    0.234537;    0.234594;    0.234653;    0.234734;    0.234857;    0.234868;    0.234895;    0.234953;    0.234968;    0.235058;    0.235102;    0.235130;    0.235143;    0.235157;
100;    0.019233;    0.255466;    0.233788;    0.233991;    0.234108;    0.234326;    0.234452;    0.234529;    0.234520;    0.234381;    0.234482;    0.234532;    0.234602;    0.234640;    0.234671;    0.234647;    0.234691;    0.234720;    0.234735;
