Simulation;Time;PC 0;PC 1;PC 2;PC 3;PC 4;PC 5;PC 6;PC 7;PC 8;PC 9;PC10;PC11;PC12;PC13;PC14;PC15;PC16;PC17;
Nan;Nan;0;0;0;0;0;0;0;0;0;0;0;0;0;1;0;0;0;0;
  0;    0.258651;    1.409748;    1.282875;    1.282897;    1.284234;    1.288252;    1.292062;    1.292646;    1.294249;    1.287352;    1.281834;    1.278042;    1.277099;    1.266131;    1.179065;    1.178840;    1.179935;    1.179325;    1.179605;
  1;    0.257990;    1.423850;    1.297958;    1.297002;    1.296922;    1.303153;    1.301545;    1.302130;    1.304017;    1.299524;    1.308024;    1.306259;    1.302806;    1.320980;    1.191334;    1.191390;    1.191726;    1.192027;    1.192057;
  2;    0.257336;    1.424420;    1.302256;    1.304939;    1.303209;    1.306759;    1.303903;    1.306906;    1.311100;    1.309412;    1.311176;    1.313624;    1.317461;    1.306251;    1.194662;    1.195662;    1.195492;    1.195026;    1.194916;
  3;    0.258893;    1.420527;    1.304270;    1.304678;    1.309397;    1.312965;    1.314430;    1.308357;    1.310397;    1.315553;    1.312740;    1.317558;    1.324154;    1.295272;    1.194598;    1.194619;    1.195159;    1.195483;    1.195611;
  4;    0.257577;    1.429989;    1.306695;    1.308480;    1.308357;    1.308840;    1.304933;    1.306160;    1.309823;    1.313569;    1.308753;    1.313239;    1.309213;    1.300121;    1.201425;    1.201978;    1.202853;    1.202772;    1.203100;
  5;    0.258706;    1.421708;    1.296228;    1.297404;    1.296367;    1.299137;    1.300457;    1.298336;    1.304138;    1.302414;    1.303135;    1.303401;    1.308700;    1.293839;    1.190185;    1.190296;    1.190724;    1.191115;    1.190859;
  6;    0.257005;    1.420689;    1.297631;    1.299621;    1.297438;    1.295834;    1.298227;    1.300993;    1.306444;    1.307737;    1.304870;    1.310703;    1.316124;    1.293812;    1.190754;    1.191569;    1.191741;    1.191517;    1.191760;
  7;    0.258027;    1.425776;    1.299813;    1.298591;    1.301611;    1.300514;    1.304457;    1.309072;    1.310105;    1.304716;    1.307961;    1.310767;    1.314598;    1.291691;    1.189218;    1.189705;    1.190290;    1.190223;    1.190439;
  8;    0.257133;    1.411108;    1.286869;    1.289437;    1.289809;    1.293768;    1.293440;    1.292005;    1.296951;    1.295065;    1.293814;    1.296036;    1.290505;    1.262646;    1.181057;    1.181514;    1.181704;    1.181967;    1.182267;
  9;    0.256839;    1.423298;    1.303268;    1.302954;    1.304559;    1.303122;    1.308661;    1.312485;    1.312788;    1.316526;    1.323238;    1.325612;    1.346844;    1.325822;    1.197095;    1.197231;    1.197980;    1.198117;    1.198238;
 10;    0.263446;    1.425722;    1.304873;    1.305244;    1.307778;    1.311670;    1.310453;    1.309379;    1.317927;    1.323090;    1.320251;    1.314330;    1.324444;    1.307301;    1.197964;    1.198222;    1.199001;    1.198653;    1.198854;
 11;    0.256823;    1.415722;    1.297510;    1.299219;    1.302112;    1.306148;    1.307599;    1.302180;    1.310151;    1.313507;    1.304910;    1.317719;    1.310960;    1.287200;    1.197774;    1.197560;    1.197312;    1.197586;    1.197803;
 12;    0.257299;    1.410655;    1.296219;    1.298056;    1.297586;    1.297759;    1.297111;    1.295245;    1.296954;    1.303322;    1.308002;    1.311193;    1.292613;    1.267608;    1.185386;    1.185969;    1.185955;    1.186407;    1.186673;
 13;    0.256863;    1.424601;    1.294847;    1.296854;    1.297997;    1.299895;    1.297908;    1.302898;    1.299650;    1.305615;    1.305377;    1.299905;    1.313535;    1.288102;    1.188632;    1.188650;    1.189289;    1.189604;    1.189582;
 14;    0.258037;    1.408334;    1.287586;    1.287908;    1.291094;    1.290655;    1.290095;    1.293105;    1.297114;    1.304628;    1.303513;    1.292344;    1.291716;    1.277912;    1.183423;    1.183473;    1.183971;    1.184365;    1.184423;
 15;    0.257791;    1.421394;    1.282436;    1.285743;    1.284463;    1.281705;    1.280654;    1.285806;    1.286748;    1.281075;    1.281139;    1.286806;    1.292232;    1.282707;    1.177580;    1.177750;    1.177841;    1.178002;    1.178307;
 16;    0.257272;    1.426609;    1.309428;    1.308370;    1.310767;    1.313513;    1.311170;    1.313031;    1.316157;    1.321357;    1.324752;    1.322687;    1.317367;    1.317067;    1.199599;    1.199894;    1.200408;    1.200942;    1.201083;
 17;    0.257519;    1.411356;    1.292081;    1.290682;    1.291475;    1.290546;    1.290349;    1.293952;    1.298214;    1.297069;    1.301028;    1.294882;    1.297423;    1.287265;    1.180748;    1.180736;    1.180925;    1.180953;    1.180953;
 18;    0.256586;    1.404466;    1.291323;    1.290422;    1.292622;    1.295624;    1.294108;    1.296734;    1.298483;    1.295877;    1.301000;    1.299732;    1.311332;    1.316426;    1.188360;    1.188990;    1.189389;    1.189276;    1.189559;
 19;    0.257941;    1.416742;    1.289917;    1.291466;    1.292974;    1.298321;    1.301599;    1.299528;    1.299728;    1.307179;    1.311810;    1.307403;    1.291267;    1.280956;    1.184923;    1.185843;    1.185691;    1.185996;    1.186152;
 20;    0.257857;    1.431594;    1.299331;    1.300814;    1.305338;    1.304975;    1.302927;    1.301291;    1.308015;    1.309843;    1.309734;    1.321955;    1.327107;    1.302623;    1.192508;    1.193113;    1.193013;    1.193465;    1.193691;
 21;    0.255813;    1.427271;    1.295567;    1.295853;    1.296866;    1.296593;    1.298927;    1.302494;    1.305454;    1.305218;    1.302389;    1.308015;    1.304070;    1.282787;    1.193270;    1.193158;    1.193269;    1.193720;    1.193796;
 22;    0.258512;    1.428151;    1.301111;    1.303319;    1.302223;    1.302796;    1.304951;    1.307996;    1.306311;    1.308100;    1.304887;    1.311869;    1.319584;    1.314175;    1.194701;    1.194428;    1.194867;    1.195169;    1.195358;
 23;    0.255110;    1.420414;    1.298404;    1.300208;    1.303311;    1.306834;    1.307538;    1.309472;    1.304483;    1.304317;    1.302300;    1.308281;    1.298982;    1.285595;    1.194876;    1.194910;    1.195105;    1.195310;    1.195806;
 24;    0.259104;    1.429510;    1.304071;    1.307285;    1.304583;    1.307347;    1.312902;    1.318229;    1.317479;    1.313199;    1.321867;    1.324794;    1.312974;    1.314048;    1.192064;    1.192021;    1.192506;    1.192962;    1.193300;
 25;    0.257194;    1.412822;    1.293274;    1.294294;    1.298866;    1.299703;    1.297372;    1.297038;    1.300489;    1.305951;    1.306300;    1.307829;    1.295646;    1.285180;    1.182753;    1.182845;    1.182725;    1.182829;    1.183118;
 26;    0.257945;    1.425649;    1.303559;    1.305594;    1.304709;    1.305213;    1.310553;    1.310041;    1.310748;    1.312389;    1.308453;    1.307695;    1.300633;    1.300367;    1.200237;    1.200796;    1.201293;    1.201042;    1.201107;
 27;    0.265282;    1.428160;    1.297661;    1.298469;    1.298852;    1.302541;    1.302976;    1.300068;    1.305327;    1.304629;    1.311679;    1.312016;    1.307676;    1.285110;    1.189478;    1.190094;    1.190360;    1.190362;    1.190364;
 28;    0.255729;    1.427306;    1.293822;    1.294235;    1.295244;    1.294686;    1.296942;    1.300134;    1.304926;    1.304695;    1.303347;    1.311666;    1.313009;    1.290198;    1.187687;    1.188179;    1.188803;    1.188221;    1.188343;
 29;    0.258106;    1.434609;    1.294434;    1.295253;    1.294751;    1.298101;    1.303403;    1.303532;    1.304104;    1.304373;    1.295530;    1.296673;    1.283023;    1.268910;    1.185656;    1.186620;    1.186859;    1.186639;    1.186794;
 30;    0.257115;    1.424929;    1.296927;    1.300481;    1.302406;    1.302257;    1.299062;    1.299009;    1.299012;    1.301766;    1.304785;    1.311605;    1.302704;    1.296989;    1.192971;    1.193429;    1.193892;    1.194407;    1.194672;
 31;    0.258579;    1.424205;    1.297692;    1.299838;    1.302540;    1.305889;    1.306558;    1.303454;    1.304255;    1.312051;    1.310244;    1.318972;    1.318925;    1.295290;    1.193842;    1.193472;    1.193844;    1.194072;    1.194001;
 32;    0.255700;    1.415236;    1.300115;    1.300623;    1.300459;    1.304763;    1.304203;    1.303957;    1.308656;    1.311637;    1.313940;    1.314636;    1.304536;    1.283832;    1.190254;    1.190667;    1.190934;    1.191321;    1.191382;
 33;    0.256187;    1.421287;    1.285086;    1.284845;    1.287109;    1.292334;    1.293006;    1.288072;    1.291504;    1.294741;    1.302124;    1.303652;    1.304540;    1.285132;    1.182064;    1.183012;    1.182643;    1.182492;    1.182604;
 34;    0.257416;    1.432966;    1.299923;    1.301426;    1.303558;    1.307458;    1.306235;    1.299437;    1.305591;    1.308320;    1.308971;    1.321685;    1.324791;    1.320170;    1.197756;    1.198387;    1.198502;    1.199140;    1.198891;
 35;    0.257949;    1.418536;    1.295684;    1.299153;    1.298059;    1.300301;    1.303631;    1.304732;    1.300201;    1.298268;    1.302170;    1.314887;    1.322283;    1.314467;    1.192146;    1.192067;    1.192478;    1.192554;    1.192364;
 36;    0.257892;    1.401940;    1.290178;    1.293182;    1.292157;    1.293294;    1.295403;    1.299604;    1.302597;    1.303704;    1.303974;    1.307522;    1.317195;    1.321810;    1.189636;    1.190671;    1.190476;    1.190547;    1.190607;
 37;    0.257114;    1.414351;    1.294081;    1.296737;    1.298100;    1.297789;    1.297974;    1.301017;    1.299660;    1.302986;    1.296249;    1.296323;    1.299386;    1.285045;    1.187173;    1.188007;    1.188057;    1.188535;    1.188481;
 38;    0.256922;    1.417577;    1.289224;    1.289728;    1.290804;    1.295415;    1.296420;    1.297691;    1.299324;    1.294485;    1.302418;    1.299681;    1.300090;    1.280582;    1.188750;    1.189080;    1.189635;    1.189910;    1.190110;
 39;    0.255950;    1.404419;    1.288091;    1.292407;    1.292763;    1.288512;    1.289796;    1.292886;    1.292416;    1.291425;    1.294980;    1.297984;    1.283966;    1.277506;    1.185725;    1.186191;    1.186906;    1.187073;    1.186852;
 40;    0.255475;    1.421884;    1.298088;    1.300156;    1.298504;    1.301488;    1.305977;    1.306549;    1.304059;    1.303130;    1.300965;    1.308107;    1.306404;    1.292029;    1.186467;    1.187030;    1.187226;    1.187630;    1.187863;
 41;    0.255424;    1.414339;    1.287996;    1.290613;    1.288626;    1.291564;    1.293599;    1.289782;    1.294592;    1.294856;    1.296415;    1.296254;    1.299326;    1.282165;    1.188041;    1.189132;    1.188603;    1.188490;    1.188552;
 42;    0.254248;    1.431325;    1.294092;    1.294351;    1.293586;    1.295398;    1.296016;    1.293655;    1.294564;    1.300412;    1.309197;    1.309496;    1.308451;    1.296599;    1.185674;    1.185991;    1.186397;    1.186779;    1.186951;
 43;    0.256401;    1.424686;    1.293491;    1.294636;    1.297308;    1.299588;    1.296010;    1.299438;    1.306550;    1.308602;    1.302439;    1.299343;    1.300805;    1.275855;    1.188390;    1.189103;    1.189874;    1.189120;    1.189587;
 44;    0.257365;    1.420295;    1.296905;    1.299230;    1.303701;    1.307216;    1.309891;    1.309808;    1.311875;    1.304819;    1.300165;    1.294629;    1.301173;    1.284843;    1.194726;    1.195058;    1.195168;    1.195467;    1.195549;
 45;    0.255167;    1.413431;    1.288333;    1.286663;    1.286007;    1.285787;    1.290536;    1.293302;    1.300609;    1.301822;    1.304862;    1.300199;    1.299293;    1.275994;    1.185258;    1.185498;    1.185829;    1.185955;    1.186249;
 46;    0.255848;    1.424170;    1.290775;    1.289150;    1.290371;    1.293303;    1.295966;    1.296700;    1.295808;    1.296065;    1.296834;    1.296669;    1.290689;    1.281189;    1.184888;    1.185284;    1.185601;    1.185807;    1.186089;
 47;    0.256316;    1.433429;    1.303101;    1.303794;    1.304391;    1.307691;    1.307743;    1.310053;    1.316295;    1.312623;    1.319886;    1.326153;    1.313178;    1.295491;    1.199881;    1.200318;    1.200928;    1.200900;    1.200901;
 48;    0.256699;    1.415343;    1.296962;    1.299383;    1.299662;    1.300870;    1.304531;    1.304747;    1.306481;    1.306912;    1.307789;    1.305480;    1.307914;    1.299703;    1.192633;    1.193103;    1.193845;    1.193801;    1.193857;
 49;    0.256722;    1.417414;    1.296598;    1.297499;    1.301059;    1.301784;    1.299211;    1.299954;    1.294538;    1.294363;    1.304915;    1.303658;    1.315839;    1.293921;    1.187419;    1.188019;    1.188368;    1.188511;    1.188260;
 50;    0.257640;    1.422051;    1.293169;    1.296170;    1.301640;    1.303119;    1.301395;    1.301916;    1.306121;    1.300620;    1.302591;    1.301908;    1.287335;    1.297787;    1.185908;    1.186440;    1.186629;    1.186776;    1.187045;
 51;    0.256337;    1.432932;    1.303766;    1.306865;    1.303880;    1.304432;    1.308969;    1.307364;    1.308650;    1.311186;    1.318402;    1.318482;    1.319198;    1.331616;    1.190502;    1.191102;    1.191357;    1.191489;    1.191643;
 52;    0.256399;    1.415904;    1.289550;    1.288734;    1.290439;    1.289449;    1.294781;    1.295171;    1.292304;    1.294911;    1.289371;    1.296567;    1.290681;    1.281996;    1.183876;    1.184569;    1.184817;    1.185295;    1.184749;
 53;    0.254618;    1.406415;    1.298380;    1.296987;    1.298131;    1.303210;    1.306344;    1.303983;    1.301953;    1.303840;    1.313739;    1.326762;    1.340628;    1.340088;    1.188283;    1.188483;    1.189157;    1.189119;    1.189241;
 54;    0.257605;    1.423398;    1.294660;    1.293161;    1.295130;    1.298408;    1.296027;    1.301253;    1.304232;    1.302413;    1.293199;    1.291483;    1.289378;    1.285239;    1.186984;    1.187813;    1.187473;    1.187354;    1.187615;
 55;    0.256870;    1.416288;    1.287360;    1.288270;    1.289133;    1.291534;    1.291949;    1.292010;    1.296093;    1.300716;    1.306824;    1.310520;    1.296973;    1.308572;    1.181331;    1.181486;    1.181395;    1.181576;    1.181798;
 56;    0.256856;    1.419903;    1.291619;    1.291607;    1.289369;    1.291769;    1.292379;    1.294688;    1.290311;    1.289852;    1.289850;    1.288971;    1.294379;    1.293603;    1.185915;    1.186371;    1.186403;    1.186375;    1.186562;
 57;    0.255472;    1.425518;    1.300283;    1.302996;    1.302710;    1.304650;    1.302748;    1.304149;    1.306961;    1.301816;    1.302074;    1.313722;    1.314808;    1.307006;    1.198047;    1.198150;    1.198941;    1.198884;    1.199228;
 58;    0.255754;    1.422320;    1.295653;    1.296042;    1.297093;    1.297580;    1.301666;    1.304373;    1.303627;    1.309068;    1.314368;    1.308048;    1.308958;    1.310773;    1.193257;    1.194472;    1.194304;    1.195127;    1.194851;
 59;    0.265225;    1.413802;    1.293328;    1.294040;    1.296806;    1.293519;    1.292681;    1.291552;    1.298858;    1.299206;    1.301852;    1.311488;    1.316225;    1.307048;    1.185035;    1.185676;    1.185448;    1.185804;    1.186052;
 60;    0.259903;    1.420046;    1.295184;    1.300531;    1.298390;    1.297388;    1.300576;    1.305976;    1.311815;    1.312553;    1.312383;    1.313649;    1.300127;    1.272996;    1.190815;    1.191834;    1.191513;    1.191897;    1.191782;
 61;    0.257271;    1.417672;    1.294843;    1.297262;    1.299451;    1.302832;    1.303527;    1.299170;    1.300952;    1.304850;    1.309622;    1.310428;    1.302150;    1.301752;    1.195673;    1.195750;    1.195911;    1.196311;    1.196521;
 62;    0.256526;    1.415325;    1.289506;    1.292765;    1.295367;    1.293943;    1.292436;    1.291754;    1.294458;    1.293728;    1.294646;    1.297809;    1.301021;    1.286128;    1.180065;    1.179942;    1.180198;    1.180509;    1.180610;
 63;    0.256777;    1.425310;    1.291847;    1.293456;    1.292514;    1.295667;    1.294993;    1.293905;    1.298104;    1.293136;    1.301166;    1.304734;    1.305958;    1.321624;    1.185449;    1.186018;    1.185688;    1.186223;    1.186366;
 64;    0.256398;    1.423352;    1.297932;    1.299422;    1.301829;    1.304721;    1.302833;    1.304703;    1.312225;    1.315096;    1.319855;    1.309896;    1.320751;    1.298446;    1.196437;    1.197233;    1.197425;    1.197789;    1.197827;
 65;    0.258821;    1.404534;    1.284889;    1.286311;    1.289166;    1.288623;    1.285617;    1.287958;    1.289606;    1.293138;    1.291712;    1.290342;    1.295420;    1.266186;    1.182307;    1.182734;    1.183493;    1.183724;    1.183707;
 66;    0.255768;    1.419063;    1.297629;    1.297182;    1.300379;    1.302379;    1.303752;    1.301395;    1.303295;    1.306891;    1.305090;    1.307504;    1.299579;    1.297779;    1.185897;    1.187327;    1.186530;    1.186788;    1.187052;
 67;    0.256947;    1.413091;    1.294295;    1.294135;    1.297695;    1.300204;    1.298434;    1.293967;    1.295345;    1.292991;    1.297684;    1.294356;    1.290144;    1.286932;    1.192223;    1.192449;    1.192088;    1.192410;    1.192544;
 68;    0.257344;    1.420656;    1.296100;    1.297742;    1.298953;    1.297891;    1.299246;    1.300784;    1.301598;    1.305516;    1.306290;    1.313678;    1.310793;    1.294048;    1.191762;    1.191738;    1.191913;    1.192031;    1.192305;
 69;    0.261490;    1.412640;    1.298148;    1.299479;    1.300654;    1.304901;    1.307405;    1.308158;    1.307773;    1.316300;    1.320770;    1.326952;    1.309271;    1.310603;    1.196252;    1.196479;    1.196711;    1.196705;    1.196888;
 70;    0.257731;    1.423609;    1.299160;    1.298688;    1.300444;    1.299719;    1.301651;    1.300962;    1.301336;    1.307515;    1.298866;    1.297335;    1.300715;    1.293051;    1.195541;    1.196687;    1.196468;    1.196738;    1.197043;
 71;    0.257799;    1.420451;    1.292559;    1.292294;    1.292317;    1.292772;    1.291682;    1.292650;    1.299857;    1.303013;    1.298990;    1.299622;    1.291382;    1.295134;    1.186009;    1.185693;    1.185841;    1.186082;    1.186385;
 72;    0.257890;    1.423626;    1.293452;    1.294680;    1.298338;    1.299381;    1.300255;    1.303262;    1.310009;    1.313537;    1.307545;    1.315666;    1.300369;    1.307750;    1.189862;    1.190269;    1.190175;    1.190295;    1.190450;
 73;    0.257503;    1.437724;    1.308801;    1.310022;    1.314331;    1.312114;    1.311317;    1.316995;    1.321460;    1.319732;    1.315602;    1.324553;    1.317746;    1.305952;    1.198875;    1.199151;    1.199409;    1.199679;    1.199887;
 74;    0.256348;    1.426276;    1.291900;    1.292944;    1.294555;    1.297629;    1.295929;    1.300081;    1.300823;    1.297528;    1.306312;    1.308407;    1.313537;    1.285935;    1.190297;    1.191460;    1.191026;    1.191356;    1.191348;
 75;    0.254835;    1.412579;    1.284447;    1.284246;    1.288577;    1.285549;    1.288702;    1.289798;    1.294054;    1.292462;    1.287674;    1.290945;    1.304100;    1.307136;    1.180161;    1.181153;    1.180816;    1.181237;    1.181540;
 76;    0.257632;    1.424652;    1.290196;    1.294162;    1.295604;    1.295784;    1.289895;    1.290129;    1.294961;    1.294528;    1.295703;    1.291788;    1.288756;    1.288819;    1.185546;    1.185667;    1.186505;    1.185856;    1.186076;
 77;    0.256515;    1.404397;    1.280016;    1.280592;    1.281313;    1.280104;    1.282690;    1.289539;    1.289242;    1.282345;    1.288504;    1.295739;    1.301689;    1.266871;    1.175323;    1.175130;    1.175045;    1.175187;    1.175383;
 78;    0.258489;    1.410456;    1.293481;    1.293849;    1.297641;    1.298202;    1.297725;    1.302203;    1.300023;    1.305358;    1.304757;    1.297313;    1.292232;    1.281206;    1.189576;    1.189541;    1.189636;    1.189760;    1.189977;
 79;    0.258019;    1.419896;    1.294317;    1.292734;    1.293281;    1.295146;    1.296456;    1.294643;    1.299505;    1.303671;    1.300488;    1.309786;    1.315717;    1.284495;    1.191907;    1.192387;    1.192390;    1.192975;    1.192577;
 80;    0.256945;    1.411246;    1.279559;    1.280991;    1.281139;    1.283485;    1.285092;    1.282303;    1.283861;    1.283969;    1.286763;    1.294910;    1.274481;    1.277037;    1.172004;    1.172481;    1.172820;    1.172761;    1.172788;
 81;    0.256129;    1.411421;    1.286073;    1.286456;    1.286333;    1.285495;    1.290426;    1.290783;    1.294802;    1.295466;    1.296656;    1.299800;    1.301350;    1.312022;    1.181732;    1.181827;    1.182263;    1.182579;    1.182735;
 82;    0.257645;    1.409963;    1.282480;    1.283270;    1.287478;    1.291354;    1.295698;    1.293576;    1.295053;    1.296751;    1.300193;    1.297570;    1.302475;    1.304667;    1.178347;    1.178737;    1.179226;    1.179498;    1.179664;
 83;    0.257730;    1.403315;    1.286015;    1.287215;    1.290594;    1.290284;    1.292905;    1.297767;    1.294224;    1.298196;    1.301467;    1.296834;    1.294180;    1.275139;    1.184438;    1.184710;    1.185112;    1.185249;    1.185494;
 84;    0.256998;    1.409781;    1.298055;    1.300168;    1.301759;    1.300193;    1.301220;    1.304063;    1.311367;    1.309530;    1.307025;    1.310053;    1.300136;    1.287486;    1.193833;    1.194000;    1.194616;    1.194501;    1.194687;
 85;    0.255128;    1.418118;    1.301058;    1.301536;    1.304038;    1.307769;    1.306449;    1.310074;    1.308971;    1.316974;    1.318159;    1.325305;    1.329591;    1.329660;    1.193188;    1.193576;    1.193917;    1.193900;    1.194175;
 86;    0.258122;    1.427097;    1.292588;    1.293644;    1.291731;    1.290932;    1.290073;    1.292535;    1.298646;    1.297904;    1.302568;    1.306686;    1.314398;    1.292201;    1.187308;    1.187153;    1.187348;    1.187760;    1.187828;
 87;    0.256078;    1.423485;    1.294174;    1.295693;    1.294302;    1.297123;    1.297368;    1.300658;    1.302245;    1.304348;    1.306430;    1.293429;    1.292875;    1.281669;    1.185594;    1.187033;    1.186727;    1.186963;    1.187150;
 88;    0.256403;    1.426356;    1.292546;    1.291647;    1.296871;    1.298910;    1.300112;    1.304547;    1.308989;    1.311623;    1.309156;    1.294114;    1.300106;    1.278018;    1.182253;    1.182903;    1.182703;    1.183262;    1.182834;
 89;    0.256957;    1.421635;    1.295264;    1.299297;    1.298386;    1.298876;    1.300538;    1.300832;    1.297933;    1.300373;    1.305433;    1.294745;    1.300002;    1.278124;    1.186886;    1.187321;    1.187695;    1.187579;    1.187864;
 90;    0.256957;    1.417793;    1.298217;    1.297148;    1.297727;    1.299646;    1.304435;    1.308006;    1.312856;    1.304187;    1.315342;    1.305861;    1.315818;    1.301426;    1.195381;    1.196527;    1.197048;    1.197400;    1.196678;
 91;    0.257789;    1.422536;    1.293013;    1.292171;    1.293022;    1.296877;    1.294100;    1.294210;    1.301472;    1.302975;    1.302356;    1.307552;    1.301689;    1.268269;    1.187597;    1.188297;    1.188612;    1.188971;    1.189001;
 92;    0.258013;    1.414878;    1.289718;    1.290132;    1.291718;    1.294268;    1.294547;    1.294443;    1.294845;    1.299453;    1.300181;    1.295052;    1.299318;    1.265057;    1.189966;    1.190799;    1.190300;    1.190968;    1.190991;
 93;    0.257620;    1.421500;    1.299259;    1.300156;    1.301394;    1.302447;    1.303213;    1.305813;    1.307050;    1.311285;    1.310504;    1.307895;    1.298467;    1.301619;    1.194247;    1.194464;    1.194711;    1.195212;    1.195340;
 94;    0.257797;    1.418630;    1.291883;    1.295174;    1.295759;    1.291553;    1.290412;    1.294266;    1.293751;    1.288410;    1.288289;    1.302333;    1.314464;    1.305581;    1.180344;    1.180461;    1.180891;    1.180964;    1.181080;
 95;    0.256898;    1.427151;    1.297972;    1.297907;    1.300900;    1.302475;    1.304205;    1.304736;    1.305674;    1.312960;    1.310511;    1.318993;    1.325151;    1.278417;    1.192905;    1.193389;    1.193364;    1.193609;    1.193484;
 96;    0.257888;    1.423019;    1.288620;    1.291055;    1.291929;    1.294633;    1.297066;    1.295497;    1.297698;    1.297137;    1.300133;    1.302916;    1.298577;    1.294742;    1.186033;    1.186185;    1.186409;    1.186903;    1.186946;
 97;    0.256168;    1.425533;    1.309173;    1.309060;    1.307563;    1.307988;    1.305864;    1.312179;    1.312178;    1.310105;    1.311269;    1.323841;    1.325694;    1.321544;    1.202306;    1.203053;    1.202944;    1.202829;    1.203102;
 98;    0.258008;    1.417654;    1.294136;    1.293285;    1.297420;    1.300481;    1.297349;    1.302507;    1.300691;    1.306789;    1.299400;    1.305332;    1.313062;    1.315045;    1.191079;    1.191696;    1.192202;    1.192387;    1.192503;
 99;    0.255402;    1.420285;    1.286680;    1.289494;    1.286809;    1.290831;    1.290585;    1.295373;    1.294508;    1.298264;    1.301543;    1.308886;    1.318009;    1.300834;    1.189044;    1.189788;    1.189952;    1.190315;    1.190504;
100;    0.258968;    1.418549;    1.290791;    1.294168;    1.298029;    1.300214;    1.302013;    1.302690;    1.293830;    1.299781;    1.303633;    1.294854;    1.302320;    1.290937;    1.187012;    1.187318;    1.188274;    1.188526;    1.188117;
