Simulation;Time;PC 0;PC 1;PC 2;PC 3;PC 4;PC 5;PC 6;PC 7;PC 8;PC 9;PC10;PC11;PC12;PC13;PC14;PC15;PC16;PC17;
Nan;Nan;0;0;0;1;0;0;0;0;0;0;0;0;0;0;0;0;0;0;
  0;    1.095465;    0.993671;    0.774321;    0.605039;    0.486777;    0.477741;    0.466966;    0.451540;    0.446645;    0.430695;    0.410160;    0.391766;    0.361255;    0.317034;    0.284803;    0.236329;    0.196171;    0.130036;    0.075937;
  1;    1.046402;    1.025374;    0.802483;    0.615077;    0.495166;    0.488997;    0.479182;    0.466341;    0.446576;    0.431144;    0.417979;    0.397349;    0.372192;    0.335680;    0.301272;    0.264156;    0.207167;    0.157401;    0.085370;
  2;    1.080305;    1.027816;    0.808927;    0.624271;    0.499066;    0.494577;    0.482889;    0.476150;    0.459045;    0.439463;    0.415334;    0.381723;    0.359760;    0.335840;    0.307441;    0.258735;    0.214897;    0.155746;    0.076218;
  3;    1.048925;    0.991111;    0.781977;    0.629154;    0.504155;    0.500055;    0.488222;    0.480858;    0.466755;    0.448776;    0.426567;    0.401471;    0.372691;    0.346350;    0.313041;    0.277863;    0.234962;    0.166584;    0.093893;
  4;    1.038592;    1.030159;    0.806123;    0.638970;    0.507515;    0.503700;    0.494800;    0.479669;    0.465023;    0.451760;    0.426815;    0.395237;    0.377641;    0.349714;    0.309582;    0.273602;    0.216990;    0.160740;    0.093291;
  5;    1.045075;    0.998684;    0.776653;    0.609488;    0.499978;    0.493020;    0.480591;    0.468268;    0.459073;    0.448666;    0.421854;    0.401252;    0.375633;    0.346792;    0.306440;    0.268556;    0.213146;    0.160593;    0.089214;
  6;    1.039417;    1.009197;    0.791281;    0.611510;    0.497458;    0.489952;    0.485568;    0.468286;    0.453974;    0.440868;    0.417231;    0.404235;    0.383199;    0.345861;    0.309059;    0.265320;    0.206027;    0.160877;    0.085484;
  7;    1.044338;    1.009686;    0.785232;    0.613043;    0.498104;    0.485333;    0.478495;    0.470307;    0.457073;    0.431638;    0.418698;    0.396906;    0.374347;    0.339930;    0.297542;    0.255525;    0.211487;    0.168502;    0.093892;
  8;    1.056484;    0.975690;    0.760284;    0.601034;    0.490751;    0.487637;    0.481556;    0.466851;    0.454368;    0.440798;    0.423382;    0.403748;    0.375166;    0.346668;    0.308286;    0.265670;    0.207256;    0.148497;    0.068252;
  9;    1.036440;    1.005923;    0.791012;    0.618501;    0.503025;    0.499858;    0.491591;    0.479920;    0.462998;    0.459189;    0.445251;    0.423935;    0.399071;    0.369277;    0.331277;    0.277783;    0.230263;    0.169175;    0.103021;
 10;    1.048299;    1.019876;    0.801242;    0.626221;    0.503825;    0.499676;    0.490054;    0.483162;    0.467759;    0.452791;    0.431920;    0.410540;    0.378333;    0.338084;    0.307338;    0.266748;    0.222277;    0.166550;    0.087087;
 11;    1.031286;    0.999509;    0.790251;    0.616817;    0.506141;    0.494437;    0.477913;    0.470569;    0.451710;    0.441396;    0.425445;    0.401554;    0.380197;    0.346275;    0.304378;    0.256698;    0.216279;    0.161882;    0.092764;
 12;    1.063721;    0.978084;    0.777292;    0.601932;    0.496388;    0.488897;    0.480280;    0.468135;    0.450625;    0.437406;    0.416123;    0.388550;    0.374471;    0.352655;    0.317536;    0.274411;    0.218161;    0.149625;    0.084814;
 13;    1.044991;    1.003591;    0.773898;    0.610956;    0.498004;    0.489384;    0.482128;    0.466265;    0.452802;    0.439209;    0.417072;    0.397871;    0.367720;    0.345966;    0.322402;    0.284127;    0.236652;    0.165269;    0.081917;
 14;    1.034708;    0.986421;    0.775299;    0.610259;    0.489735;    0.486834;    0.478040;    0.458514;    0.442200;    0.429539;    0.416071;    0.397957;    0.369371;    0.330253;    0.298700;    0.258018;    0.200430;    0.146486;    0.084974;
 15;    1.023141;    1.006602;    0.765953;    0.604383;    0.483981;    0.477464;    0.472879;    0.462079;    0.439370;    0.430119;    0.406591;    0.392297;    0.371810;    0.341806;    0.305186;    0.254440;    0.191231;    0.146553;    0.082871;
 16;    1.030897;    1.010423;    0.800108;    0.625939;    0.509395;    0.502887;    0.493025;    0.485518;    0.468920;    0.450605;    0.431159;    0.403271;    0.380952;    0.348799;    0.309951;    0.262462;    0.219117;    0.158461;    0.080695;
 17;    1.041027;    0.979232;    0.770616;    0.614398;    0.490375;    0.478681;    0.465177;    0.453725;    0.437253;    0.421624;    0.405748;    0.385696;    0.369468;    0.337953;    0.293442;    0.258255;    0.209122;    0.135865;    0.078555;
 18;    1.016681;    0.962408;    0.763656;    0.606988;    0.498446;    0.488451;    0.482375;    0.475225;    0.462170;    0.452496;    0.435268;    0.406515;    0.385791;    0.359864;    0.326584;    0.278202;    0.231326;    0.165443;    0.086619;
 19;    1.036605;    0.982967;    0.760505;    0.591267;    0.494701;    0.492468;    0.478420;    0.474889;    0.464842;    0.448004;    0.433348;    0.416114;    0.389950;    0.359523;    0.320247;    0.282824;    0.227602;    0.161224;    0.084953;
 20;    1.045581;    1.022921;    0.786110;    0.619961;    0.499489;    0.493391;    0.489751;    0.479086;    0.465312;    0.439725;    0.426890;    0.405196;    0.377164;    0.341558;    0.317739;    0.280766;    0.229407;    0.160198;    0.088605;
 21;    1.055872;    1.013505;    0.779440;    0.617700;    0.502587;    0.490488;    0.484532;    0.468527;    0.445313;    0.431959;    0.416201;    0.399656;    0.375525;    0.342543;    0.313451;    0.271150;    0.221940;    0.155950;    0.092201;
 22;    1.030369;    1.009881;    0.781416;    0.613984;    0.503443;    0.497458;    0.489262;    0.475187;    0.464358;    0.440866;    0.421509;    0.405796;    0.375386;    0.340801;    0.309613;    0.262782;    0.216453;    0.162634;    0.078917;
 23;    1.060749;    0.993736;    0.776084;    0.605785;    0.505529;    0.495604;    0.486068;    0.480804;    0.470999;    0.456105;    0.436422;    0.414309;    0.379112;    0.346393;    0.299162;    0.269043;    0.219349;    0.166732;    0.085727;
 24;    1.061299;    1.023062;    0.799457;    0.620704;    0.498126;    0.491021;    0.483818;    0.472642;    0.458525;    0.444519;    0.421200;    0.403567;    0.371732;    0.343154;    0.300818;    0.255213;    0.221642;    0.171775;    0.093917;
 25;    1.042055;    0.987593;    0.778602;    0.610745;    0.490576;    0.481616;    0.473603;    0.468801;    0.457239;    0.436246;    0.411033;    0.387919;    0.364880;    0.329159;    0.288446;    0.234242;    0.197196;    0.146248;    0.072176;
 26;    1.063398;    1.009748;    0.790839;    0.624724;    0.509989;    0.505976;    0.494567;    0.486476;    0.469367;    0.456331;    0.437449;    0.413269;    0.384931;    0.339319;    0.303983;    0.251636;    0.208280;    0.145201;    0.073787;
 27;    1.064350;    1.005892;    0.772783;    0.610139;    0.499013;    0.495811;    0.490193;    0.476455;    0.464827;    0.449110;    0.432015;    0.403965;    0.373435;    0.343639;    0.298264;    0.256760;    0.201683;    0.130395;    0.081599;
 28;    1.040473;    1.008932;    0.772612;    0.607320;    0.497245;    0.489516;    0.483345;    0.474248;    0.454218;    0.443945;    0.423195;    0.400209;    0.370833;    0.344357;    0.311496;    0.265909;    0.214357;    0.160207;    0.082283;
 29;    1.036538;    1.025121;    0.776390;    0.607672;    0.493797;    0.488403;    0.474486;    0.466509;    0.446222;    0.438027;    0.422695;    0.398577;    0.373890;    0.332230;    0.295583;    0.251770;    0.198508;    0.135320;    0.068310;
 30;    1.040844;    1.016011;    0.787364;    0.623652;    0.502429;    0.492618;    0.487318;    0.472422;    0.450283;    0.437037;    0.413047;    0.396669;    0.377502;    0.346911;    0.309981;    0.263006;    0.212315;    0.151851;    0.092099;
 31;    1.046112;    1.016574;    0.791737;    0.612326;    0.499830;    0.492471;    0.486703;    0.477668;    0.462811;    0.442492;    0.430335;    0.413142;    0.385270;    0.357889;    0.311825;    0.258812;    0.218251;    0.156613;    0.093779;
 32;    1.060805;    0.999626;    0.796343;    0.606980;    0.496891;    0.488171;    0.487231;    0.478316;    0.463255;    0.445042;    0.421588;    0.393825;    0.373002;    0.344498;    0.304146;    0.265646;    0.211038;    0.158044;    0.086034;
 33;    1.016747;    1.006854;    0.769588;    0.595642;    0.488255;    0.479854;    0.477892;    0.469768;    0.453402;    0.442738;    0.420302;    0.391194;    0.355250;    0.328933;    0.298977;    0.267193;    0.215604;    0.152982;    0.086379;
 34;    1.108704;    1.029423;    0.791156;    0.622152;    0.506024;    0.496751;    0.493733;    0.483024;    0.470498;    0.448060;    0.425856;    0.390640;    0.364791;    0.339358;    0.310207;    0.265493;    0.225714;    0.160598;    0.090661;
 35;    1.024256;    0.999243;    0.782477;    0.610997;    0.497356;    0.489523;    0.484586;    0.471173;    0.461532;    0.442239;    0.419973;    0.401120;    0.369819;    0.347375;    0.307747;    0.268762;    0.218281;    0.161906;    0.078239;
 36;    1.064455;    0.981698;    0.786516;    0.614890;    0.493230;    0.486330;    0.478855;    0.472258;    0.457241;    0.445671;    0.422626;    0.408726;    0.385942;    0.352923;    0.312494;    0.283827;    0.244764;    0.182800;    0.087960;
 37;    1.047335;    1.002728;    0.791535;    0.620805;    0.491535;    0.489220;    0.475220;    0.461228;    0.446835;    0.435787;    0.421259;    0.403703;    0.377412;    0.335185;    0.297770;    0.248613;    0.208430;    0.160525;    0.078784;
 38;    1.054205;    0.998083;    0.772782;    0.607426;    0.498986;    0.488735;    0.477702;    0.462688;    0.451607;    0.442510;    0.423504;    0.395538;    0.366095;    0.332454;    0.296177;    0.252343;    0.211478;    0.153518;    0.089895;
 39;    1.027777;    0.970859;    0.768755;    0.608796;    0.495493;    0.487609;    0.480904;    0.472942;    0.458095;    0.431185;    0.414603;    0.384589;    0.348300;    0.327139;    0.290371;    0.250412;    0.199236;    0.141325;    0.074934;
 40;    1.040979;    1.019789;    0.801631;    0.612960;    0.493008;    0.482614;    0.473081;    0.460022;    0.445318;    0.432823;    0.411404;    0.389148;    0.370133;    0.337679;    0.305211;    0.268708;    0.212550;    0.149489;    0.091702;
 41;    1.064937;    0.997614;    0.779588;    0.601544;    0.495255;    0.487419;    0.479985;    0.465874;    0.451672;    0.435016;    0.409978;    0.388790;    0.361597;    0.336379;    0.300394;    0.265536;    0.218033;    0.154981;    0.075526;
 42;    1.028447;    1.022174;    0.778087;    0.614252;    0.492781;    0.489324;    0.476293;    0.458578;    0.441361;    0.429352;    0.410990;    0.386069;    0.363072;    0.332659;    0.292777;    0.255974;    0.212913;    0.160057;    0.096211;
 43;    1.023970;    1.011557;    0.779596;    0.611551;    0.497272;    0.490142;    0.483865;    0.463964;    0.455058;    0.438983;    0.414765;    0.392844;    0.361403;    0.334260;    0.295628;    0.253068;    0.208868;    0.157828;    0.095670;
 44;    1.044028;    1.008504;    0.790137;    0.609278;    0.501412;    0.493384;    0.485761;    0.480043;    0.470076;    0.456128;    0.438196;    0.412491;    0.379760;    0.349908;    0.325038;    0.284198;    0.231283;    0.156566;    0.089617;
 45;    1.063495;    0.981663;    0.762632;    0.602722;    0.496275;    0.493631;    0.484928;    0.466733;    0.446849;    0.433329;    0.419597;    0.402436;    0.372054;    0.345365;    0.307231;    0.275229;    0.234195;    0.173248;    0.098914;
 46;    1.030502;    1.009991;    0.774783;    0.608887;    0.492454;    0.483668;    0.476364;    0.464680;    0.455087;    0.443187;    0.422973;    0.396513;    0.374636;    0.338445;    0.297371;    0.248386;    0.202025;    0.135507;    0.085207;
 47;    1.076386;    1.018418;    0.784808;    0.627739;    0.509995;    0.503199;    0.500379;    0.490663;    0.476142;    0.452995;    0.431642;    0.409786;    0.381524;    0.342005;    0.297564;    0.261953;    0.207296;    0.144341;    0.084505;
 48;    1.025834;    0.978935;    0.769121;    0.613128;    0.501926;    0.497144;    0.492944;    0.481051;    0.469571;    0.452391;    0.429622;    0.414788;    0.389255;    0.358172;    0.323185;    0.272367;    0.218617;    0.164721;    0.083836;
 49;    1.038339;    0.983589;    0.769174;    0.611881;    0.499181;    0.492014;    0.486122;    0.474809;    0.454756;    0.428963;    0.402153;    0.381515;    0.358404;    0.324345;    0.287878;    0.254660;    0.202179;    0.135642;    0.078746;
 50;    1.065316;    1.006454;    0.779194;    0.605410;    0.492688;    0.488845;    0.477966;    0.465538;    0.459103;    0.442585;    0.427575;    0.405322;    0.374867;    0.337119;    0.294517;    0.252606;    0.192999;    0.144338;    0.076022;
 51;    1.032185;    1.020848;    0.786615;    0.622071;    0.497879;    0.489574;    0.476533;    0.471925;    0.458511;    0.449071;    0.426030;    0.404073;    0.369421;    0.334984;    0.303048;    0.263831;    0.206054;    0.141361;    0.071694;
 52;    1.040004;    1.005729;    0.785731;    0.613426;    0.488495;    0.481262;    0.472378;    0.462057;    0.454490;    0.439475;    0.417218;    0.398759;    0.370460;    0.346968;    0.311698;    0.264665;    0.206134;    0.144298;    0.085647;
 53;    1.049516;    0.989193;    0.812461;    0.610856;    0.493294;    0.486579;    0.478262;    0.468308;    0.455596;    0.440816;    0.424611;    0.412408;    0.385847;    0.350999;    0.311802;    0.265785;    0.217373;    0.156087;    0.080581;
 54;    1.031378;    1.028317;    0.802942;    0.599346;    0.492711;    0.484514;    0.480186;    0.464829;    0.451417;    0.433862;    0.417684;    0.390239;    0.365391;    0.326077;    0.299834;    0.263427;    0.204692;    0.153963;    0.079818;
 55;    1.058040;    0.985451;    0.758443;    0.599367;    0.490510;    0.484410;    0.474095;    0.462987;    0.449374;    0.431584;    0.409428;    0.389662;    0.361706;    0.333370;    0.297323;    0.268421;    0.229493;    0.167229;    0.086136;
 56;    1.040468;    1.008900;    0.784085;    0.605616;    0.493506;    0.483233;    0.479979;    0.466321;    0.449196;    0.427055;    0.414605;    0.391520;    0.363513;    0.334414;    0.292727;    0.249158;    0.197713;    0.136297;    0.073603;
 57;    1.048613;    1.027923;    0.804116;    0.623472;    0.503737;    0.493618;    0.483587;    0.472840;    0.460789;    0.441121;    0.425797;    0.401984;    0.382158;    0.353584;    0.310634;    0.267432;    0.220147;    0.163274;    0.085812;
 58;    1.035650;    1.009678;    0.785859;    0.608675;    0.498572;    0.489644;    0.479463;    0.478211;    0.470945;    0.456283;    0.435530;    0.418669;    0.389753;    0.361963;    0.319553;    0.279640;    0.229896;    0.160325;    0.092231;
 59;    1.054979;    0.996180;    0.783956;    0.620455;    0.491173;    0.480580;    0.472528;    0.466759;    0.454185;    0.432410;    0.416235;    0.396660;    0.366481;    0.327839;    0.297354;    0.252809;    0.202804;    0.155090;    0.092982;
 60;    1.052051;    0.997690;    0.776689;    0.610476;    0.496840;    0.493474;    0.485924;    0.473772;    0.458113;    0.436723;    0.423847;    0.409488;    0.386386;    0.356084;    0.319266;    0.268299;    0.229378;    0.161817;    0.077048;
 61;    1.052192;    0.997108;    0.779307;    0.608936;    0.506404;    0.496656;    0.485164;    0.474807;    0.462943;    0.447221;    0.430833;    0.410790;    0.374478;    0.348545;    0.306045;    0.268139;    0.215134;    0.156577;    0.080194;
 62;    1.053492;    0.990733;    0.769754;    0.609476;    0.489116;    0.485739;    0.471164;    0.458986;    0.445135;    0.420378;    0.406206;    0.387955;    0.366934;    0.335195;    0.300418;    0.247075;    0.191647;    0.138392;    0.082035;
 63;    1.063716;    1.018977;    0.783235;    0.600813;    0.492117;    0.482545;    0.472643;    0.460730;    0.452262;    0.438600;    0.414297;    0.396146;    0.362345;    0.323001;    0.297752;    0.256354;    0.218473;    0.170592;    0.093398;
 64;    1.070422;    1.011862;    0.788851;    0.626314;    0.501564;    0.498607;    0.489188;    0.473957;    0.461461;    0.446872;    0.432588;    0.408969;    0.381925;    0.343933;    0.304139;    0.273227;    0.230008;    0.165199;    0.092612;
 65;    1.063464;    0.978260;    0.770738;    0.599358;    0.490647;    0.487531;    0.473747;    0.461294;    0.452188;    0.435870;    0.417730;    0.394436;    0.361878;    0.330746;    0.302945;    0.262886;    0.212751;    0.136890;    0.071143;
 66;    1.044288;    0.989476;    0.773592;    0.609002;    0.495436;    0.485242;    0.478814;    0.463644;    0.452941;    0.433562;    0.403620;    0.381390;    0.344899;    0.314637;    0.285618;    0.254139;    0.211736;    0.149134;    0.094721;
 67;    1.057249;    0.976796;    0.768087;    0.605069;    0.504332;    0.493989;    0.489621;    0.471748;    0.459093;    0.443639;    0.427925;    0.402069;    0.365599;    0.340585;    0.299100;    0.253893;    0.204827;    0.150481;    0.093417;
 68;    1.054086;    0.998866;    0.776859;    0.610658;    0.500194;    0.498098;    0.485156;    0.476253;    0.459398;    0.440790;    0.425634;    0.400852;    0.369804;    0.343752;    0.304169;    0.259346;    0.212964;    0.147247;    0.078977;
 69;    1.032096;    0.993846;    0.789690;    0.622000;    0.502764;    0.495068;    0.489016;    0.476391;    0.460695;    0.446613;    0.425036;    0.404307;    0.377620;    0.336558;    0.308841;    0.274183;    0.230117;    0.162868;    0.085784;
 70;    1.054604;    1.019994;    0.800164;    0.609432;    0.501611;    0.496262;    0.488276;    0.479319;    0.466138;    0.456117;    0.435216;    0.415075;    0.382064;    0.354949;    0.325172;    0.275799;    0.214675;    0.148967;    0.089317;
 71;    1.058292;    0.996084;    0.770780;    0.603229;    0.494369;    0.490433;    0.481755;    0.461126;    0.447922;    0.434539;    0.420847;    0.400846;    0.371620;    0.347317;    0.309091;    0.263883;    0.209238;    0.145990;    0.083770;
 72;    1.047485;    0.998175;    0.767356;    0.608173;    0.499756;    0.494196;    0.491984;    0.485748;    0.474274;    0.458331;    0.440574;    0.410374;    0.371448;    0.342742;    0.304932;    0.256611;    0.192084;    0.134784;    0.081001;
 73;    1.059734;    1.029454;    0.794731;    0.625420;    0.506744;    0.505760;    0.501273;    0.489360;    0.474658;    0.447431;    0.432197;    0.411015;    0.385576;    0.344094;    0.317550;    0.274593;    0.213341;    0.155499;    0.094311;
 74;    1.044102;    1.016267;    0.779225;    0.622933;    0.496332;    0.490909;    0.488327;    0.477497;    0.453368;    0.437591;    0.411680;    0.391726;    0.365301;    0.340760;    0.314431;    0.273840;    0.214044;    0.151571;    0.068585;
 75;    1.052164;    1.009008;    0.788341;    0.600540;    0.483178;    0.476945;    0.469415;    0.459642;    0.449109;    0.426373;    0.413654;    0.392719;    0.357521;    0.329749;    0.298991;    0.268622;    0.230726;    0.169562;    0.088724;
 76;    1.061429;    1.006144;    0.769990;    0.599770;    0.493788;    0.490711;    0.480944;    0.467082;    0.457390;    0.440127;    0.415364;    0.392395;    0.375703;    0.347730;    0.316033;    0.275060;    0.227842;    0.157329;    0.083290;
 77;    1.050063;    0.974400;    0.762563;    0.589671;    0.482804;    0.481206;    0.466113;    0.450914;    0.433577;    0.420206;    0.402705;    0.386421;    0.357007;    0.323541;    0.274622;    0.236624;    0.193313;    0.137763;    0.083225;
 78;    1.060182;    0.998606;    0.792344;    0.614237;    0.493221;    0.484583;    0.485361;    0.478627;    0.465455;    0.448738;    0.428539;    0.409659;    0.386153;    0.349990;    0.306661;    0.256825;    0.206460;    0.150363;    0.077564;
 79;    1.053896;    1.005039;    0.782306;    0.608443;    0.500667;    0.492203;    0.481436;    0.468548;    0.450857;    0.437956;    0.422829;    0.393571;    0.376291;    0.349251;    0.306063;    0.257416;    0.205897;    0.147968;    0.080004;
 80;    1.044279;    0.995374;    0.768689;    0.596174;    0.478203;    0.470586;    0.466612;    0.456254;    0.440654;    0.420139;    0.396672;    0.381124;    0.353858;    0.316230;    0.285372;    0.240173;    0.190391;    0.134096;    0.078361;
 81;    1.202613;    0.982444;    0.766275;    0.605625;    0.488849;    0.484345;    0.472687;    0.456302;    0.444231;    0.428817;    0.416019;    0.399119;    0.370508;    0.335069;    0.297715;    0.261231;    0.212596;    0.167991;    0.095384;
 82;    1.048438;    0.983881;    0.763573;    0.597755;    0.485370;    0.475590;    0.466053;    0.462467;    0.452750;    0.438491;    0.424393;    0.398077;    0.365022;    0.339362;    0.303674;    0.254933;    0.216369;    0.161158;    0.093105;
 83;    1.065625;    0.964765;    0.761855;    0.598678;    0.493598;    0.483130;    0.477776;    0.466540;    0.456978;    0.441607;    0.425944;    0.403119;    0.370157;    0.348616;    0.316842;    0.266114;    0.202222;    0.150066;    0.089949;
 84;    1.063299;    0.991794;    0.793847;    0.622359;    0.500016;    0.496952;    0.484817;    0.472671;    0.456623;    0.441717;    0.430725;    0.410806;    0.387391;    0.357752;    0.314597;    0.255160;    0.205067;    0.142502;    0.072989;
 85;    1.061614;    0.994747;    0.785566;    0.614142;    0.501092;    0.491504;    0.485013;    0.477121;    0.459738;    0.449347;    0.433106;    0.409837;    0.372541;    0.347575;    0.313264;    0.269267;    0.223279;    0.150455;    0.080477;
 86;    1.058733;    1.025213;    0.786120;    0.607260;    0.494615;    0.484976;    0.480460;    0.466466;    0.447476;    0.435617;    0.411771;    0.388702;    0.371398;    0.338209;    0.293716;    0.253093;    0.220671;    0.162709;    0.078785;
 87;    1.038852;    1.004232;    0.775219;    0.603695;    0.496291;    0.490396;    0.479037;    0.461136;    0.449289;    0.434728;    0.415308;    0.391736;    0.354644;    0.322954;    0.279968;    0.232005;    0.191007;    0.147427;    0.082080;
 88;    1.056568;    1.026130;    0.788967;    0.610203;    0.485276;    0.484800;    0.475111;    0.460376;    0.440007;    0.423576;    0.406371;    0.385949;    0.359583;    0.334280;    0.296288;    0.238230;    0.198730;    0.145506;    0.081143;
 89;    1.049351;    1.015650;    0.792645;    0.622084;    0.493879;    0.488941;    0.478326;    0.465032;    0.446709;    0.433407;    0.412973;    0.398354;    0.366798;    0.321628;    0.293870;    0.244915;    0.192154;    0.136098;    0.067884;
 90;    1.056469;    0.997455;    0.784931;    0.610567;    0.503943;    0.494305;    0.488377;    0.472998;    0.462584;    0.449193;    0.427839;    0.405032;    0.390776;    0.367876;    0.330853;    0.274527;    0.204964;    0.153309;    0.087590;
 91;    1.049623;    1.019353;    0.791939;    0.609660;    0.492918;    0.485589;    0.477373;    0.470430;    0.454697;    0.447084;    0.427757;    0.395460;    0.370937;    0.346401;    0.307185;    0.263623;    0.207405;    0.159301;    0.080317;
 92;    1.063857;    1.000641;    0.780624;    0.618238;    0.496537;    0.484432;    0.478232;    0.466614;    0.451186;    0.440562;    0.422008;    0.396626;    0.361310;    0.335623;    0.308302;    0.265404;    0.203819;    0.140755;    0.087644;
 93;    1.043371;    1.004275;    0.785288;    0.619849;    0.502073;    0.494604;    0.487821;    0.479620;    0.466037;    0.451105;    0.423499;    0.399806;    0.384197;    0.359868;    0.326760;    0.283944;    0.225844;    0.144830;    0.079542;
 94;    1.250473;    0.997013;    0.774998;    0.594630;    0.489791;    0.481141;    0.474462;    0.463243;    0.449099;    0.426622;    0.405553;    0.390096;    0.364460;    0.339353;    0.298414;    0.250191;    0.195510;    0.150658;    0.069895;
 95;    1.048256;    1.015268;    0.784991;    0.613417;    0.500219;    0.494027;    0.492423;    0.483394;    0.467156;    0.450179;    0.433704;    0.403826;    0.383383;    0.356333;    0.317477;    0.276670;    0.221789;    0.150221;    0.079184;
 96;    1.051597;    1.015050;    0.778592;    0.604412;    0.491224;    0.477482;    0.474722;    0.471728;    0.463834;    0.446126;    0.426589;    0.404583;    0.372814;    0.322913;    0.295091;    0.251903;    0.213794;    0.165551;    0.089429;
 97;    1.053235;    1.017195;    0.809283;    0.632769;    0.510132;    0.508339;    0.493223;    0.475292;    0.470546;    0.457724;    0.439357;    0.413332;    0.379714;    0.342702;    0.309581;    0.269298;    0.212476;    0.158640;    0.088219;
 98;    1.054920;    1.012095;    0.794962;    0.616272;    0.495883;    0.486381;    0.476310;    0.469523;    0.462196;    0.450465;    0.431293;    0.402068;    0.379865;    0.355338;    0.317350;    0.265890;    0.213436;    0.164543;    0.088987;
 99;    1.061681;    1.007534;    0.773680;    0.609420;    0.496041;    0.487079;    0.479309;    0.473014;    0.448212;    0.431540;    0.415140;    0.391937;    0.368946;    0.341831;    0.309526;    0.270610;    0.218929;    0.160127;    0.087598;
100;    1.037265;    0.992624;    0.766966;    0.608439;    0.495704;    0.490199;    0.485382;    0.473225;    0.461518;    0.440069;    0.419700;    0.394210;    0.375260;    0.343909;    0.307003;    0.260491;    0.220505;    0.166407;    0.084699;
