Simulation;Time;PC 0;PC 1;PC 2;PC 3;PC 4;PC 5;PC 6;PC 7;PC 8;PC 9;PC10;PC11;PC12;PC13;PC14;PC15;PC16;PC17;
Nan;Nan;0;0;0;1;0;0;0;0;0;0;0;0;0;0;0;0;0;0;
  0;    0.031069;    0.255456;    0.231514;    0.200247;    0.157206;    0.157297;    0.157340;    0.157293;    0.157511;    0.157570;    0.157557;    0.157655;    0.157681;    0.157570;    0.157637;    0.157565;    0.157638;    0.157601;    0.157618;
  1;    0.019861;    0.258684;    0.235283;    0.201686;    0.159116;    0.159275;    0.159330;    0.159434;    0.159416;    0.159453;    0.159588;    0.159638;    0.159672;    0.159631;    0.159675;    0.159733;    0.159735;    0.159767;    0.159769;
  2;    0.023702;    0.258715;    0.236330;    0.203558;    0.159700;    0.159879;    0.159904;    0.160069;    0.160052;    0.160084;    0.160049;    0.160020;    0.160076;    0.160148;    0.160208;    0.160167;    0.160212;    0.160243;    0.160229;
  3;    0.019682;    0.253581;    0.230430;    0.203024;    0.159535;    0.159714;    0.159728;    0.159880;    0.159938;    0.159977;    0.160009;    0.159999;    0.160033;    0.160054;    0.160064;    0.160127;    0.160175;    0.160167;    0.160176;
  4;    0.019145;    0.258388;    0.234817;    0.205750;    0.160810;    0.161002;    0.161094;    0.161083;    0.161163;    0.161300;    0.161301;    0.161318;    0.161405;    0.161450;    0.161420;    0.161479;    0.161486;    0.161512;    0.161522;
  5;    0.019222;    0.255110;    0.230474;    0.198843;    0.158932;    0.159054;    0.159089;    0.159149;    0.159265;    0.159410;    0.159328;    0.159403;    0.159440;    0.159493;    0.159495;    0.159532;    0.159511;    0.159542;    0.159549;
  6;    0.019667;    0.256607;    0.233206;    0.200100;    0.158960;    0.159059;    0.159261;    0.159249;    0.159281;    0.159406;    0.159399;    0.159547;    0.159629;    0.159591;    0.159592;    0.159611;    0.159582;    0.159634;    0.159626;
  7;    0.019187;    0.256570;    0.232125;    0.200147;    0.158999;    0.158988;    0.159143;    0.159250;    0.159318;    0.159230;    0.159360;    0.159411;    0.159481;    0.159486;    0.159473;    0.159490;    0.159525;    0.159576;    0.159578;
  8;    0.019416;    0.252701;    0.228076;    0.197795;    0.157215;    0.157360;    0.157506;    0.157532;    0.157626;    0.157728;    0.157785;    0.157837;    0.157793;    0.157859;    0.157875;    0.157916;    0.157874;    0.157904;    0.157898;
  9;    0.019454;    0.255665;    0.232404;    0.200810;    0.159606;    0.159778;    0.159881;    0.159934;    0.159932;    0.160122;    0.160225;    0.160276;    0.160321;    0.160370;    0.160385;    0.160376;    0.160436;    0.160453;    0.160480;
 10;    0.019202;    0.257425;    0.234317;    0.203227;    0.160068;    0.160241;    0.160329;    0.160466;    0.160540;    0.160616;    0.160642;    0.160694;    0.160683;    0.160621;    0.160679;    0.160708;    0.160735;    0.160766;    0.160772;
 11;    0.021124;    0.254661;    0.231705;    0.199951;    0.159741;    0.159770;    0.159765;    0.159908;    0.159910;    0.160027;    0.160122;    0.160148;    0.160249;    0.160256;    0.160259;    0.160251;    0.160297;    0.160324;    0.160347;
 12;    0.019569;    0.252591;    0.230360;    0.196875;    0.157993;    0.158091;    0.158159;    0.158209;    0.158195;    0.158314;    0.158295;    0.158288;    0.158415;    0.158514;    0.158545;    0.158568;    0.158566;    0.158539;    0.158547;
 13;    0.018998;    0.255913;    0.230317;    0.199541;    0.158727;    0.158801;    0.158956;    0.158937;    0.158983;    0.159079;    0.159081;    0.159174;    0.159164;    0.159275;    0.159373;    0.159427;    0.159466;    0.159445;    0.159414;
 14;    0.019070;    0.254220;    0.230982;    0.200712;    0.157415;    0.157631;    0.157760;    0.157653;    0.157673;    0.157760;    0.157894;    0.158006;    0.158035;    0.157954;    0.158043;    0.158092;    0.158033;    0.158045;    0.158074;
 15;    0.019399;    0.257282;    0.230516;    0.200501;    0.157010;    0.157129;    0.157320;    0.157417;    0.157340;    0.157487;    0.157456;    0.157576;    0.157675;    0.157717;    0.157720;    0.157655;    0.157609;    0.157638;    0.157655;
 16;    0.019842;    0.255750;    0.233128;    0.201171;    0.160588;    0.160712;    0.160762;    0.160906;    0.160886;    0.160917;    0.161015;    0.161000;    0.161124;    0.161160;    0.161174;    0.161174;    0.161216;    0.161227;    0.161209;
 17;    0.019374;    0.253128;    0.230071;    0.200754;    0.157327;    0.157351;    0.157391;    0.157466;    0.157505;    0.157513;    0.157614;    0.157682;    0.157783;    0.157817;    0.157757;    0.157791;    0.157825;    0.157800;    0.157809;
 18;    0.019500;    0.250297;    0.227486;    0.197581;    0.157863;    0.157892;    0.158035;    0.158163;    0.158207;    0.158351;    0.158437;    0.158391;    0.158478;    0.158539;    0.158588;    0.158591;    0.158628;    0.158625;    0.158627;
 19;    0.019431;    0.253547;    0.228138;    0.194293;    0.157695;    0.157901;    0.157871;    0.158057;    0.158155;    0.158195;    0.158288;    0.158370;    0.158406;    0.158430;    0.158447;    0.158501;    0.158513;    0.158514;    0.158516;
 20;    0.019397;    0.258238;    0.232674;    0.202480;    0.159489;    0.159594;    0.159791;    0.159898;    0.159978;    0.159892;    0.159999;    0.160043;    0.160038;    0.160061;    0.160162;    0.160207;    0.160229;    0.160213;    0.160217;
 21;    0.019398;    0.256791;    0.230931;    0.200984;    0.159604;    0.159610;    0.159793;    0.159797;    0.159730;    0.159814;    0.159860;    0.159948;    0.160010;    0.160001;    0.160029;    0.160071;    0.160105;    0.160108;    0.160127;
 22;    0.019802;    0.256207;    0.230965;    0.199559;    0.159678;    0.159814;    0.159929;    0.159953;    0.160103;    0.160055;    0.160087;    0.160208;    0.160186;    0.160202;    0.160262;    0.160261;    0.160293;    0.160328;    0.160327;
 23;    0.019500;    0.254033;    0.229509;    0.196494;    0.159434;    0.159489;    0.159539;    0.159705;    0.159824;    0.159881;    0.159936;    0.159991;    0.159960;    0.159979;    0.159986;    0.160056;    0.160092;    0.160132;    0.160132;
 24;    0.018868;    0.258226;    0.234357;    0.202755;    0.159427;    0.159520;    0.159635;    0.159672;    0.159714;    0.159814;    0.159806;    0.159937;    0.159926;    0.159972;    0.159928;    0.159955;    0.160028;    0.160083;    0.160106;
 25;    0.019553;    0.254223;    0.231348;    0.200914;    0.157649;    0.157723;    0.157811;    0.157989;    0.158089;    0.158031;    0.158028;    0.158071;    0.158147;    0.158131;    0.158174;    0.158137;    0.158196;    0.158216;    0.158172;
 26;    0.019659;    0.255597;    0.231514;    0.201181;    0.160571;    0.160739;    0.160763;    0.160913;    0.160929;    0.161058;    0.161110;    0.161164;    0.161198;    0.161091;    0.161164;    0.161158;    0.161197;    0.161187;    0.161195;
 27;    0.019455;    0.256102;    0.229850;    0.198831;    0.158979;    0.159178;    0.159289;    0.159317;    0.159400;    0.159446;    0.159544;    0.159508;    0.159533;    0.159590;    0.159553;    0.159573;    0.159622;    0.159592;    0.159628;
 28;    0.019399;    0.256645;    0.230245;    0.199085;    0.158737;    0.158831;    0.158977;    0.159079;    0.159009;    0.159140;    0.159164;    0.159213;    0.159203;    0.159246;    0.159290;    0.159312;    0.159321;    0.159343;    0.159337;
 29;    0.019464;    0.259023;    0.231619;    0.200360;    0.158670;    0.158804;    0.158807;    0.158975;    0.158936;    0.159100;    0.159210;    0.159248;    0.159331;    0.159300;    0.159312;    0.159315;    0.159315;    0.159274;    0.159277;
 30;    0.019238;    0.257088;    0.232147;    0.202835;    0.159725;    0.159782;    0.159967;    0.159928;    0.159836;    0.159896;    0.159950;    0.160067;    0.160161;    0.160195;    0.160228;    0.160223;    0.160233;    0.160214;    0.160248;
 31;    0.019826;    0.257333;    0.233280;    0.200055;    0.159381;    0.159486;    0.159645;    0.159782;    0.159829;    0.159795;    0.159926;    0.160015;    0.160021;    0.160081;    0.160024;    0.159994;    0.160051;    0.160066;    0.160087;
 32;    0.021199;    0.255269;    0.232788;    0.198447;    0.158593;    0.158640;    0.158855;    0.158981;    0.159055;    0.159104;    0.159130;    0.159182;    0.159273;    0.159316;    0.159289;    0.159295;    0.159285;    0.159335;    0.159338;
 33;    0.019638;    0.257100;    0.230550;    0.197597;    0.157494;    0.157541;    0.157782;    0.157906;    0.157913;    0.158041;    0.158068;    0.158075;    0.158040;    0.158083;    0.158131;    0.158208;    0.158204;    0.158215;    0.158222;
 34;    0.019422;    0.258481;    0.232587;    0.201815;    0.160468;    0.160530;    0.160733;    0.160812;    0.160916;    0.160926;    0.160992;    0.160905;    0.160912;    0.160935;    0.161004;    0.161033;    0.161084;    0.161071;    0.161087;
 35;    0.019471;    0.255231;    0.231193;    0.199300;    0.158765;    0.158833;    0.159004;    0.158992;    0.159150;    0.159213;    0.159294;    0.159388;    0.159359;    0.159453;    0.159430;    0.159491;    0.159506;    0.159540;    0.159528;
 36;    0.019320;    0.253218;    0.231687;    0.201221;    0.157805;    0.157917;    0.158033;    0.158167;    0.158158;    0.158280;    0.158297;    0.158416;    0.158508;    0.158520;    0.158520;    0.158595;    0.158653;    0.158670;    0.158638;
 37;    0.019433;    0.256053;    0.233685;    0.203799;    0.158190;    0.158400;    0.158389;    0.158405;    0.158443;    0.158554;    0.158655;    0.158740;    0.158824;    0.158767;    0.158786;    0.158764;    0.158820;    0.158879;    0.158868;
 38;    0.019370;    0.255131;    0.229883;    0.198562;    0.158746;    0.158786;    0.158803;    0.158844;    0.158943;    0.159102;    0.159153;    0.159128;    0.159113;    0.159150;    0.159208;    0.159223;    0.159278;    0.159281;    0.159298;
 39;    0.019505;    0.251741;    0.229131;    0.199173;    0.157740;    0.157848;    0.157968;    0.158093;    0.158132;    0.158064;    0.158177;    0.158148;    0.158124;    0.158235;    0.158260;    0.158309;    0.158313;    0.158328;    0.158310;
 40;    0.020759;    0.258224;    0.235447;    0.201803;    0.158667;    0.158717;    0.158824;    0.158835;    0.158865;    0.158966;    0.158962;    0.158966;    0.159087;    0.159088;    0.159122;    0.159184;    0.159159;    0.159166;    0.159192;
 41;    0.019141;    0.255340;    0.231361;    0.197785;    0.158307;    0.158354;    0.158482;    0.158505;    0.158582;    0.158715;    0.158698;    0.158728;    0.158744;    0.158809;    0.158826;    0.158873;    0.158902;    0.158900;    0.158890;
 42;    0.019403;    0.258541;    0.231755;    0.202066;    0.158604;    0.158803;    0.158781;    0.158856;    0.158854;    0.158991;    0.159051;    0.159075;    0.159124;    0.159129;    0.159132;    0.159157;    0.159196;    0.159219;    0.159247;
 43;    0.019514;    0.256957;    0.231423;    0.200133;    0.158906;    0.159044;    0.159223;    0.159130;    0.159313;    0.159376;    0.159322;    0.159370;    0.159377;    0.159420;    0.159420;    0.159431;    0.159448;    0.159481;    0.159498;
 44;    0.019543;    0.256201;    0.232211;    0.198762;    0.159397;    0.159490;    0.159593;    0.159736;    0.159827;    0.159891;    0.159956;    0.159973;    0.159939;    0.160012;    0.160092;    0.160127;    0.160146;    0.160093;    0.160113;
 45;    0.019194;    0.253038;    0.227969;    0.197331;    0.157947;    0.158149;    0.158255;    0.158218;    0.158141;    0.158248;    0.158334;    0.158405;    0.158431;    0.158494;    0.158488;    0.158541;    0.158588;    0.158603;    0.158612;
 46;    0.019198;    0.257083;    0.230747;    0.200401;    0.158234;    0.158282;    0.158416;    0.158440;    0.158547;    0.158674;    0.158745;    0.158755;    0.158844;    0.158833;    0.158846;    0.158829;    0.158871;    0.158866;    0.158884;
 47;    0.019268;    0.256819;    0.230850;    0.202305;    0.160741;    0.160843;    0.161072;    0.161171;    0.161236;    0.161180;    0.161223;    0.161272;    0.161317;    0.161307;    0.161325;    0.161385;    0.161365;    0.161353;    0.161377;
 48;    0.019245;    0.252283;    0.228405;    0.198965;    0.158735;    0.158872;    0.159054;    0.159104;    0.159188;    0.159256;    0.159241;    0.159339;    0.159421;    0.159466;    0.159535;    0.159550;    0.159542;    0.159587;    0.159572;
 49;    0.020893;    0.253001;    0.228750;    0.198677;    0.158587;    0.158671;    0.158821;    0.158923;    0.158899;    0.158828;    0.158851;    0.158916;    0.158999;    0.158982;    0.158999;    0.159074;    0.159084;    0.159074;    0.159087;
 50;    0.020071;    0.256598;    0.231829;    0.199060;    0.158215;    0.158363;    0.158415;    0.158450;    0.158628;    0.158666;    0.158793;    0.158861;    0.158889;    0.158888;    0.158903;    0.158911;    0.158871;    0.158900;    0.158910;
 51;    0.019354;    0.257968;    0.232214;    0.202921;    0.159337;    0.159418;    0.159488;    0.159660;    0.159699;    0.159840;    0.159856;    0.159924;    0.159904;    0.159871;    0.159960;    0.160019;    0.160011;    0.159967;    0.159989;
 52;    0.019526;    0.256748;    0.233171;    0.202363;    0.157802;    0.157884;    0.157956;    0.158040;    0.158173;    0.158243;    0.158227;    0.158309;    0.158311;    0.158434;    0.158475;    0.158468;    0.158400;    0.158407;    0.158434;
 53;    0.019719;    0.254182;    0.235168;    0.200542;    0.158043;    0.158136;    0.158210;    0.158296;    0.158355;    0.158379;    0.158450;    0.158592;    0.158627;    0.158636;    0.158648;    0.158673;    0.158723;    0.158734;    0.158707;
 54;    0.019461;    0.259380;    0.236142;    0.198389;    0.158620;    0.158728;    0.158938;    0.158907;    0.158970;    0.158982;    0.159071;    0.159057;    0.159157;    0.159101;    0.159153;    0.159198;    0.159135;    0.159180;    0.159184;
 55;    0.019570;    0.254172;    0.228146;    0.197461;    0.157282;    0.157382;    0.157439;    0.157511;    0.157557;    0.157621;    0.157641;    0.157735;    0.157765;    0.157822;    0.157823;    0.157890;    0.157941;    0.157952;    0.157953;
 56;    0.019110;    0.256810;    0.232508;    0.199214;    0.158354;    0.158339;    0.158567;    0.158600;    0.158661;    0.158638;    0.158775;    0.158857;    0.158846;    0.158897;    0.158874;    0.158890;    0.158911;    0.158919;    0.158923;
 57;    0.019586;    0.258444;    0.235016;    0.202832;    0.160202;    0.160235;    0.160303;    0.160453;    0.160565;    0.160553;    0.160645;    0.160635;    0.160752;    0.160807;    0.160764;    0.160780;    0.160814;    0.160844;    0.160857;
 58;    0.019611;    0.256584;    0.231977;    0.198958;    0.159093;    0.159228;    0.159259;    0.159465;    0.159593;    0.159634;    0.159639;    0.159751;    0.159785;    0.159855;    0.159869;    0.159920;    0.159942;    0.159931;    0.159941;
 59;    0.019419;    0.255260;    0.232464;    0.203362;    0.157955;    0.157974;    0.158070;    0.158242;    0.158309;    0.158249;    0.158340;    0.158450;    0.158476;    0.158456;    0.158520;    0.158493;    0.158501;    0.158544;    0.158564;
 60;    0.019421;    0.255135;    0.230427;    0.199741;    0.158578;    0.158764;    0.158880;    0.158954;    0.159004;    0.159038;    0.159134;    0.159231;    0.159321;    0.159382;    0.159402;    0.159354;    0.159415;    0.159424;    0.159417;
 61;    0.019487;    0.254413;    0.229974;    0.197437;    0.159655;    0.159727;    0.159756;    0.159848;    0.159939;    0.159998;    0.160063;    0.160145;    0.160061;    0.160156;    0.160131;    0.160187;    0.160205;    0.160231;    0.160227;
 62;    0.020256;    0.254697;    0.230091;    0.200277;    0.157436;    0.157632;    0.157641;    0.157721;    0.157773;    0.157685;    0.157797;    0.157874;    0.157952;    0.157974;    0.158004;    0.157961;    0.157936;    0.157946;    0.157961;
 63;    0.018950;    0.258254;    0.232895;    0.198185;    0.158370;    0.158386;    0.158418;    0.158465;    0.158605;    0.158725;    0.158737;    0.158842;    0.158835;    0.158804;    0.158887;    0.158902;    0.158949;    0.158984;    0.158990;
 64;    0.025910;    0.256561;    0.232404;    0.203314;    0.159644;    0.159846;    0.159939;    0.159948;    0.160062;    0.160157;    0.160293;    0.160326;    0.160356;    0.160334;    0.160318;    0.160364;    0.160427;    0.160433;    0.160458;
 65;    0.019578;    0.253100;    0.229999;    0.197558;    0.157259;    0.157447;    0.157448;    0.157484;    0.157612;    0.157657;    0.157721;    0.157770;    0.157761;    0.157800;    0.157868;    0.157892;    0.157927;    0.157863;    0.157879;
 66;    0.019800;    0.254191;    0.230098;    0.199328;    0.158235;    0.158291;    0.158477;    0.158468;    0.158584;    0.158637;    0.158545;    0.158611;    0.158613;    0.158664;    0.158706;    0.158734;    0.158781;    0.158796;    0.158829;
 67;    0.019620;    0.251785;    0.227674;    0.195841;    0.158953;    0.158987;    0.159173;    0.159150;    0.159244;    0.159294;    0.159379;    0.159418;    0.159319;    0.159416;    0.159425;    0.159407;    0.159438;    0.159458;    0.159484;
 68;    0.020687;    0.255116;    0.230489;    0.199240;    0.158942;    0.159146;    0.159172;    0.159309;    0.159377;    0.159412;    0.159506;    0.159549;    0.159564;    0.159660;    0.159670;    0.159651;    0.159656;    0.159636;    0.159650;
 69;    0.019027;    0.254123;    0.232109;    0.201825;    0.159318;    0.159400;    0.159590;    0.159653;    0.159680;    0.159798;    0.159843;    0.159908;    0.159946;    0.159925;    0.159962;    0.159998;    0.160026;    0.160029;    0.160027;
 70;    0.019565;    0.257592;    0.234156;    0.199124;    0.159680;    0.159807;    0.159918;    0.160022;    0.160079;    0.160230;    0.160258;    0.160349;    0.160289;    0.160357;    0.160460;    0.160449;    0.160412;    0.160423;    0.160445;
 71;    0.019441;    0.255080;    0.229823;    0.197943;    0.158179;    0.158351;    0.158468;    0.158370;    0.158388;    0.158479;    0.158609;    0.158665;    0.158661;    0.158723;    0.158728;    0.158759;    0.158778;    0.158793;    0.158809;
 72;    0.019540;    0.255106;    0.228817;    0.198586;    0.158820;    0.158957;    0.159148;    0.159295;    0.159390;    0.159415;    0.159512;    0.159496;    0.159420;    0.159457;    0.159504;    0.159507;    0.159479;    0.159492;    0.159510;
 73;    0.019697;    0.258425;    0.233090;    0.202294;    0.160630;    0.160841;    0.161014;    0.161094;    0.161167;    0.161062;    0.161168;    0.161181;    0.161253;    0.161193;    0.161301;    0.161343;    0.161311;    0.161315;    0.161335;
 74;    0.019048;    0.257552;    0.231586;    0.203831;    0.158923;    0.159050;    0.159287;    0.159398;    0.159342;    0.159415;    0.159372;    0.159449;    0.159517;    0.159594;    0.159709;    0.159743;    0.159717;    0.159717;    0.159665;
 75;    0.019701;    0.257675;    0.234207;    0.200404;    0.157011;    0.157161;    0.157264;    0.157355;    0.157455;    0.157417;    0.157548;    0.157634;    0.157571;    0.157597;    0.157639;    0.157676;    0.157735;    0.157747;    0.157744;
 76;    0.019470;    0.256539;    0.230092;    0.197365;    0.158217;    0.158398;    0.158463;    0.158465;    0.158611;    0.158653;    0.158594;    0.158626;    0.158744;    0.158806;    0.158853;    0.158894;    0.158932;    0.158918;    0.158906;
 77;    0.019131;    0.253213;    0.229628;    0.196347;    0.156073;    0.156343;    0.156258;    0.156256;    0.156320;    0.156403;    0.156503;    0.156630;    0.156637;    0.156663;    0.156616;    0.156630;    0.156655;    0.156654;    0.156679;
 78;    0.019220;    0.255370;    0.233620;    0.201426;    0.158252;    0.158330;    0.158595;    0.158752;    0.158815;    0.158849;    0.158868;    0.158949;    0.159011;    0.158966;    0.158955;    0.158953;    0.158972;    0.159012;    0.159021;
 79;    0.019513;    0.255821;    0.231401;    0.198622;    0.159183;    0.159233;    0.159284;    0.159337;    0.159418;    0.159529;    0.159633;    0.159552;    0.159668;    0.159729;    0.159693;    0.159711;    0.159741;    0.159745;    0.159761;
 80;    0.019498;    0.256311;    0.231709;    0.199856;    0.156000;    0.156069;    0.156265;    0.156355;    0.156385;    0.156425;    0.156431;    0.156543;    0.156501;    0.156504;    0.156570;    0.156523;    0.156537;    0.156538;    0.156561;
 81;    0.020815;    0.253716;    0.229416;    0.199410;    0.157229;    0.157416;    0.157431;    0.157417;    0.157510;    0.157543;    0.157696;    0.157807;    0.157807;    0.157791;    0.157804;    0.157865;    0.157889;    0.157934;    0.157947;
 82;    0.019146;    0.254277;    0.229629;    0.198209;    0.156720;    0.156794;    0.156893;    0.157066;    0.157184;    0.157249;    0.157339;    0.157348;    0.157315;    0.157389;    0.157388;    0.157363;    0.157418;    0.157443;    0.157455;
 83;    0.019479;    0.251045;    0.228027;    0.196430;    0.157267;    0.157325;    0.157481;    0.157540;    0.157668;    0.157764;    0.157855;    0.157892;    0.157858;    0.157957;    0.158019;    0.157987;    0.157940;    0.157987;    0.158012;
 84;    0.019091;    0.254026;    0.232275;    0.202277;    0.159006;    0.159213;    0.159223;    0.159290;    0.159309;    0.159390;    0.159543;    0.159614;    0.159678;    0.159750;    0.159695;    0.159613;    0.159650;    0.159625;    0.159632;
 85;    0.019402;    0.254409;    0.231623;    0.199776;    0.159103;    0.159221;    0.159361;    0.159471;    0.159442;    0.159567;    0.159671;    0.159725;    0.159670;    0.159738;    0.159801;    0.159807;    0.159840;    0.159811;    0.159820;
 86;    0.019528;    0.258916;    0.233017;    0.199604;    0.158779;    0.158846;    0.159051;    0.159068;    0.159025;    0.159162;    0.159144;    0.159182;    0.159311;    0.159334;    0.159279;    0.159288;    0.159369;    0.159385;    0.159354;
 87;    0.019308;    0.256168;    0.231063;    0.198352;    0.158486;    0.158642;    0.158705;    0.158634;    0.158727;    0.158831;    0.158879;    0.158925;    0.158887;    0.158956;    0.158945;    0.158931;    0.158984;    0.159006;    0.159010;
 88;    0.020713;    0.259593;    0.234703;    0.202293;    0.157801;    0.158048;    0.158140;    0.158115;    0.158123;    0.158181;    0.158240;    0.158347;    0.158393;    0.158486;    0.158503;    0.158368;    0.158422;    0.158443;    0.158459;
 89;    0.019418;    0.257519;    0.233752;    0.203948;    0.158805;    0.158932;    0.159005;    0.159080;    0.159055;    0.159149;    0.159111;    0.159259;    0.159280;    0.159198;    0.159288;    0.159243;    0.159233;    0.159238;    0.159245;
 90;    0.019040;    0.254608;    0.231209;    0.198489;    0.159376;    0.159425;    0.159601;    0.159642;    0.159763;    0.159863;    0.159858;    0.159881;    0.160013;    0.160108;    0.160131;    0.160082;    0.160081;    0.160107;    0.160122;
 91;    0.019578;    0.258130;    0.234165;    0.200994;    0.158561;    0.158636;    0.158716;    0.158886;    0.158890;    0.159072;    0.159118;    0.159024;    0.159099;    0.159177;    0.159190;    0.159219;    0.159222;    0.159274;    0.159246;
 92;    0.019590;    0.255530;    0.231626;    0.202281;    0.158617;    0.158676;    0.158830;    0.158901;    0.158948;    0.159097;    0.159147;    0.159155;    0.159125;    0.159152;    0.159256;    0.159300;    0.159224;    0.159197;    0.159230;
 93;    0.019342;    0.255546;    0.231739;    0.201530;    0.159407;    0.159495;    0.159625;    0.159747;    0.159792;    0.159894;    0.159853;    0.159907;    0.160021;    0.160100;    0.160135;    0.160166;    0.160154;    0.160082;    0.160101;
 94;    0.019626;    0.255676;    0.231347;    0.196828;    0.157479;    0.157531;    0.157677;    0.157713;    0.157811;    0.157809;    0.157797;    0.157884;    0.157881;    0.158002;    0.158031;    0.158004;    0.158001;    0.158068;    0.158033;
 95;    0.019124;    0.257189;    0.232085;    0.200157;    0.159385;    0.159471;    0.159722;    0.159816;    0.159815;    0.159863;    0.159950;    0.159914;    0.160010;    0.160087;    0.160077;    0.160116;    0.160101;    0.160065;    0.160079;
 96;    0.019488;    0.257909;    0.232020;    0.199781;    0.158099;    0.158089;    0.158265;    0.158440;    0.158583;    0.158631;    0.158711;    0.158756;    0.158786;    0.158695;    0.158780;    0.158784;    0.158820;    0.158852;    0.158854;
 97;    0.019474;    0.256498;    0.234642;    0.203494;    0.160875;    0.161112;    0.161048;    0.160979;    0.161156;    0.161264;    0.161364;    0.161405;    0.161408;    0.161376;    0.161420;    0.161462;    0.161427;    0.161454;    0.161460;
 98;    0.019185;    0.257067;    0.234020;    0.202055;    0.158887;    0.158922;    0.158989;    0.159109;    0.159276;    0.159409;    0.159441;    0.159398;    0.159485;    0.159598;    0.159615;    0.159556;    0.159539;    0.159585;    0.159593;
 99;    0.019459;    0.256538;    0.230597;    0.200093;    0.158597;    0.158635;    0.158777;    0.158972;    0.158895;    0.158973;    0.159065;    0.159108;    0.159133;    0.159142;    0.159212;    0.159259;    0.159289;    0.159312;    0.159327;
100;    0.020694;    0.254719;    0.229294;    0.199016;    0.158154;    0.158295;    0.158466;    0.158523;    0.158623;    0.158632;    0.158683;    0.158683;    0.158765;    0.158797;    0.158815;    0.158819;    0.158880;    0.158919;    0.158904;
