Simulation;Time;PC 0;PC 1;PC 2;PC 3;PC 4;PC 5;PC 6;PC 7;PC 8;PC 9;PC10;PC11;PC12;PC13;PC14;PC15;PC16;PC17;
Nan;Nan;0;0;0;1;0;0;0;0;0;0;0;0;0;0;0;0;0;0;
  0;    0.581278;    0.989771;    0.858796;    0.755931;    0.682722;    0.673109;    0.657243;    0.637814;    0.633594;    0.615527;    0.589421;    0.565521;    0.524793;    0.460854;    0.418415;    0.349234;    0.297063;    0.200697;    0.111922;
  1;    0.589232;    1.017873;    0.884541;    0.768288;    0.694513;    0.688015;    0.676186;    0.662716;    0.639493;    0.620033;    0.606664;    0.582154;    0.544930;    0.490604;    0.439331;    0.380684;    0.300585;    0.230561;    0.123744;
  2;    0.583038;    1.021832;    0.890143;    0.777943;    0.699661;    0.696077;    0.683309;    0.677044;    0.654456;    0.630909;    0.597240;    0.551259;    0.522367;    0.489343;    0.444652;    0.364323;    0.302390;    0.226068;    0.118138;
  3;    0.586364;    0.998847;    0.874271;    0.785687;    0.707989;    0.703928;    0.688868;    0.679261;    0.660856;    0.639811;    0.610759;    0.568784;    0.534499;    0.498162;    0.450490;    0.404412;    0.333593;    0.225170;    0.114097;
  4;    0.586457;    1.028251;    0.894243;    0.794346;    0.711279;    0.708245;    0.696902;    0.676880;    0.657052;    0.637617;    0.601227;    0.562031;    0.543228;    0.512443;    0.449830;    0.400382;    0.319756;    0.237121;    0.135113;
  5;    0.590692;    1.000399;    0.867592;    0.766296;    0.702009;    0.694169;    0.675548;    0.658226;    0.647439;    0.633913;    0.597922;    0.574676;    0.544699;    0.508593;    0.450845;    0.387552;    0.299693;    0.220885;    0.119571;
  6;    0.577081;    1.007096;    0.877823;    0.767759;    0.697496;    0.689690;    0.687011;    0.669864;    0.650737;    0.637309;    0.606110;    0.585814;    0.550102;    0.487487;    0.428330;    0.366252;    0.280163;    0.219615;    0.118478;
  7;    0.583830;    1.007617;    0.871882;    0.769123;    0.698757;    0.682476;    0.678005;    0.664978;    0.646638;    0.612719;    0.594531;    0.565831;    0.535321;    0.484461;    0.421475;    0.364223;    0.304849;    0.239480;    0.133926;
  8;    0.584807;    0.979463;    0.850768;    0.756654;    0.687721;    0.685132;    0.678127;    0.659094;    0.646332;    0.630652;    0.605428;    0.576662;    0.529574;    0.486209;    0.435613;    0.379745;    0.292769;    0.218625;    0.104892;
  9;    0.584536;    1.008118;    0.880423;    0.775731;    0.705349;    0.703142;    0.695497;    0.680080;    0.660661;    0.653099;    0.633483;    0.601290;    0.567135;    0.527380;    0.471951;    0.392307;    0.328070;    0.237437;    0.146076;
 10;    0.587744;    1.018275;    0.887728;    0.781490;    0.706610;    0.705279;    0.696049;    0.688637;    0.673705;    0.653429;    0.624445;    0.591242;    0.544792;    0.486650;    0.434917;    0.371810;    0.307938;    0.230443;    0.121450;
 11;    0.585828;    1.005000;    0.881781;    0.775961;    0.708953;    0.697160;    0.681271;    0.671964;    0.651356;    0.634552;    0.613101;    0.575130;    0.544264;    0.495297;    0.435756;    0.376819;    0.319174;    0.239926;    0.136057;
 12;    0.587971;    0.984414;    0.866573;    0.758959;    0.696530;    0.684329;    0.673028;    0.657599;    0.637874;    0.621113;    0.593771;    0.558497;    0.540587;    0.508673;    0.452413;    0.390662;    0.308145;    0.202077;    0.114142;
 13;    0.582911;    1.002689;    0.865100;    0.767566;    0.697446;    0.688320;    0.681511;    0.663596;    0.646752;    0.628093;    0.596491;    0.570166;    0.532134;    0.503097;    0.469873;    0.415824;    0.347573;    0.246828;    0.124220;
 14;    0.578723;    0.986432;    0.861384;    0.761246;    0.686627;    0.685735;    0.677841;    0.655241;    0.638658;    0.624050;    0.610950;    0.586995;    0.547322;    0.484788;    0.448266;    0.391074;    0.298793;    0.208449;    0.109976;
 15;    0.583919;    0.997320;    0.850368;    0.753669;    0.678866;    0.670466;    0.667937;    0.654644;    0.627443;    0.612305;    0.577790;    0.560575;    0.536396;    0.497140;    0.443751;    0.369115;    0.281991;    0.207665;    0.113549;
 16;    0.580318;    1.015122;    0.891583;    0.785883;    0.714492;    0.708220;    0.693287;    0.684093;    0.663677;    0.638408;    0.616409;    0.579834;    0.551899;    0.513623;    0.463710;    0.401459;    0.324460;    0.228496;    0.115876;
 17;    0.607195;    0.982248;    0.858645;    0.765862;    0.687113;    0.676042;    0.663206;    0.648647;    0.630553;    0.607608;    0.589727;    0.564866;    0.540035;    0.494889;    0.428762;    0.366499;    0.300645;    0.196359;    0.112204;
 18;    0.587580;    0.974308;    0.857066;    0.763730;    0.699727;    0.683307;    0.678252;    0.671184;    0.654054;    0.639883;    0.613962;    0.571873;    0.550764;    0.517373;    0.472067;    0.411381;    0.344676;    0.243542;    0.128815;
 19;    0.583768;    0.985779;    0.852144;    0.750202;    0.694301;    0.693438;    0.677420;    0.675654;    0.662218;    0.639232;    0.620057;    0.598257;    0.562872;    0.523605;    0.462238;    0.413597;    0.330829;    0.231711;    0.128409;
 20;    0.590793;    1.017146;    0.874563;    0.775108;    0.700347;    0.689937;    0.689093;    0.677553;    0.661492;    0.627758;    0.609180;    0.580938;    0.545103;    0.496252;    0.466605;    0.412553;    0.333957;    0.232923;    0.126592;
 21;    0.584045;    1.012576;    0.871859;    0.774641;    0.704274;    0.691219;    0.685642;    0.668160;    0.643703;    0.624271;    0.602601;    0.573739;    0.536002;    0.483617;    0.431745;    0.371256;    0.301248;    0.205653;    0.128112;
 22;    0.587211;    1.010776;    0.872101;    0.772519;    0.707317;    0.696868;    0.684424;    0.666028;    0.651239;    0.614686;    0.585313;    0.565779;    0.525687;    0.482214;    0.436089;    0.373183;    0.315735;    0.231068;    0.118842;
 23;    0.584283;    0.999889;    0.870505;    0.767433;    0.709204;    0.699383;    0.687650;    0.684023;    0.673751;    0.651566;    0.627124;    0.598991;    0.543595;    0.501595;    0.449283;    0.398420;    0.327279;    0.244869;    0.125912;
 24;    0.584564;    1.017496;    0.883096;    0.774431;    0.699455;    0.692136;    0.684027;    0.671030;    0.652407;    0.631829;    0.599324;    0.578458;    0.536400;    0.496442;    0.437494;    0.377586;    0.329506;    0.257732;    0.147395;
 25;    0.588438;    0.988455;    0.863709;    0.762613;    0.688590;    0.679353;    0.671152;    0.664940;    0.649665;    0.618663;    0.588043;    0.557255;    0.524961;    0.469922;    0.423117;    0.349566;    0.296619;    0.212606;    0.100052;
 26;    0.579452;    1.015077;    0.884672;    0.785619;    0.715295;    0.710975;    0.696476;    0.686946;    0.666689;    0.651046;    0.625515;    0.597570;    0.562700;    0.502096;    0.459225;    0.389170;    0.326270;    0.232526;    0.118397;
 27;    0.587698;    1.005006;    0.864504;    0.767347;    0.700390;    0.698614;    0.691928;    0.675229;    0.662842;    0.641520;    0.617441;    0.577301;    0.542914;    0.506459;    0.446805;    0.380909;    0.306634;    0.196345;    0.119350;
 28;    0.580652;    1.006030;    0.862236;    0.763976;    0.697637;    0.690171;    0.685610;    0.675101;    0.639851;    0.629381;    0.602651;    0.567505;    0.525554;    0.478574;    0.432770;    0.360371;    0.292703;    0.219247;    0.108016;
 29;    0.592339;    1.015154;    0.862616;    0.762638;    0.692838;    0.686828;    0.669272;    0.661847;    0.633439;    0.621224;    0.601385;    0.570499;    0.542870;    0.493445;    0.439883;    0.374215;    0.295134;    0.190102;    0.099137;
 30;    0.574499;    1.014344;    0.876972;    0.778862;    0.704837;    0.692049;    0.686806;    0.666625;    0.639706;    0.623043;    0.599162;    0.579918;    0.555293;    0.516097;    0.466378;    0.403514;    0.323213;    0.231368;    0.137360;
 31;    0.587119;    1.013579;    0.879440;    0.768537;    0.700603;    0.694127;    0.688664;    0.679855;    0.662054;    0.632628;    0.618723;    0.597452;    0.560474;    0.517399;    0.451316;    0.374465;    0.313744;    0.220372;    0.129714;
 32;    0.586001;    1.000585;    0.880931;    0.764303;    0.696377;    0.686111;    0.688984;    0.680874;    0.659390;    0.634760;    0.596632;    0.566297;    0.537875;    0.494510;    0.428272;    0.368251;    0.293152;    0.216602;    0.116911;
 33;    0.580469;    0.999200;    0.855002;    0.749491;    0.685206;    0.675109;    0.675442;    0.667011;    0.646875;    0.631062;    0.598245;    0.569435;    0.528746;    0.482970;    0.439262;    0.395456;    0.315118;    0.227461;    0.123417;
 34;    0.596970;    1.026234;    0.882220;    0.781255;    0.709302;    0.700289;    0.697930;    0.683106;    0.671939;    0.648071;    0.617394;    0.571108;    0.536104;    0.499451;    0.459377;    0.397178;    0.335980;    0.233617;    0.131278;
 35;    0.590228;    1.000313;    0.870550;    0.767205;    0.698543;    0.687902;    0.682705;    0.665155;    0.658141;    0.634948;    0.609535;    0.584207;    0.535278;    0.504785;    0.449235;    0.387842;    0.314732;    0.235694;    0.119122;
 36;    0.577834;    0.985795;    0.871295;    0.767002;    0.691450;    0.683823;    0.678953;    0.669184;    0.644271;    0.632881;    0.603812;    0.590313;    0.564209;    0.520992;    0.465441;    0.414370;    0.353522;    0.259729;    0.124374;
 37;    0.581780;    1.000023;    0.874166;    0.771358;    0.689564;    0.688714;    0.672735;    0.656691;    0.640245;    0.628586;    0.611456;    0.586041;    0.551171;    0.492207;    0.437260;    0.371912;    0.311328;    0.238185;    0.123827;
 38;    0.582584;    0.999082;    0.864173;    0.764652;    0.699934;    0.688175;    0.674251;    0.656363;    0.646383;    0.635315;    0.611961;    0.576070;    0.535877;    0.491727;    0.435616;    0.371394;    0.310938;    0.221008;    0.118408;
 39;    0.589603;    0.978518;    0.859736;    0.763542;    0.694948;    0.685619;    0.676570;    0.667854;    0.651303;    0.620722;    0.600964;    0.561718;    0.521261;    0.493368;    0.439865;    0.381012;    0.297239;    0.217026;    0.111899;
 40;    0.584607;    1.012316;    0.882479;    0.765567;    0.691577;    0.681477;    0.668348;    0.651293;    0.631900;    0.617245;    0.586945;    0.553837;    0.527540;    0.480627;    0.430450;    0.380135;    0.305574;    0.219406;    0.131888;
 41;    0.576617;    0.996807;    0.866960;    0.758961;    0.694304;    0.684866;    0.678414;    0.661198;    0.644425;    0.629099;    0.597770;    0.565622;    0.527116;    0.487848;    0.430202;    0.378000;    0.309791;    0.222390;    0.109452;
 42;    0.586726;    1.013605;    0.865191;    0.766872;    0.691202;    0.689249;    0.673708;    0.659716;    0.640249;    0.628597;    0.606657;    0.572944;    0.540819;    0.497427;    0.441429;    0.381661;    0.316287;    0.230939;    0.140754;
 43;    0.590492;    1.008066;    0.867812;    0.767381;    0.698002;    0.692009;    0.686857;    0.663680;    0.655318;    0.633998;    0.600828;    0.571616;    0.531726;    0.492408;    0.437711;    0.368289;    0.301499;    0.229981;    0.139210;
 44;    0.590131;    1.008772;    0.878047;    0.768218;    0.703795;    0.693665;    0.683403;    0.679989;    0.664207;    0.645743;    0.623501;    0.586574;    0.541952;    0.510057;    0.474286;    0.416441;    0.338908;    0.227568;    0.128575;
 45;    0.589532;    0.986964;    0.855874;    0.759192;    0.695259;    0.693130;    0.683449;    0.659876;    0.638107;    0.623093;    0.605565;    0.584878;    0.552652;    0.519173;    0.460041;    0.406177;    0.339079;    0.248429;    0.141049;
 46;    0.584755;    1.004390;    0.862299;    0.763064;    0.690554;    0.679860;    0.672303;    0.655996;    0.641430;    0.625640;    0.605751;    0.577585;    0.548118;    0.500322;    0.446960;    0.377163;    0.315138;    0.222051;    0.131050;
 47;    0.588685;    1.020472;    0.880074;    0.787905;    0.714846;    0.708700;    0.707664;    0.696541;    0.678803;    0.647347;    0.622114;    0.593498;    0.553097;    0.505059;    0.450175;    0.394347;    0.304474;    0.212676;    0.125991;
 48;    0.582423;    0.987981;    0.863603;    0.770415;    0.704522;    0.698130;    0.694231;    0.678847;    0.665637;    0.641269;    0.609173;    0.594400;    0.563586;    0.525450;    0.481403;    0.413691;    0.333568;    0.254213;    0.129165;
 49;    0.580861;    0.990623;    0.862098;    0.767420;    0.702174;    0.693033;    0.686417;    0.672942;    0.642711;    0.609716;    0.578309;    0.550279;    0.517784;    0.467117;    0.410569;    0.371059;    0.302041;    0.202731;    0.120018;
 50;    0.585401;    1.002264;    0.865344;    0.759021;    0.691587;    0.686655;    0.671410;    0.656769;    0.652685;    0.633578;    0.616390;    0.584643;    0.542031;    0.489739;    0.428994;    0.366702;    0.294069;    0.216147;    0.118671;
 51;    0.613802;    1.015969;    0.873819;    0.775807;    0.699367;    0.688138;    0.670729;    0.661317;    0.643591;    0.631903;    0.602971;    0.578857;    0.535874;    0.489501;    0.449183;    0.390184;    0.307501;    0.210082;    0.107316;
 52;    0.586913;    0.999817;    0.868251;    0.763876;    0.684672;    0.674340;    0.664098;    0.652888;    0.642718;    0.625760;    0.598533;    0.571927;    0.527264;    0.497576;    0.448665;    0.382508;    0.293971;    0.211597;    0.123258;
 53;    0.587039;    0.991335;    0.900931;    0.763655;    0.692141;    0.684899;    0.674705;    0.663685;    0.648696;    0.630675;    0.607059;    0.591776;    0.555338;    0.507803;    0.452383;    0.388659;    0.318470;    0.223150;    0.107351;
 54;    0.592919;    1.017444;    0.883256;    0.755209;    0.691077;    0.682813;    0.678400;    0.658061;    0.643085;    0.618465;    0.599673;    0.565519;    0.529488;    0.472535;    0.426681;    0.374197;    0.290683;    0.215454;    0.112550;
 55;    0.592393;    0.985495;    0.848433;    0.752946;    0.688295;    0.680662;    0.670193;    0.656445;    0.636468;    0.606906;    0.577015;    0.552155;    0.516367;    0.480521;    0.426115;    0.378164;    0.323441;    0.234459;    0.126598;
 56;    0.585990;    1.004697;    0.870675;    0.761181;    0.691287;    0.678370;    0.676165;    0.660860;    0.640186;    0.611124;    0.591367;    0.555963;    0.506537;    0.469282;    0.418891;    0.363280;    0.295766;    0.201091;    0.108631;
 57;    0.590266;    1.023915;    0.891120;    0.780134;    0.705380;    0.693418;    0.679783;    0.668204;    0.653646;    0.624788;    0.604112;    0.571384;    0.545084;    0.502402;    0.436833;    0.377578;    0.319045;    0.241068;    0.128096;
 58;    0.586848;    1.007774;    0.873478;    0.765417;    0.700511;    0.695754;    0.682931;    0.682664;    0.674022;    0.653337;    0.626958;    0.607813;    0.574549;    0.526149;    0.463008;    0.404163;    0.331019;    0.226429;    0.130172;
 59;    0.588873;    0.995031;    0.869707;    0.771315;    0.688259;    0.676727;    0.663545;    0.657269;    0.640609;    0.614247;    0.595972;    0.569479;    0.532564;    0.480829;    0.440387;    0.382330;    0.310792;    0.237367;    0.143238;
 60;    0.585968;    0.998432;    0.865844;    0.766267;    0.697117;    0.695331;    0.683817;    0.672141;    0.653916;    0.631339;    0.613247;    0.599033;    0.568536;    0.526969;    0.476827;    0.395194;    0.335984;    0.237907;    0.113281;
 61;    0.592155;    1.002865;    0.873860;    0.770587;    0.709958;    0.701040;    0.689764;    0.677725;    0.663814;    0.646302;    0.624651;    0.598261;    0.544136;    0.510122;    0.449186;    0.393673;    0.311865;    0.222537;    0.120784;
 62;    0.588707;    0.990045;    0.856208;    0.760653;    0.686413;    0.684074;    0.668840;    0.657110;    0.639933;    0.610962;    0.593453;    0.567441;    0.539193;    0.492373;    0.438350;    0.365440;    0.281890;    0.200190;    0.117842;
 63;    0.585374;    1.010526;    0.868080;    0.754747;    0.690755;    0.678887;    0.666018;    0.653123;    0.643512;    0.626302;    0.594427;    0.571080;    0.525016;    0.471878;    0.435132;    0.376726;    0.321119;    0.254414;    0.139705;
 64;    0.593433;    1.011631;    0.877921;    0.781730;    0.703674;    0.703363;    0.694684;    0.677015;    0.664798;    0.645955;    0.625581;    0.590711;    0.554107;    0.502500;    0.440080;    0.394504;    0.329339;    0.236882;    0.132568;
 65;    0.596180;    0.980835;    0.858788;    0.753526;    0.688429;    0.684915;    0.667335;    0.651824;    0.643503;    0.621674;    0.596946;    0.567206;    0.524840;    0.479467;    0.438340;    0.374712;    0.304625;    0.194190;    0.107658;
 66;    0.651073;    0.991671;    0.861736;    0.764477;    0.696304;    0.682856;    0.676172;    0.655323;    0.642159;    0.621893;    0.583525;    0.559268;    0.514965;    0.469708;    0.418672;    0.356599;    0.296221;    0.219434;    0.136943;
 67;    0.582149;    0.987999;    0.863376;    0.767380;    0.708454;    0.695510;    0.691141;    0.671579;    0.656534;    0.632528;    0.613023;    0.580208;    0.528168;    0.493776;    0.436647;    0.363272;    0.297273;    0.224817;    0.138717;
 68;    0.591811;    1.000766;    0.868292;    0.767980;    0.700980;    0.700868;    0.687781;    0.680334;    0.659712;    0.639228;    0.621026;    0.590906;    0.548725;    0.513179;    0.457703;    0.392872;    0.309477;    0.208794;    0.116543;
 69;    0.589382;    0.999507;    0.879811;    0.778572;    0.704365;    0.696610;    0.692265;    0.679163;    0.660495;    0.643861;    0.613432;    0.579804;    0.542742;    0.496622;    0.461394;    0.398182;    0.328634;    0.227674;    0.121293;
 70;    0.588422;    1.017362;    0.886588;    0.768398;    0.703659;    0.697138;    0.689768;    0.679357;    0.664793;    0.651771;    0.621553;    0.593692;    0.540572;    0.491536;    0.457166;    0.391122;    0.304394;    0.212635;    0.130481;
 71;    0.596201;    0.996162;    0.859586;    0.760155;    0.693882;    0.687478;    0.675292;    0.652595;    0.628007;    0.612917;    0.596835;    0.569313;    0.526557;    0.499618;    0.444439;    0.378227;    0.298032;    0.212522;    0.122757;
 72;    0.591237;    0.999668;    0.860379;    0.766503;    0.700943;    0.695830;    0.695043;    0.689974;    0.676038;    0.652624;    0.631491;    0.597110;    0.545631;    0.494997;    0.441506;    0.376843;    0.300255;    0.217799;    0.125306;
 73;    0.592417;    1.026610;    0.884426;    0.783292;    0.711922;    0.712215;    0.707352;    0.693452;    0.671145;    0.630294;    0.614044;    0.584733;    0.553528;    0.492812;    0.460214;    0.404104;    0.314141;    0.226306;    0.135877;
 74;    0.586273;    1.011504;    0.868361;    0.774717;    0.695086;    0.690649;    0.690829;    0.680476;    0.655123;    0.633547;    0.595546;    0.567122;    0.535064;    0.500530;    0.466992;    0.410377;    0.328503;    0.230382;    0.111577;
 75;    0.598513;    0.998228;    0.865937;    0.749380;    0.677499;    0.670183;    0.660147;    0.650123;    0.638915;    0.611669;    0.595995;    0.570925;    0.522890;    0.476574;    0.442266;    0.395695;    0.338886;    0.246930;    0.126615;
 76;    0.589533;    1.002213;    0.859283;    0.756141;    0.692367;    0.689891;    0.680796;    0.663611;    0.653822;    0.632732;    0.598819;    0.567377;    0.547746;    0.509633;    0.467477;    0.405661;    0.335759;    0.231604;    0.114838;
 77;    0.589613;    0.973723;    0.846800;    0.741058;    0.677349;    0.676872;    0.656881;    0.637938;    0.617464;    0.600085;    0.586070;    0.566352;    0.526143;    0.485869;    0.424590;    0.356114;    0.296453;    0.209064;    0.127438;
 78;    0.598208;    0.998246;    0.876314;    0.766103;    0.691724;    0.680153;    0.683570;    0.676066;    0.661584;    0.638825;    0.613030;    0.584361;    0.548643;    0.494968;    0.437776;    0.373139;    0.300280;    0.215023;    0.111117;
 79;    0.595322;    1.005838;    0.873017;    0.767130;    0.701653;    0.691339;    0.678981;    0.662730;    0.643728;    0.628389;    0.607436;    0.566028;    0.542506;    0.504788;    0.440967;    0.379953;    0.304266;    0.215522;    0.117099;
 80;    0.586303;    0.985979;    0.849630;    0.743432;    0.670314;    0.659045;    0.657149;    0.645841;    0.628031;    0.603624;    0.572296;    0.550449;    0.509696;    0.455268;    0.408463;    0.344224;    0.275895;    0.201485;    0.118570;
 81;    0.585576;    0.983580;    0.854246;    0.758404;    0.686034;    0.682822;    0.669063;    0.650020;    0.634790;    0.613144;    0.599499;    0.577925;    0.537193;    0.484410;    0.432722;    0.381268;    0.308171;    0.247655;    0.139371;
 82;    0.596369;    0.981777;    0.849505;    0.749980;    0.681089;    0.670353;    0.661734;    0.657374;    0.645732;    0.628571;    0.608621;    0.576150;    0.532490;    0.494689;    0.444100;    0.379907;    0.323898;    0.241084;    0.139924;
 83;    0.589822;    0.973038;    0.853596;    0.755294;    0.691625;    0.682726;    0.677233;    0.665520;    0.656089;    0.640772;    0.620492;    0.590438;    0.540495;    0.510987;    0.464189;    0.389841;    0.302673;    0.216752;    0.128901;
 84;    0.594744;    0.996830;    0.881170;    0.778390;    0.700930;    0.700334;    0.685974;    0.671010;    0.647972;    0.622928;    0.611444;    0.585667;    0.558815;    0.519227;    0.453514;    0.370202;    0.298823;    0.210832;    0.114273;
 85;    0.592867;    0.999014;    0.874805;    0.772061;    0.703471;    0.693309;    0.688071;    0.679244;    0.655697;    0.640011;    0.621515;    0.588870;    0.537699;    0.505044;    0.460948;    0.393763;    0.320111;    0.212169;    0.116989;
 86;    0.584282;    1.016207;    0.871679;    0.762024;    0.693282;    0.683230;    0.680703;    0.660772;    0.631108;    0.619377;    0.591922;    0.561388;    0.537233;    0.489751;    0.429990;    0.362936;    0.318612;    0.228454;    0.108682;
 87;    0.589518;    1.001843;    0.864199;    0.759474;    0.696326;    0.691696;    0.679553;    0.656384;    0.641560;    0.621607;    0.594932;    0.563896;    0.512661;    0.469793;    0.410650;    0.349686;    0.290007;    0.216591;    0.119533;
 88;    0.592981;    1.012110;    0.868615;    0.758292;    0.680866;    0.681848;    0.673008;    0.657772;    0.636806;    0.616658;    0.592970;    0.566684;    0.529434;    0.489665;    0.430832;    0.343882;    0.294874;    0.222446;    0.120855;
 89;    0.593202;    1.010443;    0.876013;    0.774508;    0.692678;    0.685227;    0.673752;    0.659215;    0.639175;    0.624280;    0.596895;    0.574011;    0.531851;    0.469354;    0.426239;    0.351243;    0.273973;    0.197823;    0.102931;
 90;    0.588042;    1.001979;    0.876881;    0.770739;    0.705765;    0.693018;    0.688765;    0.671840;    0.661030;    0.647979;    0.619642;    0.589011;    0.565975;    0.533095;    0.477275;    0.400154;    0.312136;    0.233942;    0.134350;
 91;    0.591501;    1.012008;    0.874981;    0.762626;    0.691061;    0.682262;    0.668667;    0.659969;    0.638614;    0.630810;    0.608444;    0.570349;    0.541609;    0.502554;    0.442281;    0.384584;    0.313061;    0.236623;    0.112939;
 92;    0.592128;    1.000471;    0.869570;    0.771208;    0.696169;    0.683870;    0.681036;    0.667107;    0.645739;    0.630720;    0.606658;    0.573345;    0.533678;    0.492584;    0.450560;    0.384797;    0.289103;    0.186789;    0.113450;
 93;    0.581215;    1.006194;    0.875313;    0.776210;    0.704077;    0.694987;    0.688498;    0.680567;    0.663178;    0.645280;    0.609282;    0.581412;    0.561007;    0.527474;    0.470955;    0.406330;    0.316300;    0.205198;    0.112326;
 94;    0.596213;    0.993270;    0.859162;    0.748870;    0.687441;    0.677842;    0.670370;    0.654252;    0.635639;    0.605963;    0.578284;    0.551057;    0.512909;    0.478684;    0.426804;    0.355997;    0.290328;    0.227865;    0.112831;
 95;    0.590464;    1.012519;    0.874003;    0.770120;    0.701616;    0.694003;    0.693828;    0.683377;    0.663675;    0.634846;    0.608776;    0.563262;    0.528779;    0.493693;    0.440556;    0.394177;    0.309326;    0.203850;    0.107651;
 96;    0.591989;    1.006885;    0.863517;    0.757782;    0.688251;    0.674503;    0.671738;    0.669976;    0.662176;    0.639948;    0.616389;    0.585576;    0.541437;    0.467658;    0.422997;    0.356830;    0.307035;    0.231026;    0.123302;
 97;    0.593233;    1.020939;    0.898423;    0.791275;    0.714922;    0.713498;    0.694575;    0.664848;    0.662455;    0.648797;    0.630005;    0.597543;    0.559447;    0.504721;    0.454491;    0.396053;    0.308020;    0.224462;    0.124981;
 98;    0.590741;    1.008527;    0.879466;    0.769762;    0.695263;    0.684729;    0.672295;    0.665441;    0.659989;    0.646174;    0.621078;    0.581731;    0.553626;    0.519055;    0.460763;    0.383906;    0.302416;    0.236293;    0.129138;
 99;    0.587869;    1.004525;    0.863767;    0.765107;    0.694665;    0.684372;    0.679193;    0.674277;    0.639597;    0.618038;    0.597854;    0.562737;    0.530266;    0.495998;    0.451570;    0.397085;    0.322467;    0.237745;    0.127159;
100;    0.589543;    0.993696;    0.858456;    0.763366;    0.694417;    0.691158;    0.689411;    0.670702;    0.656809;    0.631353;    0.607300;    0.571915;    0.541821;    0.501957;    0.449540;    0.375707;    0.318003;    0.239556;    0.123509;
