Simulation;Time;PC 0;PC 1;PC 2;PC 3;PC 4;PC 5;PC 6;PC 7;PC 8;PC 9;PC10;PC11;PC12;PC13;PC14;PC15;PC16;PC17;
Nan;Nan;0;0;0;1;0;0;0;0;0;0;0;0;0;0;0;0;0;0;
  0;    0.024740;    0.255242;    0.213276;    0.186945;    0.155466;    0.155558;    0.155600;    0.155553;    0.155771;    0.155830;    0.155817;    0.155915;    0.155941;    0.155830;    0.155897;    0.155825;    0.155898;    0.155861;    0.155878;
  1;    0.019833;    0.258082;    0.216957;    0.188447;    0.157376;    0.157535;    0.157590;    0.157695;    0.157676;    0.157713;    0.157847;    0.157898;    0.157932;    0.157891;    0.157934;    0.157993;    0.157995;    0.158027;    0.158029;
  2;    0.020005;    0.257731;    0.217810;    0.190138;    0.157960;    0.158139;    0.158163;    0.158329;    0.158312;    0.158344;    0.158309;    0.158280;    0.158336;    0.158408;    0.158468;    0.158427;    0.158472;    0.158503;    0.158489;
  3;    0.019711;    0.253249;    0.212535;    0.189603;    0.157795;    0.157974;    0.157988;    0.158141;    0.158197;    0.158237;    0.158269;    0.158259;    0.158293;    0.158314;    0.158324;    0.158387;    0.158435;    0.158427;    0.158436;
  4;    0.019706;    0.257955;    0.216658;    0.192183;    0.159070;    0.159261;    0.159353;    0.159343;    0.159423;    0.159560;    0.159561;    0.159578;    0.159666;    0.159710;    0.159680;    0.159739;    0.159746;    0.159772;    0.159782;
  5;    0.019385;    0.255451;    0.212443;    0.186091;    0.157191;    0.157314;    0.157349;    0.157409;    0.157525;    0.157670;    0.157588;    0.157663;    0.157700;    0.157753;    0.157755;    0.157792;    0.157771;    0.157802;    0.157809;
  6;    0.019449;    0.256213;    0.214955;    0.187133;    0.157220;    0.157319;    0.157521;    0.157509;    0.157542;    0.157666;    0.157659;    0.157807;    0.157889;    0.157851;    0.157852;    0.157872;    0.157842;    0.157895;    0.157886;
  7;    0.019098;    0.256631;    0.214005;    0.187199;    0.157259;    0.157249;    0.157402;    0.157510;    0.157578;    0.157490;    0.157620;    0.157671;    0.157741;    0.157746;    0.157732;    0.157750;    0.157785;    0.157836;    0.157838;
  8;    0.019343;    0.253027;    0.210174;    0.184922;    0.155475;    0.155620;    0.155765;    0.155792;    0.155886;    0.155989;    0.156044;    0.156097;    0.156053;    0.156119;    0.156135;    0.156176;    0.156134;    0.156164;    0.156158;
  9;    0.019324;    0.255258;    0.214301;    0.187831;    0.157866;    0.158038;    0.158141;    0.158194;    0.158192;    0.158382;    0.158484;    0.158535;    0.158581;    0.158630;    0.158645;    0.158636;    0.158696;    0.158713;    0.158740;
 10;    0.019059;    0.256768;    0.216156;    0.189940;    0.158328;    0.158501;    0.158589;    0.158726;    0.158800;    0.158876;    0.158902;    0.158954;    0.158944;    0.158881;    0.158939;    0.158968;    0.158995;    0.159026;    0.159032;
 11;    0.018761;    0.254097;    0.213823;    0.187119;    0.158001;    0.158030;    0.158025;    0.158167;    0.158170;    0.158287;    0.158382;    0.158408;    0.158509;    0.158516;    0.158519;    0.158511;    0.158557;    0.158584;    0.158607;
 12;    0.019074;    0.251846;    0.212274;    0.184266;    0.156253;    0.156351;    0.156419;    0.156469;    0.156455;    0.156574;    0.156555;    0.156548;    0.156675;    0.156774;    0.156805;    0.156828;    0.156826;    0.156799;    0.156807;
 13;    0.019245;    0.256553;    0.212371;    0.186633;    0.156987;    0.157061;    0.157216;    0.157198;    0.157243;    0.157340;    0.157341;    0.157434;    0.157425;    0.157535;    0.157633;    0.157687;    0.157726;    0.157706;    0.157674;
 14;    0.018111;    0.253612;    0.212952;    0.187384;    0.155675;    0.155891;    0.156020;    0.155913;    0.155933;    0.156020;    0.156154;    0.156266;    0.156295;    0.156214;    0.156303;    0.156352;    0.156293;    0.156305;    0.156334;
 15;    0.022672;    0.258270;    0.212358;    0.187133;    0.155269;    0.155388;    0.155580;    0.155677;    0.155600;    0.155747;    0.155716;    0.155836;    0.155936;    0.155977;    0.155979;    0.155915;    0.155869;    0.155898;    0.155915;
 16;    0.019505;    0.255277;    0.214866;    0.188327;    0.158848;    0.158972;    0.159021;    0.159165;    0.159146;    0.159177;    0.159275;    0.159260;    0.159384;    0.159420;    0.159434;    0.159434;    0.159476;    0.159487;    0.159469;
 17;    0.019349;    0.252728;    0.211884;    0.187364;    0.155587;    0.155611;    0.155651;    0.155725;    0.155765;    0.155773;    0.155874;    0.155941;    0.156043;    0.156077;    0.156017;    0.156051;    0.156086;    0.156060;    0.156069;
 18;    0.019186;    0.249813;    0.209828;    0.184907;    0.156123;    0.156152;    0.156295;    0.156423;    0.156467;    0.156611;    0.156696;    0.156651;    0.156738;    0.156798;    0.156848;    0.156851;    0.156888;    0.156884;    0.156887;
 19;    0.019414;    0.254161;    0.210342;    0.182158;    0.155955;    0.156161;    0.156131;    0.156317;    0.156415;    0.156455;    0.156548;    0.156630;    0.156666;    0.156690;    0.156707;    0.156761;    0.156773;    0.156774;    0.156776;
 20;    0.019397;    0.258830;    0.214487;    0.189160;    0.157749;    0.157854;    0.158051;    0.158158;    0.158238;    0.158153;    0.158259;    0.158304;    0.158298;    0.158321;    0.158422;    0.158467;    0.158489;    0.158473;    0.158477;
 21;    0.019459;    0.257508;    0.213037;    0.187966;    0.157864;    0.157870;    0.158052;    0.158057;    0.157990;    0.158074;    0.158120;    0.158208;    0.158270;    0.158261;    0.158289;    0.158331;    0.158365;    0.158368;    0.158387;
 22;    0.019530;    0.256660;    0.213114;    0.186796;    0.157938;    0.158074;    0.158189;    0.158212;    0.158363;    0.158314;    0.158347;    0.158468;    0.158446;    0.158462;    0.158522;    0.158521;    0.158553;    0.158588;    0.158587;
 23;    0.018941;    0.254259;    0.211824;    0.184258;    0.157694;    0.157749;    0.157799;    0.157965;    0.158084;    0.158141;    0.158196;    0.158251;    0.158220;    0.158239;    0.158246;    0.158316;    0.158352;    0.158392;    0.158392;
 24;    0.019772;    0.257924;    0.216045;    0.189407;    0.157687;    0.157780;    0.157894;    0.157932;    0.157974;    0.158075;    0.158066;    0.158196;    0.158185;    0.158232;    0.158187;    0.158215;    0.158288;    0.158343;    0.158366;
 25;    0.019642;    0.253657;    0.213070;    0.187587;    0.155910;    0.155983;    0.156071;    0.156250;    0.156348;    0.156291;    0.156287;    0.156330;    0.156408;    0.156391;    0.156434;    0.156397;    0.156456;    0.156476;    0.156432;
 26;    0.019390;    0.255662;    0.213631;    0.188290;    0.158831;    0.158998;    0.159022;    0.159172;    0.159189;    0.159318;    0.159370;    0.159424;    0.159458;    0.159350;    0.159424;    0.159418;    0.159457;    0.159447;    0.159455;
 27;    0.019482;    0.256912;    0.212080;    0.186151;    0.157239;    0.157438;    0.157550;    0.157577;    0.157660;    0.157706;    0.157804;    0.157768;    0.157793;    0.157850;    0.157812;    0.157833;    0.157882;    0.157852;    0.157888;
 28;    0.019425;    0.257561;    0.212339;    0.186284;    0.156996;    0.157090;    0.157237;    0.157339;    0.157268;    0.157401;    0.157425;    0.157472;    0.157463;    0.157506;    0.157550;    0.157572;    0.157581;    0.157603;    0.157597;
 29;    0.019233;    0.260273;    0.213541;    0.187322;    0.156930;    0.157064;    0.157067;    0.157234;    0.157196;    0.157360;    0.157470;    0.157508;    0.157591;    0.157560;    0.157572;    0.157575;    0.157575;    0.157534;    0.157537;
 30;    0.019493;    0.257273;    0.214218;    0.189533;    0.157985;    0.158041;    0.158227;    0.158187;    0.158096;    0.158156;    0.158210;    0.158327;    0.158421;    0.158455;    0.158488;    0.158483;    0.158493;    0.158474;    0.158508;
 31;    0.019476;    0.257256;    0.215042;    0.187162;    0.157641;    0.157746;    0.157905;    0.158042;    0.158089;    0.158054;    0.158185;    0.158275;    0.158281;    0.158341;    0.158284;    0.158254;    0.158311;    0.158326;    0.158347;
 32;    0.022883;    0.254064;    0.215079;    0.185725;    0.156853;    0.156900;    0.157115;    0.157242;    0.157315;    0.157364;    0.157390;    0.157443;    0.157533;    0.157576;    0.157549;    0.157555;    0.157545;    0.157595;    0.157598;
 33;    0.019707;    0.257853;    0.212612;    0.184835;    0.155754;    0.155801;    0.156042;    0.156166;    0.156173;    0.156301;    0.156328;    0.156336;    0.156300;    0.156343;    0.156391;    0.156468;    0.156464;    0.156475;    0.156482;
 34;    0.019564;    0.259177;    0.214630;    0.188815;    0.158728;    0.158790;    0.158993;    0.159071;    0.159175;    0.159185;    0.159252;    0.159165;    0.159172;    0.159195;    0.159264;    0.159293;    0.159344;    0.159331;    0.159347;
 35;    0.019356;    0.255077;    0.213290;    0.186422;    0.157025;    0.157093;    0.157264;    0.157252;    0.157410;    0.157473;    0.157554;    0.157648;    0.157619;    0.157713;    0.157690;    0.157751;    0.157766;    0.157800;    0.157788;
 36;    0.019193;    0.251632;    0.213763;    0.188063;    0.156065;    0.156177;    0.156293;    0.156427;    0.156418;    0.156540;    0.156558;    0.156676;    0.156768;    0.156780;    0.156780;    0.156855;    0.156913;    0.156930;    0.156898;
 37;    0.019541;    0.255149;    0.215231;    0.190118;    0.156450;    0.156660;    0.156649;    0.156665;    0.156703;    0.156814;    0.156915;    0.157000;    0.157084;    0.157027;    0.157046;    0.157024;    0.157080;    0.157139;    0.157128;
 38;    0.019263;    0.255591;    0.212046;    0.185869;    0.157006;    0.157046;    0.157063;    0.157104;    0.157204;    0.157363;    0.157413;    0.157388;    0.157373;    0.157410;    0.157468;    0.157483;    0.157538;    0.157541;    0.157558;
 39;    0.020109;    0.251254;    0.211076;    0.186112;    0.156000;    0.156107;    0.156228;    0.156352;    0.156392;    0.156324;    0.156437;    0.156408;    0.156384;    0.156495;    0.156520;    0.156569;    0.156573;    0.156588;    0.156570;
 40;    0.020781;    0.257417;    0.216873;    0.188535;    0.156927;    0.156978;    0.157085;    0.157095;    0.157125;    0.157226;    0.157222;    0.157226;    0.157347;    0.157348;    0.157382;    0.157444;    0.157419;    0.157426;    0.157452;
 41;    0.019477;    0.255383;    0.213068;    0.185121;    0.156566;    0.156614;    0.156741;    0.156765;    0.156842;    0.156975;    0.156958;    0.156988;    0.157004;    0.157069;    0.157086;    0.157133;    0.157162;    0.157160;    0.157150;
 42;    0.019337;    0.259439;    0.213743;    0.188732;    0.156864;    0.157063;    0.157041;    0.157116;    0.157114;    0.157251;    0.157311;    0.157335;    0.157384;    0.157389;    0.157392;    0.157418;    0.157456;    0.157479;    0.157507;
 43;    0.019528;    0.257514;    0.213388;    0.187171;    0.157166;    0.157305;    0.157483;    0.157390;    0.157573;    0.157636;    0.157582;    0.157630;    0.157637;    0.157679;    0.157680;    0.157691;    0.157708;    0.157740;    0.157758;
 44;    0.019393;    0.255944;    0.214308;    0.186153;    0.157657;    0.157750;    0.157852;    0.157996;    0.158087;    0.158151;    0.158216;    0.158233;    0.158199;    0.158272;    0.158352;    0.158387;    0.158406;    0.158353;    0.158373;
 45;    0.019619;    0.253501;    0.210265;    0.184688;    0.156207;    0.156408;    0.156515;    0.156477;    0.156401;    0.156508;    0.156594;    0.156665;    0.156691;    0.156754;    0.156748;    0.156801;    0.156848;    0.156863;    0.156872;
 46;    0.019248;    0.257716;    0.212943;    0.187285;    0.156494;    0.156542;    0.156676;    0.156700;    0.156807;    0.156934;    0.157005;    0.157015;    0.157104;    0.157093;    0.157106;    0.157089;    0.157131;    0.157126;    0.157144;
 47;    0.019524;    0.257741;    0.212997;    0.189277;    0.159000;    0.159103;    0.159332;    0.159431;    0.159496;    0.159440;    0.159483;    0.159532;    0.159577;    0.159567;    0.159585;    0.159645;    0.159625;    0.159613;    0.159637;
 48;    0.019426;    0.252325;    0.210681;    0.186129;    0.156995;    0.157132;    0.157314;    0.157364;    0.157448;    0.157516;    0.157501;    0.157599;    0.157681;    0.157726;    0.157795;    0.157809;    0.157802;    0.157847;    0.157832;
 49;    0.021026;    0.253150;    0.210975;    0.185924;    0.156848;    0.156931;    0.157081;    0.157183;    0.157159;    0.157088;    0.157111;    0.157176;    0.157259;    0.157242;    0.157258;    0.157334;    0.157345;    0.157334;    0.157347;
 50;    0.019315;    0.256765;    0.213665;    0.186174;    0.156476;    0.156623;    0.156675;    0.156710;    0.156888;    0.156926;    0.157054;    0.157121;    0.157150;    0.157148;    0.157163;    0.157171;    0.157131;    0.157160;    0.157170;
 51;    0.019301;    0.258251;    0.214431;    0.189556;    0.157597;    0.157677;    0.157748;    0.157920;    0.157959;    0.158100;    0.158116;    0.158184;    0.158164;    0.158131;    0.158221;    0.158279;    0.158271;    0.158227;    0.158249;
 52;    0.019198;    0.256376;    0.214763;    0.188799;    0.156062;    0.156144;    0.156216;    0.156300;    0.156433;    0.156503;    0.156487;    0.156570;    0.156572;    0.156694;    0.156735;    0.156727;    0.156660;    0.156667;    0.156694;
 53;    0.019219;    0.252074;    0.215929;    0.187309;    0.156303;    0.156396;    0.156470;    0.156556;    0.156615;    0.156639;    0.156710;    0.156852;    0.156886;    0.156896;    0.156908;    0.156933;    0.156983;    0.156994;    0.156967;
 54;    0.019298;    0.258855;    0.217368;    0.185670;    0.156880;    0.156988;    0.157199;    0.157168;    0.157231;    0.157242;    0.157331;    0.157318;    0.157418;    0.157361;    0.157413;    0.157458;    0.157395;    0.157439;    0.157444;
 55;    0.019305;    0.254771;    0.210442;    0.184815;    0.155542;    0.155642;    0.155699;    0.155771;    0.155817;    0.155881;    0.155901;    0.155995;    0.156025;    0.156082;    0.156083;    0.156150;    0.156201;    0.156212;    0.156213;
 56;    0.019416;    0.256864;    0.214224;    0.186281;    0.156614;    0.156599;    0.156827;    0.156861;    0.156921;    0.156898;    0.157035;    0.157117;    0.157105;    0.157156;    0.157134;    0.157150;    0.157171;    0.157179;    0.157183;
 57;    0.019115;    0.257990;    0.216664;    0.189702;    0.158462;    0.158495;    0.158564;    0.158712;    0.158825;    0.158813;    0.158905;    0.158895;    0.159012;    0.159067;    0.159024;    0.159040;    0.159074;    0.159104;    0.159117;
 58;    0.019424;    0.256618;    0.214017;    0.186206;    0.157352;    0.157488;    0.157519;    0.157725;    0.157853;    0.157894;    0.157899;    0.158011;    0.158046;    0.158115;    0.158129;    0.158180;    0.158202;    0.158191;    0.158201;
 59;    0.019097;    0.254560;    0.214178;    0.189616;    0.156215;    0.156235;    0.156330;    0.156502;    0.156569;    0.156509;    0.156601;    0.156710;    0.156736;    0.156715;    0.156780;    0.156753;    0.156761;    0.156804;    0.156824;
 60;    0.019301;    0.255242;    0.212581;    0.186785;    0.156838;    0.157024;    0.157140;    0.157214;    0.157264;    0.157298;    0.157394;    0.157491;    0.157581;    0.157642;    0.157662;    0.157614;    0.157675;    0.157684;    0.157677;
 61;    0.019428;    0.254533;    0.212290;    0.185062;    0.157915;    0.157987;    0.158016;    0.158108;    0.158199;    0.158259;    0.158323;    0.158405;    0.158321;    0.158416;    0.158391;    0.158447;    0.158465;    0.158490;    0.158487;
 62;    0.019835;    0.254717;    0.212135;    0.187091;    0.155696;    0.155892;    0.155901;    0.155981;    0.156033;    0.155945;    0.156057;    0.156134;    0.156212;    0.156234;    0.156264;    0.156221;    0.156196;    0.156206;    0.156221;
 63;    0.018876;    0.258643;    0.214638;    0.185460;    0.156630;    0.156646;    0.156679;    0.156725;    0.156865;    0.156985;    0.156997;    0.157102;    0.157095;    0.157064;    0.157147;    0.157162;    0.157209;    0.157244;    0.157250;
 64;    0.019620;    0.256553;    0.214318;    0.189911;    0.157904;    0.158106;    0.158199;    0.158207;    0.158322;    0.158417;    0.158553;    0.158586;    0.158616;    0.158594;    0.158578;    0.158624;    0.158687;    0.158693;    0.158718;
 65;    0.019582;    0.252562;    0.211974;    0.184776;    0.155519;    0.155708;    0.155708;    0.155744;    0.155873;    0.155917;    0.155982;    0.156030;    0.156021;    0.156060;    0.156128;    0.156152;    0.156187;    0.156123;    0.156139;
 66;    0.019079;    0.254120;    0.212151;    0.186407;    0.156495;    0.156551;    0.156737;    0.156728;    0.156844;    0.156896;    0.156805;    0.156871;    0.156873;    0.156924;    0.156966;    0.156994;    0.157041;    0.157056;    0.157089;
 67;    0.019414;    0.251958;    0.210084;    0.183655;    0.157213;    0.157247;    0.157433;    0.157410;    0.157504;    0.157553;    0.157639;    0.157678;    0.157579;    0.157676;    0.157685;    0.157667;    0.157698;    0.157718;    0.157744;
 68;    0.019457;    0.255264;    0.212613;    0.186501;    0.157202;    0.157407;    0.157432;    0.157569;    0.157637;    0.157672;    0.157766;    0.157809;    0.157824;    0.157920;    0.157930;    0.157911;    0.157917;    0.157896;    0.157910;
 69;    0.019165;    0.253143;    0.214056;    0.188639;    0.157577;    0.157660;    0.157850;    0.157913;    0.157940;    0.158058;    0.158103;    0.158168;    0.158206;    0.158185;    0.158222;    0.158258;    0.158287;    0.158289;    0.158287;
 70;    0.019577;    0.257199;    0.215895;    0.186449;    0.157940;    0.158068;    0.158178;    0.158282;    0.158339;    0.158490;    0.158517;    0.158609;    0.158549;    0.158617;    0.158720;    0.158709;    0.158672;    0.158683;    0.158705;
 71;    0.019176;    0.255518;    0.211928;    0.185243;    0.156439;    0.156611;    0.156728;    0.156630;    0.156648;    0.156739;    0.156868;    0.156925;    0.156921;    0.156984;    0.156988;    0.157019;    0.157038;    0.157053;    0.157069;
 72;    0.018900;    0.256024;    0.211142;    0.185863;    0.157080;    0.157217;    0.157408;    0.157555;    0.157650;    0.157675;    0.157772;    0.157756;    0.157680;    0.157717;    0.157763;    0.157767;    0.157739;    0.157752;    0.157770;
 73;    0.019458;    0.258879;    0.215062;    0.189233;    0.158890;    0.159101;    0.159274;    0.159354;    0.159427;    0.159322;    0.159428;    0.159442;    0.159513;    0.159453;    0.159561;    0.159603;    0.159571;    0.159575;    0.159595;
 74;    0.019123;    0.258225;    0.213538;    0.190205;    0.157183;    0.157311;    0.157547;    0.157658;    0.157602;    0.157675;    0.157632;    0.157709;    0.157777;    0.157854;    0.157969;    0.158003;    0.157977;    0.157977;    0.157925;
 75;    0.019473;    0.257028;    0.215772;    0.187033;    0.155271;    0.155420;    0.155524;    0.155615;    0.155714;    0.155677;    0.155808;    0.155894;    0.155831;    0.155857;    0.155899;    0.155936;    0.155995;    0.156007;    0.156004;
 76;    0.020651;    0.257499;    0.212138;    0.184758;    0.156477;    0.156659;    0.156723;    0.156725;    0.156871;    0.156912;    0.156854;    0.156886;    0.157004;    0.157066;    0.157113;    0.157154;    0.157192;    0.157178;    0.157166;
 77;    0.019434;    0.253040;    0.211288;    0.183565;    0.154333;    0.154604;    0.154517;    0.154516;    0.154580;    0.154662;    0.154764;    0.154890;    0.154898;    0.154923;    0.154876;    0.154890;    0.154915;    0.154914;    0.154939;
 78;    0.019467;    0.254149;    0.215256;    0.188132;    0.156512;    0.156590;    0.156855;    0.157012;    0.157076;    0.157109;    0.157128;    0.157210;    0.157271;    0.157226;    0.157215;    0.157213;    0.157232;    0.157272;    0.157281;
 79;    0.019475;    0.255914;    0.213449;    0.185959;    0.157443;    0.157493;    0.157544;    0.157597;    0.157678;    0.157789;    0.157893;    0.157812;    0.157928;    0.157989;    0.157953;    0.157971;    0.158001;    0.158005;    0.158021;
 80;    0.018954;    0.256322;    0.213298;    0.186420;    0.154260;    0.154329;    0.154525;    0.154615;    0.154645;    0.154685;    0.154691;    0.154803;    0.154760;    0.154764;    0.154830;    0.154783;    0.154797;    0.154798;    0.154821;
 81;    0.020911;    0.253876;    0.211312;    0.186252;    0.155488;    0.155675;    0.155691;    0.155677;    0.155769;    0.155803;    0.155956;    0.156067;    0.156067;    0.156051;    0.156063;    0.156125;    0.156149;    0.156194;    0.156207;
 82;    0.019494;    0.254444;    0.211530;    0.185193;    0.154980;    0.155054;    0.155153;    0.155327;    0.155444;    0.155509;    0.155599;    0.155608;    0.155575;    0.155649;    0.155647;    0.155623;    0.155678;    0.155703;    0.155715;
 83;    0.019045;    0.250723;    0.210087;    0.183833;    0.155527;    0.155585;    0.155741;    0.155801;    0.155928;    0.156024;    0.156115;    0.156152;    0.156118;    0.156217;    0.156279;    0.156246;    0.156200;    0.156247;    0.156272;
 84;    0.019506;    0.252628;    0.214468;    0.188938;    0.157266;    0.157472;    0.157483;    0.157550;    0.157569;    0.157651;    0.157803;    0.157875;    0.157938;    0.158010;    0.157955;    0.157873;    0.157910;    0.157885;    0.157892;
 85;    0.018836;    0.253782;    0.213590;    0.186905;    0.157363;    0.157481;    0.157621;    0.157731;    0.157702;    0.157827;    0.157932;    0.157985;    0.157930;    0.157998;    0.158060;    0.158067;    0.158100;    0.158071;    0.158080;
 86;    0.019503;    0.259305;    0.215046;    0.186699;    0.157039;    0.157106;    0.157312;    0.157328;    0.157285;    0.157422;    0.157404;    0.157443;    0.157572;    0.157594;    0.157539;    0.157548;    0.157629;    0.157645;    0.157614;
 87;    0.018987;    0.256602;    0.212936;    0.185601;    0.156746;    0.156902;    0.156965;    0.156894;    0.156987;    0.157091;    0.157139;    0.157185;    0.157147;    0.157216;    0.157205;    0.157191;    0.157244;    0.157266;    0.157270;
 88;    0.019446;    0.259577;    0.216236;    0.188749;    0.156060;    0.156307;    0.156400;    0.156375;    0.156383;    0.156441;    0.156500;    0.156607;    0.156653;    0.156746;    0.156763;    0.156628;    0.156681;    0.156703;    0.156719;
 89;    0.019244;    0.257196;    0.215456;    0.190281;    0.157065;    0.157192;    0.157266;    0.157340;    0.157315;    0.157409;    0.157371;    0.157519;    0.157540;    0.157458;    0.157548;    0.157503;    0.157493;    0.157498;    0.157505;
 90;    0.018979;    0.254248;    0.213335;    0.185899;    0.157636;    0.157685;    0.157861;    0.157902;    0.158023;    0.158123;    0.158118;    0.158141;    0.158272;    0.158368;    0.158391;    0.158342;    0.158341;    0.158367;    0.158382;
 91;    0.019633;    0.257942;    0.215688;    0.187791;    0.156821;    0.156896;    0.156976;    0.157146;    0.157150;    0.157332;    0.157378;    0.157284;    0.157359;    0.157437;    0.157450;    0.157479;    0.157482;    0.157534;    0.157506;
 92;    0.019459;    0.255371;    0.213518;    0.188855;    0.156877;    0.156936;    0.157090;    0.157161;    0.157208;    0.157357;    0.157408;    0.157415;    0.157385;    0.157412;    0.157516;    0.157560;    0.157484;    0.157457;    0.157490;
 93;    0.019561;    0.255347;    0.213759;    0.188380;    0.157667;    0.157756;    0.157884;    0.158007;    0.158051;    0.158153;    0.158112;    0.158167;    0.158281;    0.158360;    0.158395;    0.158426;    0.158414;    0.158342;    0.158361;
 94;    0.019565;    0.255731;    0.213100;    0.184190;    0.155739;    0.155790;    0.155937;    0.155973;    0.156070;    0.156069;    0.156057;    0.156143;    0.156141;    0.156262;    0.156290;    0.156265;    0.156261;    0.156328;    0.156293;
 95;    0.019958;    0.257548;    0.214053;    0.187243;    0.157645;    0.157731;    0.157981;    0.158076;    0.158075;    0.158123;    0.158210;    0.158174;    0.158270;    0.158347;    0.158337;    0.158376;    0.158361;    0.158325;    0.158339;
 96;    0.019949;    0.258353;    0.214024;    0.186736;    0.156359;    0.156348;    0.156525;    0.156700;    0.156843;    0.156891;    0.156971;    0.157016;    0.157046;    0.156955;    0.157040;    0.157044;    0.157080;    0.157111;    0.157114;
 97;    0.019682;    0.255623;    0.216226;    0.190250;    0.159135;    0.159372;    0.159309;    0.159239;    0.159416;    0.159524;    0.159623;    0.159665;    0.159668;    0.159635;    0.159680;    0.159722;    0.159687;    0.159714;    0.159720;
 98;    0.019381;    0.256457;    0.215657;    0.188708;    0.157148;    0.157182;    0.157249;    0.157369;    0.157537;    0.157669;    0.157701;    0.157658;    0.157745;    0.157858;    0.157875;    0.157816;    0.157799;    0.157845;    0.157853;
 99;    0.019313;    0.257247;    0.212667;    0.187042;    0.156856;    0.156895;    0.157037;    0.157232;    0.157155;    0.157233;    0.157325;    0.157368;    0.157393;    0.157402;    0.157472;    0.157519;    0.157549;    0.157572;    0.157587;
100;    0.020527;    0.255193;    0.211484;    0.186131;    0.156414;    0.156555;    0.156726;    0.156783;    0.156882;    0.156891;    0.156943;    0.156943;    0.157025;    0.157057;    0.157075;    0.157079;    0.157140;    0.157179;    0.157164;
