Simulation;Time;PC 0;PC 1;PC 2;PC 3;PC 4;PC 5;PC 6;PC 7;PC 8;PC 9;PC10;PC11;PC12;PC13;PC14;PC15;PC16;PC17;
Nan;Nan;0;1;0;0;0;0;0;0;0;0;0;0;0;0;0;0;0;0;
  0;    0.001302;    1.000000;    0.738459;    0.783059;    0.822624;    0.870831;    0.931886;    1.024403;    1.123017;    1.247730;    1.364156;    1.550927;    1.791246;    2.065619;    2.652734;    3.517511;    7.126287;   14.520309;   54.503367;
  1;    0.001260;    1.000000;    0.738641;    0.776670;    0.815758;    0.863694;    0.943231;    1.055358;    1.188233;    1.305782;    1.446340;    1.608812;    1.878831;    2.271428;    2.648820;    3.718001;    8.100757;   32.204626;  255.975256;
  2;    0.001836;    1.000000;    0.745965;    0.789933;    0.837464;    0.887238;    0.942501;    1.016287;    1.134377;    1.231452;    1.375563;    1.507566;    1.741578;    2.034858;    3.020822;    3.721634;    7.824432;   23.390727;  873.281545;
  3;    0.001311;    1.000000;    0.754917;    0.793530;    0.835911;    0.889093;    0.956693;    1.044643;    1.131779;    1.250063;    1.371369;    1.544683;    1.927343;    2.230664;    2.658983;    3.569102;    6.496388;  113.089810;  254.248549;
  4;    0.001241;    1.000000;    0.744009;    0.781652;    0.828871;    0.882325;    0.944622;    1.016798;    1.130205;    1.274367;    1.402113;    1.575527;    1.820776;    2.468070;    3.203491;    4.163674;   15.896808;   32.097280;14007.959431;
  5;    0.001206;    1.000000;    0.739068;    0.780797;    0.826061;    0.880254;    0.953213;    1.018994;    1.124057;    1.236211;    1.378471;    1.570593;    1.813587;    2.269012;    3.061359;    4.436947;   11.134609;   25.060315;  514.998712;
  6;    0.001280;    1.000000;    0.743209;    0.786043;    0.830074;    0.883479;    0.942535;    1.008799;    1.091793;    1.205138;    1.366887;    1.554241;    1.753044;    2.266588;    2.668807;    3.722019;    5.871528;   16.371634; 1470.955320;
  7;    0.001233;    1.000000;    0.736993;    0.770251;    0.812806;    0.862788;    0.921118;    0.991755;    1.073525;    1.182033;    1.327561;    1.587288;    1.773628;    2.206955;    3.404273;    9.486052;   11.216253;   20.719598;   72.298015;
  8;    0.001292;    1.000000;    0.741931;    0.784650;    0.828055;    0.880173;    0.929346;    1.015557;    1.138175;    1.253747;    1.361798;    1.519236;    1.794771;    2.255398;    3.026396;    3.714683;    7.793556;   11.132185; 5321.205119;
  9;    0.001207;    1.000000;    0.749170;    0.789358;    0.834788;    0.892391;    0.962980;    1.080052;    1.165525;    1.286726;    1.423536;    1.657166;    1.935822;    2.219727;    2.684522;    3.935012;    6.482271;   14.499380;  220.814499;
 10;    0.001229;    1.000000;    0.747204;    0.785963;    0.835932;    0.897836;    0.959437;    1.055190;    1.127345;    1.309218;    1.481526;    1.652177;    1.960592;    2.626444;    3.644009;    6.155739;   11.200490;   16.748583;   44.347957;
 11;    0.001193;    1.000000;    0.755361;    0.790066;    0.832939;    0.884678;    0.946698;    1.018721;    1.105112;    1.192638;    1.467505;    1.680135;    1.939806;    2.321955;    2.947650;    5.195902;    7.004711;  442.937813;  580.644063;
 12;    0.001187;    1.000000;    0.759067;    0.797644;    0.848482;    0.897648;    0.951571;    1.025209;    1.099262;    1.193331;    1.334977;    1.548991;    2.070165;    2.634935;    4.442414;    5.938682;    9.214366;   29.404407;  517.454842;
 13;    0.001686;    1.000000;    0.731446;    0.769637;    0.815111;    0.868120;    0.931197;    1.021097;    1.139498;    1.277162;    1.433932;    2.087958;    2.273932;    2.601113;    3.303061;    4.173313;    6.185899;   15.418667; 4917.236914;
 14;    0.001224;    1.000000;    0.748601;    0.786706;    0.831721;    0.885142;    0.945674;    1.015034;    1.095473;    1.203419;    1.403112;    1.597286;    1.819333;    2.042665;    2.584329;    3.290393;    5.409320;   37.195216;  427.919473;
 15;    0.001261;    1.000000;    0.716032;    0.753408;    0.793911;    0.846664;    0.901908;    0.967077;    1.052509;    1.180415;    1.326761;    1.542922;    1.754601;    2.075780;    2.826227;    4.768644;    8.602472;   22.412979;  728.289506;
 16;    0.001263;    1.000000;    0.753378;    0.793270;    0.845960;    0.900629;    0.969180;    1.039803;    1.115531;    1.226391;    1.318725;    1.468351;    1.665099;    1.949097;    2.544428;    3.217127;    6.172722;   10.133561;   39.672999;
 17;    0.001453;    1.000000;    0.749506;    0.782388;    0.828580;    0.875297;    0.934206;    1.010322;    1.091954;    1.192350;    1.403841;    1.571585;    1.769215;    2.202285;    3.307419;    4.270526;    8.282994;   20.174049;  963.240550;
 18;    0.001261;    1.000000;    0.762966;    0.802881;    0.849355;    0.920708;    0.979779;    1.063098;    1.150740;    1.275617;    1.449022;    1.604319;    2.032460;    2.574626;    3.495589;    4.882679;   28.401192;  199.824576; 3369.573289;
 19;    0.001247;    1.000000;    0.737278;    0.775484;    0.817377;    0.867133;    0.927859;    1.005611;    1.104596;    1.255877;    1.354483;    1.520626;    1.742183;    2.370531;    3.366503;    4.927167;   18.279397;   26.105133;  183.712606;
 20;    0.001646;    1.000000;    0.725611;    0.769453;    0.819163;    0.874214;    0.942676;    1.015880;    1.148348;    1.273996;    1.439667;    1.595596;    1.866308;    2.141750;    2.520689;    3.336955;    6.695711;   17.947642;  497.177252;
 21;    0.001227;    1.000000;    0.730189;    0.766515;    0.814191;    0.889838;    0.953687;    1.032265;    1.140916;    1.304443;    1.447159;    1.608549;    1.862005;    2.506509;    3.103240;    4.509097;    7.668860;   22.005172;  508.214620;
 22;    0.001818;    1.000000;    0.736334;    0.774153;    0.822980;    0.881061;    0.987207;    1.059796;    1.136373;    1.411963;    1.551307;    1.797895;    2.011529;    2.818213;    3.256087;    4.964005;   10.117429;   13.471354;  467.841698;
 23;    0.001223;    1.000000;    0.746293;    0.788765;    0.850187;    0.907558;    0.995090;    1.071019;    1.196715;    1.315123;    1.506220;    1.669639;    1.836965;    2.271163;    3.116431;    4.159116;   17.191360;   35.931448;  293.032603;
 24;    0.001653;    1.000000;    0.736981;    0.774831;    0.823000;    0.889344;    0.946745;    1.012728;    1.104495;    1.244946;    1.475107;    1.750209;    2.133401;    2.759349;    3.736589;    6.463861;   11.261515;   14.492372;  180.480670;
 25;    0.001267;    1.000000;    0.748631;    0.789483;    0.831215;    0.878967;    0.942791;    1.018852;    1.112511;    1.232778;    1.459972;    1.858019;    2.491802;    2.940269;    5.272681;    6.245658;    7.884437;   12.146059;791139.891789;
 26;    0.001215;    1.000000;    0.747524;    0.786367;    0.827989;    0.881143;    0.945900;    1.015665;    1.090727;    1.225498;    1.336288;    1.524227;    1.809980;    2.132276;    2.485863;    4.523785;    5.968591;   13.084318; 1114.841571;
 27;    0.001259;    1.000000;    0.729043;    0.769283;    0.815456;    0.863989;    0.925757;    1.000202;    1.084002;    1.215714;    1.395454;    1.549072;    1.912462;    2.268131;    3.024172;    4.802911;    7.087580;   32.517609;  108.454784;
 28;    0.001252;    1.000000;    0.725315;    0.762563;    0.809532;    0.868835;    0.943407;    1.019025;    1.092657;    1.187220;    1.346229;    1.692296;    2.026340;    2.375057;    3.066943;    6.218122;    9.803145;   15.030374;   61.823983;
 29;    0.001221;    1.000000;    0.711921;    0.750785;    0.797956;    0.851373;    0.914522;    1.003070;    1.089543;    1.285820;    1.482269;    1.621256;    1.919079;    2.143557;    2.622175;    3.106147;    4.422369;    6.068318;   42.740506;
 30;    0.001252;    1.000000;    0.736525;    0.774722;    0.820348;    0.870479;    0.938363;    1.038619;    1.142305;    1.255897;    1.411605;    1.627844;    1.977361;    2.315200;    2.787805;    3.590484;    5.070874;   11.155547;  456.302090;
 31;    0.001246;    1.000000;    0.737777;    0.777375;    0.825503;    0.882001;    0.933773;    0.995616;    1.086114;    1.284448;    1.540423;    1.694877;    1.942598;    2.204385;    2.926384;    4.080584;    5.963929;   14.432139;   50.732510;
 32;    0.001236;    1.000000;    0.756862;    0.798466;    0.844561;    0.906833;    0.973355;    1.060619;    1.149499;    1.266517;    1.416402;    1.693646;    1.860170;    2.431465;    3.129059;    4.868032;    7.281609;   28.158301;  172.699229;
 33;    0.001241;    1.000000;    0.721410;    0.760149;    0.803342;    0.857403;    0.921349;    1.011222;    1.093687;    1.181530;    1.381637;    1.647679;    1.914435;    2.216466;    2.813052;    5.064676;    9.552640;   20.880153;  282.720456;
 34;    0.001233;    1.000000;    0.727711;    0.763917;    0.804898;    0.854656;    0.911968;    0.974877;    1.065405;    1.180334;    1.281820;    1.432826;    1.671241;    2.032886;    2.720340;    3.716839;    5.076455;    7.900610;  128.442483;
 35;    0.001270;    1.000000;    0.744927;    0.782014;    0.827175;    0.881264;    0.946954;    1.044738;    1.124661;    1.237160;    1.399322;    1.587583;    1.885828;    2.260060;    3.059107;    4.498680;    6.913350;   10.578189;  294.036058;
 36;    0.001248;    1.000000;    0.766490;    0.807184;    0.855875;    0.931950;    1.010168;    1.132756;    1.219454;    1.328894;    1.459449;    1.658896;    1.928060;    2.260109;    2.669042;    3.656989;    5.906305;   30.580528;   96.205954;
 37;    0.001261;    1.000000;    0.748879;    0.791539;    0.845319;    0.895280;    0.982992;    1.050905;    1.135023;    1.268808;    1.415371;    1.656223;    1.885497;    2.383456;    3.192910;    4.556986;    6.904021;   18.707824;  987.066434;
 38;    0.001208;    1.000000;    0.736387;    0.777819;    0.822254;    0.870608;    0.933775;    1.013490;    1.096840;    1.211404;    1.368693;    1.520924;    1.723660;    2.202721;    2.952344;    3.664392;    5.239385;    8.500245;   39.941536;
 39;    0.001228;    1.000000;    0.757574;    0.800036;    0.845621;    0.894431;    0.953716;    1.044712;    1.132960;    1.278829;    1.442984;    1.684130;    1.999575;    2.466331;    3.426605;   24.751617;   26.819942;  534.859258; 1063.644649;
 40;    0.001256;    1.000000;    0.741188;    0.778418;    0.822734;    0.893805;    0.960388;    1.039951;    1.114768;    1.215997;    1.317429;    1.445436;    1.644955;    2.022448;    2.873101;    7.874757;    9.854500;   60.320232;  606.233173;
 41;    0.001249;    1.000000;    0.738938;    0.779108;    0.834946;    0.908930;    0.997062;    1.069049;    1.155864;    1.278978;    1.475312;    1.684968;    1.947570;    2.834093;    3.287938;    4.589452;   20.859413;  131.459244; 1544.983533;
 42;    0.001327;    1.000000;    0.717913;    0.755581;    0.798748;    0.861039;    0.926945;    1.000598;    1.088104;    1.194900;    1.307162;    1.616572;    1.877146;    2.749464;    3.441865;    4.766277;    6.682450;   12.847273;  160.490156;
 43;    0.001268;    1.000000;    0.729173;    0.769695;    0.812336;    0.860780;    0.943726;    1.001069;    1.102323;    1.202508;    1.379316;    1.582700;    1.762645;    2.010964;    2.500660;    3.701508;    6.239992;   26.120077;  456.690163;
 44;    0.001279;    1.000000;    0.744091;    0.783814;    0.833221;    0.892653;    0.957200;    1.048076;    1.155071;    1.280990;    1.411277;    1.709731;    1.883122;    2.394812;    3.017641;    4.087717;    8.007928;   24.492740;  399.427121;
 45;    0.001331;    1.000000;    0.742300;    0.777518;    0.820711;    0.868876;    0.929151;    1.038287;    1.113946;    1.251886;    1.351364;    1.559003;    1.809015;    2.054764;    3.604514;    4.696251;   10.535619;   17.540767;10252.813222;
 46;    0.001293;    1.000000;    0.725659;    0.766512;    0.807620;    0.877531;    0.962219;    1.029172;    1.126219;    1.256525;    1.406312;    1.597916;    2.004461;    2.318988;    2.937889;    5.295716;    9.601560;   32.345832;  377.793886;
 47;    0.001807;    1.000000;    0.731807;    0.768698;    0.811657;    0.864213;    0.916850;    0.982798;    1.065018;    1.178283;    1.305546;    1.492387;    1.757974;    2.083262;    2.606012;    3.773645;   10.875374;   31.984119;  753.328166;
 48;    0.001776;    1.000000;    0.752364;    0.794331;    0.850493;    0.906754;    0.965746;    1.051054;    1.210371;    1.310577;    1.492319;    1.701419;    2.128095;    2.596534;    3.388920;    5.046755;    6.712434;   31.388452;136800.712018;
 49;    0.001262;    1.000000;    0.747663;    0.784159;    0.828493;    0.881853;    0.936567;    1.005160;    1.084610;    1.192808;    1.349187;    1.751974;    1.989631;    2.307366;    2.960892;    3.870798;    8.435696;   13.411824;   63.634030;
 50;    0.001265;    1.000000;    0.732942;    0.781272;    0.826079;    0.887481;    0.967254;    1.046874;    1.169227;    1.267459;    1.412568;    1.689260;    2.362179;    2.586653;    3.309963;    4.276188;    6.659217;   10.247771;  757.649053;
 51;    0.001255;    1.000000;    0.730470;    0.767295;    0.813696;    0.864611;    0.921031;    1.010276;    1.126204;    1.268683;    1.394809;    1.541238;    1.697115;    1.920676;    2.407861;    3.136295;    5.117616;   12.793017;  185.077850;
 52;    0.001258;    1.000000;    0.737771;    0.777782;    0.823093;    0.876472;    0.947926;    1.027191;    1.102054;    1.212571;    1.369539;    1.615072;    1.941843;    2.805033;    3.377985;    4.668185;    5.708207;   41.686069;  215.757630;
 53;    0.001223;    1.000000;    0.770347;    0.809352;    0.855415;    0.912095;    0.983097;    1.053366;    1.156858;    1.260448;    1.408126;    1.580721;    1.786672;    2.088239;    2.760990;    4.488389;    6.513066;    9.171060; 3782.420027;
 54;    0.001284;    1.000000;    0.733302;    0.768085;    0.811678;    0.865117;    0.921558;    0.994363;    1.065062;    1.161277;    1.289747;    1.518657;    1.877922;    2.498572;    2.995138;    4.851006;    6.919827;    9.800028;   89.760666;
 55;    0.001236;    1.000000;    0.733106;    0.771542;    0.813042;    0.866367;    0.924330;    1.008573;    1.097999;    1.191963;    1.338945;    1.483942;    1.699494;    2.037852;    3.399180;    4.522077;    8.564900;   16.427835;  412.343883;
 56;    0.001632;    1.000000;    0.734874;    0.770240;    0.813381;    0.865648;    0.938334;    0.997476;    1.076188;    1.194403;    1.382952;    1.570442;    1.761755;    2.022891;    2.326059;    2.939268;    3.971972;   10.863559; 4316.897310;
 57;    0.001215;    1.000000;    0.740808;    0.779748;    0.824577;    0.885310;    0.966686;    1.056450;    1.138546;    1.274589;    1.455446;    1.703634;    2.002677;    2.366391;    2.799964;    3.705795;    5.816228;   11.615155; 1079.858375;
 58;    0.001295;    1.000000;    0.737721;    0.779475;    0.824445;    0.879843;    0.942867;    1.010696;    1.103063;    1.263602;    1.389710;    1.571716;    1.867030;    2.259671;    3.148795;    3.950532;    6.923566;   10.240522;  805.151315;
 59;    0.001248;    1.000000;    0.747417;    0.785362;    0.846966;    0.900920;    0.960440;    1.042125;    1.127963;    1.319392;    1.461003;    1.642336;    1.874592;    2.141031;    2.603686;    3.639905;    5.535714;   17.188893;  200.326086;
 60;    0.001262;    1.000000;    0.739867;    0.783740;    0.827753;    0.890750;    0.960552;    1.071253;    1.160850;    1.321237;    1.468537;    1.896428;    2.175963;    2.696338;    3.533894;    5.235494;    7.049988;   20.010016;  112.524747;
 61;    0.001422;    1.000000;    0.746921;    0.785116;    0.833182;    0.893808;    0.972062;    1.075166;    1.158581;    1.258884;    1.370623;    1.524648;    1.792310;    2.175220;    2.550127;    3.191394;   13.422275;   27.997245; 1662.765319;
 62;    0.001350;    1.000000;    0.739069;    0.779595;    0.819098;    0.869027;    0.933449;    1.021016;    1.115451;    1.228962;    1.396759;    1.711793;    2.038575;    2.694316;    3.926674;    4.921815;   11.299655;   33.409622;   68.396413;
 63;    0.001248;    1.000000;    0.725012;    0.769241;    0.807526;    0.856708;    0.906856;    0.976690;    1.080529;    1.182366;    1.351104;    1.493775;    1.770443;    2.083247;    2.646219;    8.511587;   10.890441;   36.430610;  126.166136;
 64;    0.001250;    1.000000;    0.740253;    0.777750;    0.821718;    0.870438;    0.934708;    1.030920;    1.109316;    1.229224;    1.366863;    1.592362;    2.049900;    2.594342;    3.061351;    3.764225;    5.921079;   13.267414;  154.579795;
 65;    0.001264;    1.000000;    0.751221;    0.794535;    0.844073;    0.900938;    0.964402;    1.028053;    1.159251;    1.249624;    1.362645;    1.524606;    1.911022;    2.248978;    2.996322;    3.869107;    5.752905;   22.221130;  361.749323;
 66;    0.001261;    1.000000;    0.744518;    0.781964;    0.828239;    0.892899;    0.955902;    1.031655;    1.128477;    1.230461;    1.393699;    1.639969;    1.877877;    2.423772;    3.026729;    4.339800;    7.219948;   78.916902; 1643.680660;
 67;    0.001261;    1.000000;    0.753262;    0.791976;    0.838470;    0.908678;    0.996704;    1.096231;    1.163900;    1.303800;    1.413488;    1.577369;    1.794473;    2.134460;    2.949137;    5.186717;   12.302894;   20.648323;  978.977726;
 68;    0.001214;    1.000000;    0.741243;    0.784940;    0.835375;    0.896605;    0.960220;    1.033721;    1.119174;    1.248101;    1.392876;    1.558762;    1.685093;    1.973288;    2.522821;    3.823380;    8.376079;   14.168625;  142.342185;
 69;    0.001247;    1.000000;    0.760945;    0.801125;    0.849359;    0.908122;    0.973463;    1.096209;    1.204201;    1.313088;    1.444095;    1.656499;    1.875674;    2.267679;    2.825644;    4.055598;   13.404711;   47.071786;992023.504882;
 70;    0.001654;    1.000000;    0.741963;    0.789987;    0.829550;    0.918648;    1.020337;    1.082752;    1.179188;    1.335796;    1.492430;    1.924545;    2.132095;    2.449126;    2.797576;    3.876260;    6.229828;   14.511619;  260.387747;
 71;    0.001239;    1.000000;    0.735029;    0.775798;    0.824865;    0.892346;    0.950567;    1.015438;    1.099722;    1.192378;    1.306337;    1.464521;    1.790576;    2.132914;    2.733325;    3.346853;    5.362500;    8.520659;341047.548431;
 72;    0.001305;    1.000000;    0.731448;    0.773453;    0.820893;    0.869775;    0.938329;    1.022613;    1.096920;    1.213709;    1.367722;    1.528435;    1.811826;    2.280938;    2.615561;    3.791546;    6.659937;  193.116249;  663.177926;
 73;    0.001284;    1.000000;    0.731283;    0.768020;    0.821192;    0.874018;    0.936343;    1.019661;    1.133946;    1.282004;    1.428486;    1.609899;    2.053555;    2.641850;    3.015969;    4.240010;    5.551812;   42.722024; 7392.613683;
 74;    0.001258;    1.000000;    0.725367;    0.770077;    0.813041;    0.873816;    0.946368;    1.040062;    1.148205;    1.290419;    1.415227;    1.578555;    1.736131;    2.150880;    2.673294;    3.623830;    7.067469;  145.441077; 3990.302510;
 75;    0.001231;    1.000000;    0.734634;    0.798869;    0.840134;    0.901189;    0.959687;    1.022844;    1.106650;    1.218755;    1.354418;    1.619492;    1.915882;    2.259953;    3.088121;    4.189388;    7.433198;   14.931697;   73.484996;
 76;    0.001246;    1.000000;    0.723412;    0.765697;    0.811343;    0.858778;    0.924406;    0.984401;    1.080041;    1.190988;    1.329616;    1.511133;    1.777715;    2.071498;    2.563304;    5.865672;   26.259554; 1329.450768; 5641.877965;
 77;    0.001380;    1.000000;    0.741814;    0.777364;    0.818667;    0.869610;    0.938907;    1.048986;    1.139137;    1.258712;    1.465586;    1.720975;    2.129018;    2.602954;    3.026397;    6.154593;   10.155602;   44.777336;  516.077480;
 78;    0.001295;    1.000000;    0.755770;    0.796080;    0.850271;    0.918795;    1.007143;    1.078321;    1.162512;    1.268517;    1.424250;    1.594028;    1.782794;    2.213632;    2.684433;    4.042460;    6.532451;   11.407878;  380.011210;
 79;    0.001240;    1.000000;    0.740866;    0.779274;    0.822742;    0.884012;    0.943340;    1.027036;    1.096845;    1.175224;    1.326324;    1.502670;    1.849281;    2.336718;    3.249309;    4.298181;   10.627820;   52.340469;  928.386978;
 80;    0.001273;    1.000000;    0.728027;    0.768161;    0.813171;    0.877558;    0.945516;    1.007322;    1.112125;    1.207068;    1.360337;    1.641167;    1.791860;    2.282370;    2.868277;    4.864613;    7.404963;   18.141144;   44.466854;
 81;    0.001259;    1.000000;    0.740331;    0.777599;    0.820016;    0.870833;    0.940757;    1.004264;    1.078092;    1.175138;    1.304963;    1.468061;    1.705664;    2.126516;    2.594280;    3.506250;    5.001073;    7.713733; 1944.620216;
 82;    0.001236;    1.000000;    0.736309;    0.774195;    0.817031;    0.870799;    0.929660;    1.002618;    1.077788;    1.217041;    1.354127;    1.558683;    1.811747;    2.058365;    2.596780;    3.298504;    5.520216;   15.719846; 8598.600933;
 83;    0.001258;    1.000000;    0.756010;    0.797586;    0.842925;    0.909346;    1.000470;    1.089147;    1.193195;    1.324406;    1.471362;    1.653015;    1.985156;    2.384563;    2.897212;    3.665454;    7.890917;   41.528491; 1246.789229;
 84;    0.001202;    1.000000;    0.765559;    0.805565;    0.848891;    0.905919;    0.964290;    1.033290;    1.133437;    1.290495;    1.459293;    1.629904;    1.793217;    2.113447;    2.546987;    4.343008;    6.411920;   10.025864;  311.226285;
 85;    0.001259;    1.000000;    0.754199;    0.794389;    0.839239;    0.893968;    0.953845;    1.026458;    1.142315;    1.262226;    1.418385;    1.632325;    1.850635;    2.206944;    2.792008;    4.241873;   22.203718;   34.380195;12282.657127;
 86;    0.001255;    1.000000;    0.724525;    0.759074;    0.798562;    0.848522;    0.914596;    0.994715;    1.119859;    1.232020;    1.420384;    1.636125;    2.057943;    2.402029;    2.806110;    3.551443;    9.168499;   20.529717;   73.292075;
 87;    0.001270;    1.000000;    0.732311;    0.769032;    0.815219;    0.863227;    0.912002;    0.984750;    1.095714;    1.178022;    1.383129;    1.599377;    1.860341;    2.253952;    2.686985;    3.712741;    7.023935;   11.217271;  171.330338;
 88;    0.001259;    1.000000;    0.722156;    0.756463;    0.802270;    0.861335;    0.917343;    0.990761;    1.075615;    1.183377;    1.329404;    1.579546;    1.801717;    2.325231;    3.162328;    4.724368;    6.195089;   18.120424;   75.486097;
 89;    0.001223;    1.000000;    0.737819;    0.777653;    0.829485;    0.885582;    0.936622;    1.000905;    1.107003;    1.214879;    1.332731;    1.481419;    1.842896;    2.216718;    2.766950;    3.740178;    7.060083;   12.463800;  221.182815;
 90;    0.001229;    1.000000;    0.750900;    0.791922;    0.843632;    0.897714;    0.987665;    1.069644;    1.313282;    1.573090;    1.888082;    2.242518;    2.759694;    3.159600;    3.778640;    5.768475;    8.078769;   15.615197;   79.679899;
 91;    0.001255;    1.000000;    0.733788;    0.769551;    0.812153;    0.863696;    0.916107;    0.982335;    1.080257;    1.190062;    1.373754;    1.562179;    1.740158;    1.949227;    2.783892;    4.165522;    7.445205;   14.962081;48972.583187;
 92;    0.001256;    1.000000;    0.742439;    0.798387;    0.854297;    0.905369;    0.960896;    1.041454;    1.129250;    1.265746;    1.381164;    1.548587;    2.107978;    2.387151;    2.777664;    3.728091;    7.477728;   12.671559;   38.621113;
 93;    0.001225;    1.000000;    0.745551;    0.786235;    0.841344;    0.892539;    0.968330;    1.044254;    1.133597;    1.234291;    1.435509;    1.629878;    1.908784;    2.196773;    2.598033;    3.485603;    7.666123;   12.918954; 1714.006016;
 94;    0.001214;    1.000000;    0.735120;    0.773576;    0.827896;    0.881915;    0.944687;    1.024724;    1.122619;    1.232589;    1.346533;    1.599698;    1.931464;    2.298597;    3.356504;    4.144608;   10.594952;   14.509188; 5951.521647;
 95;    0.001251;    1.000000;    0.732876;    0.773883;    0.816614;    0.864499;    0.918870;    0.990173;    1.072233;    1.174862;    1.293193;    1.584926;    1.997898;    2.347654;    2.979591;    4.688214;   13.207784;   23.068238;  419.100644;
 96;    0.001236;    1.000000;    0.724043;    0.762167;    0.810306;    0.870178;    0.928339;    0.993587;    1.100845;    1.202873;    1.349612;    1.494331;    2.793919;    3.390107;    4.834412;    6.899969;   11.394273;   17.545871;  690.212099;
 97;    0.001243;    1.000000;    0.756400;    0.793701;    0.850303;    0.945056;    1.039669;    1.104303;    1.192245;    1.293888;    1.429205;    1.575497;    1.755821;    2.230972;    4.144483;    5.491784;   14.420599;   19.464686;  110.451061;
 98;    0.001253;    1.000000;    0.744099;    0.779668;    0.822435;    0.874711;    0.930224;    1.001642;    1.091705;    1.212155;    1.407381;    1.609534;    1.760214;    2.144970;    2.561833;    3.202993;    6.617712;   29.418130;  715.662914;
 99;    0.001243;    1.000000;    0.727503;    0.769607;    0.809289;    0.869497;    0.934895;    1.044687;    1.165247;    1.307625;    1.650116;    1.872210;    2.040183;    2.675073;    3.576821;    7.883396;    9.189414;   17.948977; 3505.535199;
100;    0.001213;    1.000000;    0.736268;    0.774333;    0.819965;    0.880774;    0.941901;    1.013502;    1.103847;    1.204979;    1.399407;    1.583846;    1.970225;    2.239555;    2.780211;    3.924460;    8.257391;   13.625484;  200.783150;
