Simulation;Time;PC 0;PC 1;PC 2;PC 3;PC 4;PC 5;PC 6;PC 7;PC 8;PC 9;PC10;PC11;PC12;PC13;PC14;PC15;PC16;PC17;
Nan;Nan;0;0;0;1;0;0;0;0;0;0;0;0;0;0;0;0;0;0;
  0;    0.590677;    0.991807;    0.693887;    0.572212;    0.487641;    0.481248;    0.471395;    0.455365;    0.452937;    0.439612;    0.417678;    0.400108;    0.368698;    0.327446;    0.295225;    0.250459;    0.213752;    0.146918;    0.081309;
  1;    0.603200;    1.020590;    0.715742;    0.583008;    0.497144;    0.488741;    0.477856;    0.466690;    0.447007;    0.430458;    0.421023;    0.401805;    0.375551;    0.335792;    0.302036;    0.266855;    0.218554;    0.159004;    0.079926;
  2;    0.588379;    1.019831;    0.722912;    0.591720;    0.499857;    0.497251;    0.487574;    0.482858;    0.467916;    0.452582;    0.430438;    0.393040;    0.371843;    0.345697;    0.313699;    0.254630;    0.212712;    0.157390;    0.078852;
  3;    0.592626;    0.988579;    0.703570;    0.595489;    0.505094;    0.502796;    0.492298;    0.486988;    0.474979;    0.457721;    0.441707;    0.417905;    0.392267;    0.363437;    0.321929;    0.286278;    0.239663;    0.167403;    0.093783;
  4;    0.590316;    1.026716;    0.723419;    0.602449;    0.508020;    0.507501;    0.499759;    0.484570;    0.468396;    0.452951;    0.432828;    0.409065;    0.388455;    0.360211;    0.322659;    0.286562;    0.229572;    0.170840;    0.096125;
  5;    0.593334;    1.001114;    0.698441;    0.578751;    0.500205;    0.494195;    0.478841;    0.469177;    0.462983;    0.455217;    0.432007;    0.416150;    0.393742;    0.363671;    0.319489;    0.274577;    0.213918;    0.160150;    0.085410;
  6;    0.585377;    1.006059;    0.708404;    0.580677;    0.498004;    0.493022;    0.491236;    0.477326;    0.463941;    0.454320;    0.432728;    0.417572;    0.392641;    0.350181;    0.312486;    0.270697;    0.207185;    0.157978;    0.082355;
  7;    0.584619;    1.010106;    0.704302;    0.582420;    0.498634;    0.488145;    0.484712;    0.477235;    0.465466;    0.442114;    0.432996;    0.414960;    0.394146;    0.359444;    0.314708;    0.272045;    0.224147;    0.172759;    0.087605;
  8;    0.584547;    0.978033;    0.683678;    0.571530;    0.491796;    0.490006;    0.483778;    0.470285;    0.460757;    0.451649;    0.434083;    0.413121;    0.378811;    0.348194;    0.312913;    0.269253;    0.213399;    0.157317;    0.082164;
  9;    0.589127;    1.002758;    0.709405;    0.587734;    0.503920;    0.502621;    0.496403;    0.484454;    0.467393;    0.465799;    0.452780;    0.430751;    0.404303;    0.373050;    0.336654;    0.285313;    0.243541;    0.183995;    0.109154;
 10;    0.586354;    1.014721;    0.717975;    0.593443;    0.504261;    0.502810;    0.496632;    0.491601;    0.481002;    0.467039;    0.448821;    0.424751;    0.390650;    0.350207;    0.320327;    0.279678;    0.232178;    0.176769;    0.096514;
 11;    0.592213;    0.995222;    0.708999;    0.586850;    0.505712;    0.497610;    0.485699;    0.479782;    0.465169;    0.454910;    0.439038;    0.418569;    0.399144;    0.366525;    0.325409;    0.274196;    0.229317;    0.170319;    0.096426;
 12;    0.591053;    0.972497;    0.697464;    0.573463;    0.496718;    0.490498;    0.480965;    0.469704;    0.453993;    0.443204;    0.423626;    0.401846;    0.389479;    0.369622;    0.332832;    0.288892;    0.230395;    0.160784;    0.084392;
 13;    0.594399;    1.008427;    0.695410;    0.577715;    0.498496;    0.493043;    0.488094;    0.474299;    0.459918;    0.447462;    0.424798;    0.404598;    0.377205;    0.358083;    0.334308;    0.294019;    0.239821;    0.164651;    0.081654;
 14;    0.584957;    0.981918;    0.695994;    0.579141;    0.489767;    0.488708;    0.483464;    0.467633;    0.454182;    0.442737;    0.432170;    0.416016;    0.389424;    0.347318;    0.320461;    0.279800;    0.213527;    0.152922;    0.084920;
 15;    0.585155;    1.014217;    0.687213;    0.570042;    0.484114;    0.478440;    0.476100;    0.467806;    0.448669;    0.439902;    0.416650;    0.401802;    0.384907;    0.358453;    0.320253;    0.268631;    0.211146;    0.159862;    0.092255;
 16;    0.591069;    1.006618;    0.716708;    0.595290;    0.510046;    0.505392;    0.496045;    0.489547;    0.471641;    0.452539;    0.435727;    0.405234;    0.386525;    0.355429;    0.317976;    0.273301;    0.221571;    0.158531;    0.079914;
 17;    0.586656;    0.976216;    0.691378;    0.580507;    0.490679;    0.481112;    0.472376;    0.461332;    0.447303;    0.428107;    0.418694;    0.403791;    0.384328;    0.351041;    0.298842;    0.261464;    0.212629;    0.141485;    0.080166;
 18;    0.590402;    0.958917;    0.688260;    0.577207;    0.499213;    0.491385;    0.486773;    0.481068;    0.468627;    0.460628;    0.445840;    0.415708;    0.395799;    0.367279;    0.333448;    0.284851;    0.236089;    0.170687;    0.085202;
 19;    0.592467;    0.987472;    0.685527;    0.565320;    0.494850;    0.495209;    0.483503;    0.482788;    0.472310;    0.453083;    0.436580;    0.417139;    0.389729;    0.362567;    0.323223;    0.287984;    0.231514;    0.165606;    0.090028;
 20;    0.585807;    1.027601;    0.705901;    0.588288;    0.499744;    0.493691;    0.492802;    0.485947;    0.474500;    0.452023;    0.436701;    0.415381;    0.382737;    0.352223;    0.330951;    0.290092;    0.236889;    0.165856;    0.088459;
 21;    0.580011;    1.019032;    0.701264;    0.586921;    0.503153;    0.492942;    0.487020;    0.469993;    0.451200;    0.439720;    0.424971;    0.407118;    0.387505;    0.355552;    0.322812;    0.282324;    0.234235;    0.162407;    0.091998;
 22;    0.587459;    1.013325;    0.703079;    0.583447;    0.504522;    0.501107;    0.495994;    0.482021;    0.476308;    0.456464;    0.437053;    0.421024;    0.390585;    0.356052;    0.321053;    0.268331;    0.221853;    0.165511;    0.084984;
 23;    0.584573;    0.995319;    0.699713;    0.578139;    0.505699;    0.498531;    0.490569;    0.487204;    0.479766;    0.468226;    0.454414;    0.434683;    0.394508;    0.359692;    0.310545;    0.276751;    0.228323;    0.170860;    0.090959;
 24;    0.582980;    1.020550;    0.714207;    0.586272;    0.498799;    0.493626;    0.487354;    0.474978;    0.461863;    0.451449;    0.429909;    0.414609;    0.386264;    0.357421;    0.310964;    0.271654;    0.239878;    0.188024;    0.107062;
 25;    0.586568;    0.983245;    0.696645;    0.578870;    0.491789;    0.481136;    0.474433;    0.471131;    0.462138;    0.441907;    0.418715;    0.394829;    0.373816;    0.340041;    0.306406;    0.251512;    0.209259;    0.151998;    0.073814;
 26;    0.590015;    1.010173;    0.711155;    0.594212;    0.510977;    0.508179;    0.496944;    0.491720;    0.474393;    0.462770;    0.443249;    0.419843;    0.392866;    0.350178;    0.322676;    0.273684;    0.227580;    0.155918;    0.074706;
 27;    0.584733;    1.012094;    0.694570;    0.579714;    0.500301;    0.498909;    0.494311;    0.483534;    0.474062;    0.460462;    0.443627;    0.417322;    0.391702;    0.360169;    0.312818;    0.267037;    0.221092;    0.151472;    0.093282;
 28;    0.589028;    1.015931;    0.695260;    0.578778;    0.497043;    0.490901;    0.487337;    0.480605;    0.459250;    0.451536;    0.433555;    0.412414;    0.384227;    0.348043;    0.313487;    0.271238;    0.220634;    0.162905;    0.084678;
 29;    0.585748;    1.034879;    0.697147;    0.577636;    0.494128;    0.487457;    0.474710;    0.470287;    0.453460;    0.446044;    0.432290;    0.409585;    0.391049;    0.354125;    0.314535;    0.268362;    0.211376;    0.137509;    0.075331;
 30;    0.584999;    1.017433;    0.707673;    0.590722;    0.502879;    0.494050;    0.490414;    0.475658;    0.456529;    0.443882;    0.420308;    0.407558;    0.392467;    0.364025;    0.329945;    0.283215;    0.226364;    0.158948;    0.092430;
 31;    0.589415;    1.015879;    0.710285;    0.582254;    0.500074;    0.495901;    0.490887;    0.484243;    0.470640;    0.446589;    0.437351;    0.421551;    0.396275;    0.369305;    0.320815;    0.269253;    0.228922;    0.163935;    0.098255;
 32;    0.587366;    0.990522;    0.709569;    0.574570;    0.497071;    0.488685;    0.490497;    0.486626;    0.475776;    0.459446;    0.438804;    0.417317;    0.394578;    0.364989;    0.318209;    0.276207;    0.214138;    0.167006;    0.088550;
 33;    0.587403;    1.012706;    0.690899;    0.566226;    0.489352;    0.481286;    0.480991;    0.474721;    0.460430;    0.449539;    0.427046;    0.404053;    0.370301;    0.341680;    0.311640;    0.280749;    0.226007;    0.163844;    0.086030;
 34;    0.608966;    1.034730;    0.710985;    0.591010;    0.506752;    0.500531;    0.497939;    0.488017;    0.473576;    0.452568;    0.434772;    0.398934;    0.371848;    0.344397;    0.311944;    0.259969;    0.222753;    0.156957;    0.093409;
 35;    0.587995;    0.997968;    0.702337;    0.579671;    0.498327;    0.492107;    0.487953;    0.474853;    0.467557;    0.452896;    0.437263;    0.419642;    0.383769;    0.359798;    0.317267;    0.280677;    0.226580;    0.170542;    0.087867;
 36;    0.583187;    0.969965;    0.702795;    0.581468;    0.493340;    0.489498;    0.485409;    0.478860;    0.463366;    0.456206;    0.437748;    0.425547;    0.405389;    0.373734;    0.329819;    0.294449;    0.246293;    0.180545;    0.082280;
 37;    0.586760;    0.995734;    0.707831;    0.588127;    0.492489;    0.491694;    0.480190;    0.467634;    0.454379;    0.446415;    0.430938;    0.414298;    0.393485;    0.354247;    0.317911;    0.270417;    0.225856;    0.174678;    0.088144;
 38;    0.582912;    1.001428;    0.695940;    0.579052;    0.498822;    0.490854;    0.480532;    0.471058;    0.462242;    0.451954;    0.433873;    0.409085;    0.378222;    0.344940;    0.309788;    0.260921;    0.220250;    0.158304;    0.091271;
 39;    0.584963;    0.967074;    0.691381;    0.578112;    0.496259;    0.490983;    0.483565;    0.476753;    0.465174;    0.444536;    0.431596;    0.406350;    0.373722;    0.352196;    0.313745;    0.272547;    0.213760;    0.151594;    0.080973;
 40;    0.594245;    1.013402;    0.714212;    0.581879;    0.493515;    0.485966;    0.477683;    0.465013;    0.450280;    0.439202;    0.419700;    0.398695;    0.382854;    0.352276;    0.318708;    0.278763;    0.220416;    0.158543;    0.093984;
 41;    0.583266;    0.997851;    0.698232;    0.573240;    0.495732;    0.486480;    0.480923;    0.469217;    0.460705;    0.450708;    0.429298;    0.407587;    0.379015;    0.349221;    0.310751;    0.272712;    0.225602;    0.159256;    0.079069;
 42;    0.580872;    1.029168;    0.698447;    0.582375;    0.494000;    0.492772;    0.480715;    0.471054;    0.456881;    0.448438;    0.430143;    0.408630;    0.387992;    0.358219;    0.317236;    0.276688;    0.226878;    0.166190;    0.100334;
 43;    0.586476;    1.015815;    0.700424;    0.581299;    0.497699;    0.494164;    0.490442;    0.474717;    0.468098;    0.452574;    0.429136;    0.406720;    0.378236;    0.347790;    0.312382;    0.259857;    0.216785;    0.164842;    0.098889;
 44;    0.590500;    1.006409;    0.708892;    0.580746;    0.502513;    0.497034;    0.490908;    0.487963;    0.476895;    0.461848;    0.445292;    0.421621;    0.386560;    0.363679;    0.335855;    0.294030;    0.236880;    0.153807;    0.080692;
 45;    0.580066;    0.985058;    0.687268;    0.574283;    0.496401;    0.493510;    0.488273;    0.472671;    0.455769;    0.445321;    0.432354;    0.418611;    0.397050;    0.372527;    0.331934;    0.292534;    0.243586;    0.175656;    0.099858;
 46;    0.578639;    1.014812;    0.694310;    0.577360;    0.492985;    0.485472;    0.479280;    0.468034;    0.459769;    0.449667;    0.430215;    0.402644;    0.381789;    0.347561;    0.306016;    0.260709;    0.218438;    0.152465;    0.092560;
 47;    0.592869;    1.025632;    0.706168;    0.595249;    0.510999;    0.506254;    0.506544;    0.499565;    0.487395;    0.465314;    0.443499;    0.421795;    0.395819;    0.359984;    0.320281;    0.277812;    0.217347;    0.152576;    0.080032;
 48;    0.587138;    0.979231;    0.693045;    0.582193;    0.502395;    0.499289;    0.499227;    0.491185;    0.481792;    0.467523;    0.443700;    0.430569;    0.407660;    0.375907;    0.339861;    0.287085;    0.227978;    0.170248;    0.084316;
 49;    0.588588;    0.984610;    0.692882;    0.578674;    0.500720;    0.492146;    0.485659;    0.476967;    0.460052;    0.440528;    0.419994;    0.398905;    0.379070;    0.346447;    0.310514;    0.276139;    0.223873;    0.156422;    0.088127;
 50;    0.586330;    1.007671;    0.699464;    0.575557;    0.493812;    0.489756;    0.482797;    0.471644;    0.468049;    0.452721;    0.440672;    0.415347;    0.386307;    0.347143;    0.310730;    0.269901;    0.213571;    0.155642;    0.088131;
 51;    0.581571;    1.023016;    0.706442;    0.588273;    0.498761;    0.490443;    0.484849;    0.477852;    0.464119;    0.456317;    0.435644;    0.418203;    0.387284;    0.353916;    0.321290;    0.280070;    0.220329;    0.150736;    0.082172;
 52;    0.591070;    1.002795;    0.702414;    0.579146;    0.489409;    0.483876;    0.475939;    0.467880;    0.461862;    0.448433;    0.426949;    0.410695;    0.383290;    0.362604;    0.322443;    0.271523;    0.205634;    0.142552;    0.081041;
 53;    0.576807;    0.973609;    0.712961;    0.578848;    0.494063;    0.488276;    0.481598;    0.473915;    0.463035;    0.448106;    0.433928;    0.424517;    0.399111;    0.366840;    0.330081;    0.283998;    0.239563;    0.172539;    0.083626;
 54;    0.583947;    1.024187;    0.715663;    0.569956;    0.493218;    0.485747;    0.483501;    0.470584;    0.459570;    0.440776;    0.425516;    0.401431;    0.377618;    0.338591;    0.310434;    0.269825;    0.208096;    0.155808;    0.082254;
 55;    0.584689;    0.989823;    0.682154;    0.567532;    0.491488;    0.484338;    0.474594;    0.466253;    0.451655;    0.432896;    0.410697;    0.394322;    0.371551;    0.349968;    0.316630;    0.284484;    0.241623;    0.174968;    0.092666;
 56;    0.589485;    1.009108;    0.702584;    0.576102;    0.493735;    0.483885;    0.483336;    0.472064;    0.457213;    0.437128;    0.426955;    0.404418;    0.371984;    0.348534;    0.311779;    0.266215;    0.217851;    0.153097;    0.078665;
 57;    0.590544;    1.024384;    0.720273;    0.593503;    0.503375;    0.495760;    0.486969;    0.479821;    0.471558;    0.453653;    0.439762;    0.413542;    0.395480;    0.363584;    0.314290;    0.272281;    0.231101;    0.173488;    0.094120;
 58;    0.586035;    1.009859;    0.704946;    0.577522;    0.499930;    0.496857;    0.488599;    0.488810;    0.482228;    0.466581;    0.448053;    0.433769;    0.407371;    0.379235;    0.339227;    0.296969;    0.240289;    0.164827;    0.088510;
 59;    0.591417;    0.990826;    0.702628;    0.587193;    0.491875;    0.482680;    0.472984;    0.468535;    0.457975;    0.439506;    0.420778;    0.404002;    0.378074;    0.342858;    0.307922;    0.257491;    0.202785;    0.158264;    0.095835;
 60;    0.591249;    0.998446;    0.696771;    0.579346;    0.497624;    0.495897;    0.489156;    0.479304;    0.466224;    0.448531;    0.435629;    0.424537;    0.403596;    0.374808;    0.336892;    0.278172;    0.240443;    0.177474;    0.090631;
 61;    0.585868;    0.997981;    0.701399;    0.580285;    0.507288;    0.501206;    0.492007;    0.482628;    0.469475;    0.451758;    0.429646;    0.412502;    0.379598;    0.353259;    0.306303;    0.275593;    0.221510;    0.162905;    0.090250;
 62;    0.592016;    0.990822;    0.691918;    0.578458;    0.490288;    0.486669;    0.475900;    0.465366;    0.451977;    0.429941;    0.418214;    0.401120;    0.380405;    0.352080;    0.316252;    0.265958;    0.209252;    0.147314;    0.085796;
 63;    0.583977;    1.021942;    0.702790;    0.571082;    0.492887;    0.484296;    0.474511;    0.464293;    0.457863;    0.447808;    0.426607;    0.411681;    0.384268;    0.345834;    0.320542;    0.276294;    0.231087;    0.178574;    0.095336;
 64;    0.594280;    1.011735;    0.707820;    0.593434;    0.502402;    0.501901;    0.494723;    0.480379;    0.468835;    0.454029;    0.439252;    0.411735;    0.385146;    0.347974;    0.303267;    0.272400;    0.230445;    0.168658;    0.095532;
 65;    0.594426;    0.974281;    0.691190;    0.569174;    0.491382;    0.488093;    0.477830;    0.466210;    0.456949;    0.441724;    0.427074;    0.406916;    0.378441;    0.350330;    0.320912;    0.274874;    0.222441;    0.142800;    0.077500;
 66;    0.584812;    0.988912;    0.694988;    0.578986;    0.496680;    0.487727;    0.483023;    0.471004;    0.461093;    0.446551;    0.421526;    0.402164;    0.371004;    0.344351;    0.312059;    0.262183;    0.222886;    0.157331;    0.099309;
 67;    0.583972;    0.978017;    0.692558;    0.576483;    0.505694;    0.496710;    0.492855;    0.479889;    0.468943;    0.452804;    0.437969;    0.417010;    0.381048;    0.357672;    0.321894;    0.271795;    0.218206;    0.158998;    0.098728;
 68;    0.587612;    0.999982;    0.698902;    0.579379;    0.500541;    0.500321;    0.490545;    0.486479;    0.473958;    0.456274;    0.442365;    0.420280;    0.390661;    0.366755;    0.331513;    0.282068;    0.231070;    0.159668;    0.086729;
 69;    0.590668;    0.986474;    0.709349;    0.590944;    0.503454;    0.498091;    0.496155;    0.485476;    0.471673;    0.461020;    0.442212;    0.420839;    0.393438;    0.349672;    0.315209;    0.277667;    0.232998;    0.165245;    0.086233;
 70;    0.590605;    1.016956;    0.715834;    0.580204;    0.502223;    0.496928;    0.490415;    0.482287;    0.471219;    0.465129;    0.447692;    0.429009;    0.394101;    0.367169;    0.341074;    0.292257;    0.229147;    0.163624;    0.097851;
 71;    0.593522;    0.999359;    0.693086;    0.573891;    0.495715;    0.492231;    0.485959;    0.467480;    0.450224;    0.438613;    0.427630;    0.406402;    0.378832;    0.354402;    0.316369;    0.275456;    0.220237;    0.155922;    0.091130;
 72;    0.598548;    1.004980;    0.691968;    0.578331;    0.500403;    0.496935;    0.497008;    0.493559;    0.484046;    0.470362;    0.455276;    0.428418;    0.388824;    0.356461;    0.314917;    0.263259;    0.203518;    0.138640;    0.080662;
 73;    0.589679;    1.032962;    0.713997;    0.592334;    0.507873;    0.508612;    0.505581;    0.497196;    0.486460;    0.463627;    0.445837;    0.421643;    0.398321;    0.354458;    0.328670;    0.284409;    0.223914;    0.162749;    0.098491;
 74;    0.584510;    1.021459;    0.699764;    0.589176;    0.496869;    0.492683;    0.492670;    0.485388;    0.467664;    0.450041;    0.424885;    0.403365;    0.382060;    0.359547;    0.334437;    0.289184;    0.227823;    0.159004;    0.073244;
 75;    0.601717;    1.003950;    0.703043;    0.569593;    0.483539;    0.479486;    0.474785;    0.464255;    0.453807;    0.433336;    0.421188;    0.402176;    0.364373;    0.328243;    0.300782;    0.270126;    0.232539;    0.169476;    0.086313;
 76;    0.590755;    1.013482;    0.691765;    0.571086;    0.495099;    0.492183;    0.483172;    0.468524;    0.462636;    0.448166;    0.426847;    0.405066;    0.391265;    0.367093;    0.335407;    0.294875;    0.244616;    0.171892;    0.086433;
 77;    0.594453;    0.973042;    0.683272;    0.560828;    0.483418;    0.483552;    0.469269;    0.459133;    0.445976;    0.433291;    0.418440;    0.403456;    0.373437;    0.345080;    0.300489;    0.252161;    0.211023;    0.146103;    0.084432;
 78;    0.588376;    0.989357;    0.709520;    0.582048;    0.493859;    0.485483;    0.487047;    0.483041;    0.472268;    0.459127;    0.441368;    0.421378;    0.395015;    0.355718;    0.313168;    0.262164;    0.211404;    0.152223;    0.072967;
 79;    0.591944;    1.005493;    0.703474;    0.578640;    0.500984;    0.493037;    0.484490;    0.475169;    0.465949;    0.454964;    0.440219;    0.410061;    0.390967;    0.361944;    0.312747;    0.267318;    0.216701;    0.155215;    0.086482;
 80;    0.594531;    0.995335;    0.687983;    0.564898;    0.478444;    0.472101;    0.470090;    0.457011;    0.443388;    0.427018;    0.405409;    0.386954;    0.356257;    0.323408;    0.292951;    0.243716;    0.185177;    0.132137;    0.082313;
 81;    0.655504;    0.983503;    0.687702;    0.574450;    0.490064;    0.487608;    0.476758;    0.465639;    0.455929;    0.440878;    0.429765;    0.414337;    0.386112;    0.350749;    0.314108;    0.274543;    0.224466;    0.174329;    0.094068;
 82;    0.596718;    0.985078;    0.685440;    0.567058;    0.485761;    0.479957;    0.467613;    0.463995;    0.456731;    0.444691;    0.430912;    0.404389;    0.370924;    0.343535;    0.303686;    0.254858;    0.218838;    0.160055;    0.091901;
 83;    0.589206;    0.962436;    0.685528;    0.569773;    0.494235;    0.486916;    0.482875;    0.474087;    0.467789;    0.453944;    0.434165;    0.405385;    0.370090;    0.345904;    0.311633;    0.257012;    0.194969;    0.146917;    0.089730;
 84;    0.593974;    0.981291;    0.710816;    0.590486;    0.501282;    0.497375;    0.487557;    0.477254;    0.458231;    0.446060;    0.439143;    0.422176;    0.399643;    0.367707;    0.317943;    0.268332;    0.215475;    0.145795;    0.081441;
 85;    0.599299;    0.990089;    0.705388;    0.583590;    0.502194;    0.497164;    0.491165;    0.483197;    0.465891;    0.455509;    0.439817;    0.416554;    0.378454;    0.359043;    0.323821;    0.274112;    0.225689;    0.154333;    0.088080;
 86;    0.590594;    1.028066;    0.704531;    0.574062;    0.494889;    0.487908;    0.486335;    0.472851;    0.455663;    0.445828;    0.420854;    0.396683;    0.383132;    0.351657;    0.312205;    0.269440;    0.234014;    0.168748;    0.081861;
 87;    0.586486;    1.007497;    0.696951;    0.573457;    0.496768;    0.492700;    0.484371;    0.470238;    0.456208;    0.443580;    0.425128;    0.404709;    0.366882;    0.340749;    0.300272;    0.252107;    0.211276;    0.156558;    0.087541;
 88;    0.592886;    1.025978;    0.705353;    0.577147;    0.485929;    0.487057;    0.481100;    0.467479;    0.451388;    0.438351;    0.423597;    0.405096;    0.377953;    0.354006;    0.318950;    0.263024;    0.219399;    0.162313;    0.089133;
 89;    0.589972;    1.013035;    0.708638;    0.589207;    0.494882;    0.489587;    0.482094;    0.472832;    0.457342;    0.440482;    0.412313;    0.397714;    0.367697;    0.323355;    0.297269;    0.250215;    0.192361;    0.133301;    0.073962;
 90;    0.593054;    0.994722;    0.704745;    0.581123;    0.504327;    0.496200;    0.492691;    0.479251;    0.470211;    0.459434;    0.438624;    0.415550;    0.401841;    0.377718;    0.337955;    0.286010;    0.225709;    0.167664;    0.095619;
 91;    0.590730;    1.017831;    0.708655;    0.578762;    0.492763;    0.487705;    0.479877;    0.472504;    0.458262;    0.451947;    0.435328;    0.406010;    0.380937;    0.354658;    0.314080;    0.273716;    0.223192;    0.170978;    0.083579;
 92;    0.582656;    0.999453;    0.700999;    0.584652;    0.496896;    0.489664;    0.487123;    0.476216;    0.464963;    0.455305;    0.435300;    0.409336;    0.367334;    0.338316;    0.309744;    0.264890;    0.201179;    0.142083;    0.086372;
 93;    0.595022;    1.002663;    0.706103;    0.588626;    0.502702;    0.494779;    0.490960;    0.485821;    0.472633;    0.458492;    0.433126;    0.412068;    0.397913;    0.370763;    0.334054;    0.289004;    0.228307;    0.147090;    0.080412;
 94;    0.629241;    0.997341;    0.695031;    0.565719;    0.489880;    0.483151;    0.477957;    0.467366;    0.455655;    0.435590;    0.412845;    0.397833;    0.368275;    0.346423;    0.309257;    0.261322;    0.199566;    0.158276;    0.080230;
 95;    0.589747;    1.017930;    0.705475;    0.583533;    0.500548;    0.496244;    0.497605;    0.489149;    0.474680;    0.460422;    0.445553;    0.419051;    0.395422;    0.365360;    0.320798;    0.275573;    0.220450;    0.147713;    0.081861;
 96;    0.590910;    1.018457;    0.697821;    0.574823;    0.491210;    0.480748;    0.480582;    0.480783;    0.474544;    0.460991;    0.446879;    0.426219;    0.398332;    0.352492;    0.319749;    0.270029;    0.223711;    0.166155;    0.089220;
 97;    0.586581;    1.010369;    0.723676;    0.598351;    0.510710;    0.510056;    0.495503;    0.476330;    0.472157;    0.463177;    0.444643;    0.420708;    0.390867;    0.353719;    0.319998;    0.278508;    0.219906;    0.166805;    0.089388;
 98;    0.583137;    1.007234;    0.711461;    0.583664;    0.496311;    0.488843;    0.480693;    0.476076;    0.471369;    0.461245;    0.442862;    0.415514;    0.397441;    0.373196;    0.332609;    0.278595;    0.227473;    0.174775;    0.092957;
 99;    0.584691;    1.012894;    0.695725;    0.579031;    0.496333;    0.487524;    0.484713;    0.480517;    0.459939;    0.446460;    0.431813;    0.411558;    0.388196;    0.354893;    0.326916;    0.290539;    0.239123;    0.178320;    0.097403;
100;    0.593570;    0.996000;    0.690867;    0.578749;    0.495727;    0.492169;    0.490320;    0.480066;    0.472494;    0.458226;    0.439364;    0.413354;    0.390256;    0.357160;    0.316797;    0.275220;    0.232258;    0.171812;    0.089327;
