Simulation;Time;PC 0;PC 1;PC 2;PC 3;PC 4;PC 5;PC 6;PC 7;PC 8;PC 9;PC10;PC11;PC12;PC13;PC14;PC15;PC16;PC17;
Nan;Nan;0;0;0;0;0;0;0;0;0;0;0;1;0;0;0;0;0;0;
  0;    0.001276;    1.000000;    0.652707;    0.513999;    0.497822;    0.613524;    1.620676;    2.890006;    3.428163;    3.681685;    4.754272;    6.800315;   20.133762;   31.144809;   57.023748;   89.577676;  108.888756;  244.564625; 4148.324191;
  1;    0.001260;    1.000000;    0.652629;    0.508327;    0.493653;    0.640636;    1.098730;    2.473188;    3.221025;    3.727910;   10.384181;   15.263578;   35.301932;   48.919714;   55.723736;  104.741342;  162.592761;  315.314708;854032.185847;
  2;    0.001825;    1.000000;    0.655554;    0.511463;    0.495227;    0.612613;    1.003439;    4.317843;    5.007522;    7.771331;   12.797323;   16.580459;   26.720202;   30.293226;   38.786687;   51.421855;   96.778964;  177.316946; 3249.632170;
  3;    0.001242;    1.000000;    0.656810;    0.534587;    0.519438;    0.630879;    1.156685;    3.798907;    4.651286;    6.309974;    7.910726;   13.391590;   28.187513;   37.985629;   48.729269;   99.246796;  162.312833;  208.315644;30219.034374;
  4;    0.001889;    1.000000;    0.653067;    0.520058;    0.501296;    0.657340;    0.815146;    3.659720;    8.922568;    9.819864;   10.728901;   16.861320;   27.024165;   28.217239;   31.629925;   40.306956;   84.935676;  186.400140; 2123.109972;
  5;    0.001242;    1.000000;    0.650623;    0.521132;    0.512992;    0.660706;    1.404360;    4.703616;    6.539682;    7.547679;    8.666394;   16.883142;   25.434349;   34.865251;   40.012585;   63.574180;   81.733937;  124.662874;  369.412494;
  6;    0.001267;    1.000000;    0.655035;    0.512090;    0.503116;    1.166587;    2.840915;    4.143614;    4.906074;    5.353584;    7.676464;   12.010106;   22.581145;   25.176225;   28.162255;   44.719979;   67.600342;  205.693585; 3614.318894;
  7;    0.001268;    1.000000;    0.647954;    0.513920;    0.506248;    1.000516;    1.588579;    2.881777;    7.754481;    8.135013;   10.148477;   14.524777;   27.699084;   41.704162;   51.410471;   72.080923;  125.682341;  776.433311;12658763.664821;
  8;    0.001204;    1.000000;    0.652231;    0.523780;    0.516750;    0.621506;    2.555250;    7.429907;    9.013869;   10.406721;   11.918577;   27.411881;   39.504527;   44.456117;   66.570766;   90.169057;  181.287374;  208.776602;27332.688654;
  9;    0.001212;    1.000000;    0.655047;    0.521403;    0.513907;    0.686819;    1.228856;    5.385356;    6.632655;    6.981445;   13.528215;   23.258880;   40.992099;   47.595237;   58.096683;   77.076080;  135.157328; 6600.480446;41209.636113;
 10;    0.001253;    1.000000;    0.655664;    0.519033;    0.504379;    0.634475;    1.192713;    4.581924;    5.321690;    5.886042;   10.580863;   13.479153;   42.116826;   47.865089;   54.832907;   73.666647;  144.202470; 2290.598650; 7849.251222;
 11;    0.001235;    1.000000;    0.660030;    0.524098;    0.516723;    0.921086;    1.390867;    3.850658;    4.470976;    5.569762;    6.970187;   16.428678;   24.822435;   31.013852;   39.354225;   44.876837;   61.485802;  102.780667; 1768.088370;
 12;    0.001240;    1.000000;    0.661397;    0.520660;    0.519989;    0.660855;    1.823082;    3.347876;    4.982101;    7.512481;   18.055615;   34.617335;   45.035399;   53.036312;   87.560160;  111.192674;  269.499381;  394.749010; 1532.085305;
 13;    0.001201;    1.000000;    0.648535;    0.520618;    0.508302;    0.618602;    0.899872;    5.199725;    6.017477;    6.328114;    7.621771;   13.252366;   34.265982;   42.386803;   47.803446;   69.865585;   90.971977;  203.710995;60868.101658;
 14;    0.001198;    1.000000;    0.656785;    0.516302;    0.504137;    1.228014;    1.811793;    3.991958;    5.121961;    6.385324;    8.473920;   13.453397;   26.016045;   28.698768;   32.657304;   44.106993;   53.381458;  153.034488; 2508.070329;
 15;    0.001685;    1.000000;    0.639261;    0.513258;    0.491265;    0.574781;    1.575477;    2.280027;    2.779884;    4.246856;   10.565980;   14.189569;   35.333703;   41.163176;   50.875603;   56.825320;   61.154597;  440.468547; 3681.090537;
 16;    0.001806;    1.000000;    0.657836;    0.524390;    0.517062;    0.720477;    1.634164;    4.630634;    5.848635;    7.249101;    9.616026;   12.327679;   42.611321;   53.094023;   60.483553;   68.627134;   91.185151;   99.469566; 2812.796159;
 17;    0.001308;    1.000000;    0.654163;    0.525206;    0.511129;    0.672747;    0.970731;    4.248950;    5.896589;    7.258390;    9.229871;   16.967043;   25.112794;   38.002691;   57.843455;   81.997623;  137.498208;  165.071782;11898.507535;
 18;    0.001249;    1.000000;    0.661706;    0.533239;    0.524936;    0.781957;    1.143640;    3.293498;    4.270641;   11.335033;   14.682757;   28.924697;   48.281116;   67.011860;   93.430048;  135.537872;  416.702362;  482.702361; 4241.589855;
 19;    0.001252;    1.000000;    0.650886;    0.515334;    0.519353;    1.939557;    2.394827;    7.664562;    8.551527;   12.620365;   19.288983;   23.765576;   45.191953;   53.466245;  109.557951;  161.805146;  205.458049;  367.205761; 1134.875352;
 20;    0.001257;    1.000000;    0.646283;    0.513771;    0.499305;    0.665296;    0.962417;    4.146630;    5.854591;    6.576048;   10.968011;   12.097644;   37.983375;   51.350034;   79.479775;  105.176316;  109.165782;  148.312080;10015.424355;
 21;    0.001873;    1.000000;    0.648019;    0.518567;    0.508984;    0.902020;    1.200566;    4.523899;    5.158708;    7.484369;   13.460935;   17.933942;   39.667250;   43.547068;   75.483461;   92.685924;  113.263782;  340.094485;25285.412735;
 22;    0.001211;    1.000000;    0.649600;    0.517803;    0.512213;    0.778898;    9.758634;   15.633883;   16.981176;   34.577755;   39.103506;   68.757272;   93.937997;  119.900097;  139.796824;  166.343096;  182.440314;  653.427433; 3994.726027;
 23;    0.001268;    1.000000;    0.655109;    0.518885;    0.519533;    0.617080;    0.967084;    4.745803;    5.403613;    6.224585;    7.977486;   15.752970;   32.439947;   40.047941;   44.900144;   76.901363;  112.568694;  142.566604;  471.989354;
 24;    0.001202;    1.000000;    0.649271;    0.509228;    0.495458;    0.698848;    2.067174;    5.523872;    7.657460;    8.035458;    9.755727;   18.361403;   36.309492;   44.080888;   59.837608;  309.114083;  337.076951;  370.763428; 1057.381779;
 25;    0.001236;    1.000000;    0.655778;    0.524067;    0.507653;    0.653936;    1.677476;    5.617899;    6.028142;    6.897958;    9.633121;   12.888473;   31.457524;   49.828995;   66.674239;   74.310113;  183.569673;  330.996590; 1451.651265;
 26;    0.001239;    1.000000;    0.654642;    0.524488;    0.516063;    0.619788;    1.273551;    4.580994;    4.825248;    5.526177;    6.029101;    9.511708;   20.772990;   27.907338;   35.820721;   48.199321;  103.606831;  750.552682;84913.343224;
 27;    0.001228;    1.000000;    0.645352;    0.516398;    0.511559;    0.621520;    1.645742;    5.180999;    5.493381;    9.531315;   11.307385;   12.413423;   27.284561;   30.369186;   49.316928;   64.249218;   89.066576;  290.946718; 1807.079107;
 28;    0.001207;    1.000000;    0.644148;    0.513583;    0.509239;    0.683061;    1.581855;    7.786684;    8.025663;    9.865228;   12.123223;   14.012040;   27.405982;   32.134604;   34.442974;   46.642471;   63.220200;  126.358786; 2023.050576;
 29;    0.001255;    1.000000;    0.636369;    0.504176;    0.495813;    0.684429;    1.003374;    2.565535;    2.988018;    4.060007;    5.921087;   11.251978;   33.233691;   38.902447;   42.722110;   48.608423;   73.378231;  150.031306;177466.011436;
 30;    0.001264;    1.000000;    0.648777;    0.517656;    0.501865;    0.717405;    1.630024;    4.048743;    4.220372;    5.029612;    6.903296;   10.318445;   17.382895;   19.603637;   31.157688;   49.710544;  103.528486;  161.101986;  523.047137;
 31;    0.001230;    1.000000;    0.652050;    0.510360;    0.501040;    0.596579;    0.980098;    6.186580;    7.633105;    7.881121;    9.219398;   16.752070;   27.850455;   31.130612;   35.653211;   40.550394;   57.998567;  298.667721;11611.750810;
 32;    0.001259;    1.000000;    0.659469;    0.518215;    0.505992;    0.620899;    1.208922;    4.248206;    7.456408;    8.410051;    9.928089;   21.738618;   36.860269;   45.098590;   50.022731;   64.857587;  106.561140;  188.635853;  587.356470;
 33;    0.001231;    1.000000;    0.642556;    0.504802;    0.495755;    0.639132;    0.840183;    5.152326;    6.142902;    7.686764;   17.536447;   20.343738;   42.613062;   49.919412;   55.683523;   73.606105;   92.329312;  171.331503;  644.442021;
 34;    0.001272;    1.000000;    0.647373;    0.518082;    0.503945;    0.616362;    2.119674;    4.665369;    6.865876;    8.450490;    9.663437;   17.483810;   31.115410;   47.893627;   60.212263;   93.786151;  202.465504;  415.738206;  863.680553;
 35;    0.001856;    1.000000;    0.654054;    0.513056;    0.507303;    0.737246;    1.263321;    5.828274;    8.034225;   11.431472;   18.930752;   23.024997;   38.041979;   89.907033;   99.096272;  133.935349;  187.037422;  327.669113; 2635.088710;
 36;    0.001221;    1.000000;    0.665530;    0.523633;    0.505319;    0.975818;    1.356506;    4.119291;    4.741348;    9.131076;   15.222638;   19.167693;   44.898133;   53.610689;   59.612396;   88.376133;  120.469032;  245.103941;170522.361138;
 37;    0.001257;    1.000000;    0.656592;    0.522412;    0.499120;    0.659626;    0.942734;    2.702834;    3.311728;    8.339552;   12.105026;   17.581870;   29.763239;   33.643922;   49.414938;   54.980758;   73.877531;  119.515223; 1347.923646;
 38;    0.001474;    1.000000;    0.650684;    0.515574;    0.511507;    0.792057;    1.353543;    3.411623;    4.184652;    6.182992;    7.612090;   12.986132;   27.231813;   36.977971;   39.627933;   46.491132;   66.940348;  158.351562;  668.108351;
 39;    0.001216;    1.000000;    0.661672;    0.529240;    0.517046;    0.691929;    0.873023;    2.515590;    2.810617;    3.014396;    6.999475;   10.859109;   28.230145;   33.987199;   44.866388;   64.860141;   80.345250;  203.463041; 3966.314118;
 40;    0.001235;    1.000000;    0.653796;    0.510085;    0.494113;    0.756343;    2.009444;    3.425520;    4.563926;    4.859869;    7.094380;    9.904679;   20.108948;   29.054557;   41.978551;   52.231416;   92.091384;  143.737128;  369.967389;
 41;    0.001213;    1.000000;    0.653378;    0.512971;    0.508410;    0.689624;    0.884164;    3.192092;    3.951992;    6.306854;   11.849350;   20.451419;   29.404977;   33.461613;   39.290417;   55.107577;   73.777002;  354.076807;  859.438329;
 42;    0.001273;    1.000000;    0.643090;    0.513724;    0.497497;    0.651348;    1.669614;    5.101326;    5.544713;    8.515913;   11.374178;   23.517571;   33.518297;   40.376371;   43.657349;   54.064672;   80.955545;  102.735015;513520.950196;
 43;    0.001200;    1.000000;    0.645368;    0.513691;    0.503928;    0.594536;    1.662148;    5.858400;    8.081736;    8.558282;   11.944382;   15.443742;   24.844006;   29.441973;   37.060000;   46.009684;   66.228269;  187.054086;969646.759079;
 44;    0.001243;    1.000000;    0.655781;    0.510594;    0.506622;    0.746000;    1.471620;    6.632961;    7.407343;    7.706505;    8.844632;   12.584688;   31.109452;   45.078658;   63.776887;   74.311041;  103.654778;  142.376173; 2158.473661;
 45;    0.001798;    1.000000;    0.653004;    0.524383;    0.519551;    0.748860;    1.941472;    7.694458;   11.380487;   12.388710;   18.749850;   23.472580;   31.830763;   37.392734;   56.548482;   85.640855;  172.515043;  317.181095; 9173.818218;
 46;    0.001305;    1.000000;    0.645399;    0.515462;    0.505211;    0.638566;    1.747395;    3.447583;    3.606578;    5.243298;    6.924756;   15.026182;   30.244616;   35.578057;   43.537656;   55.917913;   85.333568;  102.639449; 1050.275979;
 47;    0.001284;    1.000000;    0.646592;    0.525494;    0.510792;    0.806852;    1.399418;    4.117296;    4.866373;    5.568813;    6.748090;   17.101380;   45.027985;   50.716885;   59.943531;   69.907620;  164.469507;  230.146732;  901.549635;
 48;    0.001249;    1.000000;    0.656284;    0.531777;    0.526463;    0.631724;    1.222406;    3.919064;    4.126379;    6.427793;   10.169230;   22.279334;   66.658380;   69.525042;   83.084149;  114.573567;  130.590678;  220.150221;183148.192684;
 49;    0.001253;    1.000000;    0.654227;    0.527002;    0.518495;    0.707631;    1.246404;    5.438125;    6.003764;    7.400538;    9.135555;   14.557638;   23.875907;   27.691549;   40.765554;   62.492082;  178.716303; 1767.267939;13379.394317;
 50;    0.001236;    1.000000;    0.649339;    0.511241;    0.501745;    0.949845;    1.328236;    2.603744;    3.082372;    9.391080;   10.294749;   14.855166;   29.996401;   33.913279;   40.767532;   51.435620;   55.230995;  125.483692; 1348.635475;
 51;    0.001257;    1.000000;    0.642876;    0.513001;    0.498877;    0.887815;    1.286608;    3.468219;    6.954838;    9.549914;   15.111954;   21.443442;   38.646793;   44.007197;   62.603267;   73.437151;  213.107908;  311.211357; 4773.668028;
 52;    0.001264;    1.000000;    0.650720;    0.510932;    0.491853;    1.689727;    2.074833;    4.678547;    5.666849;    8.196272;    9.937374;   14.633209;   37.837674;   43.433138;   52.320049;  104.104288;  135.569744;  332.130793; 2050.344376;
 53;    0.001230;    1.000000;    0.666152;    0.520018;    0.506399;    0.667283;    0.991180;    4.474210;    7.391814;    9.904016;   13.220053;   18.045935;   29.805006;   36.846819;   51.205028;   82.990613;  121.256204;  274.764400; 1104.760613;
 54;    0.001273;    1.000000;    0.651297;    0.495786;    0.490298;    0.804726;    1.427027;    5.570670;    6.758809;    8.379077;    9.728086;   16.311812;   29.150361;   32.138916;   35.433543;   49.839824;   63.190567;  166.698735;  649.497559;
 55;    0.001226;    1.000000;    0.647962;    0.519993;    0.508289;    0.615106;    0.827638;    2.982251;    8.288266;    8.488688;    9.830944;   14.749142;   35.437917;   43.880548;   50.511420;   60.426433;  117.484822;  409.258892; 4948.036538;
 56;    0.001243;    1.000000;    0.651413;    0.510528;    0.496850;    0.605458;    2.090707;    3.205844;    4.349414;    5.256919;    8.677634;   13.636418;   25.977983;   32.329710;   38.319236;   53.632775;   77.305460;  277.336105; 8854.693434;
 57;    0.001271;    1.000000;    0.653787;    0.513159;    0.499019;    0.713301;    1.334453;    3.691074;    3.993530;    6.059632;    9.688077;   17.914017;   25.255184;   35.169420;   42.594784;   53.740137;  130.796445;  178.488999; 3723.387080;
 58;    0.001214;    1.000000;    0.651329;    0.509949;    0.503187;    0.786039;    1.366524;    3.310371;    5.516879;    6.698848;   17.318546;   41.580830;   94.169101;  120.772815;  130.726274;  186.243751;  922.431827; 3570.175777;19723.204737;
 59;    0.001607;    1.000000;    0.655314;    0.518003;    0.501076;    0.864255;    1.679174;    3.844120;    5.736069;    7.333946;    8.807585;   14.645481;   23.651966;   31.324800;   37.452696;   42.242703;   59.095990;  342.706936; 2760.546255;
 60;    0.001622;    1.000000;    0.651477;    0.520825;    0.512954;    0.626445;    1.778361;    6.001148;    8.541023;   17.760297;   18.690689;   20.539613;   44.727304;   54.032724;   77.903800;  734.762518;  857.956412; 1458.418174; 4977.188222;
 61;    0.001691;    1.000000;    0.657602;    0.523098;    0.517797;    0.723947;    1.708106;    4.571981;    6.375139;    7.433336;    8.583790;   10.967582;   33.573656;   38.451525;   59.535394;   72.684644;   96.356552;  747.910592; 1285.092610;
 62;    0.001192;    1.000000;    0.651045;    0.518704;    0.505647;    0.656026;    1.593481;    4.373866;    5.061960;    6.502718;   11.865553;   17.431134;   28.165006;   34.312705;   43.066510;   67.425906;   77.509510;  430.567752; 1066.892581;
 63;    0.001239;    1.000000;    0.647410;    0.501873;    0.494785;    0.647081;    1.234502;    4.692289;    5.486402;    8.839159;   11.198648;   13.912507;   23.956760;   27.765348;   33.773714;   39.342208;  231.719204;  860.446762;39205.993692;
 64;    0.001199;    1.000000;    0.652587;    0.524668;    0.504924;    1.077779;    1.748586;    4.884599;    5.995818;    6.880777;    8.408291;   12.590957;   26.199511;   29.761253;   32.338597;   49.325169;   60.996368;  137.709302; 4117.355411;
 65;    0.001189;    1.000000;    0.658189;    0.518311;    0.510442;    0.610500;    0.950836;    3.325958;    4.013224;    8.056347;   11.275340;   12.777411;   31.929177;   34.039037;   41.179915;   49.546122;   79.981823;  137.995159;  542.913497;
 66;    0.001217;    1.000000;    0.653026;    0.521739;    0.516480;    0.635957;    1.762248;    6.262195;    6.664540;    7.821490;   10.098635;   16.160809;   30.701433;   35.359407;   58.993371;   65.368538;  160.351056;  340.404846;28346.421365;
 67;    0.001219;    1.000000;    0.658377;    0.527006;    0.525161;    0.871289;    1.195760;    3.268909;    4.175961;    4.855304;    6.141812;    9.579625;   32.344062;   36.812311;   43.571177;   78.365171;  110.045873;  178.359431;  504.616420;
 68;    0.001353;    1.000000;    0.651712;    0.516049;    0.509920;    0.700230;    0.863889;    4.950609;    6.067016;   14.754425;   18.420376;   27.289189;   68.205477;   74.655621;  127.482695;  134.827981;  141.279978; 1021.756625; 4726.826197;
 69;    0.001248;    1.000000;    0.663070;    0.529813;    0.512825;    0.662839;    0.909213;    6.428321;    7.550007;    8.701576;   11.429483;   17.276650;   34.032734;   47.589246;   53.448647;   79.935031;  163.816315;  324.936286;32847.393103;
 70;    0.001834;    1.000000;    0.654282;    0.506421;    0.501702;    0.676943;    1.627170;    4.911458;    5.041552;    6.229216;    8.067917;   13.576695;   36.510723;   40.681793;   46.023747;   51.004921;   93.400991;  204.287520;  250.656278;
 71;    0.001368;    1.000000;    0.649185;    0.518175;    0.509017;    0.641575;    1.267197;    3.572039;    3.816207;    4.824260;   17.625819;   23.324959;   39.642344;   41.168570;   49.794275;   64.312565;  100.545377;  346.148306;1823328.150505;
 72;    0.001223;    1.000000;    0.646613;    0.518453;    0.512683;    0.692329;    1.250142;    6.089495;    6.218207;    8.737090;   11.367321;   14.663910;   33.054463;   48.893400;   66.802591;   77.462540;  107.655099;  191.196505; 5275.170390;
 73;    0.001254;    1.000000;    0.646211;    0.513033;    0.503292;    1.429554;    2.396427;    5.002879;    5.064981;    5.461164;    6.239104;   12.564302;   31.552958;   43.890050;   50.498489;   54.777439;   97.059502;  162.596863; 1361.018437;
 74;    0.001230;    1.000000;    0.645965;    0.521340;    0.500809;    0.636208;    1.677604;    4.171484;    5.894999;    6.155888;    8.025246;   15.042775;   29.257416;   31.146005;   37.069188;   40.257599;   54.921407;  291.396921;11883.726840;
 75;    0.001232;    1.000000;    0.651492;    0.499986;    0.485714;    0.639777;    0.849667;    5.310249;    5.942272;    6.106983;   10.394166;   14.312888;   33.009818;   39.723620;   44.380537;   58.822006;   78.680970;  128.472230;  798.620338;
 76;    0.001204;    1.000000;    0.644467;    0.509547;    0.506946;    0.998600;    1.552754;    4.503129;    5.044050;   10.149051;   14.104572;   21.084951;   39.241105;   50.150195;   74.029087;   94.596760;  129.769660;  399.070167;28408.257631;
 77;    0.001210;    1.000000;    0.653295;    0.512979;    0.504613;    0.674131;    2.515987;    3.825602;    6.412436;    7.582283;    8.649824;   13.573537;   33.653206;   38.315881;   55.715285;   64.765672;  121.939909;  262.063791; 4922.448326;
 78;    0.001261;    1.000000;    0.661098;    0.517572;    0.502627;    1.064957;    2.149083;    3.493810;    4.096192;    5.211298;    6.229342;   19.673584;   36.753756;   48.938591;   55.098884;   62.121276;   89.026926; 1003.026442;11885.009163;
 79;    0.001258;    1.000000;    0.652242;    0.514751;    0.509482;    0.845305;    1.380778;    2.961796;    5.040666;    6.782462;   15.210923;   19.125965;   45.409234;   52.649137;   59.232671;   70.281845;  117.005804;  753.503849;14862.498296;
 80;    0.001215;    1.000000;    0.646842;    0.508401;    0.492260;    0.785457;    1.209186;    3.118709;    4.189949;    5.478801;   10.719920;   13.377542;   24.479692;   29.517989;   31.605713;   41.630870;   63.534613;   83.739347;17438.045059;
 81;    0.001250;    1.000000;    0.651513;    0.519264;    0.508587;    0.662038;    1.486226;    5.152304;    5.987358;    8.158232;   10.482431;   12.511359;   22.821412;   30.231128;   63.390209;  106.607471;  122.905185;  908.328455; 1329.213245;
 82;    0.001261;    1.000000;    0.650266;    0.516538;    0.504014;    0.735151;    2.762382;    4.148655;    6.103374;    6.471484;   11.565838;   20.538357;   30.607609;   49.456067;   59.664587;   63.506690;   88.269465;  409.453076; 1880.439367;
 83;    0.001264;    1.000000;    0.660294;    0.527408;    0.518978;    0.680428;    1.064606;    4.812084;    6.435091;    6.983485;    8.520259;   11.524716;   29.266840;   32.586217;   39.749014;   48.024062;  121.896847;  888.915942;351101.684153;
 84;    0.001247;    1.000000;    0.666554;    0.526675;    0.508590;    0.889999;    1.843065;    2.886056;    3.239844;    4.479283;    5.338042;   11.125397;   25.372263;   33.467991;   35.864583;   42.832281;   80.446805;  111.522325; 2669.197152;
 85;    0.001230;    1.000000;    0.658428;    0.522677;    0.516040;    0.660034;    0.963213;    4.275357;    4.517936;    7.602765;   11.878702;   17.837258;   33.703971;   43.933107;   58.359484;  104.820879;  228.792031;  571.772482; 8751.910184;
 86;    0.001241;    1.000000;    0.647715;    0.507133;    0.493387;    1.196298;    1.713098;    3.882394;    5.664936;    6.613821;   11.770267;   12.751337;   19.451574;   23.215195;   26.150073;   33.756998;   54.270681;  120.433680;16809.673319;
 87;    0.001205;    1.000000;    0.649574;    0.513689;    0.504031;    0.677333;    1.312191;    2.694124;    4.951134;    6.214090;    6.907728;   10.058962;   24.799149;   30.666608;   47.879389;   65.783786;   77.246784;  226.605742; 8637.240663;
 88;    0.001257;    1.000000;    0.643091;    0.500215;    0.485907;    0.826084;    1.404561;    8.086852;    8.224705;    9.060112;    9.453875;   15.340889;   36.708995;   49.360859;   59.756880;  104.728813;  133.028764;  747.560527;76634.757793;
 89;    0.001804;    1.000000;    0.650777;    0.517972;    0.497783;    0.596272;    1.574432;    2.518250;    2.824228;    3.442844;    4.276211;   12.270851;   22.019876;   27.879345;   41.960068;   74.306993;  112.718671; 1331.659873; 7405.796252;
 90;    0.001216;    1.000000;    0.657544;    0.523077;    0.513682;    0.717269;    1.241438;    3.214681;    5.071835;    7.335208;    8.814955;   11.913177;   26.454312;   28.629553;   35.707732;   51.027170;   66.247351;  252.326171;95499.330756;
 91;    0.001245;    1.000000;    0.649720;    0.506703;    0.494014;    0.726256;    1.450172;    4.972077;    6.428102;    8.441056;   13.207927;   19.007296;   29.969696;   33.970383;   36.094733;   53.483667;   81.415462;  248.504940; 1024.268198;
 92;    0.001229;    1.000000;    0.653714;    0.521276;    0.504358;    0.707344;    2.757840;    5.854609;    9.116309;   13.900830;   22.310152;   32.851101;   47.812175;   55.575572;   69.286926;   86.618125;   96.337027;  267.695898;  397.128114;
 93;    0.001200;    1.000000;    0.655165;    0.521721;    0.510930;    1.126850;    1.761570;    4.297092;    4.633359;    6.630018;   11.483770;   23.539957;   37.820950;   50.248376;   91.880770;  107.911038;  168.858385;  600.995387;28307.230268;
 94;    0.001262;    1.000000;    0.649042;    0.508478;    0.504631;    0.681668;    1.823992;    3.492972;    4.258727;    7.160915;    8.390689;   13.248627;   27.679286;   30.730020;   37.485275;   59.184556;   69.801114; 1558.604989;256992.977945;
 95;    0.001211;    1.000000;    0.648516;    0.512329;    0.504002;    0.673190;    2.079516;    4.632182;    4.800920;   11.755173;   19.558151;   22.746943;   40.521033;   53.989230;   68.722737;   85.201157;  116.594854;  182.944306; 1427.783714;
 96;    0.001221;    1.000000;    0.646377;    0.506300;    0.498057;    0.768996;    1.679694;    5.630338;    6.476603;   10.117425;   10.986942;   20.734051;   42.229449;   61.351804;   75.349368;   79.258362;  230.419437;  827.576909;39240.556689;
 97;    0.001776;    1.000000;    0.659324;    0.523133;    0.508809;    0.876906;    1.330613;    2.269044;    2.751544;    4.580026;    7.631904;   17.707375;   36.021540;   48.050969;   57.185467;   81.337717;  122.774590;  502.583695;  974.139042;
 98;    0.001237;    1.000000;    0.655202;    0.512065;    0.496751;    0.641822;    1.294101;    3.744220;    4.065743;    5.257115;    7.046166;   15.405307;   27.930060;   35.286512;   42.711249;   62.301845;   77.367372;  234.831536;  451.895265;
 99;    0.001214;    1.000000;    0.648326;    0.517397;    0.501157;    0.772364;    1.319152;    2.679945;    2.808045;    4.681921;    6.935332;   20.386631;   34.343825;   38.015526;   42.372956;   57.478354;   70.423233;  573.804263; 2571.212588;
100;    0.001268;    1.000000;    0.650499;    0.522551;    0.512589;    1.087256;    1.429070;    3.683300;    3.936420;    5.556862;   12.553771;   16.369558;   39.649985;   46.785573;   61.871651;   75.928299;  490.491869; 1063.387161;701694.884036;
