Simulation;Time;PC 0;PC 1;PC 2;PC 3;PC 4;PC 5;PC 6;PC 7;PC 8;PC 9;PC10;PC11;PC12;PC13;PC14;PC15;PC16;PC17;
Nan;Nan;0;0;0;0;0;0;0;0;0;0;0;0;0;1;0;0;0;0;
  0;    0.895514;    0.991994;    0.743412;    0.605195;    0.542511;    0.558242;    0.566709;    0.570157;    0.564055;    0.556556;    0.575387;    0.571084;    0.566234;    0.555085;    0.537585;    0.542020;    0.548445;    0.542936;    0.542015;
  1;    0.874478;    1.025442;    0.772880;    0.618407;    0.554342;    0.583945;    0.583482;    0.587500;    0.590290;    0.577542;    0.579045;    0.588962;    0.583105;    0.570811;    0.551849;    0.557072;    0.559737;    0.559641;    0.554999;
  2;    0.892447;    1.028211;    0.778799;    0.628869;    0.559663;    0.584655;    0.603031;    0.598001;    0.591492;    0.572475;    0.583067;    0.590113;    0.582896;    0.576803;    0.556433;    0.565209;    0.567380;    0.562362;    0.559531;
  3;    0.878887;    0.992648;    0.753464;    0.634807;    0.569329;    0.589239;    0.607446;    0.611389;    0.604763;    0.581948;    0.595453;    0.602845;    0.600465;    0.585096;    0.564626;    0.571441;    0.575902;    0.576494;    0.572079;
  4;    0.987438;    1.029359;    0.775952;    0.643661;    0.567059;    0.590969;    0.602043;    0.615552;    0.601156;    0.579928;    0.589790;    0.588694;    0.596408;    0.583258;    0.564658;    0.569567;    0.575360;    0.571558;    0.569593;
  5;    0.900786;    0.998753;    0.745703;    0.613635;    0.558704;    0.585019;    0.602621;    0.609803;    0.602074;    0.578693;    0.583383;    0.585865;    0.578434;    0.573640;    0.554485;    0.559827;    0.563173;    0.565722;    0.558289;
  6;    0.887259;    1.008885;    0.760921;    0.614807;    0.556132;    0.575951;    0.593568;    0.596873;    0.588370;    0.575079;    0.579557;    0.588636;    0.583483;    0.571075;    0.553066;    0.560547;    0.561713;    0.558917;    0.558403;
  7;    0.879434;    1.013149;    0.757299;    0.621541;    0.561787;    0.583408;    0.598725;    0.607269;    0.582796;    0.578417;    0.580545;    0.590927;    0.587347;    0.579327;    0.557918;    0.564847;    0.567832;    0.565174;    0.564724;
  8;    0.889139;    0.976859;    0.730894;    0.604779;    0.551480;    0.574409;    0.596747;    0.600364;    0.582539;    0.563380;    0.577422;    0.584650;    0.577805;    0.562127;    0.547219;    0.551511;    0.556719;    0.557432;    0.554534;
  9;    0.897233;    1.007597;    0.762319;    0.623895;    0.566679;    0.591288;    0.606389;    0.615275;    0.604987;    0.579366;    0.592144;    0.595389;    0.594433;    0.588223;    0.565756;    0.572378;    0.577792;    0.576558;    0.571512;
 10;    0.893119;    1.020530;    0.772848;    0.630984;    0.565273;    0.593122;    0.601860;    0.613082;    0.603630;    0.581820;    0.583745;    0.588789;    0.591430;    0.580707;    0.562638;    0.569938;    0.574971;    0.573212;    0.568007;
 11;    0.870154;    0.994480;    0.758298;    0.616939;    0.560408;    0.583057;    0.607997;    0.605245;    0.592956;    0.575530;    0.594853;    0.605871;    0.591421;    0.579867;    0.558876;    0.561760;    0.564860;    0.562635;    0.560372;
 12;    0.872199;    0.977951;    0.748099;    0.608321;    0.557901;    0.579490;    0.591135;    0.604074;    0.590095;    0.579947;    0.581741;    0.589174;    0.587042;    0.582112;    0.551993;    0.559546;    0.561627;    0.560764;    0.558222;
 13;    0.879278;    1.005185;    0.745148;    0.616613;    0.557409;    0.575719;    0.598761;    0.602514;    0.598541;    0.573080;    0.583498;    0.595080;    0.587858;    0.587273;    0.553878;    0.560747;    0.565663;    0.565870;    0.558630;
 14;    0.871061;    0.983813;    0.745786;    0.613686;    0.545239;    0.569178;    0.579910;    0.580447;    0.571915;    0.566578;    0.575255;    0.589708;    0.582232;    0.567029;    0.543034;    0.548755;    0.551614;    0.553220;    0.548834;
 15;    0.881771;    1.008508;    0.735571;    0.607857;    0.540236;    0.556896;    0.571434;    0.582065;    0.570026;    0.555588;    0.563217;    0.564592;    0.564566;    0.557808;    0.537893;    0.544603;    0.546484;    0.546496;    0.544586;
 16;    0.889524;    1.010143;    0.768941;    0.633010;    0.571779;    0.592535;    0.606247;    0.609811;    0.610013;    0.590630;    0.604198;    0.606868;    0.606543;    0.588802;    0.567138;    0.572524;    0.576965;    0.578235;    0.573508;
 17;    0.883021;    0.980539;    0.742517;    0.624416;    0.551676;    0.578827;    0.586067;    0.589807;    0.589733;    0.574738;    0.573203;    0.586193;    0.581758;    0.574061;    0.546954;    0.552619;    0.556558;    0.553193;    0.549188;
 18;    0.908114;    0.959502;    0.734085;    0.610673;    0.556891;    0.581941;    0.592446;    0.591193;    0.585136;    0.570612;    0.576825;    0.588375;    0.593184;    0.573253;    0.553817;    0.560983;    0.565367;    0.563490;    0.561048;
 19;    0.887610;    0.984465;    0.731286;    0.596440;    0.554951;    0.578161;    0.597743;    0.607702;    0.592533;    0.569398;    0.588162;    0.591944;    0.587911;    0.569400;    0.551511;    0.559655;    0.561355;    0.560557;    0.556929;
 20;    0.860405;    1.025539;    0.756567;    0.624748;    0.559822;    0.586103;    0.606793;    0.605391;    0.603669;    0.575407;    0.586493;    0.597174;    0.592035;    0.578625;    0.556447;    0.564977;    0.567424;    0.568779;    0.565872;
 21;    0.890489;    1.012218;    0.747327;    0.619473;    0.558628;    0.577802;    0.593362;    0.589150;    0.586177;    0.577400;    0.587817;    0.589422;    0.583518;    0.571795;    0.554719;    0.559654;    0.564397;    0.564758;    0.559394;
 22;    0.885579;    1.013247;    0.753288;    0.618739;    0.567670;    0.586559;    0.603815;    0.596460;    0.594123;    0.579161;    0.590067;    0.596355;    0.592836;    0.584665;    0.563684;    0.568855;    0.573044;    0.573056;    0.569576;
 23;    0.988729;    0.992577;    0.745571;    0.609044;    0.564516;    0.592174;    0.613585;    0.606951;    0.601752;    0.578107;    0.588434;    0.595722;    0.587145;    0.583273;    0.560602;    0.567113;    0.569976;    0.567038;    0.567341;
 24;    0.888658;    1.027952;    0.774125;    0.628229;    0.563655;    0.587568;    0.603802;    0.600400;    0.596430;    0.577640;    0.595356;    0.601716;    0.591397;    0.579417;    0.560815;    0.566107;    0.570286;    0.572446;    0.567194;
 25;    0.888210;    0.988030;    0.748957;    0.616373;    0.551640;    0.580346;    0.588126;    0.588734;    0.581877;    0.572276;    0.576157;    0.579862;    0.584607;    0.564903;    0.547067;    0.552870;    0.554167;    0.552771;    0.551974;
 26;    0.885862;    1.008285;    0.759423;    0.626890;    0.569973;    0.592670;    0.611528;    0.623121;    0.605733;    0.582687;    0.600355;    0.602054;    0.592586;    0.578919;    0.565976;    0.573409;    0.577104;    0.573144;    0.568745;
 27;    0.890188;    1.010047;    0.746113;    0.616699;    0.562269;    0.582928;    0.599816;    0.611456;    0.591803;    0.574533;    0.588636;    0.587731;    0.588771;    0.575573;    0.557812;    0.563317;    0.566933;    0.566091;    0.561328;
 28;    0.868224;    1.012569;    0.744108;    0.611866;    0.558128;    0.585183;    0.597757;    0.593472;    0.589441;    0.569812;    0.586908;    0.581831;    0.579514;    0.571627;    0.554357;    0.561177;    0.565504;    0.562961;    0.559182;
 29;    0.864496;    1.031514;    0.749018;    0.614174;    0.556711;    0.585141;    0.595474;    0.595482;    0.587079;    0.570525;    0.582300;    0.578444;    0.574517;    0.566496;    0.551330;    0.559242;    0.562586;    0.559836;    0.557009;
 30;    0.883428;    1.014832;    0.756848;    0.625026;    0.559515;    0.586084;    0.593549;    0.597701;    0.591194;    0.571500;    0.580634;    0.595051;    0.586117;    0.584504;    0.553696;    0.558842;    0.563153;    0.566571;    0.562166;
 31;    0.869983;    1.015496;    0.760053;    0.614753;    0.557036;    0.587651;    0.601543;    0.598822;    0.587311;    0.575258;    0.586556;    0.593943;    0.595785;    0.578344;    0.555926;    0.561247;    0.565129;    0.566293;    0.558969;
 32;    0.873117;    0.998549;    0.770235;    0.613868;    0.556974;    0.581419;    0.597969;    0.601668;    0.592538;    0.580076;    0.588057;    0.592572;    0.585516;    0.582585;    0.555163;    0.562709;    0.566304;    0.566008;    0.560526;
 33;    0.860783;    1.009003;    0.741170;    0.598958;    0.545793;    0.561584;    0.568813;    0.578907;    0.582836;    0.559631;    0.573929;    0.572724;    0.572559;    0.560406;    0.543918;    0.551642;    0.553118;    0.551078;    0.547478;
 34;    0.879118;    1.027936;    0.757741;    0.623434;    0.561953;    0.579415;    0.600839;    0.603048;    0.599073;    0.578419;    0.591201;    0.591168;    0.588396;    0.580233;    0.558848;    0.567117;    0.570134;    0.572663;    0.562493;
 35;    0.877070;    1.000249;    0.754198;    0.613308;    0.559560;    0.586182;    0.601468;    0.598415;    0.591904;    0.570850;    0.582913;    0.589058;    0.592292;    0.580365;    0.558532;    0.564468;    0.567996;    0.566302;    0.559966;
 36;    0.863848;    0.977062;    0.758535;    0.618112;    0.548927;    0.580056;    0.595135;    0.589688;    0.589472;    0.564559;    0.575233;    0.581396;    0.576524;    0.567879;    0.549412;    0.558359;    0.560355;    0.557622;    0.554236;
 37;    0.860042;    1.000878;    0.759980;    0.624773;    0.548889;    0.582026;    0.585760;    0.597620;    0.580298;    0.571025;    0.575114;    0.581705;    0.571812;    0.565198;    0.548385;    0.556807;    0.556924;    0.558511;    0.551671;
 38;    0.870312;    0.995410;    0.740572;    0.607562;    0.553637;    0.577283;    0.590016;    0.589945;    0.575202;    0.567145;    0.589201;    0.585043;    0.579758;    0.573281;    0.548382;    0.553729;    0.559582;    0.559557;    0.557197;
 39;    0.880134;    0.965317;    0.735472;    0.609941;    0.548310;    0.570701;    0.582289;    0.586878;    0.588955;    0.568596;    0.578728;    0.582627;    0.577797;    0.567534;    0.544270;    0.550054;    0.555798;    0.555384;    0.548408;
 40;    0.893472;    1.020730;    0.772764;    0.618592;    0.553205;    0.578791;    0.594944;    0.596028;    0.592168;    0.569658;    0.580927;    0.586652;    0.590686;    0.568914;    0.548309;    0.555599;    0.558351;    0.559568;    0.555327;
 41;    0.881699;    0.995842;    0.746941;    0.602167;    0.552052;    0.574215;    0.578217;    0.577681;    0.574993;    0.561543;    0.570887;    0.580664;    0.577554;    0.566727;    0.548549;    0.556467;    0.557179;    0.556120;    0.551245;
 42;    0.853786;    1.025946;    0.749620;    0.619209;    0.553096;    0.570449;    0.588625;    0.592957;    0.590754;    0.569102;    0.579861;    0.581703;    0.581512;    0.569478;    0.549727;    0.555073;    0.559270;    0.559607;    0.554819;
 43;    0.892926;    1.012906;    0.749176;    0.614628;    0.556563;    0.581366;    0.591024;    0.594107;    0.584737;    0.567778;    0.576545;    0.580992;    0.580679;    0.567843;    0.552896;    0.559204;    0.564615;    0.559827;    0.559933;
 44;    0.874042;    1.007583;    0.760814;    0.611218;    0.560608;    0.590039;    0.607175;    0.610496;    0.591015;    0.569452;    0.588528;    0.589539;    0.589570;    0.575293;    0.557840;    0.564663;    0.567783;    0.567194;    0.561823;
 45;    0.882861;    0.979245;    0.731152;    0.605017;    0.551841;    0.577368;    0.592691;    0.587445;    0.573686;    0.565228;    0.575841;    0.581076;    0.583244;    0.570477;    0.548274;    0.552640;    0.556737;    0.557873;    0.554259;
 46;    0.873814;    1.013193;    0.748532;    0.612414;    0.553304;    0.575882;    0.589926;    0.592881;    0.583981;    0.562490;    0.578455;    0.575714;    0.575427;    0.566164;    0.548995;    0.555763;    0.558910;    0.556723;    0.552547;
 47;    0.864750;    1.018757;    0.752918;    0.630486;    0.569900;    0.593824;    0.612047;    0.603380;    0.606540;    0.585612;    0.600919;    0.606206;    0.605882;    0.580421;    0.566461;    0.573261;    0.577485;    0.575721;    0.571818;
 48;    0.861610;    0.979150;    0.740314;    0.617811;    0.563255;    0.579157;    0.598196;    0.605107;    0.595773;    0.575280;    0.592886;    0.601648;    0.593363;    0.582768;    0.561028;    0.567666;    0.572773;    0.571567;    0.565244;
 49;    0.870641;    0.984969;    0.740801;    0.616941;    0.562580;    0.586572;    0.597484;    0.594559;    0.588325;    0.573973;    0.585698;    0.586543;    0.579841;    0.575156;    0.556302;    0.562977;    0.566788;    0.565374;    0.558680;
 50;    0.852910;    1.008404;    0.750731;    0.610347;    0.552934;    0.572678;    0.591464;    0.593726;    0.583178;    0.569461;    0.580289;    0.584682;    0.579920;    0.566674;    0.549989;    0.554571;    0.558094;    0.556817;    0.557007;
 51;    0.874474;    1.027953;    0.764323;    0.630475;    0.565671;    0.591344;    0.599223;    0.602536;    0.598311;    0.576665;    0.589576;    0.597989;    0.596231;    0.580300;    0.562864;    0.569722;    0.570839;    0.570729;    0.567113;
 52;    0.879353;    1.005601;    0.755418;    0.616021;    0.546350;    0.567289;    0.584918;    0.584175;    0.573099;    0.565604;    0.569961;    0.574320;    0.575911;    0.564096;    0.543386;    0.549960;    0.551877;    0.552108;    0.545349;
 53;    0.868211;    0.988198;    0.771289;    0.616545;    0.555210;    0.576426;    0.586385;    0.586007;    0.590981;    0.568222;    0.580949;    0.582262;    0.595129;    0.586993;    0.552266;    0.559108;    0.563071;    0.561796;    0.557410;
 54;    0.881718;    1.030219;    0.772203;    0.602965;    0.552193;    0.580347;    0.592088;    0.590491;    0.592625;    0.565514;    0.582868;    0.581787;    0.570784;    0.567802;    0.548083;    0.556534;    0.558620;    0.556548;    0.553759;
 55;    1.028328;    0.986315;    0.731080;    0.605274;    0.548814;    0.576956;    0.581776;    0.582532;    0.581497;    0.566864;    0.576541;    0.588923;    0.588133;    0.570447;    0.546305;    0.552757;    0.554777;    0.555566;    0.551029;
 56;    0.891917;    1.006708;    0.750873;    0.608328;    0.547796;    0.573177;    0.585963;    0.581783;    0.591382;    0.574792;    0.581452;    0.585543;    0.581222;    0.565399;    0.544751;    0.551757;    0.555194;    0.553373;    0.549042;
 57;    0.889698;    1.025037;    0.771527;    0.625285;    0.559208;    0.583320;    0.597514;    0.600550;    0.598932;    0.576736;    0.580117;    0.585797;    0.587617;    0.584477;    0.556918;    0.563579;    0.568979;    0.566082;    0.565354;
 58;    0.879235;    1.010459;    0.756720;    0.611097;    0.558887;    0.589320;    0.591564;    0.596224;    0.594513;    0.570621;    0.586617;    0.590579;    0.584718;    0.582124;    0.556959;    0.565661;    0.566778;    0.569081;    0.562157;
 59;    0.879446;    0.995906;    0.754293;    0.625167;    0.550403;    0.570687;    0.582042;    0.588004;    0.594280;    0.573763;    0.576412;    0.582190;    0.583231;    0.570551;    0.547266;    0.554560;    0.556257;    0.557790;    0.554880;
 60;    0.899650;    1.000363;    0.749709;    0.614989;    0.559743;    0.584625;    0.602573;    0.607130;    0.587100;    0.571711;    0.583801;    0.595761;    0.589439;    0.574640;    0.558417;    0.566451;    0.567644;    0.567533;    0.561101;
 61;    0.876856;    0.991858;    0.745921;    0.608409;    0.560105;    0.581286;    0.607862;    0.603956;    0.593254;    0.576581;    0.588477;    0.592258;    0.590077;    0.579062;    0.555788;    0.561869;    0.565363;    0.565806;    0.562350;
 62;    0.879642;    0.991378;    0.741004;    0.615711;    0.548834;    0.578547;    0.584892;    0.584995;    0.578297;    0.562044;    0.580596;    0.591345;    0.588317;    0.565298;    0.544303;    0.548587;    0.553616;    0.552837;    0.547264;
 63;    0.880645;    1.019900;    0.752406;    0.602974;    0.549128;    0.570973;    0.579045;    0.588664;    0.583726;    0.566271;    0.575580;    0.586703;    0.573456;    0.558834;    0.546620;    0.552746;    0.553741;    0.556776;    0.552808;
 64;    0.896754;    1.010017;    0.756633;    0.628032;    0.559228;    0.578108;    0.599360;    0.603457;    0.594620;    0.578029;    0.589343;    0.592910;    0.587466;    0.575436;    0.558727;    0.567367;    0.568314;    0.568776;    0.563432;
 65;    0.892033;    0.976137;    0.740955;    0.600477;    0.547226;    0.573826;    0.590460;    0.584467;    0.573054;    0.558640;    0.568879;    0.575945;    0.570171;    0.558246;    0.543689;    0.550618;    0.557844;    0.557253;    0.548765;
 66;    0.890358;    0.993459;    0.746960;    0.616758;    0.560945;    0.593030;    0.594515;    0.598487;    0.594384;    0.577656;    0.584061;    0.589111;    0.585889;    0.574928;    0.556064;    0.565177;    0.565093;    0.566152;    0.560979;
 67;    0.879159;    0.974254;    0.736910;    0.606606;    0.562906;    0.581080;    0.599583;    0.604562;    0.587124;    0.574610;    0.585740;    0.590790;    0.588152;    0.587690;    0.557138;    0.564552;    0.566505;    0.566025;    0.560626;
 68;    0.875591;    0.999398;    0.747957;    0.614875;    0.559843;    0.582808;    0.597833;    0.599046;    0.600162;    0.574387;    0.584484;    0.594115;    0.591497;    0.572487;    0.556639;    0.559273;    0.564283;    0.562017;    0.558285;
 69;    0.883077;    0.988828;    0.757290;    0.623970;    0.558482;    0.584652;    0.595888;    0.596476;    0.591955;    0.576251;    0.587942;    0.594643;    0.592352;    0.583332;    0.557152;    0.561945;    0.566356;    0.566173;    0.563187;
 70;    0.977440;    1.018352;    0.767947;    0.611582;    0.559079;    0.582473;    0.602344;    0.606682;    0.591355;    0.573540;    0.582299;    0.589956;    0.579779;    0.572584;    0.556779;    0.566848;    0.569050;    0.570133;    0.567585;
 71;    0.868244;    0.997949;    0.740937;    0.607653;    0.555242;    0.568227;    0.578673;    0.601309;    0.597515;    0.571481;    0.586060;    0.582691;    0.581323;    0.568987;    0.552332;    0.558165;    0.560403;    0.559460;    0.558867;
 72;    0.878282;    0.999797;    0.737852;    0.612002;    0.559732;    0.585222;    0.602626;    0.603853;    0.598202;    0.568862;    0.585651;    0.592336;    0.592956;    0.577185;    0.555713;    0.562035;    0.562720;    0.562329;    0.559061;
 73;    0.870310;    1.034440;    0.767478;    0.632201;    0.573100;    0.599562;    0.609968;    0.612051;    0.614523;    0.586435;    0.600981;    0.607510;    0.601699;    0.594950;    0.568624;    0.575820;    0.577230;    0.577106;    0.572002;
 74;    0.876203;    1.015865;    0.748016;    0.624664;    0.552445;    0.575819;    0.585370;    0.587898;    0.585265;    0.570805;    0.587599;    0.581917;    0.577256;    0.570836;    0.551277;    0.559479;    0.558773;    0.560808;    0.554309;
 75;    0.902261;    1.009604;    0.760663;    0.602880;    0.539784;    0.572225;    0.575956;    0.577011;    0.576821;    0.552306;    0.572816;    0.578867;    0.582591;    0.561671;    0.538313;    0.545739;    0.546703;    0.547963;    0.546959;
 76;    0.880848;    1.008463;    0.740212;    0.603968;    0.553437;    0.577404;    0.591694;    0.595085;    0.584109;    0.565325;    0.578614;    0.579365;    0.574947;    0.565260;    0.549734;    0.555900;    0.562155;    0.557471;    0.554982;
 77;    0.885112;    0.973215;    0.731796;    0.593086;    0.538109;    0.555643;    0.570924;    0.569680;    0.570198;    0.555727;    0.567589;    0.576347;    0.572748;    0.559775;    0.535499;    0.540776;    0.543382;    0.543012;    0.540635;
 78;    0.881235;    0.995561;    0.761107;    0.616243;    0.550145;    0.576305;    0.593615;    0.587851;    0.583275;    0.564938;    0.579763;    0.588944;    0.579205;    0.564600;    0.549509;    0.553776;    0.556909;    0.557345;    0.554140;
 79;    0.895409;    1.003395;    0.750657;    0.609534;    0.558492;    0.578985;    0.590178;    0.590803;    0.581119;    0.569587;    0.583645;    0.583910;    0.576290;    0.575576;    0.554513;    0.561111;    0.563292;    0.563459;    0.554909;
 80;    0.908826;    0.996940;    0.740130;    0.599811;    0.535496;    0.555630;    0.572416;    0.569364;    0.560201;    0.553172;    0.564177;    0.568345;    0.559885;    0.548240;    0.532100;    0.537525;    0.540275;    0.538222;    0.534271;
 81;    0.890060;    0.982718;    0.735877;    0.608562;    0.548067;    0.574313;    0.587292;    0.584868;    0.583616;    0.562299;    0.574295;    0.577240;    0.580054;    0.567547;    0.545337;    0.550927;    0.555744;    0.555737;    0.550376;
 82;    0.877835;    0.984098;    0.733435;    0.600508;    0.543067;    0.571177;    0.583306;    0.580939;    0.573478;    0.555530;    0.574074;    0.578147;    0.571721;    0.558772;    0.539875;    0.546593;    0.549005;    0.548774;    0.545856;
 83;    0.866212;    0.961092;    0.729811;    0.600741;    0.549082;    0.571539;    0.583996;    0.588265;    0.584770;    0.567270;    0.579165;    0.581092;    0.578542;    0.562898;    0.546544;    0.553663;    0.557742;    0.556758;    0.553359;
 84;    0.885686;    0.987508;    0.764503;    0.624820;    0.557639;    0.576672;    0.582052;    0.589160;    0.596184;    0.575968;    0.585978;    0.596330;    0.592403;    0.576709;    0.554797;    0.560721;    0.565521;    0.563975;    0.560469;
 85;    0.875403;    0.995368;    0.756519;    0.619788;    0.563663;    0.586461;    0.604062;    0.607790;    0.606842;    0.579431;    0.595600;    0.598800;    0.594632;    0.584349;    0.560222;    0.567709;    0.571228;    0.569648;    0.566982;
 86;    0.886787;    1.025496;    0.757073;    0.611076;    0.550880;    0.577528;    0.588494;    0.605700;    0.587018;    0.567229;    0.577094;    0.578939;    0.583406;    0.559396;    0.547483;    0.552913;    0.554007;    0.556156;    0.551364;
 87;    0.882656;    1.005609;    0.745783;    0.609313;    0.555110;    0.577384;    0.586666;    0.592352;    0.584861;    0.574256;    0.581459;    0.589174;    0.582823;    0.567927;    0.548595;    0.557494;    0.556367;    0.555891;    0.552521;
 88;    0.887630;    1.031042;    0.761715;    0.616883;    0.547834;    0.576193;    0.592428;    0.593414;    0.582731;    0.563657;    0.579166;    0.581987;    0.570734;    0.557341;    0.545623;    0.551068;    0.553804;    0.555581;    0.549111;
 89;    0.889403;    1.016601;    0.762623;    0.624784;    0.554451;    0.575855;    0.599029;    0.595823;    0.582550;    0.565910;    0.584396;    0.588520;    0.583582;    0.569672;    0.548690;    0.554839;    0.558792;    0.555556;    0.552650;
 90;    0.873345;    0.994193;    0.753602;    0.613694;    0.560485;    0.580357;    0.591884;    0.604743;    0.592749;    0.578015;    0.587815;    0.588379;    0.590276;    0.588802;    0.557770;    0.567506;    0.570450;    0.569613;    0.561781;
 91;    0.905185;    1.020129;    0.761561;    0.611941;    0.550765;    0.569694;    0.583013;    0.594393;    0.583465;    0.562994;    0.573470;    0.581424;    0.576562;    0.563112;    0.547866;    0.554375;    0.558255;    0.559535;    0.552520;
 92;    0.893097;    0.996722;    0.747919;    0.618841;    0.550209;    0.573122;    0.583366;    0.591127;    0.582288;    0.568822;    0.578355;    0.583218;    0.577059;    0.567028;    0.548922;    0.555851;    0.556227;    0.559828;    0.553966;
 93;    0.884333;    1.003703;    0.755174;    0.623681;    0.561563;    0.586063;    0.596348;    0.601514;    0.604967;    0.578287;    0.588356;    0.595758;    0.586207;    0.580104;    0.558353;    0.564883;    0.569049;    0.571127;    0.565651;
 94;    0.878395;    1.001218;    0.747900;    0.601881;    0.551966;    0.572043;    0.583534;    0.586817;    0.582517;    0.563355;    0.575539;    0.574467;    0.575725;    0.563629;    0.546326;    0.552804;    0.554724;    0.554969;    0.550887;
 95;    0.889897;    1.016517;    0.754707;    0.617250;    0.559912;    0.581439;    0.602403;    0.593293;    0.590574;    0.577243;    0.595653;    0.605436;    0.601466;    0.576680;    0.557621;    0.565375;    0.566733;    0.567225;    0.562170;
 96;    0.880663;    1.016671;    0.751238;    0.607054;    0.548619;    0.580648;    0.593883;    0.594952;    0.580170;    0.559955;    0.573787;    0.568723;    0.568984;    0.568811;    0.547579;    0.553837;    0.554974;    0.556206;    0.552346;
 97;    0.886808;    1.016826;    0.778596;    0.636843;    0.572305;    0.583097;    0.597298;    0.605761;    0.602015;    0.585261;    0.593420;    0.601268;    0.604395;    0.595315;    0.568583;    0.576453;    0.577433;    0.577165;    0.573028;
 98;    0.892382;    1.009255;    0.762750;    0.617751;    0.551434;    0.575782;    0.582593;    0.593940;    0.585082;    0.568066;    0.577608;    0.584061;    0.585766;    0.571519;    0.549200;    0.557014;    0.560029;    0.560202;    0.554916;
 99;    0.884953;    1.003550;    0.739677;    0.608851;    0.547110;    0.570419;    0.586567;    0.593637;    0.587145;    0.567233;    0.580723;    0.586693;    0.578949;    0.577287;    0.546063;    0.555025;    0.557723;    0.558883;    0.554289;
100;    0.879564;    0.992106;    0.737139;    0.613723;    0.552393;    0.576167;    0.589196;    0.591370;    0.596558;    0.572509;    0.584308;    0.581633;    0.577745;    0.565690;    0.550426;    0.555309;    0.560511;    0.560908;    0.553946;
