Simulation;Time;PC 0;PC 1;PC 2;PC 3;PC 4;PC 5;PC 6;PC 7;PC 8;PC 9;PC10;PC11;PC12;PC13;PC14;PC15;PC16;PC17;
Nan;Nan;0;0;0;0;0;0;0;0;0;0;0;1;0;0;0;0;0;0;
  0;    1.050007;    0.991594;    0.639910;    0.469728;    0.396134;    0.362306;    0.323343;    0.264205;    0.243658;    0.216570;    0.182032;    0.149482;    0.092488;    0.086771;    0.079666;    0.073193;    0.058735;    0.049458;    0.030874;
  1;    1.037777;    1.024066;    0.664470;    0.477882;    0.403195;    0.382171;    0.340561;    0.279376;    0.272118;    0.254094;    0.223543;    0.167886;    0.093345;    0.088056;    0.081061;    0.069234;    0.061546;    0.044932;    0.023970;
  2;    1.033043;    1.023521;    0.671330;    0.486891;    0.408008;    0.384942;    0.338962;    0.270952;    0.259150;    0.231721;    0.188432;    0.157903;    0.092622;    0.089768;    0.083100;    0.072974;    0.061269;    0.045262;    0.025189;
  3;    1.062056;    0.983927;    0.645467;    0.492040;    0.415124;    0.395613;    0.351880;    0.274262;    0.258711;    0.237170;    0.208283;    0.156791;    0.092903;    0.088243;    0.081843;    0.073925;    0.065863;    0.053884;    0.032399;
  4;    1.057146;    1.026857;    0.667294;    0.498642;    0.416660;    0.387625;    0.334159;    0.271067;    0.249513;    0.223728;    0.198491;    0.159718;    0.094360;    0.091618;    0.087454;    0.081394;    0.069776;    0.047557;    0.027281;
  5;    1.055533;    1.002453;    0.644833;    0.478934;    0.411646;    0.388379;    0.347847;    0.275273;    0.260079;    0.229014;    0.202394;    0.147309;    0.091005;    0.086711;    0.080451;    0.075592;    0.066642;    0.049357;    0.027354;
  6;    1.052141;    1.007376;    0.655498;    0.475677;    0.405446;    0.380520;    0.335565;    0.265333;    0.253467;    0.238165;    0.201105;    0.149395;    0.094219;    0.090049;    0.084503;    0.074697;    0.061735;    0.038565;    0.023880;
  7;    1.038441;    1.015271;    0.653849;    0.483745;    0.413434;    0.376012;    0.336937;    0.281527;    0.253618;    0.230475;    0.208107;    0.160476;    0.089574;    0.086756;    0.081869;    0.073518;    0.065379;    0.051892;    0.032390;
  8;    1.049237;    0.976102;    0.628508;    0.470075;    0.402944;    0.370542;    0.324164;    0.264982;    0.249577;    0.231707;    0.197069;    0.145806;    0.090985;    0.088952;    0.081518;    0.074749;    0.066277;    0.051464;    0.029997;
  9;    1.044525;    1.004753;    0.657115;    0.485370;    0.415118;    0.392877;    0.352384;    0.270827;    0.261300;    0.242480;    0.211775;    0.154193;    0.092017;    0.088909;    0.080805;    0.073427;    0.060418;    0.047299;    0.028938;
 10;    1.038531;    1.015723;    0.664064;    0.488554;    0.412110;    0.382306;    0.347846;    0.270267;    0.260028;    0.243547;    0.201670;    0.162588;    0.093742;    0.088177;    0.082396;    0.076600;    0.062687;    0.045537;    0.026679;
 11;    1.037107;    0.992090;    0.652790;    0.479977;    0.411306;    0.379750;    0.347422;    0.270367;    0.258771;    0.240522;    0.206076;    0.167729;    0.096384;    0.088845;    0.081377;    0.076629;    0.064842;    0.053581;    0.030696;
 12;    1.038372;    0.973855;    0.646053;    0.472548;    0.408780;    0.379399;    0.336911;    0.276044;    0.255297;    0.228363;    0.194528;    0.149022;    0.090837;    0.086003;    0.079117;    0.075274;    0.064491;    0.048440;    0.025807;
 13;    1.043604;    1.007495;    0.639928;    0.476432;    0.406447;    0.381112;    0.332744;    0.268779;    0.251285;    0.228317;    0.201834;    0.156710;    0.092986;    0.089203;    0.082964;    0.075861;    0.062476;    0.050049;    0.029240;
 14;    1.042307;    0.980291;    0.640832;    0.474565;    0.399940;    0.377021;    0.336618;    0.260079;    0.250943;    0.224251;    0.191765;    0.149894;    0.092649;    0.089074;    0.084536;    0.078145;    0.067392;    0.047899;    0.028174;
 15;    1.057308;    1.016677;    0.633262;    0.472811;    0.396298;    0.367692;    0.332929;    0.278502;    0.267120;    0.236859;    0.192377;    0.155026;    0.088509;    0.084289;    0.078151;    0.069645;    0.061303;    0.049512;    0.028056;
 16;    1.053447;    1.005405;    0.661439;    0.489567;    0.418238;    0.387149;    0.347986;    0.280396;    0.261757;    0.231429;    0.201369;    0.163826;    0.094645;    0.089617;    0.086810;    0.077555;    0.065987;    0.052050;    0.031299;
 17;    1.034612;    0.973885;    0.636640;    0.479487;    0.402602;    0.378329;    0.328893;    0.269716;    0.254337;    0.227961;    0.199500;    0.160709;    0.090986;    0.086188;    0.079525;    0.072252;    0.058006;    0.039674;    0.023178;
 18;    1.028951;    0.952877;    0.630721;    0.474201;    0.407303;    0.387758;    0.348177;    0.279026;    0.258924;    0.232612;    0.200465;    0.164447;    0.092025;    0.089997;    0.083730;    0.076584;    0.063412;    0.049807;    0.031486;
 19;    1.144163;    0.989238;    0.632810;    0.463866;    0.406653;    0.380520;    0.327661;    0.265138;    0.253073;    0.223027;    0.195031;    0.159315;    0.090823;    0.087987;    0.083077;    0.075655;    0.062940;    0.046174;    0.026266;
 20;    1.033708;    1.027831;    0.649561;    0.482560;    0.407087;    0.389230;    0.339095;    0.269082;    0.252154;    0.232052;    0.197873;    0.164518;    0.093297;    0.091730;    0.085473;    0.078977;    0.064706;    0.053022;    0.034497;
 21;    1.031917;    1.016909;    0.643573;    0.481103;    0.409964;    0.374388;    0.337257;    0.269589;    0.258911;    0.230145;    0.196811;    0.138887;    0.094431;    0.090320;    0.084733;    0.075673;    0.063701;    0.050441;    0.025056;
 22;    1.039489;    1.015262;    0.649580;    0.481726;    0.415601;    0.381188;    0.332547;    0.272716;    0.257524;    0.231369;    0.194402;    0.156122;    0.092648;    0.087639;    0.082050;    0.073177;    0.062316;    0.047309;    0.029649;
 23;    1.030438;    0.994765;    0.644423;    0.474490;    0.414771;    0.380635;    0.337226;    0.272438;    0.258022;    0.236502;    0.203404;    0.165114;    0.093744;    0.087713;    0.082953;    0.076330;    0.068032;    0.052927;    0.033110;
 24;    1.041592;    1.027104;    0.664553;    0.488037;    0.412673;    0.388539;    0.335854;    0.270270;    0.243089;    0.229129;    0.190927;    0.153586;    0.090399;    0.086114;    0.080151;    0.071468;    0.063565;    0.047149;    0.026889;
 25;    1.038746;    0.982187;    0.642964;    0.476606;    0.401875;    0.371243;    0.329744;    0.265765;    0.251065;    0.214026;    0.188371;    0.147967;    0.091055;    0.085950;    0.079967;    0.070940;    0.058961;    0.044003;    0.028415;
 26;    1.032522;    1.007356;    0.653543;    0.488483;    0.417949;    0.392331;    0.354798;    0.278023;    0.263960;    0.240915;    0.214815;    0.161837;    0.094721;    0.091275;    0.081778;    0.074793;    0.061008;    0.045931;    0.029258;
 27;    1.042656;    1.013351;    0.641034;    0.477698;    0.410553;    0.382376;    0.330653;    0.269159;    0.254312;    0.222076;    0.193040;    0.141719;    0.092234;    0.087448;    0.082100;    0.075321;    0.060605;    0.049275;    0.027443;
 28;    1.057296;    1.020311;    0.643162;    0.478127;    0.411107;    0.385899;    0.339618;    0.263054;    0.247707;    0.227921;    0.202740;    0.151408;    0.090310;    0.086104;    0.082334;    0.073612;    0.061962;    0.049092;    0.027579;
 29;    1.020495;    1.042249;    0.646442;    0.478895;    0.408938;    0.380251;    0.329223;    0.274702;    0.254397;    0.225879;    0.187225;    0.138644;    0.089358;    0.088259;    0.084180;    0.076686;    0.063018;    0.048326;    0.027141;
 30;    1.028576;    1.016408;    0.650730;    0.486738;    0.410786;    0.386626;    0.338606;    0.270306;    0.254932;    0.237051;    0.208323;    0.169137;    0.093602;    0.090926;    0.082759;    0.077367;    0.069334;    0.052850;    0.032699;
 31;    1.060228;    1.017543;    0.656298;    0.477325;    0.407646;    0.381921;    0.337542;    0.269953;    0.255460;    0.237432;    0.211838;    0.160412;    0.093732;    0.087804;    0.082847;    0.075830;    0.065766;    0.051667;    0.026760;
 32;    1.042452;    0.992805;    0.659437;    0.474314;    0.406038;    0.379181;    0.336126;    0.276035;    0.257235;    0.230474;    0.210629;    0.160361;    0.092118;    0.086892;    0.082903;    0.075083;    0.066892;    0.053932;    0.028071;
 33;    1.034900;    1.018332;    0.639601;    0.467571;    0.401011;    0.370097;    0.330217;    0.271016;    0.257222;    0.234545;    0.197723;    0.158881;    0.089182;    0.086329;    0.079534;    0.069992;    0.063360;    0.048879;    0.030049;
 34;    1.037873;    1.033646;    0.653052;    0.484588;    0.411329;    0.381234;    0.341348;    0.282208;    0.272786;    0.245119;    0.205976;    0.163267;    0.094540;    0.089699;    0.081928;    0.074633;    0.061125;    0.046414;    0.027340;
 35;    1.031965;    1.000433;    0.649845;    0.477824;    0.410657;    0.384436;    0.331805;    0.266438;    0.249559;    0.225327;    0.200456;    0.149897;    0.092268;    0.086299;    0.082083;    0.070797;    0.057577;    0.040725;    0.018858;
 36;    1.036371;    0.967961;    0.649436;    0.479933;    0.403200;    0.383729;    0.331315;    0.267616;    0.259416;    0.229205;    0.190959;    0.151856;    0.091731;    0.088564;    0.081503;    0.071474;    0.058587;    0.049360;    0.033349;
 37;    1.050830;    0.994557;    0.652683;    0.483562;    0.400582;    0.379995;    0.330033;    0.274941;    0.264247;    0.229058;    0.189035;    0.152978;    0.091960;    0.089315;    0.078870;    0.072066;    0.063806;    0.047656;    0.026558;
 38;    1.027383;    1.000082;    0.639268;    0.473485;    0.407499;    0.384590;    0.346868;    0.268189;    0.248095;    0.226601;    0.188783;    0.158032;    0.094323;    0.088960;    0.084038;    0.077784;    0.067628;    0.052706;    0.024871;
 39;    1.054354;    0.959661;    0.632135;    0.471891;    0.400982;    0.374556;    0.327519;    0.271874;    0.258804;    0.234058;    0.200124;    0.144467;    0.094594;    0.091568;    0.084816;    0.077556;    0.066424;    0.051343;    0.027103;
 40;    1.038395;    1.017831;    0.664148;    0.477915;    0.402385;    0.383189;    0.344319;    0.271387;    0.258726;    0.226596;    0.196517;    0.148175;    0.092270;    0.087770;    0.082016;    0.072316;    0.061723;    0.046609;    0.029193;
 41;    1.042205;    0.998949;    0.645147;    0.469616;    0.405041;    0.376294;    0.325111;    0.267909;    0.249944;    0.224457;    0.200325;    0.150796;    0.093189;    0.090061;    0.082334;    0.073841;    0.063265;    0.047566;    0.019001;
 42;    1.038618;    1.031186;    0.643513;    0.479494;    0.403281;    0.386105;    0.347376;    0.266526;    0.246506;    0.222440;    0.191582;    0.143203;    0.091531;    0.087362;    0.083306;    0.076850;    0.064273;    0.044018;    0.029728;
 43;    1.037447;    1.018577;    0.646906;    0.479757;    0.409119;    0.372043;    0.337401;    0.272017;    0.256538;    0.237868;    0.202481;    0.153615;    0.091302;    0.088836;    0.082076;    0.070759;    0.063053;    0.043462;    0.027664;
 44;    1.041673;    1.008233;    0.655488;    0.476181;    0.410912;    0.387883;    0.339657;    0.262983;    0.248909;    0.227109;    0.195551;    0.155522;    0.093819;    0.090691;    0.083231;    0.071148;    0.063941;    0.046939;    0.027243;
 45;    1.035348;    0.981580;    0.630341;    0.470725;    0.405407;    0.385131;    0.349711;    0.265939;    0.251419;    0.233528;    0.200996;    0.153211;    0.092914;    0.089531;    0.083851;    0.077418;    0.065607;    0.048428;    0.028298;
 46;    1.036427;    1.019528;    0.644022;    0.478328;    0.407461;    0.373250;    0.331000;    0.263828;    0.253547;    0.228923;    0.198026;    0.150635;    0.090370;    0.086793;    0.081544;    0.073684;    0.061186;    0.051732;    0.033236;
 47;    1.050337;    1.020462;    0.645206;    0.489079;    0.415504;    0.396087;    0.362625;    0.282946;    0.260466;    0.246096;    0.216270;    0.159114;    0.095181;    0.093529;    0.084298;    0.072726;    0.059831;    0.046199;    0.030599;
 48;    1.048277;    0.976378;    0.637265;    0.480485;    0.413799;    0.384378;    0.338900;    0.270731;    0.260098;    0.236058;    0.207628;    0.148739;    0.091883;    0.089315;    0.081901;    0.076768;    0.064743;    0.049446;    0.023031;
 49;    1.035918;    0.982057;    0.637020;    0.478496;    0.411317;    0.387264;    0.335499;    0.267463;    0.251770;    0.216878;    0.194582;    0.157876;    0.092780;    0.089412;    0.083500;    0.073297;    0.064427;    0.044476;    0.021958;
 50;    1.052301;    1.010454;    0.646523;    0.472771;    0.403130;    0.385456;    0.348313;    0.278805;    0.262132;    0.230535;    0.196928;    0.149209;    0.090919;    0.087023;    0.082063;    0.072394;    0.063001;    0.051439;    0.029839;
 51;    1.051735;    1.029716;    0.655762;    0.491573;    0.415517;    0.390993;    0.340033;    0.275495;    0.253354;    0.231779;    0.189194;    0.156411;    0.088681;    0.084038;    0.077785;    0.070467;    0.059521;    0.042279;    0.020856;
 52;    1.026193;    1.004416;    0.649411;    0.477265;    0.398759;    0.361571;    0.327952;    0.264982;    0.247957;    0.222448;    0.199863;    0.164244;    0.091589;    0.089717;    0.083747;    0.077387;    0.065686;    0.052180;    0.028607;
 53;    1.107633;    0.977023;    0.664624;    0.478448;    0.405363;    0.382394;    0.331985;    0.270364;    0.251646;    0.232183;    0.192982;    0.157722;    0.090511;    0.085554;    0.079252;    0.073685;    0.060218;    0.047689;    0.024462;
 54;    1.052663;    1.034636;    0.669814;    0.469331;    0.404321;    0.379459;    0.335687;    0.263004;    0.251254;    0.225984;    0.191727;    0.149539;    0.091475;    0.086601;    0.080712;    0.073160;    0.062081;    0.046308;    0.027853;
 55;    1.045851;    0.987731;    0.627071;    0.467276;    0.399656;    0.372347;    0.325884;    0.273348;    0.249341;    0.227730;    0.203448;    0.161450;    0.091370;    0.087956;    0.081788;    0.074492;    0.062209;    0.047687;    0.028324;
 56;    1.051842;    1.007796;    0.646312;    0.468554;    0.397223;    0.369572;    0.335621;    0.275822;    0.257561;    0.239032;    0.204956;    0.163700;    0.094497;    0.089573;    0.082371;    0.073498;    0.060932;    0.045034;    0.021536;
 57;    1.070924;    1.025643;    0.665526;    0.486456;    0.410536;    0.383456;    0.354086;    0.275490;    0.256492;    0.234358;    0.199121;    0.155843;    0.094626;    0.090479;    0.088489;    0.080382;    0.067232;    0.050431;    0.030104;
 58;    1.046946;    1.012782;    0.651941;    0.475705;    0.409523;    0.390540;    0.338201;    0.272190;    0.261081;    0.242138;    0.207545;    0.157555;    0.092397;    0.090735;    0.085533;    0.078523;    0.065692;    0.049034;    0.027426;
 59;    1.046551;    0.990957;    0.648748;    0.483296;    0.403296;    0.376433;    0.340107;    0.262705;    0.243278;    0.226446;    0.199673;    0.156241;    0.092170;    0.088717;    0.079320;    0.064547;    0.056310;    0.045935;    0.026827;
 60;    1.055335;    0.999993;    0.644371;    0.478554;    0.409870;    0.371687;    0.330056;    0.263806;    0.251070;    0.225279;    0.199173;    0.138835;    0.091570;    0.086601;    0.082899;    0.075626;    0.064040;    0.047532;    0.029672;
 61;    1.049563;    0.992061;    0.641894;    0.471558;    0.408858;    0.385308;    0.350942;    0.273289;    0.257498;    0.238080;    0.207355;    0.169547;    0.097535;    0.093361;    0.084100;    0.072050;    0.061825;    0.041576;    0.027011;
 62;    1.074178;    0.989761;    0.636529;    0.475811;    0.400988;    0.380770;    0.322632;    0.268395;    0.254757;    0.236522;    0.197968;    0.158400;    0.090931;    0.086705;    0.081377;    0.071584;    0.062415;    0.050540;    0.026624;
 63;    1.048047;    1.026636;    0.650744;    0.467294;    0.401099;    0.368987;    0.327861;    0.264786;    0.245653;    0.220475;    0.200669;    0.162942;    0.092650;    0.089818;    0.081150;    0.069553;    0.060403;    0.044415;    0.025376;
 64;    1.066966;    1.006739;    0.648211;    0.485599;    0.406249;    0.384016;    0.341027;    0.274260;    0.258499;    0.239241;    0.207379;    0.155249;    0.095084;    0.093093;    0.089002;    0.078188;    0.066658;    0.052770;    0.027954;
 65;    1.034257;    0.973344;    0.638118;    0.466812;    0.400393;    0.375928;    0.325077;    0.263300;    0.246352;    0.219656;    0.199844;    0.157438;    0.093127;    0.090018;    0.086184;    0.080963;    0.066200;    0.052209;    0.031475;
 66;    1.041946;    0.991338;    0.643451;    0.478792;    0.410834;    0.381574;    0.330599;    0.264357;    0.253677;    0.229974;    0.190026;    0.153278;    0.091214;    0.085489;    0.080543;    0.073791;    0.058899;    0.041348;    0.024138;
 67;    1.068506;    0.972229;    0.633837;    0.471602;    0.411180;    0.377387;    0.333676;    0.278597;    0.255719;    0.224889;    0.202676;    0.152873;    0.094893;    0.091465;    0.083897;    0.068499;    0.059348;    0.046360;    0.026153;
 68;    1.029580;    0.999949;    0.644680;    0.477818;    0.410805;    0.383993;    0.336716;    0.266726;    0.248856;    0.232459;    0.198157;    0.158423;    0.092648;    0.089715;    0.084299;    0.075668;    0.066542;    0.045319;    0.026468;
 69;    1.028207;    0.979663;    0.649706;    0.482289;    0.406274;    0.380300;    0.335266;    0.272551;    0.260070;    0.245788;    0.208051;    0.168822;    0.095395;    0.091791;    0.086601;    0.077717;    0.066534;    0.051918;    0.026963;
 70;    1.033852;    1.022397;    0.665375;    0.477656;    0.411848;    0.390520;    0.347147;    0.270417;    0.260955;    0.224883;    0.197747;    0.147874;    0.092837;    0.091141;    0.084644;    0.075619;    0.067017;    0.048553;    0.022922;
 71;    1.054256;    1.000446;    0.639183;    0.472810;    0.406060;    0.383979;    0.348103;    0.277458;    0.259984;    0.241274;    0.204352;    0.148206;    0.090449;    0.083902;    0.079218;    0.070801;    0.062376;    0.051027;    0.028870;
 72;    1.040475;    1.004676;    0.636028;    0.476734;    0.410830;    0.381084;    0.341248;    0.266314;    0.259895;    0.235933;    0.197647;    0.147395;    0.092010;    0.088859;    0.085192;    0.076519;    0.064709;    0.047819;    0.030619;
 73;    1.057112;    1.036610;    0.660688;    0.490944;    0.419277;    0.378875;    0.341121;    0.270931;    0.256949;    0.233381;    0.197771;    0.149581;    0.092560;    0.089103;    0.082446;    0.075737;    0.062550;    0.049995;    0.025477;
 74;    1.043190;    1.018853;    0.641684;    0.484544;    0.404269;    0.380518;    0.339336;    0.267935;    0.257273;    0.230447;    0.197542;    0.144148;    0.093693;    0.092993;    0.087531;    0.080539;    0.067124;    0.048506;    0.025678;
 75;    1.045927;    1.011212;    0.655017;    0.469221;    0.395401;    0.369361;    0.319811;    0.258982;    0.246289;    0.217042;    0.184795;    0.147918;    0.089751;    0.088234;    0.083155;    0.073286;    0.059259;    0.047884;    0.024688;
 76;    1.040250;    1.016537;    0.639316;    0.470051;    0.406088;    0.372237;    0.338946;    0.267295;    0.254187;    0.226945;    0.185337;    0.148466;    0.091392;    0.086827;    0.080705;    0.073175;    0.062080;    0.050673;    0.032595;
 77;    1.058849;    0.974149;    0.631834;    0.460631;    0.394166;    0.367138;    0.321354;    0.266472;    0.248482;    0.232792;    0.203550;    0.138957;    0.090363;    0.084781;    0.078433;    0.071549;    0.057857;    0.044675;    0.027925;
 78;    1.058002;    0.989417;    0.656034;    0.477449;    0.402027;    0.380739;    0.344921;    0.267335;    0.256424;    0.229149;    0.198701;    0.157468;    0.093355;    0.088166;    0.084729;    0.075525;    0.056595;    0.038012;    0.026232;
 79;    1.038696;    1.007697;    0.650628;    0.477443;    0.411945;    0.384400;    0.347919;    0.278920;    0.258012;    0.227531;    0.191628;    0.144247;    0.092451;    0.089093;    0.082899;    0.075071;    0.064194;    0.045321;    0.021425;
 80;    1.062128;    1.000911;    0.639042;    0.467032;    0.393137;    0.359170;    0.322343;    0.261277;    0.247166;    0.229081;    0.201640;    0.154309;    0.087983;    0.085373;    0.078521;    0.071763;    0.057634;    0.043137;    0.022829;
 81;    1.053269;    0.981473;    0.632299;    0.471654;    0.400485;    0.374413;    0.342699;    0.260507;    0.244130;    0.227863;    0.192096;    0.159629;    0.092139;    0.089124;    0.081551;    0.074548;    0.062697;    0.050626;    0.029441;
 82;    1.058571;    0.985818;    0.632288;    0.466791;    0.397464;    0.368756;    0.319034;    0.265340;    0.256294;    0.231860;    0.207557;    0.155891;    0.090169;    0.086165;    0.082762;    0.073160;    0.062616;    0.046870;    0.029007;
 83;    1.162199;    0.956335;    0.627755;    0.465163;    0.400128;    0.374912;    0.325485;    0.269233;    0.244806;    0.226810;    0.200567;    0.159708;    0.093669;    0.090299;    0.083463;    0.075471;    0.060210;    0.048364;    0.026953;
 84;    1.058147;    0.977254;    0.653714;    0.484288;    0.406819;    0.382851;    0.350620;    0.284698;    0.265602;    0.246358;    0.217540;    0.160768;    0.093737;    0.089291;    0.082565;    0.078000;    0.067414;    0.050707;    0.029197;
 85;    1.051191;    0.990904;    0.652662;    0.481298;    0.413119;    0.385725;    0.332117;    0.270776;    0.259064;    0.221197;    0.185308;    0.153332;    0.092325;    0.088288;    0.084675;    0.077451;    0.060701;    0.039997;    0.022746;
 86;    1.046119;    1.031089;    0.651574;    0.471832;    0.401660;    0.369466;    0.332642;    0.266332;    0.248748;    0.225359;    0.195773;    0.164828;    0.094069;    0.088175;    0.081577;    0.072674;    0.062431;    0.048686;    0.030567;
 87;    1.043322;    1.008199;    0.642715;    0.471272;    0.404806;    0.370364;    0.344435;    0.276174;    0.256865;    0.235581;    0.192146;    0.147179;    0.092486;    0.088039;    0.079964;    0.074712;    0.064459;    0.051832;    0.031416;
 88;    1.041559;    1.035841;    0.658381;    0.478682;    0.402018;    0.382257;    0.341660;    0.258808;    0.250525;    0.230745;    0.188350;    0.150048;    0.088192;    0.083607;    0.077596;    0.067934;    0.058442;    0.044198;    0.025106;
 89;    1.053535;    1.014571;    0.655307;    0.486081;    0.405268;    0.375322;    0.326391;    0.274793;    0.258605;    0.240419;    0.201696;    0.160010;    0.091542;    0.086462;    0.082833;    0.073404;    0.062150;    0.043669;    0.027263;
 90;    1.044512;    0.992144;    0.649051;    0.475866;    0.409228;    0.379123;    0.336255;    0.282428;    0.266596;    0.239676;    0.200326;    0.154065;    0.094262;    0.091219;    0.086992;    0.077350;    0.066136;    0.050377;    0.025345;
 91;    1.066408;    1.022789;    0.657973;    0.477019;    0.404072;    0.377949;    0.342420;    0.268534;    0.246309;    0.224175;    0.194471;    0.156883;    0.091161;    0.086891;    0.081572;    0.074713;    0.062448;    0.042454;    0.026552;
 92;    1.052447;    0.996385;    0.644040;    0.480637;    0.404146;    0.379518;    0.340770;    0.265257;    0.251910;    0.222780;    0.193049;    0.154742;    0.094784;    0.090412;    0.081076;    0.077265;    0.065238;    0.047427;    0.025535;
 93;    1.053828;    1.000403;    0.649367;    0.482807;    0.409852;    0.391927;    0.342451;    0.270921;    0.256772;    0.234168;    0.203819;    0.153485;    0.093936;    0.089392;    0.082658;    0.071588;    0.065349;    0.049632;    0.030764;
 94;    1.042609;    1.006147;    0.648465;    0.470414;    0.407117;    0.376246;    0.341443;    0.268951;    0.258878;    0.235296;    0.197283;    0.150907;    0.087664;    0.083583;    0.079592;    0.067781;    0.057650;    0.042589;    0.024241;
 95;    1.119547;    1.019674;    0.650822;    0.479514;    0.409927;    0.380083;    0.330586;    0.275820;    0.263986;    0.237046;    0.198236;    0.165182;    0.092947;    0.090576;    0.083989;    0.076279;    0.064782;    0.047043;    0.026395;
 96;    1.150857;    1.022637;    0.646772;    0.471651;    0.402088;    0.386162;    0.335022;    0.257550;    0.248660;    0.232390;    0.202058;    0.158468;    0.092178;    0.085783;    0.080624;    0.071815;    0.063825;    0.046798;    0.030123;
 97;    1.125036;    1.009924;    0.669077;    0.494657;    0.419111;    0.391193;    0.346175;    0.282401;    0.262801;    0.244491;    0.208343;    0.159278;    0.094249;    0.090039;    0.085623;    0.074440;    0.063552;    0.042069;    0.024923;
 98;    1.166325;    1.008901;    0.658111;    0.480431;    0.405385;    0.385328;    0.334183;    0.265610;    0.249742;    0.231990;    0.196823;    0.155266;    0.093065;    0.089930;    0.086497;    0.078020;    0.063797;    0.053384;    0.032593;
 99;    1.059191;    1.008622;    0.636074;    0.471762;    0.398909;    0.383044;    0.340091;    0.279435;    0.270575;    0.248949;    0.213822;    0.157107;    0.094821;    0.091714;    0.086147;    0.077716;    0.067488;    0.050181;    0.025288;
100;    1.066361;    0.993232;    0.633684;    0.473896;    0.403358;    0.384128;    0.334844;    0.274508;    0.261537;    0.236158;    0.198935;    0.148743;    0.092332;    0.087987;    0.080436;    0.075067;    0.066130;    0.051770;    0.027123;
