Simulation;Time;PC 0;PC 1;PC 2;PC 3;PC 4;PC 5;PC 6;PC 7;PC 8;PC 9;PC10;PC11;PC12;PC13;PC14;PC15;PC16;PC17;
Nan;Nan;0;0;0;1;0;0;0;0;0;0;0;0;0;0;0;0;0;0;
  0;    1.158909;    0.999522;    0.649078;    0.379276;    0.194907;    0.190795;    0.186047;    0.179852;    0.177980;    0.171831;    0.163145;    0.156345;    0.145352;    0.129741;    0.115524;    0.097088;    0.081781;    0.055002;    0.029902;
  1;    1.066443;    1.036627;    0.679845;    0.384677;    0.198499;    0.195578;    0.190991;    0.186797;    0.177229;    0.171083;    0.164690;    0.155682;    0.144730;    0.128164;    0.114235;    0.100634;    0.081316;    0.062029;    0.032816;
  2;    1.045343;    1.036792;    0.686441;    0.394449;    0.199789;    0.197745;    0.192722;    0.190411;    0.184118;    0.177312;    0.167457;    0.153661;    0.145018;    0.134843;    0.121521;    0.099619;    0.081801;    0.061060;    0.031117;
  3;    1.029442;    0.979508;    0.642695;    0.395576;    0.201805;    0.200642;    0.196025;    0.192148;    0.185545;    0.177036;    0.169535;    0.159521;    0.146712;    0.133694;    0.120694;    0.108200;    0.091470;    0.064431;    0.035931;
  4;    1.041264;    1.033022;    0.674808;    0.407406;    0.203071;    0.201630;    0.198141;    0.191724;    0.185664;    0.179751;    0.168399;    0.157698;    0.149609;    0.138460;    0.121620;    0.107239;    0.085917;    0.064816;    0.036386;
  5;    1.051347;    0.996112;    0.640750;    0.373911;    0.200134;    0.197192;    0.192360;    0.187870;    0.183662;    0.178324;    0.167207;    0.159724;    0.149600;    0.137987;    0.122829;    0.106267;    0.084653;    0.062687;    0.033553;
  6;    1.078659;    1.012348;    0.662972;    0.377872;    0.199077;    0.196571;    0.194797;    0.188882;    0.182777;    0.177674;    0.166823;    0.160016;    0.150947;    0.135907;    0.119683;    0.103737;    0.080137;    0.061578;    0.031860;
  7;    1.047938;    1.012789;    0.653749;    0.380898;    0.199361;    0.194134;    0.191577;    0.187829;    0.182015;    0.172025;    0.167480;    0.159682;    0.150691;    0.136596;    0.118932;    0.103986;    0.084563;    0.066725;    0.036050;
  8;    1.049535;    0.970031;    0.624272;    0.370183;    0.196424;    0.195125;    0.192986;    0.186691;    0.182310;    0.175934;    0.168924;    0.160772;    0.148165;    0.136218;    0.121448;    0.106690;    0.083717;    0.062080;    0.031020;
  9;    1.042079;    1.002630;    0.657635;    0.382996;    0.201144;    0.200106;    0.197113;    0.192099;    0.185267;    0.184060;    0.178959;    0.170051;    0.159708;    0.146567;    0.129671;    0.109399;    0.091869;    0.065946;    0.039857;
 10;    1.038325;    1.022277;    0.672476;    0.393270;    0.201294;    0.199934;    0.196568;    0.193760;    0.188995;    0.182952;    0.174814;    0.165556;    0.152954;    0.137816;    0.125400;    0.108315;    0.090981;    0.067587;    0.036189;
 11;    1.056264;    0.991272;    0.654586;    0.379149;    0.202466;    0.197465;    0.191361;    0.188222;    0.180053;    0.176081;    0.169522;    0.159611;    0.151963;    0.139844;    0.123693;    0.105046;    0.089070;    0.066589;    0.037564;
 12;    1.040833;    0.968590;    0.644298;    0.366426;    0.198742;    0.195782;    0.191695;    0.187118;    0.180093;    0.174945;    0.166571;    0.155836;    0.150433;    0.141701;    0.126622;    0.109095;    0.087082;    0.058733;    0.033095;
 13;    1.041669;    1.004944;    0.639445;    0.378090;    0.198972;    0.195970;    0.193675;    0.187332;    0.181895;    0.176020;    0.167561;    0.160643;    0.149599;    0.141427;    0.131959;    0.116659;    0.096005;    0.067445;    0.033991;
 14;    1.047214;    0.986404;    0.648234;    0.384165;    0.196025;    0.194951;    0.191700;    0.183451;    0.178245;    0.173116;    0.168169;    0.161207;    0.151050;    0.135200;    0.121661;    0.105073;    0.079661;    0.058112;    0.031950;
 15;    1.040165;    1.020523;    0.638443;    0.381230;    0.193733;    0.191242;    0.189522;    0.185317;    0.176986;    0.172625;    0.162774;    0.156577;    0.148059;    0.135853;    0.120892;    0.100752;    0.077451;    0.059290;    0.033439;
 16;    1.072340;    1.003376;    0.663613;    0.386879;    0.203829;    0.201671;    0.197015;    0.193508;    0.186263;    0.178609;    0.171414;    0.158672;    0.151184;    0.139692;    0.124430;    0.106912;    0.086985;    0.061343;    0.029333;
 17;    1.026676;    0.974708;    0.640204;    0.389373;    0.196075;    0.192093;    0.187815;    0.183678;    0.177804;    0.170450;    0.164278;    0.156848;    0.149382;    0.137206;    0.118628;    0.101156;    0.081833;    0.053081;    0.031823;
 18;    1.037216;    0.944558;    0.623824;    0.371758;    0.199527;    0.195259;    0.192361;    0.189700;    0.184142;    0.179537;    0.171754;    0.158725;    0.151343;    0.142379;    0.129878;    0.112404;    0.092597;    0.065103;    0.034774;
 19;    1.038184;    0.978748;    0.623595;    0.354036;    0.197827;    0.197479;    0.192092;    0.191053;    0.187068;    0.180135;    0.173573;    0.166667;    0.156456;    0.144334;    0.129748;    0.114373;    0.091403;    0.062261;    0.032911;
 20;    1.061626;    1.031585;    0.655217;    0.388807;    0.199598;    0.197016;    0.195861;    0.192121;    0.186691;    0.176577;    0.172127;    0.164076;    0.151759;    0.137919;    0.128454;    0.113122;    0.091831;    0.063098;    0.034835;
 21;    1.045469;    1.014899;    0.642499;    0.383238;    0.201112;    0.196908;    0.194834;    0.188569;    0.180564;    0.174352;    0.168540;    0.160420;    0.149104;    0.132635;    0.119674;    0.105178;    0.086798;    0.062389;    0.036026;
 22;    1.057940;    1.008539;    0.643843;    0.376423;    0.201442;    0.198677;    0.196587;    0.191921;    0.187841;    0.176574;    0.168428;    0.162346;    0.150482;    0.137965;    0.125354;    0.105021;    0.086706;    0.063987;    0.033147;
 23;    1.056504;    0.984507;    0.635435;    0.363748;    0.202199;    0.198218;    0.193891;    0.191465;    0.187484;    0.181908;    0.174874;    0.166180;    0.151528;    0.138157;    0.122169;    0.109051;    0.089809;    0.067377;    0.035311;
 24;    1.059349;    1.031412;    0.673473;    0.390203;    0.199262;    0.196753;    0.193330;    0.188334;    0.182425;    0.176971;    0.167579;    0.160484;    0.146812;    0.134039;    0.117034;    0.102141;    0.089626;    0.071453;    0.040414;
 25;    1.042627;    0.986299;    0.650007;    0.383565;    0.196440;    0.193001;    0.189893;    0.187292;    0.181824;    0.171777;    0.161109;    0.153168;    0.144594;    0.130417;    0.116282;    0.096415;    0.080876;    0.059051;    0.027716;
 26;    1.057307;    1.001755;    0.650010;    0.385226;    0.204176;    0.202531;    0.198036;    0.194788;    0.188268;    0.183926;    0.175165;    0.164470;    0.153016;    0.134888;    0.122814;    0.103758;    0.087220;    0.060901;    0.034771;
 27;    1.080630;    1.007222;    0.635984;    0.374548;    0.199591;    0.198933;    0.195859;    0.189997;    0.185216;    0.178783;    0.172219;    0.159867;    0.149262;    0.137694;    0.120921;    0.103187;    0.082793;    0.053938;    0.033608;
 28;    1.023160;    1.013285;    0.637411;    0.373699;    0.198853;    0.195919;    0.193331;    0.189360;    0.180802;    0.176741;    0.169267;    0.160702;    0.148925;    0.135843;    0.123743;    0.104852;    0.085813;    0.065341;    0.034446;
 29;    1.044379;    1.040071;    0.646054;    0.377903;    0.197449;    0.195221;    0.189794;    0.187548;    0.180285;    0.175764;    0.169459;    0.159773;    0.150801;    0.135312;    0.120168;    0.101749;    0.081435;    0.053253;    0.028422;
 30;    1.046238;    1.018512;    0.653616;    0.391502;    0.201042;    0.196332;    0.194303;    0.188012;    0.179563;    0.174519;    0.167015;    0.160894;    0.153579;    0.141507;    0.126234;    0.107299;    0.086256;    0.059151;    0.036125;
 31;    1.042488;    1.021066;    0.661727;    0.377662;    0.200060;    0.196894;    0.194827;    0.191684;    0.185947;    0.177639;    0.172818;    0.165398;    0.153815;    0.142204;    0.125153;    0.104526;    0.087466;    0.062640;    0.037602;
 32;    1.140023;    0.998186;    0.669878;    0.372792;    0.198866;    0.195268;    0.194760;    0.190928;    0.184756;    0.178543;    0.170574;    0.163093;    0.154874;    0.142139;    0.123125;    0.105178;    0.085742;    0.065352;    0.035232;
 33;    1.045268;    1.018336;    0.640946;    0.366165;    0.195470;    0.192207;    0.191758;    0.188151;    0.180965;    0.176329;    0.167191;    0.157683;    0.145326;    0.133951;    0.119867;    0.106706;    0.085600;    0.062919;    0.033868;
 34;    1.032958;    1.034208;    0.654393;    0.385428;    0.202788;    0.199189;    0.197642;    0.193030;    0.188470;    0.180816;    0.170888;    0.156383;    0.143871;    0.132089;    0.119654;    0.100835;    0.085913;    0.060129;    0.034178;
 35;    1.039547;    0.997637;    0.649246;    0.375574;    0.199335;    0.196076;    0.193906;    0.188521;    0.184169;    0.177169;    0.171064;    0.163023;    0.148626;    0.139282;    0.122860;    0.106728;    0.084510;    0.063745;    0.031464;
 36;    1.022441;    0.975554;    0.659749;    0.387964;    0.197372;    0.194784;    0.192364;    0.189142;    0.182525;    0.178376;    0.169161;    0.163462;    0.153865;    0.138828;    0.121861;    0.110483;    0.095135;    0.071882;    0.035224;
 37;    1.043163;    1.006785;    0.667087;    0.397120;    0.196773;    0.195631;    0.190752;    0.185259;    0.179156;    0.174995;    0.168390;    0.161883;    0.153297;    0.139035;    0.124089;    0.104482;    0.087938;    0.067278;    0.032532;
 38;    1.030631;    0.996585;    0.636320;    0.372409;    0.199841;    0.195171;    0.189412;    0.184600;    0.180239;    0.176304;    0.169190;    0.158549;    0.147466;    0.134720;    0.119050;    0.099642;    0.082059;    0.057363;    0.031335;
 39;    1.051895;    0.959369;    0.633988;    0.377277;    0.198364;    0.195555;    0.192707;    0.188452;    0.182685;    0.172838;    0.165594;    0.153811;    0.141774;    0.133682;    0.118145;    0.102350;    0.081472;    0.059044;    0.030722;
 40;    1.045130;    1.030997;    0.681447;    0.385028;    0.197237;    0.193939;    0.190372;    0.183923;    0.177876;    0.171907;    0.163295;    0.153952;    0.146734;    0.134790;    0.119307;    0.103529;    0.080696;    0.056527;    0.034253;
 41;    1.020974;    0.998824;    0.648136;    0.367894;    0.198306;    0.194939;    0.192245;    0.186427;    0.181642;    0.176393;    0.166859;    0.158356;    0.147875;    0.136539;    0.119349;    0.102452;    0.084064;    0.061563;    0.029701;
 42;    1.038550;    1.035026;    0.648141;    0.386615;    0.197235;    0.196276;    0.190922;    0.186780;    0.180975;    0.177166;    0.169926;    0.159181;    0.149611;    0.136326;    0.120834;    0.103899;    0.087841;    0.066106;    0.040299;
 43;    1.043611;    1.016794;    0.646181;    0.379040;    0.199186;    0.196566;    0.194272;    0.187333;    0.183494;    0.177060;    0.167364;    0.158591;    0.146728;    0.133488;    0.118258;    0.101586;    0.080611;    0.062778;    0.038620;
 44;    1.028314;    1.008102;    0.657534;    0.372181;    0.200754;    0.196941;    0.194224;    0.191985;    0.187755;    0.181727;    0.175418;    0.166068;    0.153292;    0.143992;    0.133172;    0.116489;    0.094167;    0.061986;    0.034691;
 45;    1.048919;    0.973712;    0.623482;    0.368698;    0.198593;    0.197227;    0.194355;    0.188045;    0.180603;    0.175758;    0.170272;    0.163048;    0.151118;    0.139948;    0.122694;    0.107654;    0.090330;    0.065400;    0.037117;
 46;    1.035150;    1.018392;    0.643915;    0.379482;    0.197060;    0.193794;    0.190494;    0.185716;    0.181899;    0.177494;    0.170675;    0.160294;    0.151938;    0.137197;    0.121179;    0.102688;    0.086550;    0.062104;    0.037177;
 47;    1.038719;    1.015336;    0.642005;    0.389863;    0.204008;    0.201564;    0.200618;    0.196663;    0.191112;    0.181766;    0.173875;    0.164912;    0.152561;    0.137339;    0.121605;    0.108384;    0.085946;    0.060303;    0.035525;
 48;    1.042101;    0.965367;    0.628106;    0.377090;    0.200642;    0.198795;    0.197409;    0.192636;    0.187290;    0.180983;    0.170873;    0.164697;    0.154169;    0.142874;    0.129898;    0.111017;    0.087189;    0.067310;    0.035334;
 49;    1.139706;    0.973039;    0.629504;    0.375614;    0.199930;    0.197349;    0.194907;    0.190418;    0.182149;    0.172888;    0.164497;    0.156820;    0.147600;    0.132040;    0.117099;    0.103070;    0.082732;    0.055768;    0.031494;
 50;    1.058709;    1.012738;    0.650788;    0.373690;    0.197283;    0.195248;    0.190595;    0.184221;    0.181289;    0.174429;    0.169757;    0.160984;    0.148770;    0.134620;    0.119313;    0.104632;    0.081368;    0.057617;    0.031736;
 51;    1.027745;    1.028167;    0.655444;    0.391567;    0.199222;    0.196490;    0.192833;    0.189741;    0.182198;    0.178101;    0.169276;    0.160201;    0.147034;    0.134075;    0.121308;    0.105160;    0.083494;    0.057726;    0.030332;
 52;    1.052851;    1.014598;    0.662188;    0.388890;    0.195585;    0.192528;    0.188509;    0.184898;    0.181225;    0.175481;    0.167208;    0.159776;    0.147425;    0.137967;    0.123219;    0.103088;    0.078010;    0.057702;    0.033759;
 53;    1.032389;    0.985981;    0.684984;    0.381492;    0.197415;    0.194888;    0.191338;    0.187394;    0.182512;    0.174538;    0.168302;    0.163675;    0.154015;    0.140718;    0.124877;    0.108923;    0.089134;    0.063636;    0.030645;
 54;    1.054314;    1.044627;    0.683642;    0.367300;    0.197243;    0.194294;    0.192614;    0.186130;    0.180291;    0.172943;    0.165964;    0.155182;    0.144270;    0.128256;    0.112244;    0.098238;    0.073681;    0.056414;    0.031416;
 55;    1.062202;    0.985386;    0.624690;    0.368714;    0.196212;    0.193816;    0.190099;    0.186061;    0.179905;    0.173322;    0.164155;    0.157684;    0.146419;    0.136410;    0.120245;    0.106299;    0.088315;    0.061601;    0.029660;
 56;    1.061649;    1.015204;    0.655494;    0.374595;    0.197557;    0.192523;    0.191566;    0.186561;    0.179215;    0.170645;    0.165769;    0.159048;    0.147543;    0.135024;    0.117955;    0.100839;    0.082329;    0.057126;    0.031779;
 57;    1.055751;    1.033935;    0.675808;    0.390677;    0.201478;    0.197834;    0.193347;    0.189532;    0.184784;    0.176498;    0.169344;    0.158214;    0.149184;    0.136856;    0.118812;    0.102630;    0.086857;    0.064958;    0.034295;
 58;    1.052533;    1.012534;    0.653788;    0.373177;    0.199706;    0.197429;    0.193117;    0.192195;    0.188911;    0.183076;    0.174541;    0.168618;    0.158825;    0.147319;    0.130788;    0.113390;    0.093300;    0.065862;    0.036387;
 59;    1.047726;    0.997905;    0.657604;    0.395953;    0.196522;    0.192621;    0.189071;    0.185951;    0.180138;    0.170059;    0.164190;    0.157206;    0.145995;    0.131791;    0.119337;    0.102213;    0.081129;    0.063074;    0.038601;
 60;    1.048813;    0.996577;    0.642635;    0.378021;    0.198659;    0.197580;    0.194513;    0.190368;    0.185222;    0.177803;    0.172743;    0.165302;    0.157052;    0.145924;    0.130471;    0.108445;    0.092714;    0.065979;    0.032766;
 61;    1.039609;    0.988473;    0.639166;    0.367594;    0.202752;    0.199109;    0.194203;    0.189732;    0.185224;    0.178307;    0.170230;    0.162172;    0.148329;    0.138167;    0.120581;    0.105259;    0.082769;    0.059392;    0.031559;
 62;    1.055879;    0.991766;    0.639133;    0.382814;    0.195861;    0.194530;    0.190210;    0.185579;    0.179823;    0.169659;    0.162611;    0.155340;    0.146715;    0.134639;    0.120673;    0.103400;    0.081254;    0.056511;    0.032668;
 63;    1.059288;    1.031654;    0.656866;    0.367608;    0.197110;    0.193230;    0.188557;    0.183170;    0.179866;    0.174745;    0.164647;    0.156878;    0.144572;    0.131887;    0.120589;    0.103296;    0.087427;    0.067248;    0.036279;
 64;    1.213241;    1.012209;    0.654949;    0.394531;    0.200800;    0.199878;    0.195925;    0.190456;    0.186665;    0.181201;    0.175235;    0.165646;    0.154951;    0.140200;    0.121921;    0.108802;    0.090061;    0.063556;    0.032883;
 65;    1.046810;    0.974396;    0.640786;    0.368592;    0.196233;    0.194849;    0.189638;    0.184538;    0.180502;    0.173878;    0.166628;    0.158247;    0.147998;    0.136203;    0.123891;    0.105829;    0.084922;    0.054908;    0.030319;
 66;    1.044413;    0.986183;    0.639810;    0.376677;    0.198213;    0.194817;    0.192108;    0.186011;    0.181532;    0.174925;    0.163214;    0.155803;    0.144235;    0.132206;    0.118172;    0.102005;    0.085957;    0.061000;    0.038389;
 67;    1.040986;    0.959991;    0.623380;    0.362764;    0.202210;    0.197901;    0.195658;    0.190185;    0.184602;    0.177243;    0.169849;    0.159828;    0.144318;    0.134859;    0.119188;    0.101558;    0.082042;    0.059375;    0.037169;
 68;    1.059785;    0.996017;    0.641368;    0.376142;    0.199772;    0.199230;    0.194594;    0.191682;    0.186252;    0.179711;    0.173322;    0.164778;    0.153746;    0.143981;    0.128544;    0.109267;    0.086782;    0.060389;    0.031990;
 69;    1.050784;    0.985354;    0.656482;    0.389266;    0.200920;    0.198106;    0.196201;    0.192186;    0.185398;    0.180883;    0.172740;    0.163729;    0.153068;    0.138498;    0.125907;    0.108144;    0.088783;    0.062687;    0.032794;
 70;    1.064359;    1.023942;    0.670465;    0.372501;    0.200887;    0.198444;    0.195600;    0.191692;    0.185898;    0.181935;    0.173576;    0.166006;    0.153268;    0.140983;    0.130036;    0.110068;    0.085087;    0.061119;    0.036442;
 71;    1.050054;    0.995966;    0.635547;    0.369553;    0.198016;    0.195969;    0.192952;    0.185164;    0.177541;    0.172166;    0.167073;    0.159004;    0.147504;    0.137553;    0.122078;    0.105754;    0.086388;    0.063797;    0.036457;
 72;    1.053714;    0.995937;    0.627789;    0.372893;    0.199801;    0.197962;    0.196766;    0.194023;    0.188967;    0.181695;    0.174281;    0.163013;    0.148373;    0.137827;    0.124176;    0.107183;    0.084010;    0.059843;    0.034936;
 73;    1.044682;    1.033719;    0.659715;    0.388243;    0.202771;    0.201860;    0.200292;    0.196181;    0.190192;    0.178502;    0.172238;    0.163775;    0.153681;    0.136750;    0.125981;    0.109343;    0.084332;    0.060121;    0.036462;
 74;    1.032625;    1.023410;    0.647350;    0.396405;    0.198336;    0.196004;    0.195636;    0.192337;    0.184736;    0.177924;    0.166013;    0.158765;    0.149711;    0.141078;    0.131649;    0.115031;    0.091806;    0.064421;    0.030123;
 75;    1.052368;    1.025180;    0.672649;    0.377994;    0.193206;    0.190862;    0.188333;    0.183725;    0.179731;    0.170861;    0.164919;    0.155492;    0.139871;    0.126486;    0.114769;    0.102587;    0.088322;    0.065326;    0.034783;
 76;    1.038925;    1.012041;    0.636067;    0.366476;    0.197706;    0.196253;    0.192717;    0.187633;    0.184747;    0.178393;    0.167611;    0.159037;    0.152609;    0.141845;    0.129639;    0.112747;    0.093116;    0.063679;    0.031431;
 77;    1.129970;    0.975416;    0.636167;    0.362689;    0.193269;    0.192683;    0.186380;    0.180889;    0.173437;    0.168286;    0.162570;    0.156271;    0.145306;    0.132779;    0.114382;    0.096582;    0.079082;    0.057380;    0.033940;
 78;    1.047512;    0.999147;    0.667332;    0.385640;    0.197501;    0.194068;    0.194543;    0.192360;    0.187177;    0.180464;    0.171906;    0.163418;    0.152823;    0.136072;    0.118881;    0.101231;    0.080967;    0.060754;    0.032085;
 79;    1.055697;    1.003841;    0.647423;    0.371919;    0.200400;    0.196784;    0.192344;    0.187117;    0.180853;    0.175825;    0.169309;    0.156121;    0.148833;    0.138625;    0.122798;    0.103812;    0.083221;    0.058677;    0.033717;
 80;    1.046903;    1.009466;    0.649659;    0.376270;    0.191193;    0.188249;    0.186939;    0.183328;    0.176917;    0.170336;    0.161505;    0.153852;    0.141198;    0.128185;    0.115219;    0.095479;    0.076815;    0.052770;    0.031314;
 81;    1.037804;    0.980739;    0.633784;    0.377570;    0.195911;    0.194196;    0.189091;    0.183863;    0.179164;    0.172469;    0.168575;    0.161846;    0.149661;    0.134045;    0.117099;    0.103217;    0.084413;    0.066976;    0.036800;
 82;    1.064542;    0.987038;    0.634545;    0.370752;    0.194376;    0.190856;    0.188069;    0.186022;    0.181446;    0.175659;    0.168732;    0.157947;    0.144864;    0.134812;    0.120925;    0.102855;    0.086848;    0.065331;    0.037690;
 83;    1.045259;    0.952355;    0.625703;    0.365212;    0.197421;    0.193902;    0.191863;    0.187345;    0.183588;    0.177541;    0.170439;    0.160564;    0.147169;    0.137670;    0.124973;    0.105197;    0.080189;    0.060836;    0.036148;
 84;    1.040952;    0.984238;    0.663408;    0.390985;    0.200167;    0.198942;    0.193987;    0.189772;    0.183656;    0.178282;    0.173975;    0.166671;    0.156918;    0.144908;    0.126574;    0.102832;    0.082003;    0.058236;    0.030400;
 85;    1.055198;    0.988347;    0.651721;    0.378644;    0.200492;    0.198140;    0.195854;    0.192600;    0.185685;    0.181101;    0.174641;    0.164951;    0.148567;    0.139242;    0.127430;    0.108592;    0.088353;    0.058733;    0.032733;
 86;    1.049880;    1.038721;    0.659771;    0.376091;    0.197802;    0.194435;    0.192846;    0.187577;    0.180224;    0.175203;    0.165529;    0.155161;    0.148776;    0.136049;    0.119312;    0.101533;    0.088211;    0.063985;    0.031744;
 87;    1.033002;    1.007815;    0.644271;    0.370784;    0.198188;    0.196049;    0.191921;    0.185036;    0.179051;    0.173742;    0.166065;    0.156924;    0.144489;    0.134034;    0.118527;    0.100176;    0.084741;    0.063057;    0.034097;
 88;    1.049808;    1.047160;    0.670772;    0.387283;    0.194260;    0.193991;    0.190775;    0.184637;    0.178957;    0.172627;    0.164746;    0.156201;    0.143410;    0.133296;    0.119432;    0.096271;    0.080866;    0.058858;    0.033951;
 89;    1.051031;    1.023459;    0.666018;    0.396237;    0.197764;    0.194877;    0.191167;    0.186192;    0.180030;    0.175144;    0.165930;    0.160666;    0.149812;    0.133543;    0.121984;    0.100883;    0.077202;    0.055716;    0.030171;
 90;    1.028881;    0.990669;    0.649570;    0.372276;    0.201453;    0.197817;    0.195709;    0.190378;    0.186820;    0.181161;    0.170760;    0.161009;    0.154498;    0.144636;    0.130557;    0.109250;    0.087715;    0.065746;    0.037599;
 91;    1.064982;    1.030371;    0.668079;    0.380658;    0.197332;    0.194251;    0.189778;    0.187011;    0.180431;    0.177640;    0.169601;    0.156426;    0.147246;    0.137485;    0.121329;    0.106589;    0.085706;    0.064657;    0.030450;
 92;    1.122513;    1.000896;    0.649477;    0.390247;    0.198619;    0.193088;    0.190538;    0.186392;    0.181325;    0.177010;    0.169207;    0.159303;    0.146145;    0.133648;    0.122664;    0.104750;    0.079120;    0.052492;    0.031802;
 93;    1.056507;    1.001397;    0.651259;    0.386465;    0.200724;    0.197882;    0.195282;    0.192491;    0.186750;    0.181443;    0.171340;    0.162755;    0.156363;    0.146662;    0.132483;    0.114473;    0.090136;    0.057499;    0.032117;
 94;    1.039446;    1.002628;    0.647909;    0.363645;    0.195793;    0.192502;    0.189024;    0.183525;    0.178437;    0.169500;    0.160704;    0.152608;    0.142172;    0.133454;    0.118252;    0.097845;    0.078016;    0.061072;    0.028176;
 95;    1.064643;    1.019391;    0.651757;    0.378999;    0.200134;    0.197608;    0.196968;    0.192544;    0.185675;    0.178728;    0.171810;    0.161232;    0.153436;    0.142925;    0.127577;    0.110945;    0.087189;    0.057651;    0.030774;
 96;    1.052774;    1.027296;    0.652554;    0.375745;    0.196271;    0.191769;    0.190938;    0.189797;    0.186612;    0.180150;    0.173522;    0.164399;    0.151911;    0.132675;    0.121659;    0.104093;    0.086511;    0.065047;    0.034833;
 97;    1.035901;    1.011579;    0.675793;    0.396218;    0.203887;    0.202923;    0.197428;    0.190785;    0.189046;    0.183898;    0.177731;    0.167438;    0.155342;    0.137909;    0.122603;    0.106145;    0.083277;    0.061286;    0.032839;
 98;    1.071333;    1.017448;    0.669279;    0.387137;    0.198504;    0.194661;    0.190747;    0.187832;    0.185720;    0.181578;    0.173659;    0.161595;    0.153368;    0.144241;    0.127953;    0.106854;    0.082668;    0.064408;    0.035577;
 99;    1.049275;    1.012049;    0.640105;    0.378238;    0.198470;    0.194495;    0.191825;    0.189683;    0.180716;    0.174046;    0.167662;    0.159139;    0.149226;    0.137183;    0.124594;    0.110577;    0.090392;    0.067336;    0.036878;
100;    1.053785;    0.991016;    0.632086;    0.377011;    0.198208;    0.196150;    0.194601;    0.189989;    0.185497;    0.177803;    0.170029;    0.159058;    0.150626;    0.138017;    0.122192;    0.101751;    0.083887;    0.061782;    0.030366;
