Simulation;Time;PC 0;PC 1;PC 2;PC 3;PC 4;PC 5;PC 6;PC 7;PC 8;PC 9;PC10;PC11;PC12;PC13;PC14;PC15;PC16;PC17;
Nan;Nan;0;0;0;1;0;0;0;0;0;0;0;0;0;0;0;0;0;0;
  0;    0.980661;    0.989771;    0.904380;    0.849101;    0.830322;    0.896943;    0.971090;    1.046445;    1.173084;    1.295190;    1.421119;    1.669782;    2.023202;    2.504619;    3.217939;    4.247069;    7.055311;   15.500604;   95.280839;
  1;    1.152759;    1.017873;    0.932085;    0.863186;    0.844090;    0.913378;    0.993720;    1.097351;    1.205626;    1.353388;    1.525900;    1.747965;    2.064379;    2.426045;    3.340429;    5.808477;   12.497816;   28.463883;  119.410302;
  2;    1.094721;    1.021832;    0.935716;    0.874274;    0.850523;    0.927332;    1.000221;    1.101893;    1.204025;    1.340278;    1.503715;    1.783904;    2.073296;    2.465372;    3.312517;    5.491838;   10.464752;   21.956514;   93.352663;
  3;    1.250208;    0.998847;    0.920580;    0.882837;    0.860900;    0.940299;    1.026198;    1.151301;    1.290049;    1.431875;    1.636516;    1.944879;    2.260514;    2.666007;    3.162889;    4.334636;   10.352634;   31.731803;  153.166543;
  4;    1.077710;    1.028251;    0.941383;    0.892067;    0.865280;    0.948084;    1.039310;    1.140845;    1.316221;    1.544800;    1.819454;    2.110466;    2.423653;    2.880412;    4.104749;    5.924097;   10.442988;   22.823034;  128.495336;
  5;    1.082615;    1.000399;    0.913412;    0.860780;    0.854958;    0.949688;    1.049094;    1.162028;    1.278946;    1.425746;    1.581950;    1.768467;    2.033306;    2.433151;    3.260113;    5.127661;    8.890618;   28.603872;  103.948213;
  6;    1.122149;    1.007096;    0.924791;    0.863400;    0.847282;    0.917973;    1.003636;    1.087232;    1.208588;    1.361054;    1.558063;    1.878758;    2.336854;    3.122654;    4.264623;    6.448087;   10.090977;   22.583173;   96.694916;
  7;    1.075630;    1.007617;    0.917399;    0.865255;    0.849531;    0.917459;    0.997930;    1.095340;    1.221973;    1.342794;    1.575382;    1.810247;    2.209998;    2.809999;    4.907646;    7.263827;   13.055761;   30.552218;  117.116979;
  8;    1.353748;    0.979463;    0.896654;    0.852272;    0.835115;    0.909388;    1.003854;    1.126006;    1.251289;    1.412741;    1.613060;    1.858773;    2.145053;    2.665209;    3.412889;    4.988203;    7.647610;   24.452002;  150.698774;
  9;    1.264324;    1.008118;    0.927419;    0.871987;    0.857087;    0.932071;    1.016725;    1.111521;    1.211823;    1.499611;    1.772683;    2.221251;    2.688816;    3.206467;    4.152414;    6.175433;   11.013721;   36.556113;  141.119753;
 10;    1.290504;    1.018275;    0.934116;    0.877299;    0.860716;    0.935147;    1.019557;    1.133609;    1.249143;    1.398606;    1.593296;    1.854806;    2.266621;    2.792169;    4.116371;    6.841973;   11.521813;   33.637497;  170.518283;
 11;    1.058261;    1.005000;    0.930163;    0.871668;    0.862500;    0.918210;    0.987217;    1.087230;    1.198701;    1.376002;    1.593101;    1.918165;    2.360957;    2.966410;    3.776992;    4.761906;    7.435040;   16.632578;  121.923004;
 12;    1.270694;    0.984414;    0.912974;    0.853381;    0.848146;    0.927850;    1.002707;    1.081416;    1.175662;    1.326582;    1.480292;    1.694505;    2.149721;    3.063207;    4.366702;    6.337159;   14.432581;   49.592370;  109.727538;
 13;    0.814955;    1.002689;    0.911830;    0.863560;    0.847689;    0.911866;    0.992589;    1.077186;    1.183031;    1.360231;    1.559362;    1.843080;    2.091770;    2.693616;    3.598956;    4.999712;    7.730150;   13.107241;   64.140286;
 14;    1.435536;    0.986432;    0.908140;    0.854857;    0.834975;    0.903494;    0.977639;    1.043970;    1.141725;    1.260441;    1.465901;    1.707765;    2.018698;    2.460163;    3.150339;    4.808920;    8.645701;   50.307564;  155.988990;
 15;    1.377709;    0.997320;    0.895027;    0.846885;    0.826659;    0.898256;    0.990379;    1.105847;    1.219563;    1.399311;    1.589352;    1.878747;    2.292909;    3.069596;    5.152070;    9.043008;   12.661861;   25.923938;  163.359555;
 16;    1.105792;    1.015122;    0.939421;    0.884429;    0.867965;    0.941140;    1.020411;    1.121148;    1.227693;    1.369878;    1.549114;    1.760640;    2.172649;    2.641487;    3.204404;    4.033449;    8.247473;   26.894991;  126.901706;
 17;    1.325800;    0.982248;    0.904292;    0.862315;    0.835273;    0.889846;    0.960158;    1.051245;    1.151604;    1.264100;    1.438470;    1.710395;    2.049684;    2.510049;    3.185997;    5.230564;   10.631319;   37.600614;  136.990116;
 18;    1.038076;    0.974308;    0.902942;    0.858128;    0.851910;    0.925227;    1.010879;    1.119001;    1.242047;    1.463671;    1.745274;    2.041498;    2.370793;    3.022963;    4.075297;    5.362865;   12.180974;   28.999093;   99.565071;
 19;    1.320678;    0.985779;    0.897834;    0.845066;    0.844303;    0.920806;    0.987718;    1.103107;    1.235261;    1.384555;    1.622425;    1.866451;    2.222230;    2.613808;    3.582392;    5.266990;   13.389013;   36.083811;  121.436034;
 20;    1.357054;    1.017146;    0.920555;    0.870739;    0.851159;    0.930042;    1.020061;    1.132341;    1.253301;    1.385873;    1.587246;    1.829458;    2.099130;    2.696531;    3.494688;    4.965841;    8.568824;   26.921609;  165.658366;
 21;    1.255835;    1.012576;    0.919114;    0.870429;    0.856137;    0.912393;    1.005178;    1.098878;    1.202368;    1.360961;    1.524041;    1.884191;    2.352700;    3.003660;    4.002409;    6.578576;   14.026938;   41.061345;  134.909416;
 22;    0.858299;    1.010776;    0.917440;    0.868954;    0.860909;    0.949853;    1.078540;    1.198606;    1.373032;    1.561170;    1.790493;    2.104513;    2.552677;    2.994692;    3.810560;    4.916602;    7.379477;   18.826832;   67.556120;
 23;    1.221987;    0.999889;    0.917931;    0.863512;    0.862526;    0.921900;    0.997710;    1.099241;    1.231291;    1.408883;    1.619558;    1.927389;    2.296913;    2.780272;    3.471908;    5.036763;    8.867574;   37.526929;  134.898517;
 24;    1.270991;    1.017496;    0.929855;    0.870050;    0.852107;    0.913377;    0.988137;    1.069844;    1.175235;    1.364305;    1.557032;    1.839065;    2.140914;    2.579873;    3.087169;    4.939002;   11.904289;   33.240637;  140.092895;
 25;    0.905997;    0.988455;    0.909281;    0.856697;    0.837949;    0.897688;    0.978519;    1.078688;    1.204260;    1.339778;    1.523038;    1.750499;    2.108152;    2.674642;    3.370886;    4.555271;    7.407714;   14.731432;   72.733174;
 26;    1.184119;    1.015077;    0.932922;    0.884253;    0.870528;    0.943477;    1.028587;    1.137339;    1.249874;    1.400932;    1.568043;    1.773943;    2.094096;    2.472449;    3.300719;    4.358381;    8.657322;   16.987953;  135.453016;
 27;    1.234426;    1.005006;    0.911354;    0.863524;    0.850780;    0.928319;    1.016744;    1.106694;    1.226923;    1.361339;    1.555365;    1.757497;    2.023855;    2.413220;    2.946234;    4.093962;    8.529041;   28.935769;  155.578856;
 28;    1.428291;    1.006030;    0.907612;    0.858914;    0.849758;    0.914016;    1.001206;    1.121115;    1.305205;    1.492203;    1.704012;    2.054408;    2.409162;    3.405017;    4.509519;    7.776281;   12.920204;   35.417476;  142.279705;
 29;    1.342666;    1.015154;    0.907532;    0.857371;    0.842535;    0.913351;    1.001665;    1.127468;    1.261132;    1.469370;    1.748132;    2.042163;    2.399132;    2.902819;    3.614444;    5.256051;    8.515008;   42.299779;  135.663242;
 30;    0.879802;    1.014344;    0.923713;    0.873706;    0.857617;    0.923640;    1.005281;    1.076424;    1.167890;    1.285664;    1.457952;    1.747017;    2.088483;    2.550014;    3.283527;    4.477243;    7.117134;   12.705642;   88.438695;
 31;    1.137750;    1.013579;    0.926311;    0.863326;    0.852669;    0.918316;    1.003379;    1.099783;    1.214316;    1.338543;    1.524084;    1.735475;    1.999992;    2.448288;    3.012018;    4.018769;    7.467662;   20.223276;  140.808106;
 32;    1.412387;    1.000585;    0.930960;    0.860918;    0.846521;    0.909936;    1.011942;    1.141255;    1.378602;    1.631563;    2.023859;    2.796235;    3.413736;    5.005178;    6.862611;    9.039827;   18.497023;   41.692781;  151.498345;
 33;    0.940339;    0.999200;    0.900864;    0.842366;    0.833216;    0.891663;    0.986006;    1.087653;    1.204145;    1.384565;    1.628783;    1.823115;    2.117507;    2.829124;    4.012902;    5.536051;    9.035151;   20.832718;   89.827368;
 34;    1.191748;    1.026234;    0.929362;    0.878388;    0.862426;    0.922665;    1.013625;    1.120300;    1.234802;    1.387706;    1.765195;    2.034031;    2.294852;    2.744114;    4.035338;    5.282044;    9.252482;   28.826083;  129.269912;
 35;    1.410035;    1.000313;    0.917295;    0.863076;    0.849335;    0.922479;    1.004546;    1.091431;    1.215206;    1.383655;    1.650323;    1.928598;    2.233302;    2.741342;    3.376221;    6.752941;   15.510888;   67.225862;  167.896336;
 36;    1.057405;    0.985795;    0.919355;    0.861723;    0.840832;    0.909309;    0.988535;    1.118279;    1.244847;    1.408420;    1.573375;    1.807446;    2.178829;    2.612558;    3.218706;    5.087199;    9.040803;   28.933943;  116.499601;
 37;    0.874730;    1.000023;    0.919758;    0.865979;    0.839335;    0.918213;    0.984222;    1.070541;    1.175458;    1.308093;    1.487727;    1.765451;    2.136686;    2.568207;    3.341672;    4.373348;    7.209536;   15.421276;   78.356853;
 38;    1.235019;    0.999082;    0.910809;    0.859683;    0.851428;    0.914340;    0.981373;    1.077443;    1.176440;    1.328548;    1.505407;    1.708564;    1.958217;    2.509079;    3.757604;    5.318381;    9.196765;   25.866618;  130.960282;
 39;    1.142759;    0.978518;    0.905415;    0.857695;    0.846401;    0.922769;    1.006624;    1.105522;    1.208388;    1.325824;    1.518945;    1.743112;    1.982427;    2.476487;    3.330746;    4.712910;    7.882110;   12.843379;   76.607453;
 40;    1.166881;    1.012316;    0.929258;    0.860243;    0.841161;    0.901025;    0.996197;    1.083713;    1.194462;    1.323337;    1.495119;    1.711241;    2.136046;    2.579499;    3.324969;    4.335641;    6.107232;   24.934699;  128.146189;
 41;    1.325046;    0.996807;    0.913456;    0.853917;    0.843078;    0.908146;    0.994682;    1.085560;    1.205510;    1.374144;    1.535287;    1.767146;    2.151365;    2.734720;    4.249734;    5.946257;   13.292512;   37.967123;  114.713709;
 42;    1.271745;    1.013605;    0.911502;    0.861795;    0.840249;    0.912632;    0.980512;    1.083722;    1.179054;    1.340221;    1.524080;    1.808504;    2.118358;    2.605130;    3.250241;    5.266613;    9.356286;   31.039159;  134.492979;
 43;    1.280891;    1.008066;    0.913088;    0.862635;    0.849215;    0.917486;    0.998005;    1.073819;    1.198786;    1.334056;    1.472171;    1.685657;    1.967001;    2.325431;    2.932026;    4.313574;    8.003849;   32.577565;  139.425837;
 44;    0.965479;    1.008772;    0.925711;    0.864215;    0.855741;    0.924603;    1.006358;    1.116313;    1.255225;    1.403022;    1.616566;    1.883375;    2.215932;    2.708297;    3.649455;    5.161992;    8.141523;   17.289507;  112.545658;
 45;    1.038595;    0.986964;    0.902229;    0.853918;    0.846232;    0.921236;    1.003673;    1.104488;    1.185939;    1.345919;    1.515150;    1.730018;    1.993946;    2.407917;    2.994560;    4.269900;    7.972822;   24.900656;  118.305617;
 46;    0.899901;    1.004390;    0.909525;    0.857632;    0.838804;    0.898527;    0.977939;    1.064751;    1.192605;    1.348473;    1.512660;    1.695696;    1.988963;    2.317780;    2.840126;    3.851122;    6.237814;   14.067916;  104.176641;
 47;    1.087114;    1.020472;    0.927512;    0.885943;    0.868067;    0.934340;    1.035970;    1.141644;    1.264673;    1.398758;    1.574817;    1.820233;    2.208730;    2.585992;    3.483817;    5.060036;    9.292274;   16.393716;   89.878857;
 48;    1.078455;    0.987981;    0.910247;    0.865507;    0.857735;    0.942794;    1.052151;    1.173888;    1.298837;    1.497202;    1.681749;    1.940557;    2.384689;    2.943634;    3.911600;    5.748828;   10.527278;   19.176032;   93.688745;
 49;    0.892792;    0.990623;    0.907912;    0.862289;    0.856224;    0.926703;    1.015646;    1.125872;    1.268709;    1.437792;    1.687576;    1.950394;    2.457976;    3.100183;    4.028419;    5.175893;    7.327626;   17.039060;   65.851442;
 50;    1.280086;    1.002264;    0.911117;    0.853215;    0.841242;    0.922980;    1.020551;    1.113808;    1.246236;    1.385928;    1.682970;    2.000760;    2.499887;    3.106441;    6.022805;    8.489182;   12.179667;   22.527019;  135.832906;
 51;    1.147714;    1.015969;    0.920728;    0.871411;    0.850848;    0.941812;    1.064671;    1.183735;    1.305106;    1.466267;    1.652461;    1.907253;    2.188698;    2.551523;    3.562248;    5.856282;    9.846858;   17.154843;  111.668572;
 52;    1.001193;    0.999817;    0.914088;    0.858276;    0.831962;    0.905801;    0.977699;    1.065291;    1.192206;    1.329155;    1.495552;    1.787715;    2.212341;    2.811205;    3.738360;    4.904696;   10.069114;   19.075921;   96.357759;
 53;    1.416154;    0.991335;    0.951355;    0.857501;    0.842311;    0.906624;    0.988270;    1.083440;    1.185408;    1.300739;    1.514320;    1.794566;    2.124038;    2.625269;    3.304940;    5.343271;   13.596261;   48.418923;  156.947530;
 54;    1.268266;    1.017444;    0.929041;    0.849752;    0.840594;    0.908149;    0.993078;    1.076838;    1.175734;    1.326513;    1.481477;    1.698150;    2.239302;    2.916294;    3.755197;    4.713669;    6.043646;   26.640317;  123.073474;
 55;    1.180029;    0.985495;    0.893908;    0.846326;    0.837596;    0.907624;    0.983932;    1.105893;    1.245869;    1.503445;    1.725345;    2.042093;    2.399356;    2.912227;    3.897733;    6.414025;   12.770401;   37.084216;  129.908001;
 56;    1.488219;    1.004697;    0.917348;    0.856334;    0.840038;    0.900277;    1.001845;    1.112757;    1.266034;    1.421830;    1.723106;    2.240840;    2.750371;    3.308128;    4.100034;    5.105170;    8.955744;   50.216454;  164.199739;
 57;    1.095741;    1.023915;    0.939417;    0.876239;    0.857068;    0.931415;    1.011674;    1.125169;    1.259924;    1.383037;    1.583499;    1.803356;    2.191636;    2.690041;    3.436255;    4.610301;    7.994902;   23.852388;  134.141107;
 58;    0.966248;    1.007774;    0.920697;    0.860885;    0.852127;    0.920211;    0.994006;    1.110532;    1.238852;    1.377371;    1.541392;    1.773601;    2.134266;    3.110593;    4.600737;    6.532865;    9.673623;   21.934254;   90.590313;
 59;    0.892879;    0.995031;    0.916569;    0.866243;    0.836194;    0.896679;    0.981624;    1.075886;    1.183073;    1.286659;    1.458630;    1.749042;    2.043255;    2.424242;    2.883937;    3.497405;    4.838972;   14.531743;  103.169679;
 60;    1.252185;    0.998432;    0.912616;    0.861410;    0.847192;    0.920704;    1.030235;    1.136778;    1.261535;    1.413721;    1.620116;    1.859479;    2.326016;    2.927570;    3.712141;    5.283235;   11.814102;   27.457916;  140.888001;
 61;    1.185605;    1.002865;    0.922062;    0.867339;    0.862080;    0.921985;    0.993057;    1.090580;    1.209104;    1.336226;    1.513804;    1.759879;    2.036111;    2.498614;    3.237464;    4.784657;    8.272579;   23.593476;  122.137921;
 62;    1.235648;    0.990045;    0.901318;    0.855058;    0.834914;    0.904187;    0.972554;    1.058387;    1.159515;    1.261427;    1.471991;    1.764036;    2.074105;    2.608158;    3.463300;    5.073197;   10.194733;   36.837638;  127.151093;
 63;    1.092328;    1.010526;    0.913525;    0.848228;    0.841349;    0.901208;    0.977741;    1.061359;    1.190269;    1.370230;    1.570296;    1.866505;    2.704721;    3.590582;    5.446657;    8.649812;   12.544581;   30.453060;  125.879664;
 64;    1.333512;    1.011631;    0.924456;    0.878595;    0.855724;    0.928257;    1.020134;    1.116408;    1.252784;    1.431132;    1.670303;    1.972140;    2.300245;    2.770677;    3.439293;    4.572771;   11.795956;   28.022010;  177.517953;
 65;    1.476470;    0.980835;    0.905527;    0.846502;    0.837837;    0.915996;    0.995653;    1.085629;    1.204277;    1.388686;    1.601087;    1.852161;    2.184780;    2.716850;    3.623035;    5.400183;   14.725305;   47.968676;  122.405971;
 66;    1.264448;    0.991671;    0.906609;    0.859501;    0.847482;    0.917094;    1.009116;    1.097066;    1.219824;    1.358755;    1.521380;    1.739906;    2.444327;    3.509037;    4.780469;    7.988111;   13.167773;   28.667692;  123.351206;
 67;    1.014975;    0.987999;    0.909944;    0.864957;    0.862730;    0.931648;    1.017241;    1.112581;    1.225960;    1.387826;    1.552779;    1.817002;    2.063124;    2.572992;    3.315185;    4.465286;    6.395240;   15.799786;  141.328415;
 68;    1.215295;    1.000766;    0.915162;    0.863459;    0.852430;    0.932783;    1.006992;    1.122184;    1.280674;    1.428044;    1.626021;    1.891665;    2.184987;    3.009697;    3.916096;    6.968240;   14.280618;   33.146260;  114.070140;
 69;    1.413098;    0.999507;    0.926997;    0.874786;    0.855839;    0.925741;    1.021747;    1.122817;    1.246242;    1.420619;    1.635373;    1.947708;    2.249397;    2.651235;    3.209402;    6.043975;   14.513456;   47.362302;  167.649823;
 70;    1.394270;    1.017362;    0.934326;    0.864258;    0.856564;    0.927550;    1.011515;    1.111759;    1.233237;    1.436387;    1.662335;    1.973573;    2.330253;    3.542585;    4.747444;    6.048618;    9.426790;   36.508315;  137.315838;
 71;    1.144731;    0.996162;    0.905238;    0.855755;    0.842919;    0.943306;    1.062013;    1.148780;    1.284934;    1.442204;    1.649753;    1.959643;    2.304015;    2.820238;    3.617694;    5.600499;   11.563220;   23.591721;  109.680554;
 72;    1.342936;    0.999668;    0.906531;    0.861966;    0.852169;    0.925278;    1.009103;    1.110431;    1.225491;    1.375080;    1.599920;    1.810040;    2.192400;    3.102907;    4.545069;    7.658591;   12.093490;   32.355052;  143.228337;
 73;    1.212516;    1.026610;    0.930794;    0.880067;    0.866401;    0.950481;    1.046271;    1.166144;    1.316435;    1.462082;    1.643644;    1.870626;    2.242699;    2.755016;    3.662517;    5.174445;    9.368740;   24.459016;  149.918349;
 74;    0.983649;    1.011504;    0.915387;    0.868931;    0.844852;    0.908974;    1.005710;    1.106414;    1.209042;    1.382657;    1.573281;    1.847759;    2.205515;    2.710772;    3.787003;    5.004396;    8.611361;   24.328218;   81.408481;
 75;    1.024437;    0.998228;    0.912159;    0.841022;    0.824580;    0.900881;    0.991726;    1.076067;    1.188577;    1.312982;    1.501839;    1.735731;    1.991404;    2.402530;    2.917491;    3.805345;    6.615165;   17.423104;   97.440216;
 76;    1.049645;    1.002213;    0.905457;    0.851411;    0.841691;    0.913446;    0.987586;    1.067840;    1.185384;    1.318427;    1.469701;    1.730233;    2.175067;    2.710679;    3.666003;    5.892922;   10.406519;   28.811604;  103.062039;
 77;    1.079427;    0.973723;    0.891246;    0.832565;    0.825283;    0.903645;    0.967711;    1.054546;    1.172099;    1.312706;    1.498943;    1.747321;    2.009375;    2.333838;    2.858523;    4.050928;    5.913456;   33.931237;   90.119894;
 78;    1.437629;    0.998246;    0.922593;    0.859807;    0.842374;    0.919855;    1.014386;    1.122375;    1.253479;    1.419309;    1.578701;    1.870121;    2.228733;    2.623774;    3.266499;    4.426350;    8.535401;   33.634534;  155.110021;
 79;    1.088421;    1.005838;    0.920805;    0.862827;    0.852242;    0.916707;    0.990871;    1.085036;    1.234435;    1.397930;    1.585689;    1.769423;    2.153428;    2.632364;    3.322171;    4.681545;    8.668384;   18.488117;  110.403090;
 80;    1.186365;    0.985979;    0.894637;    0.833989;    0.815263;    0.885641;    0.969304;    1.058765;    1.169928;    1.329554;    1.508495;    1.731372;    1.969029;    2.643858;    4.513891;    7.955013;   14.617226;   40.337033;  114.927483;
 81;    0.866002;    0.983580;    0.899818;    0.853375;    0.833895;    0.900193;    0.966031;    1.075342;    1.213028;    1.362602;    1.577619;    1.884959;    2.217141;    2.699427;    3.492737;    5.044042;    8.229836;   18.057760;   79.542304;
 82;    1.029107;    0.981777;    0.894475;    0.843280;    0.827587;    0.892428;    0.969932;    1.083213;    1.216389;    1.347565;    1.515515;    1.713192;    1.997372;    2.468805;    3.011792;    3.894649;    7.905969;   34.722219;  118.616887;
 83;    1.157729;    0.973038;    0.899797;    0.849927;    0.840208;    0.899866;    0.981014;    1.074537;    1.208751;    1.359068;    1.554268;    1.777888;    2.071516;    2.495490;    3.115775;    3.933836;    6.670775;   29.411756;  137.785407;
 84;    0.946999;    0.996830;    0.930425;    0.874858;    0.850824;    0.933101;    1.017157;    1.121044;    1.260730;    1.476923;    1.686689;    1.992599;    2.303063;    2.832715;    3.535394;    5.870987;    9.464543;   21.233584;   85.341188;
 85;    1.024255;    0.999014;    0.921403;    0.868603;    0.855789;    0.934769;    1.018083;    1.122551;    1.227221;    1.390354;    1.593369;    1.852213;    2.107673;    2.602014;    3.377327;    4.457995;    9.446195;   24.810277;  107.379781;
 86;    1.375222;    1.016207;    0.918738;    0.857099;    0.843242;    0.908980;    1.002664;    1.098375;    1.224250;    1.365856;    1.505239;    1.764891;    2.180513;    2.781417;    3.403475;    5.657963;   10.223602;   30.948428;  165.354721;
 87;    1.316872;    1.001843;    0.910187;    0.853376;    0.847945;    0.918888;    0.995353;    1.081969;    1.191503;    1.397922;    1.608833;    1.891454;    2.354062;    3.090058;    3.986739;    5.515124;   11.965641;   29.766149;  143.851956;
 88;    0.995087;    1.012110;    0.914177;    0.851554;    0.827480;    0.902971;    0.981618;    1.058814;    1.175923;    1.322830;    1.507260;    1.808462;    2.187775;    2.942763;    4.032323;    5.247405;    7.358806;   15.811839;   99.745297;
 89;    1.221508;    1.010443;    0.922091;    0.870280;    0.841349;    0.903853;    0.987128;    1.075367;    1.173768;    1.304565;    1.445903;    1.804259;    2.239889;    2.775633;    3.825475;    5.340000;   10.408337;   21.771631;  130.766996;
 90;    1.219700;    1.001979;    0.925311;    0.866856;    0.857403;    0.923624;    1.019331;    1.120576;    1.236557;    1.367042;    1.524833;    1.714232;    2.138740;    2.711051;    3.516638;    4.684449;   14.303240;   27.560162;  114.065229;
 91;    1.239811;    1.012008;    0.920545;    0.856784;    0.840912;    0.911390;    0.990451;    1.093067;    1.208533;    1.365455;    1.520505;    1.690195;    2.132197;    2.767415;    3.877354;    5.672169;    8.219617;   31.250073;  125.005738;
 92;    1.294947;    1.000471;    0.916520;    0.864931;    0.847350;    0.923450;    1.013343;    1.104446;    1.224040;    1.391925;    1.578681;    1.786788;    2.036289;    2.441396;    3.285156;    5.439285;   10.798598;   41.573062;  154.813674;
 93;    1.256581;    1.006194;    0.921729;    0.871986;    0.856628;    0.932146;    1.022085;    1.117152;    1.237144;    1.406465;    1.581421;    1.823593;    2.258322;    2.825982;    3.870889;    5.646723;    9.838170;   23.682857;  123.473624;
 94;    1.071405;    0.993270;    0.903453;    0.841663;    0.837733;    0.897427;    0.986765;    1.099494;    1.234734;    1.421145;    1.579090;    1.858840;    2.147145;    2.812467;    3.700577;    5.263566;    7.546213;   30.016489;   91.231188;
 95;    1.170376;    1.012519;    0.920583;    0.865716;    0.853102;    0.923909;    1.018449;    1.120873;    1.225274;    1.416165;    1.655702;    1.972011;    2.506330;    3.102510;    3.773325;    4.805729;    6.872068;   21.876058;  122.073235;
 96;    1.502581;    1.006885;    0.909479;    0.850961;    0.836769;    0.900409;    1.010410;    1.113521;    1.264219;    1.442430;    1.715312;    2.030597;    2.553719;    3.337810;    5.440240;    8.671487;   17.540449;   41.104706;  149.103344;
 97;    1.174270;    1.020939;    0.945893;    0.889342;    0.869223;    0.948305;    1.016329;    1.145365;    1.280458;    1.476209;    1.704230;    2.045913;    2.482292;    3.270363;    4.331507;    5.946954;    9.980084;   30.480319;  101.252777;
 98;    0.999656;    1.008527;    0.926209;    0.863990;    0.845154;    0.903061;    0.979319;    1.070892;    1.213817;    1.376600;    1.557988;    1.777219;    2.098388;    2.585430;    3.247102;    4.125639;    6.862721;   17.054971;  112.283770;
 99;    1.347091;    1.004525;    0.910322;    0.859529;    0.844338;    0.899781;    0.981437;    1.111793;    1.253015;    1.473186;    1.714888;    2.075229;    2.359398;    2.715865;    3.722882;    6.287073;   13.037492;   29.140629;  194.654012;
100;    1.015358;    0.993696;    0.904820;    0.858177;    0.844418;    0.912240;    1.007414;    1.128952;    1.252536;    1.391573;    1.572042;    1.815194;    2.332947;    3.032729;    4.044764;    7.239214;   13.927713;   31.093845;   71.325251;
