Simulation;Time;PC 0;PC 1;PC 2;PC 3;PC 4;PC 5;PC 6;PC 7;PC 8;PC 9;PC10;PC11;PC12;PC13;PC14;PC15;PC16;PC17;
Nan;Nan;0;0;0;0;0;0;0;0;0;0;0;0;0;1;0;0;0;0;
  0;    0.081648;    0.991994;    0.747038;    0.605208;    0.535056;    0.556239;    0.572992;    0.587864;    0.597904;    0.606298;    0.637979;    0.656441;    0.681687;    0.709591;    0.744497;    0.779859;    0.824674;    0.874237;    0.931789;
  1;    0.082212;    1.025442;    0.776374;    0.618641;    0.547041;    0.575855;    0.582351;    0.595877;    0.616122;    0.628691;    0.653540;    0.680593;    0.710553;    0.740844;    0.772041;    0.804981;    0.849746;    0.900808;    0.958979;
  2;    0.082564;    1.028211;    0.782484;    0.628883;    0.552084;    0.578314;    0.605478;    0.612227;    0.626226;    0.633539;    0.657681;    0.688757;    0.714514;    0.744239;    0.779979;    0.812169;    0.848760;    0.903312;    0.957415;
  3;    0.082057;    0.992648;    0.757038;    0.634086;    0.560582;    0.583588;    0.606386;    0.620656;    0.634828;    0.638323;    0.660739;    0.683145;    0.708247;    0.727716;    0.754725;    0.782647;    0.825236;    0.874881;    0.929776;
  4;    0.089851;    1.029359;    0.779538;    0.643324;    0.559052;    0.584711;    0.602632;    0.628468;    0.635760;    0.645217;    0.672308;    0.693344;    0.722992;    0.743453;    0.777465;    0.820494;    0.866447;    0.916064;    0.970433;
  5;    0.080871;    0.998753;    0.749698;    0.613196;    0.550814;    0.577831;    0.599568;    0.616914;    0.622776;    0.619702;    0.640309;    0.668643;    0.688929;    0.719520;    0.746933;    0.780321;    0.826567;    0.874696;    0.930127;
  6;    0.081100;    1.008885;    0.764636;    0.614820;    0.548636;    0.570002;    0.589839;    0.603202;    0.610194;    0.622440;    0.642592;    0.675545;    0.700231;    0.733856;    0.761156;    0.795845;    0.837658;    0.887840;    0.944050;
  7;    0.080599;    1.013149;    0.761263;    0.621408;    0.554098;    0.575401;    0.598121;    0.616276;    0.611378;    0.626806;    0.650580;    0.680721;    0.703169;    0.737919;    0.758384;    0.791302;    0.837146;    0.889832;    0.945333;
  8;    0.081388;    0.976859;    0.734658;    0.604554;    0.543589;    0.565656;    0.594750;    0.608002;    0.605690;    0.610649;    0.633444;    0.658061;    0.676831;    0.700340;    0.732385;    0.774285;    0.808884;    0.851291;    0.914807;
  9;    0.081419;    1.007597;    0.765900;    0.623578;    0.558555;    0.581190;    0.605086;    0.623920;    0.628908;    0.630416;    0.658306;    0.685778;    0.711918;    0.741374;    0.764607;    0.793757;    0.836594;    0.884639;    0.942355;
 10;    0.080689;    1.020530;    0.776273;    0.630671;    0.557181;    0.587675;    0.603392;    0.625405;    0.633190;    0.639382;    0.662992;    0.685790;    0.713107;    0.742553;    0.773883;    0.804549;    0.845991;    0.892168;    0.954560;
 11;    0.080148;    0.994480;    0.761178;    0.616368;    0.552205;    0.574475;    0.603243;    0.612259;    0.617157;    0.623413;    0.655920;    0.685215;    0.700389;    0.730633;    0.756466;    0.795574;    0.830234;    0.883244;    0.936052;
 12;    0.080817;    0.977951;    0.751398;    0.607665;    0.549694;    0.571438;    0.585165;    0.606914;    0.606612;    0.615396;    0.636118;    0.663934;    0.692940;    0.725065;    0.747027;    0.777004;    0.815085;    0.865350;    0.915491;
 13;    0.081327;    1.005185;    0.749209;    0.616478;    0.549662;    0.570344;    0.596565;    0.612261;    0.621540;    0.618170;    0.643354;    0.674147;    0.698461;    0.732860;    0.746320;    0.775616;    0.823553;    0.877615;    0.937718;
 14;    0.080689;    0.983813;    0.748842;    0.613036;    0.537433;    0.561505;    0.578438;    0.590511;    0.605608;    0.620408;    0.641402;    0.674069;    0.696660;    0.723160;    0.745579;    0.776258;    0.820612;    0.866347;    0.920054;
 15;    0.082320;    1.008508;    0.740059;    0.608346;    0.533531;    0.551997;    0.572142;    0.592377;    0.599988;    0.614164;    0.636358;    0.658992;    0.683481;    0.714372;    0.738908;    0.772258;    0.818090;    0.871363;    0.938946;
 16;    0.080848;    1.010143;    0.772687;    0.632046;    0.563302;    0.582694;    0.602565;    0.620345;    0.635002;    0.638356;    0.665455;    0.694024;    0.721856;    0.740462;    0.766719;    0.803963;    0.842814;    0.893073;    0.950154;
 17;    0.080737;    0.980539;    0.746253;    0.623520;    0.543504;    0.570590;    0.582207;    0.595442;    0.613899;    0.624505;    0.645715;    0.675227;    0.695459;    0.725077;    0.742533;    0.772007;    0.806644;    0.861558;    0.917298;
 18;    0.082801;    0.959502;    0.736937;    0.609470;    0.548158;    0.575353;    0.590908;    0.598641;    0.607115;    0.615913;    0.636689;    0.663805;    0.691713;    0.708599;    0.735697;    0.769122;    0.804683;    0.847288;    0.904175;
 19;    0.080955;    0.984465;    0.735166;    0.596257;    0.547375;    0.567539;    0.588449;    0.608345;    0.608816;    0.606558;    0.636602;    0.662206;    0.684907;    0.704512;    0.734695;    0.768943;    0.809169;    0.862809;    0.921146;
 20;    0.081338;    1.025539;    0.761058;    0.625003;    0.552332;    0.578007;    0.604564;    0.615483;    0.631897;    0.628429;    0.653354;    0.682797;    0.704480;    0.730965;    0.758851;    0.792664;    0.833418;    0.891898;    0.957690;
 21;    0.080916;    1.012218;    0.751314;    0.619232;    0.550912;    0.570668;    0.594801;    0.603127;    0.616877;    0.626803;    0.653355;    0.674150;    0.698277;    0.725058;    0.749365;    0.784508;    0.822169;    0.879388;    0.940475;
 22;    0.081803;    1.013247;    0.757251;    0.618925;    0.559875;    0.577964;    0.599661;    0.603742;    0.614834;    0.628419;    0.652182;    0.679068;    0.701710;    0.728369;    0.755987;    0.788856;    0.833002;    0.886680;    0.943994;
 23;    0.087841;    0.992577;    0.749004;    0.608508;    0.556448;    0.584742;    0.608462;    0.610089;    0.616569;    0.615282;    0.639933;    0.671363;    0.697821;    0.728077;    0.747287;    0.777128;    0.820227;    0.877480;    0.932674;
 24;    0.081224;    1.027952;    0.777672;    0.628322;    0.555989;    0.580068;    0.604615;    0.615203;    0.626582;    0.632508;    0.660931;    0.690962;    0.714189;    0.743889;    0.771650;    0.807074;    0.851505;    0.901267;    0.961281;
 25;    0.080808;    0.988030;    0.752550;    0.615894;    0.543621;    0.571271;    0.582512;    0.595381;    0.608364;    0.623638;    0.644509;    0.676666;    0.705070;    0.723472;    0.748770;    0.778986;    0.819210;    0.872967;    0.925438;
 26;    0.080492;    1.008285;    0.763029;    0.626440;    0.561700;    0.587062;    0.609407;    0.628618;    0.627970;    0.630048;    0.662772;    0.687515;    0.712209;    0.732016;    0.759266;    0.791636;    0.835436;    0.888308;    0.943476;
 27;    0.081714;    1.010047;    0.750011;    0.616538;    0.554610;    0.576178;    0.595263;    0.618978;    0.616893;    0.621642;    0.646977;    0.668582;    0.696266;    0.716365;    0.748011;    0.790650;    0.829989;    0.880149;    0.939846;
 28;    0.080289;    1.012569;    0.748328;    0.612199;    0.550815;    0.577753;    0.595879;    0.601944;    0.614954;    0.617213;    0.648807;    0.670679;    0.695625;    0.716150;    0.746468;    0.782465;    0.828915;    0.874668;    0.938413;
 29;    0.080209;    1.031514;    0.753694;    0.614894;    0.549796;    0.577383;    0.590553;    0.602945;    0.611393;    0.618896;    0.644070;    0.665122;    0.688999;    0.714977;    0.752415;    0.791640;    0.837709;    0.888589;    0.953583;
 30;    0.081162;    1.014832;    0.760423;    0.624955;    0.551780;    0.579866;    0.594334;    0.609511;    0.616586;    0.625331;    0.650281;    0.684093;    0.701158;    0.737087;    0.756986;    0.796785;    0.844854;    0.896846;    0.954555;
 31;    0.080923;    1.015496;    0.763982;    0.614771;    0.549578;    0.581426;    0.599838;    0.606477;    0.614943;    0.623449;    0.652498;    0.677279;    0.707844;    0.731671;    0.760970;    0.792257;    0.833707;    0.884927;    0.947657;
 32;    0.081421;    0.998549;    0.772160;    0.613232;    0.549141;    0.576048;    0.598047;    0.613064;    0.617836;    0.625349;    0.649922;    0.677834;    0.705383;    0.740136;    0.764714;    0.792644;    0.831750;    0.880840;    0.934792;
 33;    0.081490;    1.009003;    0.744972;    0.599488;    0.538985;    0.558735;    0.572227;    0.589959;    0.607928;    0.606356;    0.634528;    0.657234;    0.691858;    0.716401;    0.743130;    0.779711;    0.819271;    0.874276;    0.935960;
 34;    0.080499;    1.027936;    0.761808;    0.623551;    0.554430;    0.575339;    0.598942;    0.611966;    0.625134;    0.629424;    0.653486;    0.678138;    0.700995;    0.729792;    0.759186;    0.792120;    0.836458;    0.896481;    0.958342;
 35;    0.081088;    1.000249;    0.757493;    0.613361;    0.551551;    0.580384;    0.599551;    0.609195;    0.617109;    0.620139;    0.643466;    0.671496;    0.698385;    0.725990;    0.754856;    0.784038;    0.824548;    0.877214;    0.936049;
 36;    0.082006;    0.977062;    0.760501;    0.616955;    0.540687;    0.572876;    0.596405;    0.604337;    0.622801;    0.622886;    0.647937;    0.676222;    0.702725;    0.730225;    0.756329;    0.785359;    0.820331;    0.868879;    0.914810;
 37;    0.082662;    1.000878;    0.763561;    0.624207;    0.541115;    0.576228;    0.589341;    0.613687;    0.617611;    0.632156;    0.656164;    0.683318;    0.709044;    0.733108;    0.759832;    0.795989;    0.841907;    0.891201;    0.942673;
 38;    0.081905;    0.995410;    0.744156;    0.607250;    0.545846;    0.567697;    0.581774;    0.595986;    0.600259;    0.613489;    0.646431;    0.660930;    0.686125;    0.715455;    0.741331;    0.781296;    0.822755;    0.871563;    0.928796;
 39;    0.083641;    0.965317;    0.738802;    0.608867;    0.539970;    0.560796;    0.575148;    0.590886;    0.611858;    0.614800;    0.635372;    0.659750;    0.684025;    0.712499;    0.735904;    0.770797;    0.809549;    0.853647;    0.904593;
 40;    0.083493;    1.020730;    0.776411;    0.618521;    0.545744;    0.571055;    0.591803;    0.605628;    0.622013;    0.622587;    0.647749;    0.674714;    0.713108;    0.738831;    0.769389;    0.799617;    0.841365;    0.893629;    0.954943;
 41;    0.082091;    0.995842;    0.750837;    0.602209;    0.544500;    0.569942;    0.579060;    0.588943;    0.600033;    0.608339;    0.632081;    0.665001;    0.692894;    0.722093;    0.747054;    0.784744;    0.822471;    0.870985;    0.929395;
 42;    0.081102;    1.025946;    0.753889;    0.619537;    0.546000;    0.567986;    0.591626;    0.603424;    0.621098;    0.627361;    0.652240;    0.669593;    0.697371;    0.723315;    0.752604;    0.790242;    0.832142;    0.888929;    0.952443;
 43;    0.080643;    1.012906;    0.753290;    0.614834;    0.549218;    0.573785;    0.594422;    0.608791;    0.616662;    0.620009;    0.644542;    0.666210;    0.692144;    0.719220;    0.749693;    0.789199;    0.829756;    0.882617;    0.944030;
 44;    0.080680;    1.007583;    0.763887;    0.611091;    0.552879;    0.584562;    0.604979;    0.616890;    0.615109;    0.615945;    0.647944;    0.667757;    0.703489;    0.729971;    0.761321;    0.790960;    0.831392;    0.887823;    0.942211;
 45;    0.081377;    0.979245;    0.734689;    0.604609;    0.544056;    0.568550;    0.586483;    0.597414;    0.603400;    0.611677;    0.632765;    0.653713;    0.684212;    0.709265;    0.733261;    0.770407;    0.812121;    0.854616;    0.915116;
 46;    0.080272;    1.013193;    0.752089;    0.612932;    0.546065;    0.566603;    0.586496;    0.598942;    0.610616;    0.615121;    0.643373;    0.663775;    0.689267;    0.718310;    0.749797;    0.783790;    0.829443;    0.887033;    0.951656;
 47;    0.081120;    1.018757;    0.757116;    0.630209;    0.561828;    0.584814;    0.610539;    0.617380;    0.635792;    0.635571;    0.664717;    0.692350;    0.716905;    0.729282;    0.753545;    0.790158;    0.838760;    0.888756;    0.944769;
 48;    0.082467;    0.979150;    0.743745;    0.617154;    0.554760;    0.572790;    0.595610;    0.610912;    0.616019;    0.621754;    0.651278;    0.678028;    0.699659;    0.723980;    0.742709;    0.773805;    0.814615;    0.858092;    0.916407;
 49;    0.081227;    0.984969;    0.744357;    0.616297;    0.554287;    0.576722;    0.590992;    0.598465;    0.610390;    0.621485;    0.644802;    0.671497;    0.693354;    0.721331;    0.741774;    0.775866;    0.813929;    0.866236;    0.920997;
 50;    0.084095;    1.008404;    0.754700;    0.610394;    0.545579;    0.565662;    0.589234;    0.600745;    0.607140;    0.616905;    0.643288;    0.672564;    0.698594;    0.727707;    0.752138;    0.793235;    0.831020;    0.885078;    0.942229;
 51;    0.081800;    1.027953;    0.767702;    0.630662;    0.557998;    0.581844;    0.599324;    0.614991;    0.629997;    0.636006;    0.663412;    0.688956;    0.714508;    0.738580;    0.764687;    0.802234;    0.849989;    0.900115;    0.958962;
 52;    0.081543;    1.005601;    0.759269;    0.616176;    0.538916;    0.561080;    0.587107;    0.597193;    0.604864;    0.620471;    0.641260;    0.669261;    0.696152;    0.728903;    0.756384;    0.793248;    0.835579;    0.887737;    0.942359;
 53;    0.081493;    0.988198;    0.774514;    0.615932;    0.546975;    0.570873;    0.586692;    0.601294;    0.621997;    0.622058;    0.652674;    0.682379;    0.722279;    0.753142;    0.769115;    0.795099;    0.835166;    0.878622;    0.926752;
 54;    0.081428;    1.030219;    0.776363;    0.603865;    0.545489;    0.572423;    0.586056;    0.596695;    0.615170;    0.610565;    0.642187;    0.666912;    0.694363;    0.738331;    0.772288;    0.806064;    0.840877;    0.891926;    0.959271;
 55;    0.091048;    0.986315;    0.734620;    0.604701;    0.541243;    0.572363;    0.583690;    0.593876;    0.605220;    0.613764;    0.638926;    0.671702;    0.698803;    0.717507;    0.733190;    0.765542;    0.806641;    0.853204;    0.915491;
 56;    0.081285;    1.006708;    0.754920;    0.608450;    0.540560;    0.565620;    0.582361;    0.593384;    0.614676;    0.617468;    0.639795;    0.664002;    0.691732;    0.719097;    0.751695;    0.785902;    0.825820;    0.874919;    0.937724;
 57;    0.080338;    1.025037;    0.775248;    0.625006;    0.551588;    0.575651;    0.593786;    0.611215;    0.625700;    0.631930;    0.652622;    0.683780;    0.714305;    0.749534;    0.772096;    0.804315;    0.849782;    0.901323;    0.959707;
 58;    0.079723;    1.010459;    0.760127;    0.611255;    0.551382;    0.582538;    0.590041;    0.604370;    0.618182;    0.618368;    0.644625;    0.668600;    0.695492;    0.732204;    0.758710;    0.798829;    0.840683;    0.891443;    0.945646;
 59;    0.081001;    0.995906;    0.757896;    0.624967;    0.542564;    0.563203;    0.579396;    0.597737;    0.621065;    0.629188;    0.649846;    0.675880;    0.706289;    0.731043;    0.754168;    0.784734;    0.823188;    0.873510;    0.932846;
 60;    0.080152;    1.000363;    0.753085;    0.614991;    0.551976;    0.577176;    0.599148;    0.617272;    0.616161;    0.620756;    0.643163;    0.672340;    0.698152;    0.722162;    0.752219;    0.789524;    0.828247;    0.881777;    0.940258;
 61;    0.081123;    0.991858;    0.749088;    0.607743;    0.552051;    0.572964;    0.601025;    0.606054;    0.610970;    0.617586;    0.639391;    0.665976;    0.690484;    0.718002;    0.745553;    0.777547;    0.817133;    0.868097;    0.926425;
 62;    0.080719;    0.991378;    0.744553;    0.615171;    0.541064;    0.569794;    0.582291;    0.596007;    0.605568;    0.619038;    0.651169;    0.681432;    0.703641;    0.718029;    0.741773;    0.777637;    0.812008;    0.867022;    0.924970;
 63;    0.081097;    1.019900;    0.756681;    0.603500;    0.542351;    0.564659;    0.578032;    0.597679;    0.610861;    0.612214;    0.642685;    0.673942;    0.693555;    0.723035;    0.754151;    0.792783;    0.837113;    0.890432;    0.950806;
 64;    0.080380;    1.010017;    0.760392;    0.627588;    0.551245;    0.576296;    0.604803;    0.618364;    0.625955;    0.634377;    0.661009;    0.685005;    0.711880;    0.734164;    0.758308;    0.791349;    0.835511;    0.886896;    0.941802;
 65;    0.080379;    0.976137;    0.744064;    0.600136;    0.539427;    0.563897;    0.586749;    0.592729;    0.597663;    0.606340;    0.631480;    0.660502;    0.687317;    0.710785;    0.740425;    0.774633;    0.814588;    0.863856;    0.915855;
 66;    0.083131;    0.993459;    0.750627;    0.616415;    0.552915;    0.584766;    0.591783;    0.607929;    0.619747;    0.621889;    0.638283;    0.660250;    0.690068;    0.718196;    0.748374;    0.780960;    0.818121;    0.866050;    0.927416;
 67;    0.082998;    0.974254;    0.740090;    0.605802;    0.554472;    0.572461;    0.592626;    0.606598;    0.605072;    0.610471;    0.631584;    0.654961;    0.679130;    0.718484;    0.737559;    0.764860;    0.801077;    0.850040;    0.909574;
 68;    0.080459;    0.999398;    0.751552;    0.614459;    0.551971;    0.574538;    0.592880;    0.605128;    0.621744;    0.622208;    0.643468;    0.672889;    0.700696;    0.720373;    0.751187;    0.791922;    0.826586;    0.881459;    0.939853;
 69;    0.080500;    0.988828;    0.760330;    0.622843;    0.549992;    0.577513;    0.597476;    0.613067;    0.627962;    0.632631;    0.655724;    0.679157;    0.704450;    0.734789;    0.757995;    0.791878;    0.826659;    0.871290;    0.925782;
 70;    0.089872;    1.018352;    0.771465;    0.611710;    0.551543;    0.572945;    0.597385;    0.612800;    0.613575;    0.618752;    0.643751;    0.678946;    0.707356;    0.739670;    0.768525;    0.804090;    0.839539;    0.894913;    0.956610;
 71;    0.081184;    0.997949;    0.744807;    0.607609;    0.547767;    0.563590;    0.580049;    0.608521;    0.620714;    0.613098;    0.641758;    0.661742;    0.688071;    0.711112;    0.744874;    0.774363;    0.817201;    0.872811;    0.933404;
 72;    0.080316;    0.999797;    0.741754;    0.612047;    0.552012;    0.577771;    0.599827;    0.609081;    0.620462;    0.616151;    0.643305;    0.667213;    0.691720;    0.717340;    0.740749;    0.780388;    0.825034;    0.875198;    0.934718;
 73;    0.082285;    1.034440;    0.771696;    0.632322;    0.565229;    0.591447;    0.611026;    0.625191;    0.642129;    0.634292;    0.659493;    0.686804;    0.711205;    0.746202;    0.769778;    0.801469;    0.851182;    0.904111;    0.971197;
 74;    0.081734;    1.015865;    0.752095;    0.624734;    0.544921;    0.569485;    0.587390;    0.602957;    0.620208;    0.631706;    0.659182;    0.681062;    0.699431;    0.727420;    0.750628;    0.791855;    0.840836;    0.886606;    0.949423;
 75;    0.080704;    1.009604;    0.763946;    0.603540;    0.532955;    0.565066;    0.577100;    0.589862;    0.606523;    0.606266;    0.642139;    0.672460;    0.710195;    0.732258;    0.758535;    0.796818;    0.836060;    0.885854;    0.948516;
 76;    0.080603;    1.008463;    0.744497;    0.604330;    0.546301;    0.568318;    0.587153;    0.599576;    0.604689;    0.611853;    0.637876;    0.661916;    0.685346;    0.707639;    0.743633;    0.774811;    0.821241;    0.872762;    0.940356;
 77;    0.080603;    0.973215;    0.735612;    0.592831;    0.530713;    0.548177;    0.566545;    0.580111;    0.593142;    0.599980;    0.625249;    0.653333;    0.678274;    0.707170;    0.732258;    0.761181;    0.797825;    0.849990;    0.912347;
 78;    0.081821;    0.995561;    0.764376;    0.615925;    0.542398;    0.568802;    0.591175;    0.595971;    0.609037;    0.619893;    0.649983;    0.680290;    0.706231;    0.729687;    0.762919;    0.796758;    0.834120;    0.875575;    0.931062;
 79;    0.081035;    1.003395;    0.754330;    0.609466;    0.550772;    0.568752;    0.586492;    0.600838;    0.610674;    0.615418;    0.643008;    0.670058;    0.698721;    0.730884;    0.752674;    0.787399;    0.829811;    0.888202;    0.948213;
 80;    0.080435;    0.996940;    0.744230;    0.600262;    0.528621;    0.548713;    0.571622;    0.582415;    0.593184;    0.605317;    0.631299;    0.660544;    0.681289;    0.709894;    0.741041;    0.776055;    0.820042;    0.871352;    0.929858;
 81;    0.081758;    0.982718;    0.739720;    0.608346;    0.540254;    0.567372;    0.583551;    0.593110;    0.608543;    0.611508;    0.636474;    0.655856;    0.683514;    0.710306;    0.736801;    0.767855;    0.804784;    0.856922;    0.918563;
 82;    0.080243;    0.984098;    0.737267;    0.600510;    0.535701;    0.565094;    0.581885;    0.589745;    0.596214;    0.604601;    0.636021;    0.660039;    0.682005;    0.709187;    0.734851;    0.767619;    0.816079;    0.864668;    0.920142;
 83;    0.080128;    0.961092;    0.733089;    0.599712;    0.540835;    0.561764;    0.580174;    0.592595;    0.605825;    0.608146;    0.637268;    0.658455;    0.687524;    0.709251;    0.731172;    0.759672;    0.797536;    0.843041;    0.897387;
 84;    0.081844;    0.987508;    0.766587;    0.623962;    0.549193;    0.570813;    0.585958;    0.603326;    0.626528;    0.629689;    0.652521;    0.680512;    0.708964;    0.730652;    0.761698;    0.789732;    0.825374;    0.868364;    0.925447;
 85;    0.081510;    0.995368;    0.759897;    0.619183;    0.555349;    0.576215;    0.597312;    0.611465;    0.626163;    0.626364;    0.655138;    0.675929;    0.703844;    0.731253;    0.758237;    0.787652;    0.825683;    0.869411;    0.930826;
 86;    0.081873;    1.025496;    0.760731;    0.611470;    0.543920;    0.569676;    0.586608;    0.612678;    0.608983;    0.615620;    0.644128;    0.673612;    0.710648;    0.732268;    0.758289;    0.792310;    0.843113;    0.896897;    0.960054;
 87;    0.082313;    1.005609;    0.750006;    0.609290;    0.547668;    0.567994;    0.580078;    0.594332;    0.603400;    0.616521;    0.639491;    0.665095;    0.692703;    0.716351;    0.747055;    0.788993;    0.833262;    0.886410;    0.940165;
 88;    0.080534;    1.031042;    0.766051;    0.617510;    0.540996;    0.572393;    0.593824;    0.605746;    0.616095;    0.622800;    0.652169;    0.678560;    0.702332;    0.732043;    0.764848;    0.807871;    0.844741;    0.897941;    0.955199;
 89;    0.082695;    1.016601;    0.766401;    0.624944;    0.546866;    0.570264;    0.597024;    0.604489;    0.613384;    0.627850;    0.656606;    0.678982;    0.704821;    0.733967;    0.761462;    0.796666;    0.840963;    0.897197;    0.957501;
 90;    0.079928;    0.994193;    0.756713;    0.612976;    0.552265;    0.569943;    0.588187;    0.607063;    0.614765;    0.621414;    0.649248;    0.671830;    0.705624;    0.736364;    0.754287;    0.787623;    0.827993;    0.873560;    0.926941;
 91;    0.080347;    1.020129;    0.765674;    0.612452;    0.543666;    0.564528;    0.583379;    0.606475;    0.612610;    0.617986;    0.640426;    0.668188;    0.698586;    0.726005;    0.763283;    0.801086;    0.840766;    0.889918;    0.950767;
 92;    0.081238;    0.996722;    0.751556;    0.618552;    0.542373;    0.566666;    0.584640;    0.605672;    0.615811;    0.622839;    0.649101;    0.680505;    0.705149;    0.727383;    0.749173;    0.788393;    0.825531;    0.875955;    0.930101;
 93;    0.080616;    1.003703;    0.758779;    0.623393;    0.553564;    0.580887;    0.599405;    0.615045;    0.632308;    0.627157;    0.649123;    0.678857;    0.697103;    0.729784;    0.758179;    0.788799;    0.827559;    0.881958;    0.937470;
 94;    0.081148;    1.001218;    0.751932;    0.602114;    0.544779;    0.564101;    0.577665;    0.592310;    0.603817;    0.608813;    0.633854;    0.655608;    0.683141;    0.716861;    0.749061;    0.779542;    0.829023;    0.873472;    0.930107;
 95;    0.081547;    1.016517;    0.758697;    0.617277;    0.552388;    0.573111;    0.603278;    0.607473;    0.618165;    0.623470;    0.656110;    0.687145;    0.711434;    0.728348;    0.756685;    0.788803;    0.833901;    0.881910;    0.941370;
 96;    0.081191;    1.016671;    0.754905;    0.607677;    0.541759;    0.573554;    0.593021;    0.607714;    0.612743;    0.613050;    0.642347;    0.662963;    0.694429;    0.727065;    0.752417;    0.789214;    0.839965;    0.890410;    0.948422;
 97;    0.081430;    1.016826;    0.782220;    0.636366;    0.563933;    0.581547;    0.600350;    0.617648;    0.628153;    0.637541;    0.664915;    0.692149;    0.724953;    0.755708;    0.777909;    0.810761;    0.850286;    0.893644;    0.952437;
 98;    0.081559;    1.009255;    0.766316;    0.617728;    0.543912;    0.567691;    0.583720;    0.604903;    0.612778;    0.623288;    0.645259;    0.673739;    0.702039;    0.732394;    0.762673;    0.796787;    0.841394;    0.881976;    0.941031;
 99;    0.080783;    1.003550;    0.743569;    0.608923;    0.539795;    0.563700;    0.582489;    0.600772;    0.611646;    0.612986;    0.641032;    0.670583;    0.694880;    0.727102;    0.741766;    0.778444;    0.819167;    0.871054;    0.935888;
100;    0.080293;    0.992106;    0.740830;    0.613294;    0.544582;    0.570415;    0.588734;    0.599897;    0.617762;    0.620084;    0.643952;    0.667975;    0.690965;    0.717023;    0.740843;    0.781042;    0.828264;    0.876994;    0.926986;
