Simulation;Time;PC 0;PC 1;PC 2;PC 3;PC 4;PC 5;PC 6;PC 7;PC 8;PC 9;PC10;PC11;PC12;PC13;PC14;PC15;PC16;PC17;
Nan;Nan;0;0;0;0;0;0;0;0;0;0;0;0;0;1;0;0;0;0;
  0;    0.597824;    0.982931;    0.884358;    0.877690;    0.868209;    0.863182;    0.854128;    0.824246;    0.798942;    0.749525;    0.686518;    0.608332;    0.530626;    0.447621;    0.373131;    0.277031;    0.234975;    0.168166;    0.096131;
  1;    0.602082;    1.007748;    0.905644;    0.894951;    0.880680;    0.878013;    0.850976;    0.831871;    0.803134;    0.748374;    0.713109;    0.637744;    0.542199;    0.460826;    0.309419;    0.270089;    0.216853;    0.157243;    0.078154;
  2;    0.588086;    1.012016;    0.912043;    0.913588;    0.898933;    0.893283;    0.862512;    0.841501;    0.798212;    0.753381;    0.694517;    0.633843;    0.554417;    0.455372;    0.311592;    0.282951;    0.233737;    0.172458;    0.100094;
  3;    0.602848;    1.007678;    0.913471;    0.909761;    0.912528;    0.904073;    0.887613;    0.846452;    0.815708;    0.775782;    0.707599;    0.656394;    0.557236;    0.425664;    0.295871;    0.243672;    0.213519;    0.176451;    0.105139;
  4;    0.597502;    1.024145;    0.923270;    0.920852;    0.912007;    0.894917;    0.844342;    0.820222;    0.801072;    0.762154;    0.707874;    0.642444;    0.548527;    0.443012;    0.316801;    0.287671;    0.256059;    0.183969;    0.107841;
  5;    0.599467;    1.003847;    0.903010;    0.900913;    0.881402;    0.871689;    0.847574;    0.814253;    0.800127;    0.752343;    0.704108;    0.631457;    0.547575;    0.442021;    0.305499;    0.271386;    0.225942;    0.181437;    0.093726;
  6;    0.589794;    1.003653;    0.904842;    0.904889;    0.883099;    0.865358;    0.856288;    0.831382;    0.801956;    0.757568;    0.709181;    0.643153;    0.569337;    0.447482;    0.311294;    0.281317;    0.226574;    0.161833;    0.102664;
  7;    0.601499;    1.007934;    0.904147;    0.889336;    0.890511;    0.875880;    0.867812;    0.840749;    0.809954;    0.753472;    0.701367;    0.628924;    0.555495;    0.427392;    0.296327;    0.257087;    0.220686;    0.155406;    0.102197;
  8;    0.594701;    0.984804;    0.886810;    0.887100;    0.882933;    0.873344;    0.850758;    0.819413;    0.801872;    0.747936;    0.689649;    0.605336;    0.516522;    0.411763;    0.315203;    0.285587;    0.236470;    0.173570;    0.112029;
  9;    0.589150;    1.010352;    0.912682;    0.906609;    0.898216;    0.879928;    0.881322;    0.865454;    0.829946;    0.792628;    0.742266;    0.660682;    0.593254;    0.460447;    0.288454;    0.246877;    0.218741;    0.168574;    0.093018;
 10;    0.589529;    1.014970;    0.916625;    0.902656;    0.899178;    0.896937;    0.873983;    0.849589;    0.838290;    0.804516;    0.743383;    0.635334;    0.569345;    0.441873;    0.305629;    0.272086;    0.240621;    0.170446;    0.088877;
 11;    0.596954;    1.005800;    0.912879;    0.912053;    0.912856;    0.895902;    0.886060;    0.853759;    0.839520;    0.803881;    0.722540;    0.669607;    0.584662;    0.467953;    0.365333;    0.295579;    0.240080;    0.170441;    0.100603;
 12;    0.600049;    0.989881;    0.898941;    0.894493;    0.882385;    0.875182;    0.852070;    0.818022;    0.781598;    0.740890;    0.690653;    0.620095;    0.504009;    0.389053;    0.294710;    0.262514;    0.224110;    0.184649;    0.108227;
 13;    0.589744;    1.004995;    0.899809;    0.895526;    0.889636;    0.880897;    0.862834;    0.846413;    0.800977;    0.762630;    0.708869;    0.623928;    0.554738;    0.437529;    0.320342;    0.271578;    0.237499;    0.173040;    0.085255;
 14;    0.592229;    0.983598;    0.889327;    0.884844;    0.885386;    0.870267;    0.845805;    0.828470;    0.798814;    0.767869;    0.704213;    0.599358;    0.528726;    0.432134;    0.314689;    0.276198;    0.226707;    0.185757;    0.108958;
 15;    0.594233;    0.991368;    0.879728;    0.882035;    0.864665;    0.840183;    0.815658;    0.799764;    0.761990;    0.702943;    0.661120;    0.604999;    0.527032;    0.435271;    0.305858;    0.263293;    0.210449;    0.171606;    0.109120;
 16;    0.592706;    1.019565;    0.924150;    0.916462;    0.911540;    0.903921;    0.879136;    0.850994;    0.820473;    0.778820;    0.727905;    0.654528;    0.556978;    0.456486;    0.308932;    0.270043;    0.239505;    0.184299;    0.106001;
 17;    0.595885;    0.986001;    0.890753;    0.879902;    0.875445;    0.854085;    0.832085;    0.808679;    0.782277;    0.748500;    0.695988;    0.599908;    0.527120;    0.433244;    0.296415;    0.253003;    0.216954;    0.152047;    0.082239;
 18;    0.589219;    0.984339;    0.897142;    0.887004;    0.885332;    0.874742;    0.841097;    0.825088;    0.796554;    0.759684;    0.708171;    0.632634;    0.568729;    0.457869;    0.309506;    0.271458;    0.240625;    0.185730;    0.118936;
 19;    0.597857;    0.991978;    0.890307;    0.889107;    0.884105;    0.885564;    0.874966;    0.843634;    0.803805;    0.767385;    0.706731;    0.626932;    0.511979;    0.403034;    0.293607;    0.267992;    0.218254;    0.169975;    0.088014;
 20;    0.599100;    1.014897;    0.906087;    0.903248;    0.906712;    0.892600;    0.868882;    0.837991;    0.815565;    0.779219;    0.715985;    0.656533;    0.567407;    0.429256;    0.290977;    0.266112;    0.225300;    0.178358;    0.113545;
 21;    0.596689;    1.013210;    0.906316;    0.900866;    0.894236;    0.872673;    0.865707;    0.851561;    0.814880;    0.768664;    0.708534;    0.640952;    0.541330;    0.430467;    0.329638;    0.275838;    0.232239;    0.181284;    0.087880;
 22;    0.588185;    1.014496;    0.910044;    0.904166;    0.886252;    0.869737;    0.855759;    0.838686;    0.807655;    0.762401;    0.687234;    0.638640;    0.576300;    0.458034;    0.316022;    0.262093;    0.231618;    0.180294;    0.114855;
 23;    0.591615;    1.006716;    0.909102;    0.905203;    0.898892;    0.896252;    0.880753;    0.853924;    0.798458;    0.759523;    0.690242;    0.627193;    0.526723;    0.438553;    0.329119;    0.282794;    0.225320;    0.151362;    0.095146;
 24;    0.594362;    1.013647;    0.909317;    0.913443;    0.896641;    0.893204;    0.893822;    0.876648;    0.835116;    0.769227;    0.720150;    0.655060;    0.536494;    0.431818;    0.290830;    0.251537;    0.213342;    0.162846;    0.098142;
 25;    0.591051;    0.988943;    0.892976;    0.892788;    0.887090;    0.872734;    0.849077;    0.820752;    0.797662;    0.756020;    0.699047;    0.631565;    0.524513;    0.418569;    0.291057;    0.255997;    0.212044;    0.155575;    0.079925;
 26;    0.593750;    1.019445;    0.920667;    0.920740;    0.905958;    0.891130;    0.885879;    0.868345;    0.817339;    0.779368;    0.702317;    0.626845;    0.534930;    0.456519;    0.341351;    0.300305;    0.261762;    0.191902;    0.109336;
 27;    0.592050;    1.009221;    0.902010;    0.898608;    0.891445;    0.882432;    0.865482;    0.827029;    0.809315;    0.765053;    0.721056;    0.639833;    0.533430;    0.417783;    0.297234;    0.268777;    0.223083;    0.143818;    0.078661;
 28;    0.593031;    1.007294;    0.898134;    0.894392;    0.884368;    0.869084;    0.851977;    0.839422;    0.807335;    0.747849;    0.703157;    0.633567;    0.557918;    0.436714;    0.304147;    0.277934;    0.245829;    0.171629;    0.097129;
 29;    0.643874;    1.011930;    0.895286;    0.891889;    0.878355;    0.869024;    0.856629;    0.829321;    0.788390;    0.746387;    0.673761;    0.580087;    0.490167;    0.405985;    0.292087;    0.271436;    0.226418;    0.151029;    0.087301;
 30;    0.590484;    1.011872;    0.908949;    0.916905;    0.908837;    0.894357;    0.864613;    0.822907;    0.795375;    0.766694;    0.704148;    0.651198;    0.563221;    0.446021;    0.319745;    0.286876;    0.240720;    0.203019;    0.129138;
 31;    0.595750;    1.009548;    0.907379;    0.909010;    0.903860;    0.896520;    0.878727;    0.845109;    0.806186;    0.783877;    0.736478;    0.670738;    0.572578;    0.454310;    0.334202;    0.278605;    0.237452;    0.185706;    0.089839;
 32;    0.596581;    0.998454;    0.906040;    0.897901;    0.879999;    0.880845;    0.848433;    0.802891;    0.752716;    0.720761;    0.683978;    0.623020;    0.522212;    0.411745;    0.294445;    0.268537;    0.225301;    0.171530;    0.103375;
 33;    0.595565;    0.994017;    0.884498;    0.876586;    0.875902;    0.872200;    0.846812;    0.802722;    0.776503;    0.748842;    0.701549;    0.642657;    0.551742;    0.429617;    0.306994;    0.280349;    0.220910;    0.162876;    0.092539;
 34;    0.589651;    1.023976;    0.915138;    0.915714;    0.914994;    0.904271;    0.867747;    0.823842;    0.804551;    0.771578;    0.726066;    0.676891;    0.585916;    0.482342;    0.341886;    0.311123;    0.263502;    0.201834;    0.105263;
 35;    0.605124;    1.000802;    0.902978;    0.898472;    0.889024;    0.873683;    0.856943;    0.833247;    0.786352;    0.743602;    0.704045;    0.659856;    0.574773;    0.469588;    0.326012;    0.261340;    0.203860;    0.148135;    0.072887;
 36;    0.594713;    0.982361;    0.896540;    0.899937;    0.890919;    0.873013;    0.859333;    0.844231;    0.812201;    0.766394;    0.706275;    0.634567;    0.575659;    0.477038;    0.308168;    0.288922;    0.237156;    0.161834;    0.089973;
 37;    0.591802;    0.993951;    0.898338;    0.898856;    0.884913;    0.867285;    0.850357;    0.830006;    0.793547;    0.748408;    0.669351;    0.600757;    0.516499;    0.418700;    0.306199;    0.285465;    0.242858;    0.191974;    0.107224;
 38;    0.589812;    0.999246;    0.898466;    0.897389;    0.882314;    0.866271;    0.849795;    0.836985;    0.814115;    0.762662;    0.714970;    0.649127;    0.573689;    0.464040;    0.343298;    0.292136;    0.259847;    0.186163;    0.113669;
 39;    0.585258;    0.982882;    0.893857;    0.898100;    0.888269;    0.858583;    0.838550;    0.821309;    0.790584;    0.741904;    0.696885;    0.628674;    0.531057;    0.442714;    0.331806;    0.291410;    0.256218;    0.200130;    0.105186;
 40;    0.583201;    1.002792;    0.902240;    0.898459;    0.881117;    0.873990;    0.865986;    0.840397;    0.807415;    0.754348;    0.695943;    0.629215;    0.544590;    0.428655;    0.308647;    0.281375;    0.229274;    0.188712;    0.111081;
 41;    0.597812;    0.993739;    0.895136;    0.895853;    0.876053;    0.869761;    0.855714;    0.804085;    0.783103;    0.738383;    0.689864;    0.629792;    0.560482;    0.456891;    0.347936;    0.316158;    0.254994;    0.180244;    0.094900;
 42;    0.589308;    1.009815;    0.896348;    0.891961;    0.877796;    0.871235;    0.851696;    0.817018;    0.787321;    0.761100;    0.718347;    0.635145;    0.542085;    0.435167;    0.294533;    0.252432;    0.213813;    0.163963;    0.092323;
 43;    0.597091;    1.006020;    0.900884;    0.899693;    0.898236;    0.889006;    0.848311;    0.815826;    0.784485;    0.749883;    0.685729;    0.618953;    0.545472;    0.426574;    0.324974;    0.292646;    0.251838;    0.165832;    0.100523;
 44;    0.592131;    1.006610;    0.908305;    0.909011;    0.913109;    0.907346;    0.886716;    0.862277;    0.824529;    0.753507;    0.687414;    0.616006;    0.549227;    0.445321;    0.331015;    0.285158;    0.225654;    0.185742;    0.108715;
 45;    0.594237;    0.992675;    0.894172;    0.882944;    0.873399;    0.859686;    0.852016;    0.835869;    0.818653;    0.785134;    0.722771;    0.641505;    0.545682;    0.445677;    0.327428;    0.284204;    0.244103;    0.180079;    0.123051;
 46;    0.591463;    1.001314;    0.893414;    0.883391;    0.877251;    0.872082;    0.858673;    0.833876;    0.799181;    0.740509;    0.687461;    0.616549;    0.534863;    0.431836;    0.316994;    0.274563;    0.232396;    0.180674;    0.104993;
 47;    0.590534;    1.025681;    0.918946;    0.912545;    0.905219;    0.901782;    0.880503;    0.860706;    0.838072;    0.782635;    0.736130;    0.670123;    0.576024;    0.449604;    0.329705;    0.300313;    0.255155;    0.181708;    0.107774;
 48;    0.588365;    0.998221;    0.904303;    0.897906;    0.889063;    0.879850;    0.868335;    0.844582;    0.808044;    0.760161;    0.702891;    0.625044;    0.544845;    0.438179;    0.295572;    0.263889;    0.229894;    0.179020;    0.092583;
 49;    0.592138;    0.999504;    0.902344;    0.893919;    0.895172;    0.882836;    0.859038;    0.816964;    0.755374;    0.724948;    0.679988;    0.620663;    0.552453;    0.448151;    0.313743;    0.284704;    0.222315;    0.165703;    0.074291;
 50;    0.588813;    0.999717;    0.894977;    0.896520;    0.901757;    0.887604;    0.860854;    0.828862;    0.806594;    0.743755;    0.700366;    0.626534;    0.501557;    0.424793;    0.300952;    0.269292;    0.231469;    0.183995;    0.115927;
 51;    0.588926;    1.015954;    0.907644;    0.907348;    0.892237;    0.876484;    0.871022;    0.839415;    0.809827;    0.760001;    0.720014;    0.650280;    0.540434;    0.438038;    0.281656;    0.257105;    0.213010;    0.164127;    0.095846;
 52;    0.590072;    0.991984;    0.891900;    0.884768;    0.877244;    0.861750;    0.854768;    0.826203;    0.775921;    0.741204;    0.672237;    0.617621;    0.532136;    0.430780;    0.308016;    0.282498;    0.233512;    0.193871;    0.103524;
 53;    0.592056;    0.987242;    0.902114;    0.891808;    0.884690;    0.886142;    0.874192;    0.840675;    0.802432;    0.762016;    0.723160;    0.670178;    0.584162;    0.467945;    0.284424;    0.243864;    0.219145;    0.166167;    0.098774;
 54;    0.588977;    1.003989;    0.900167;    0.878222;    0.876787;    0.867419;    0.836993;    0.824966;    0.790891;    0.736167;    0.670474;    0.600440;    0.537414;    0.440478;    0.329535;    0.304665;    0.229292;    0.163269;    0.097170;
 55;    0.596337;    0.988845;    0.885564;    0.884612;    0.873770;    0.857942;    0.841126;    0.816801;    0.773469;    0.742254;    0.693853;    0.632860;    0.519354;    0.440130;    0.288493;    0.260236;    0.207160;    0.161267;    0.092760;
 56;    0.591255;    0.999627;    0.897356;    0.888781;    0.874018;    0.860128;    0.838319;    0.818896;    0.768057;    0.714720;    0.669395;    0.608841;    0.540521;    0.449685;    0.338036;    0.288887;    0.239542;    0.170695;    0.085435;
 57;    0.596940;    1.016121;    0.914989;    0.912818;    0.898278;    0.888636;    0.865511;    0.844904;    0.816570;    0.756702;    0.695189;    0.650378;    0.568002;    0.473633;    0.339649;    0.289526;    0.249855;    0.191800;    0.122380;
 58;    0.597909;    1.005503;    0.903650;    0.898035;    0.894208;    0.878180;    0.866963;    0.850124;    0.816911;    0.779334;    0.727276;    0.628128;    0.543879;    0.450355;    0.295948;    0.278169;    0.229613;    0.189169;    0.103669;
 59;    0.605326;    0.991910;    0.895744;    0.888853;    0.884869;    0.853762;    0.839055;    0.810878;    0.792817;    0.745849;    0.691855;    0.636024;    0.550937;    0.441647;    0.317243;    0.283308;    0.225650;    0.182715;    0.114696;
 60;    0.599588;    1.000479;    0.899778;    0.908777;    0.889227;    0.871233;    0.860727;    0.846943;    0.815066;    0.756081;    0.703394;    0.620846;    0.518048;    0.395575;    0.290348;    0.263504;    0.207524;    0.172419;    0.090548;
 61;    0.594013;    1.006166;    0.909826;    0.908900;    0.908494;    0.898107;    0.884754;    0.846604;    0.815384;    0.773420;    0.722210;    0.643438;    0.563492;    0.480210;    0.348772;    0.301247;    0.244334;    0.188717;    0.114198;
 62;    0.596272;    0.990368;    0.889130;    0.892991;    0.882267;    0.867680;    0.844805;    0.822598;    0.792373;    0.735141;    0.681415;    0.631203;    0.539984;    0.444384;    0.307142;    0.264075;    0.230830;    0.167363;    0.099679;
 63;    0.593260;    1.003396;    0.895109;    0.893823;    0.876973;    0.866738;    0.842906;    0.811352;    0.773630;    0.732335;    0.692539;    0.629095;    0.551770;    0.466451;    0.311915;    0.272329;    0.221441;    0.188947;    0.111528;
 64;    0.597237;    1.010260;    0.909823;    0.904242;    0.898223;    0.889135;    0.866648;    0.846401;    0.817765;    0.784140;    0.729036;    0.641165;    0.567391;    0.459294;    0.331552;    0.290513;    0.220455;    0.170194;    0.089739;
 65;    0.597879;    0.979727;    0.887889;    0.886437;    0.884440;    0.863543;    0.844295;    0.819431;    0.789452;    0.751516;    0.694995;    0.614151;    0.547811;    0.434336;    0.320654;    0.291985;    0.266117;    0.207928;    0.115469;
 66;    0.593352;    0.996871;    0.898412;    0.888090;    0.885794;    0.876632;    0.859298;    0.828455;    0.791701;    0.756609;    0.697506;    0.617673;    0.518905;    0.420278;    0.290400;    0.260485;    0.200097;    0.151019;    0.095783;
 67;    0.590150;    0.998574;    0.905792;    0.896382;    0.894270;    0.877350;    0.844496;    0.810680;    0.776426;    0.738200;    0.694082;    0.624488;    0.543424;    0.469374;    0.366087;    0.315889;    0.229832;    0.178194;    0.089825;
 68;    0.598030;    1.003459;    0.903470;    0.902134;    0.890084;    0.872180;    0.856058;    0.832754;    0.794382;    0.768274;    0.715292;    0.652803;    0.563011;    0.432568;    0.295195;    0.253534;    0.207930;    0.154573;    0.098508;
 69;    0.622550;    1.000224;    0.910832;    0.907066;    0.899830;    0.896246;    0.883724;    0.851165;    0.813785;    0.784091;    0.739304;    0.672760;    0.541193;    0.449102;    0.321797;    0.284021;    0.240405;    0.180463;    0.109816;
 70;    0.596563;    1.011773;    0.911736;    0.901639;    0.893492;    0.876986;    0.859023;    0.827760;    0.794233;    0.759875;    0.680232;    0.615212;    0.548419;    0.451055;    0.335286;    0.305538;    0.243531;    0.206550;    0.129181;
 71;    0.595898;    0.998749;    0.895193;    0.889817;    0.867209;    0.856457;    0.831388;    0.809123;    0.788181;    0.746447;    0.688606;    0.623588;    0.525891;    0.454224;    0.332191;    0.260520;    0.218312;    0.170219;    0.105126;
 72;    0.589663;    1.004551;    0.899832;    0.896235;    0.898168;    0.882499;    0.870805;    0.854091;    0.822620;    0.781703;    0.715805;    0.649257;    0.540776;    0.450347;    0.305130;    0.272783;    0.230249;    0.182865;    0.109981;
 73;    0.594022;    1.028248;    0.919750;    0.918255;    0.919080;    0.896338;    0.874279;    0.864877;    0.836090;    0.780806;    0.717567;    0.638466;    0.544280;    0.431264;    0.295604;    0.258976;    0.224929;    0.178834;    0.098084;
 74;    0.615615;    1.008178;    0.898841;    0.896101;    0.889531;    0.887169;    0.858077;    0.823423;    0.780535;    0.745841;    0.715967;    0.651783;    0.567314;    0.440210;    0.325144;    0.294590;    0.238253;    0.196806;    0.107670;
 75;    0.589685;    0.983972;    0.882824;    0.872731;    0.875114;    0.851905;    0.839522;    0.813787;    0.789003;    0.736518;    0.672546;    0.601402;    0.545684;    0.452139;    0.300368;    0.272929;    0.210629;    0.170545;    0.110348;
 76;    0.613844;    1.001906;    0.893128;    0.898011;    0.890976;    0.876497;    0.841346;    0.814911;    0.790309;    0.736860;    0.691071;    0.616243;    0.524774;    0.438143;    0.309987;    0.264328;    0.234958;    0.163197;    0.097411;
 77;    0.597830;    0.972125;    0.874839;    0.871765;    0.860121;    0.844718;    0.836465;    0.827076;    0.790988;    0.727513;    0.691982;    0.630064;    0.545828;    0.425755;    0.316305;    0.269603;    0.215751;    0.168339;    0.105785;
 78;    0.607170;    0.992193;    0.900198;    0.894049;    0.891397;    0.882577;    0.865099;    0.845339;    0.808329;    0.777069;    0.720880;    0.619514;    0.533073;    0.442268;    0.330854;    0.290034;    0.228732;    0.158856;    0.096820;
 79;    0.591285;    1.004989;    0.905081;    0.895268;    0.884902;    0.881584;    0.860229;    0.823348;    0.804615;    0.769494;    0.712420;    0.651282;    0.575244;    0.447761;    0.337369;    0.293900;    0.240793;    0.185398;    0.088868;
 80;    0.596692;    0.976630;    0.872052;    0.869791;    0.857963;    0.845556;    0.832409;    0.793981;    0.764311;    0.719250;    0.664152;    0.597002;    0.498216;    0.414862;    0.307123;    0.274282;    0.235296;    0.168664;    0.074737;
 81;    0.592067;    0.985096;    0.886628;    0.880664;    0.870830;    0.851274;    0.844882;    0.826795;    0.784771;    0.748523;    0.697277;    0.625224;    0.553955;    0.456007;    0.314811;    0.275027;    0.236835;    0.174342;    0.084761;
 82;    0.585458;    0.979919;    0.880194;    0.875712;    0.874012;    0.866321;    0.860197;    0.831686;    0.800936;    0.756683;    0.703110;    0.623394;    0.552548;    0.458446;    0.307236;    0.269055;    0.226315;    0.183135;    0.112572;
 83;    0.593834;    0.979328;    0.888836;    0.883748;    0.882850;    0.863272;    0.844597;    0.833240;    0.801366;    0.758491;    0.700894;    0.629816;    0.544580;    0.432212;    0.317715;    0.280734;    0.224026;    0.181884;    0.111272;
 84;    0.591390;    0.995870;    0.908593;    0.908061;    0.903426;    0.883114;    0.872261;    0.840755;    0.824166;    0.770582;    0.720099;    0.641560;    0.543387;    0.435045;    0.315922;    0.274449;    0.231284;    0.176182;    0.100281;
 85;    0.596714;    1.002697;    0.908521;    0.901205;    0.899332;    0.892186;    0.868611;    0.850802;    0.825164;    0.784324;    0.735185;    0.681424;    0.575151;    0.465679;    0.295160;    0.267577;    0.224185;    0.142099;    0.093731;
 86;    0.596160;    1.007701;    0.898421;    0.891995;    0.880053;    0.868266;    0.839930;    0.821772;    0.804362;    0.763263;    0.716827;    0.642741;    0.565516;    0.454606;    0.329156;    0.277262;    0.210063;    0.164929;    0.099590;
 87;    0.592140;    1.002246;    0.896937;    0.899419;    0.878499;    0.868848;    0.853911;    0.828122;    0.800191;    0.756490;    0.695805;    0.602287;    0.523559;    0.420068;    0.298330;    0.275639;    0.219724;    0.170435;    0.105768;
 88;    0.597986;    0.999963;    0.889871;    0.879677;    0.885909;    0.875422;    0.853759;    0.840271;    0.811675;    0.761982;    0.689673;    0.584959;    0.500073;    0.388815;    0.279457;    0.254222;    0.202452;    0.151364;    0.088788;
 89;    0.602685;    1.003624;    0.901628;    0.901923;    0.889371;    0.875853;    0.856958;    0.833417;    0.791551;    0.732126;    0.699057;    0.625284;    0.555449;    0.428440;    0.320902;    0.282831;    0.247040;    0.178789;    0.106704;
 90;    0.599484;    1.004554;    0.909467;    0.900645;    0.891734;    0.875733;    0.865943;    0.854155;    0.823071;    0.755494;    0.717976;    0.618180;    0.557650;    0.455448;    0.324140;    0.299887;    0.251736;    0.194995;    0.101547;
 91;    0.588320;    1.003259;    0.898218;    0.887226;    0.877201;    0.871560;    0.843983;    0.829523;    0.813582;    0.772368;    0.710183;    0.645538;    0.544010;    0.413938;    0.318172;    0.282681;    0.221077;    0.182666;    0.106131;
 92;    0.600546;    0.997052;    0.898493;    0.895229;    0.889710;    0.882016;    0.863213;    0.830737;    0.803792;    0.777653;    0.716149;    0.638619;    0.558336;    0.432044;    0.356252;    0.319534;    0.252140;    0.199024;    0.103056;
 93;    0.603091;    1.007527;    0.908843;    0.903303;    0.894230;    0.891507;    0.876621;    0.853669;    0.824151;    0.773676;    0.706766;    0.630605;    0.535857;    0.451698;    0.311793;    0.263848;    0.235799;    0.185753;    0.102464;
 94;    0.605720;    0.991962;    0.889561;    0.890350;    0.877297;    0.858376;    0.825746;    0.811299;    0.778905;    0.718199;    0.660585;    0.602093;    0.524849;    0.412933;    0.287236;    0.248546;    0.211009;    0.162891;    0.075217;
 95;    0.595553;    1.011381;    0.906264;    0.901014;    0.902248;    0.893696;    0.877878;    0.851591;    0.822584;    0.766792;    0.697348;    0.647543;    0.560559;    0.415485;    0.305915;    0.274853;    0.237024;    0.180870;    0.100763;
 96;    0.604213;    0.999583;    0.891522;    0.887589;    0.883742;    0.881323;    0.869251;    0.839685;    0.807319;    0.772132;    0.714527;    0.627391;    0.531256;    0.450909;    0.313952;    0.282076;    0.219702;    0.162992;    0.083235;
 97;    0.601397;    1.021456;    0.927016;    0.917406;    0.903708;    0.890967;    0.856488;    0.843632;    0.812940;    0.774696;    0.716226;    0.666979;    0.582119;    0.471992;    0.323079;    0.287542;    0.223315;    0.152092;    0.094365;
 98;    0.601009;    1.000893;    0.903038;    0.894429;    0.896522;    0.885404;    0.859131;    0.845703;    0.812805;    0.777478;    0.705971;    0.649177;    0.575181;    0.469549;    0.327330;    0.303342;    0.251444;    0.175024;    0.102419;
 99;    0.594021;    1.000920;    0.895156;    0.893481;    0.877379;    0.876616;    0.857983;    0.841958;    0.804247;    0.764949;    0.723617;    0.664605;    0.580771;    0.474893;    0.342442;    0.315016;    0.271250;    0.211614;    0.124410;
100;    0.595004;    0.996610;    0.894299;    0.894862;    0.901191;    0.891771;    0.878297;    0.848469;    0.794845;    0.756656;    0.714983;    0.623067;    0.545294;    0.435493;    0.312587;    0.263665;    0.235763;    0.183008;    0.088689;
