Simulation;Time;PC 0;PC 1;PC 2;PC 3;PC 4;PC 5;PC 6;PC 7;PC 8;PC 9;PC10;PC11;PC12;PC13;PC14;PC15;PC16;PC17;
Nan;Nan;0;0;0;0;0;0;0;0;0;0;0;1;0;0;0;0;0;0;
  0;    0.087929;    0.991594;    0.655764;    0.513689;    0.476830;    0.497529;    0.509333;    0.514653;    0.542635;    0.566735;    0.589341;    0.617277;    0.653721;    0.682990;    0.722047;    0.763680;    0.808058;    0.863448;    0.923925;
  1;    0.081942;    1.024066;    0.680858;    0.523863;    0.485319;    0.507745;    0.516402;    0.525514;    0.562295;    0.593583;    0.632909;    0.659888;    0.679689;    0.709010;    0.752210;    0.795130;    0.840340;    0.895842;    0.960754;
  2;    0.090296;    1.023521;    0.687224;    0.533051;    0.491138;    0.516029;    0.529048;    0.537502;    0.570351;    0.599012;    0.627125;    0.651349;    0.686190;    0.710992;    0.743727;    0.783289;    0.830150;    0.890067;    0.952873;
  3;    0.081151;    0.983927;    0.661225;    0.537374;    0.498533;    0.520857;    0.533580;    0.540130;    0.569415;    0.599127;    0.621910;    0.637949;    0.659644;    0.688067;    0.723096;    0.761301;    0.812060;    0.863714;    0.922116;
  4;    0.081274;    1.026857;    0.683659;    0.544707;    0.501488;    0.519797;    0.532588;    0.546320;    0.577065;    0.602177;    0.632818;    0.660359;    0.682616;    0.709914;    0.747422;    0.795210;    0.844492;    0.896813;    0.958363;
  5;    0.080842;    1.002453;    0.660686;    0.524841;    0.494488;    0.514673;    0.527157;    0.532958;    0.563293;    0.579084;    0.613920;    0.632183;    0.658349;    0.691080;    0.726908;    0.772758;    0.819229;    0.867046;    0.930697;
  6;    0.080658;    1.007376;    0.671684;    0.520695;    0.487766;    0.504310;    0.523337;    0.523124;    0.554189;    0.582762;    0.608066;    0.636902;    0.669599;    0.700610;    0.737083;    0.777259;    0.833624;    0.892169;    0.947959;
  7;    0.080601;    1.015271;    0.669745;    0.530246;    0.496981;    0.511557;    0.525009;    0.537326;    0.557223;    0.585830;    0.619451;    0.638863;    0.668113;    0.698810;    0.738226;    0.780931;    0.827275;    0.881865;    0.945574;
  8;    0.081918;    0.976102;    0.644181;    0.514537;    0.484204;    0.499733;    0.513645;    0.518773;    0.543658;    0.573980;    0.594172;    0.613650;    0.643117;    0.672532;    0.702123;    0.742659;    0.790940;    0.847234;    0.911822;
  9;    0.080593;    1.004753;    0.672967;    0.531108;    0.498871;    0.516693;    0.535095;    0.535477;    0.563224;    0.591150;    0.623781;    0.645146;    0.673721;    0.702370;    0.738325;    0.781542;    0.826616;    0.875729;    0.935463;
 10;    0.081244;    1.015723;    0.680261;    0.534169;    0.495489;    0.514310;    0.539227;    0.538086;    0.567157;    0.599487;    0.622700;    0.653636;    0.679116;    0.710179;    0.746736;    0.792084;    0.841096;    0.889277;    0.947718;
 11;    0.081494;    0.992090;    0.669108;    0.525164;    0.494193;    0.510706;    0.533662;    0.529309;    0.560882;    0.592167;    0.613978;    0.644561;    0.667450;    0.698154;    0.727621;    0.767032;    0.806836;    0.866180;    0.927255;
 12;    0.080834;    0.973855;    0.661548;    0.517716;    0.490716;    0.506989;    0.516602;    0.524359;    0.546601;    0.571824;    0.593275;    0.620618;    0.659502;    0.687967;    0.721970;    0.760713;    0.810103;    0.858878;    0.914258;
 13;    0.080538;    1.007495;    0.656359;    0.522021;    0.488488;    0.505986;    0.519477;    0.526039;    0.546989;    0.572964;    0.598808;    0.624432;    0.655192;    0.680549;    0.721119;    0.765885;    0.818654;    0.877156;    0.936761;
 14;    0.081638;    0.980291;    0.656756;    0.518513;    0.481147;    0.503883;    0.517363;    0.521387;    0.549336;    0.567144;    0.594611;    0.624258;    0.654909;    0.678344;    0.715802;    0.757067;    0.811407;    0.866853;    0.916428;
 15;    0.080448;    1.016677;    0.649291;    0.518511;    0.476932;    0.495162;    0.510141;    0.521866;    0.551879;    0.576338;    0.593442;    0.619266;    0.648376;    0.680495;    0.718318;    0.768638;    0.817063;    0.877961;    0.945157;
 16;    0.081350;    1.005405;    0.677644;    0.536046;    0.502281;    0.515563;    0.528764;    0.540948;    0.575663;    0.598977;    0.619418;    0.654372;    0.673484;    0.703632;    0.738071;    0.775579;    0.825131;    0.878662;    0.940404;
 17;    0.080185;    0.973885;    0.652195;    0.524700;    0.484145;    0.503396;    0.512201;    0.529497;    0.553114;    0.579347;    0.605349;    0.635922;    0.649297;    0.678219;    0.715168;    0.751246;    0.801391;    0.852243;    0.906667;
 18;    0.081222;    0.952877;    0.646310;    0.519099;    0.488247;    0.505264;    0.521083;    0.523806;    0.545701;    0.568548;    0.593984;    0.622111;    0.646947;    0.674341;    0.703996;    0.741632;    0.789825;    0.842745;    0.891372;
 19;    0.086587;    0.989238;    0.648583;    0.509043;    0.488187;    0.500899;    0.507934;    0.515540;    0.545457;    0.569239;    0.596958;    0.625627;    0.648897;    0.680573;    0.714865;    0.754123;    0.807286;    0.863431;    0.928379;
 20;    0.080512;    1.027831;    0.666020;    0.528181;    0.489722;    0.509952;    0.521932;    0.532479;    0.553324;    0.580267;    0.609155;    0.639391;    0.664528;    0.694597;    0.731836;    0.775865;    0.828516;    0.887809;    0.957678;
 21;    0.080176;    1.016909;    0.660027;    0.526550;    0.492776;    0.508599;    0.523362;    0.530502;    0.560120;    0.579744;    0.610996;    0.630689;    0.658811;    0.686266;    0.719689;    0.764020;    0.820820;    0.879683;    0.945738;
 22;    0.081430;    1.015262;    0.665613;    0.527693;    0.499181;    0.510794;    0.521383;    0.532372;    0.561279;    0.584106;    0.612587;    0.640678;    0.665374;    0.693003;    0.730044;    0.769881;    0.823159;    0.881000;    0.945887;
 23;    0.080991;    0.994765;    0.660467;    0.520401;    0.497706;    0.514488;    0.524485;    0.525391;    0.551866;    0.580451;    0.610005;    0.637578;    0.659636;    0.688170;    0.718564;    0.759181;    0.807297;    0.866564;    0.930246;
 24;    0.080489;    1.027104;    0.680967;    0.533869;    0.496684;    0.517488;    0.526953;    0.539395;    0.567585;    0.599332;    0.619384;    0.649133;    0.679162;    0.711486;    0.744038;    0.784794;    0.836007;    0.893614;    0.958091;
 25;    0.081748;    0.982187;    0.658652;    0.521231;    0.482898;    0.498189;    0.519377;    0.526483;    0.553487;    0.575024;    0.602178;    0.625383;    0.657161;    0.682482;    0.709344;    0.751228;    0.798802;    0.852927;    0.914639;
 26;    0.080712;    1.007356;    0.669851;    0.534821;    0.501638;    0.522216;    0.531881;    0.538528;    0.567152;    0.590699;    0.622398;    0.641703;    0.668041;    0.698477;    0.738320;    0.776319;    0.819559;    0.877280;    0.935490;
 27;    0.080850;    1.013351;    0.657426;    0.523473;    0.493586;    0.511338;    0.520149;    0.528704;    0.556236;    0.584237;    0.615101;    0.630670;    0.656627;    0.690078;    0.724241;    0.767520;    0.818348;    0.871325;    0.936487;
 28;    0.081599;    1.020311;    0.659231;    0.523673;    0.494271;    0.512719;    0.520961;    0.528834;    0.554984;    0.575739;    0.606144;    0.629049;    0.658474;    0.688287;    0.725259;    0.765033;    0.817712;    0.878842;    0.943594;
 29;    0.081525;    1.042249;    0.662781;    0.524620;    0.492168;    0.507575;    0.519141;    0.528188;    0.550858;    0.574353;    0.609757;    0.634891;    0.661424;    0.692541;    0.733729;    0.780809;    0.830985;    0.898032;    0.967778;
 30;    0.083710;    1.016408;    0.667133;    0.532369;    0.493835;    0.513582;    0.527308;    0.535536;    0.556546;    0.583749;    0.609763;    0.641974;    0.663845;    0.696589;    0.733628;    0.775884;    0.826263;    0.881345;    0.945903;
 31;    0.081815;    1.017543;    0.672539;    0.523165;    0.490124;    0.508211;    0.522629;    0.529179;    0.556104;    0.590079;    0.624652;    0.638280;    0.671051;    0.701439;    0.732938;    0.768080;    0.821867;    0.886672;    0.945864;
 32;    0.081197;    0.992805;    0.675732;    0.520179;    0.487961;    0.501982;    0.516883;    0.526836;    0.557347;    0.584458;    0.617723;    0.646902;    0.675021;    0.699658;    0.735099;    0.768695;    0.814508;    0.868022;    0.926268;
 33;    0.081481;    1.018332;    0.655882;    0.513179;    0.482284;    0.496053;    0.511428;    0.519876;    0.547724;    0.573554;    0.597592;    0.627683;    0.656563;    0.688146;    0.722078;    0.762109;    0.817315;    0.873551;    0.943211;
 34;    0.080593;    1.033646;    0.669622;    0.531445;    0.494408;    0.515435;    0.530076;    0.538422;    0.572303;    0.591645;    0.613745;    0.637903;    0.668656;    0.696627;    0.741493;    0.780940;    0.832623;    0.892515;    0.957900;
 35;    0.082189;    1.000433;    0.665951;    0.522897;    0.493735;    0.512973;    0.521368;    0.527492;    0.552133;    0.582065;    0.618462;    0.641373;    0.665732;    0.698922;    0.738612;    0.782176;    0.830173;    0.886223;    0.943136;
 36;    0.087717;    0.967961;    0.665416;    0.524500;    0.484531;    0.508619;    0.518234;    0.529591;    0.563017;    0.585402;    0.610019;    0.637971;    0.665975;    0.694844;    0.727501;    0.768015;    0.812569;    0.857579;    0.911567;
 37;    0.080322;    0.994557;    0.668412;    0.528636;    0.481977;    0.504004;    0.519568;    0.533250;    0.566140;    0.585173;    0.611999;    0.644603;    0.667031;    0.698362;    0.730786;    0.772321;    0.823264;    0.874251;    0.925011;
 38;    0.081513;    1.000082;    0.655492;    0.518386;    0.489704;    0.504900;    0.522086;    0.520325;    0.548820;    0.572847;    0.600474;    0.630145;    0.653585;    0.687158;    0.720521;    0.763416;    0.820462;    0.877694;    0.938707;
 39;    0.082374;    0.959661;    0.647877;    0.515948;    0.481393;    0.498979;    0.508656;    0.517323;    0.542549;    0.571173;    0.601561;    0.618608;    0.645852;    0.670330;    0.705540;    0.745329;    0.789209;    0.842065;    0.896196;
 40;    0.083080;    1.017831;    0.680414;    0.523518;    0.484387;    0.504586;    0.517049;    0.526771;    0.561486;    0.585291;    0.615648;    0.645191;    0.676357;    0.702242;    0.743140;    0.782616;    0.834673;    0.891788;    0.955707;
 41;    0.082059;    0.998949;    0.661271;    0.514367;    0.486696;    0.501507;    0.508978;    0.517795;    0.541162;    0.569883;    0.603823;    0.629638;    0.658501;    0.689866;    0.725846;    0.768327;    0.822763;    0.879357;    0.941199;
 42;    0.082114;    1.031186;    0.660013;    0.524865;    0.485488;    0.510963;    0.521713;    0.530101;    0.552539;    0.576305;    0.612033;    0.633490;    0.659777;    0.686006;    0.723912;    0.773364;    0.823397;    0.891937;    0.958954;
 43;    0.081309;    1.018577;    0.662931;    0.525780;    0.491981;    0.505954;    0.522369;    0.532497;    0.565308;    0.590989;    0.612969;    0.633557;    0.660073;    0.694051;    0.727122;    0.771044;    0.826396;    0.882077;    0.947836;
 44;    0.081251;    1.008233;    0.671892;    0.521463;    0.493766;    0.518350;    0.527807;    0.525192;    0.554386;    0.583037;    0.611607;    0.637209;    0.670851;    0.700033;    0.735898;    0.783693;    0.836431;    0.889503;    0.947664;
 45;    0.080239;    0.981580;    0.646351;    0.515674;    0.486954;    0.504547;    0.516512;    0.519679;    0.542605;    0.567325;    0.598905;    0.627059;    0.646123;    0.673101;    0.704192;    0.747923;    0.795024;    0.851430;    0.912287;
 46;    0.080554;    1.019528;    0.660589;    0.523185;    0.490395;    0.505139;    0.519984;    0.524284;    0.550162;    0.577079;    0.609033;    0.631898;    0.659440;    0.687344;    0.726360;    0.770182;    0.817853;    0.880346;    0.950140;
 47;    0.081888;    1.020462;    0.661855;    0.535394;    0.498860;    0.523033;    0.533577;    0.541652;    0.560406;    0.585848;    0.611970;    0.636664;    0.660609;    0.694934;    0.730806;    0.773708;    0.825296;    0.885507;    0.952109;
 48;    0.080852;    0.976378;    0.653047;    0.525393;    0.496633;    0.511064;    0.525575;    0.528588;    0.556044;    0.583092;    0.609663;    0.627908;    0.653586;    0.680566;    0.720533;    0.764655;    0.804588;    0.862626;    0.916042;
 49;    0.080983;    0.982057;    0.652843;    0.523497;    0.493898;    0.508474;    0.515493;    0.528618;    0.552347;    0.574393;    0.602870;    0.625386;    0.651110;    0.677576;    0.717102;    0.754198;    0.801606;    0.857635;    0.919158;
 50;    0.080104;    1.010454;    0.662643;    0.518655;    0.484868;    0.509010;    0.516955;    0.524099;    0.556611;    0.584456;    0.609352;    0.634835;    0.662085;    0.691119;    0.729339;    0.771998;    0.819094;    0.869874;    0.936864;
 51;    0.079864;    1.029716;    0.672286;    0.537692;    0.499842;    0.517272;    0.529866;    0.540778;    0.570522;    0.592383;    0.619603;    0.650867;    0.673571;    0.706359;    0.744048;    0.782172;    0.833778;    0.892651;    0.961826;
 52;    0.081322;    1.004416;    0.665422;    0.522008;    0.480110;    0.499305;    0.512255;    0.525100;    0.546041;    0.571817;    0.599910;    0.634489;    0.663712;    0.692682;    0.724798;    0.767261;    0.813138;    0.869310;    0.932580;
 53;    0.084052;    0.977023;    0.679873;    0.523519;    0.487356;    0.506224;    0.519334;    0.528564;    0.554177;    0.585563;    0.613853;    0.650193;    0.678238;    0.706716;    0.738519;    0.777410;    0.816993;    0.863370;    0.918648;
 54;    0.081065;    1.034636;    0.685845;    0.515127;    0.486811;    0.503260;    0.511865;    0.520693;    0.553151;    0.584230;    0.610095;    0.641135;    0.682279;    0.708439;    0.746146;    0.789395;    0.840581;    0.900920;    0.960570;
 55;    0.081326;    0.987731;    0.643320;    0.512107;    0.480051;    0.496644;    0.505971;    0.519127;    0.543116;    0.565435;    0.596788;    0.622862;    0.643974;    0.673434;    0.707338;    0.747194;    0.790445;    0.852864;    0.919722;
 56;    0.080520;    1.007796;    0.662561;    0.514457;    0.477995;    0.498358;    0.512818;    0.518572;    0.544004;    0.576969;    0.606422;    0.633226;    0.660266;    0.693037;    0.728650;    0.771568;    0.818775;    0.874825;    0.942013;
 57;    0.080472;    1.025643;    0.681900;    0.532563;    0.493995;    0.513165;    0.529599;    0.537275;    0.560864;    0.589813;    0.616844;    0.649894;    0.680139;    0.706662;    0.749120;    0.790472;    0.837772;    0.897615;    0.954815;
 58;    0.081262;    1.012782;    0.668249;    0.521387;    0.492300;    0.516391;    0.518527;    0.525348;    0.562694;    0.591330;    0.612532;    0.635084;    0.669254;    0.698564;    0.734421;    0.776571;    0.829482;    0.882302;    0.942856;
 59;    0.080233;    0.990957;    0.664436;    0.527712;    0.485450;    0.502025;    0.515576;    0.529929;    0.558485;    0.586420;    0.608522;    0.634369;    0.662043;    0.699325;    0.737074;    0.780768;    0.815534;    0.870989;    0.926183;
 60;    0.082296;    0.999993;    0.660469;    0.523540;    0.492728;    0.508828;    0.520976;    0.529186;    0.554454;    0.581487;    0.604619;    0.633993;    0.661300;    0.698654;    0.732923;    0.774136;    0.817894;    0.870033;    0.932620;
 61;    0.080956;    0.992061;    0.658334;    0.517089;    0.490475;    0.511066;    0.519628;    0.523754;    0.547068;    0.571521;    0.599275;    0.631002;    0.656772;    0.688213;    0.726009;    0.773236;    0.822112;    0.875401;    0.923393;
 62;    0.080435;    0.989761;    0.652358;    0.520708;    0.482110;    0.505650;    0.508392;    0.523008;    0.550452;    0.580156;    0.597662;    0.627342;    0.651833;    0.675579;    0.710495;    0.752306;    0.796661;    0.851843;    0.915739;
 63;    0.080283;    1.026636;    0.666971;    0.512810;    0.482924;    0.500165;    0.513598;    0.517919;    0.542006;    0.567856;    0.595314;    0.634935;    0.665250;    0.698358;    0.732407;    0.784209;    0.837157;    0.899795;    0.959748;
 64;    0.080498;    1.006739;    0.664511;    0.531276;    0.488163;    0.511700;    0.529194;    0.538313;    0.565623;    0.590690;    0.612533;    0.637601;    0.663175;    0.695524;    0.733452;    0.772406;    0.814392;    0.869315;    0.938025;
 65;    0.081643;    0.973344;    0.653860;    0.510597;    0.481011;    0.500549;    0.506753;    0.512598;    0.542619;    0.568141;    0.596193;    0.621645;    0.651809;    0.678416;    0.713512;    0.756504;    0.803627;    0.851565;    0.910582;
 66;    0.083206;    0.991338;    0.659097;    0.523613;    0.493612;    0.510882;    0.521086;    0.528446;    0.555879;    0.574598;    0.593456;    0.623576;    0.656900;    0.689169;    0.723326;    0.767389;    0.813503;    0.872849;    0.928272;
 67;    0.080647;    0.972229;    0.649932;    0.517046;    0.493204;    0.506877;    0.514503;    0.522718;    0.546232;    0.571632;    0.592915;    0.620298;    0.648468;    0.676221;    0.712218;    0.762428;    0.802048;    0.850263;    0.909611;
 68;    0.080267;    0.999949;    0.660788;    0.522558;    0.493930;    0.510321;    0.527236;    0.526756;    0.548000;    0.579351;    0.603397;    0.631170;    0.661391;    0.689718;    0.722961;    0.764373;    0.819902;    0.874753;    0.931377;
 69;    0.080558;    0.979663;    0.665608;    0.527555;    0.487766;    0.509318;    0.524361;    0.534885;    0.562024;    0.590936;    0.608924;    0.643425;    0.664656;    0.689040;    0.724133;    0.759996;    0.805111;    0.856864;    0.917941;
 70;    0.089224;    1.022397;    0.681585;    0.523870;    0.495319;    0.514549;    0.530232;    0.528904;    0.558282;    0.585897;    0.619915;    0.644590;    0.680302;    0.711717;    0.746693;    0.785276;    0.839385;    0.897996;    0.962713;
 71;    0.081528;    1.000446;    0.654938;    0.518673;    0.487728;    0.507370;    0.527100;    0.524854;    0.546994;    0.574180;    0.599170;    0.624284;    0.655107;    0.685405;    0.718117;    0.756962;    0.803089;    0.864745;    0.926183;
 72;    0.080854;    1.004676;    0.652119;    0.522033;    0.493453;    0.513007;    0.526305;    0.526173;    0.558599;    0.584944;    0.607025;    0.623659;    0.652251;    0.680496;    0.719128;    0.756747;    0.807206;    0.866104;    0.928511;
 73;    0.081809;    1.036610;    0.677141;    0.537188;    0.504029;    0.521063;    0.535127;    0.539539;    0.563570;    0.591274;    0.616218;    0.647879;    0.676283;    0.713455;    0.751465;    0.792221;    0.844064;    0.902626;    0.968869;
 74;    0.080707;    1.018853;    0.658165;    0.529519;    0.486612;    0.505869;    0.519503;    0.534760;    0.564399;    0.580950;    0.610924;    0.634588;    0.657228;    0.690123;    0.725329;    0.774452;    0.822709;    0.875011;    0.947060;
 75;    0.080400;    1.011212;    0.671133;    0.513849;    0.476321;    0.498378;    0.506509;    0.518444;    0.548468;    0.575821;    0.607090;    0.642179;    0.668943;    0.699281;    0.734738;    0.771973;    0.827178;    0.886394;    0.946111;
 76;    0.082797;    1.016537;    0.655542;    0.515560;    0.488342;    0.503844;    0.519819;    0.519436;    0.543109;    0.574758;    0.597326;    0.623703;    0.655190;    0.689038;    0.724597;    0.770719;    0.822186;    0.883531;    0.945304;
 77;    0.081429;    0.974149;    0.647458;    0.504826;    0.473943;    0.490389;    0.500985;    0.510434;    0.533570;    0.563255;    0.596427;    0.617031;    0.645613;    0.674868;    0.708825;    0.741705;    0.791944;    0.845475;    0.907550;
 78;    0.080401;    0.989417;    0.671726;    0.522205;    0.483739;    0.503377;    0.518885;    0.524259;    0.557477;    0.580828;    0.605504;    0.635637;    0.671707;    0.700019;    0.732588;    0.770975;    0.821999;    0.876465;    0.924232;
 79;    0.081681;    1.007697;    0.666509;    0.522956;    0.495235;    0.509027;    0.526547;    0.525220;    0.557611;    0.582634;    0.613069;    0.638134;    0.666045;    0.693002;    0.729186;    0.772579;    0.821362;    0.879851;    0.938909;
 80;    0.080968;    1.000911;    0.654709;    0.511081;    0.473457;    0.488773;    0.504083;    0.515101;    0.539473;    0.570599;    0.601310;    0.616043;    0.652672;    0.682752;    0.715595;    0.761669;    0.811521;    0.867104;    0.937044;
 81;    0.080728;    0.981473;    0.648122;    0.515795;    0.481420;    0.497691;    0.512551;    0.520069;    0.545339;    0.570823;    0.600358;    0.631088;    0.645724;    0.674698;    0.706715;    0.745543;    0.796915;    0.851657;    0.911665;
 82;    0.084974;    0.985818;    0.647939;    0.511194;    0.477742;    0.495081;    0.507617;    0.516591;    0.547897;    0.567384;    0.593109;    0.618182;    0.646816;    0.671328;    0.710574;    0.754096;    0.801234;    0.857377;    0.919610;
 83;    0.080839;    0.956335;    0.643406;    0.509478;    0.479919;    0.496406;    0.503954;    0.517363;    0.539798;    0.565937;    0.591509;    0.616093;    0.642416;    0.673587;    0.710928;    0.749851;    0.798447;    0.847603;    0.900472;
 84;    0.081011;    0.977254;    0.669767;    0.529763;    0.488408;    0.508146;    0.528564;    0.531915;    0.558472;    0.592576;    0.625343;    0.641113;    0.668669;    0.692222;    0.725904;    0.766874;    0.807924;    0.854711;    0.911423;
 85;    0.081235;    0.990904;    0.668362;    0.526561;    0.496139;    0.511561;    0.523992;    0.531754;    0.560467;    0.592547;    0.620869;    0.647058;    0.667137;    0.697010;    0.731170;    0.776952;    0.827746;    0.876743;    0.934993;
 86;    0.080848;    1.031089;    0.668303;    0.517622;    0.483782;    0.505333;    0.520867;    0.521514;    0.554435;    0.576041;    0.604752;    0.642338;    0.666397;    0.704497;    0.737983;    0.779702;    0.831952;    0.892683;    0.960009;
 87;    0.083085;    1.008199;    0.658865;    0.516818;    0.486540;    0.498721;    0.512031;    0.521090;    0.546633;    0.575373;    0.593852;    0.624338;    0.657445;    0.686327;    0.729900;    0.771277;    0.813067;    0.868072;    0.934992;
 88;    0.081908;    1.035841;    0.674239;    0.524017;    0.484680;    0.506867;    0.524080;    0.528392;    0.557213;    0.583915;    0.610778;    0.640578;    0.674109;    0.704360;    0.741408;    0.786843;    0.837239;    0.890749;    0.963171;
 89;    0.081168;    1.014571;    0.671307;    0.531291;    0.487852;    0.510125;    0.518258;    0.532163;    0.558656;    0.587285;    0.609248;    0.638376;    0.667716;    0.699224;    0.736716;    0.777681;    0.827937;    0.888418;    0.946654;
 90;    0.080667;    0.992144;    0.665223;    0.521903;    0.491073;    0.504637;    0.519081;    0.528785;    0.557999;    0.583104;    0.611564;    0.637214;    0.664213;    0.694682;    0.731910;    0.767992;    0.812085;    0.867280;    0.926342;
 91;    0.080220;    1.022789;    0.674007;    0.522413;    0.486598;    0.506949;    0.524232;    0.526737;    0.555224;    0.586083;    0.617850;    0.652020;    0.672274;    0.705667;    0.737899;    0.777145;    0.832597;    0.888825;    0.947988;
 92;    0.080560;    0.996385;    0.660087;    0.525267;    0.486039;    0.504132;    0.518461;    0.528727;    0.558756;    0.577684;    0.608351;    0.630426;    0.658629;    0.689695;    0.726878;    0.769102;    0.809699;    0.867809;    0.930407;
 93;    0.080629;    1.000403;    0.665411;    0.528194;    0.492515;    0.514175;    0.527492;    0.531176;    0.561313;    0.590612;    0.613394;    0.633706;    0.665272;    0.690659;    0.729464;    0.781361;    0.828404;    0.877172;    0.939178;
 94;    0.080297;    1.006147;    0.664057;    0.515973;    0.489627;    0.503673;    0.514767;    0.519188;    0.549297;    0.580929;    0.604728;    0.634383;    0.661904;    0.687160;    0.733030;    0.781235;    0.829950;    0.887100;    0.944539;
 95;    0.081293;    1.019674;    0.666986;    0.525439;    0.492651;    0.509338;    0.519267;    0.531777;    0.564991;    0.588659;    0.614041;    0.642505;    0.665866;    0.695742;    0.727267;    0.774399;    0.820149;    0.882758;    0.944830;
 96;    0.095078;    1.022637;    0.663378;    0.516321;    0.484045;    0.513210;    0.520789;    0.519494;    0.548347;    0.580137;    0.607264;    0.635078;    0.663302;    0.693290;    0.731821;    0.778837;    0.827590;    0.884512;    0.951569;
 97;    0.086907;    1.009924;    0.685257;    0.540769;    0.503843;    0.522130;    0.532923;    0.541331;    0.563026;    0.593616;    0.621565;    0.653834;    0.684062;    0.712208;    0.749767;    0.795992;    0.841197;    0.888148;    0.944724;
 98;    0.088704;    1.008901;    0.674185;    0.525453;    0.487685;    0.509156;    0.519214;    0.528221;    0.551753;    0.580214;    0.613127;    0.642363;    0.672124;    0.701204;    0.738209;    0.783111;    0.826883;    0.880363;    0.940087;
 99;    0.080462;    1.008622;    0.652550;    0.517214;    0.479416;    0.499941;    0.510202;    0.520112;    0.552244;    0.581007;    0.603105;    0.629355;    0.652109;    0.683123;    0.721489;    0.763921;    0.812352;    0.868664;    0.940911;
100;    0.081123;    0.993232;    0.649763;    0.519552;    0.484509;    0.507161;    0.513693;    0.524624;    0.549863;    0.573979;    0.597533;    0.626032;    0.650254;    0.684180;    0.721479;    0.764831;    0.816200;    0.869716;    0.922589;
