model;centering;scaling;CV-pattern;criterion;
pca;mean;none;ekf;itr;
pca;mean;none;ekf;pmp;
pca;mean;none;ekf;tri;
pca;mean;none;ekf;tsr;
pca;mean;none;ekf;citr;
pca;mean;none;ekf;cpmp;
pca;mean;none;ekf;ctri;
pca;mean;none;ekf;ctsr;
ppca;mean;none;ekf;ign;
ppca;mean;none;rkf;ign;
pca;mean;none;;vre;
