Simulation;Time;PC0;PC1;PC2;PC3;PC4;PC5;PC6;PC7;PC8;
Nan;Nan;0;0;0;0;0;0;1;0;0;
  0;    0.022634;    0.127529;    0.119510;    0.113913;    0.109375;    0.108018;    0.107298;    0.105259;    0.105284;    0.105271;
  1;    0.013144;    0.128876;    0.121016;    0.114619;    0.110099;    0.108811;    0.107890;    0.106306;    0.106335;    0.106373;
  2;    0.018855;    0.129078;    0.121687;    0.115663;    0.111017;    0.109650;    0.108939;    0.107404;    0.107438;    0.107447;
  3;    0.011780;    0.127035;    0.119534;    0.115096;    0.110630;    0.109196;    0.108425;    0.106735;    0.106760;    0.106780;
  4;    0.013619;    0.129200;    0.121461;    0.116469;    0.111673;    0.110463;    0.109598;    0.107514;    0.107531;    0.107548;
  5;    0.012373;    0.127614;    0.119357;    0.113795;    0.109868;    0.108481;    0.107898;    0.105868;    0.105884;    0.105891;
  6;    0.013603;    0.128215;    0.120472;    0.114459;    0.110335;    0.108548;    0.107850;    0.105900;    0.105901;    0.105911;
  7;    0.012773;    0.128497;    0.120427;    0.114875;    0.110943;    0.109426;    0.108381;    0.107068;    0.107040;    0.107057;
  8;    0.011234;    0.126714;    0.118620;    0.113547;    0.109696;    0.107974;    0.107228;    0.105715;    0.105750;    0.105771;
  9;    0.011727;    0.127966;    0.120367;    0.114883;    0.110872;    0.109336;    0.108571;    0.106719;    0.106763;    0.106782;
 10;    0.011729;    0.128536;    0.120924;    0.115373;    0.110860;    0.109580;    0.108668;    0.106797;    0.106848;    0.106844;
 11;    0.011194;    0.127265;    0.119767;    0.114074;    0.110047;    0.108634;    0.107746;    0.105765;    0.105794;    0.105810;
 12;    0.011088;    0.126400;    0.119193;    0.113235;    0.109626;    0.108262;    0.107681;    0.105605;    0.105637;    0.105601;
 13;    0.011947;    0.127952;    0.119283;    0.113883;    0.109775;    0.108535;    0.107661;    0.105757;    0.105760;    0.105782;
 14;    0.013815;    0.127011;    0.119421;    0.114120;    0.109586;    0.107975;    0.107086;    0.105026;    0.105029;    0.105033;
 15;    0.011918;    0.128382;    0.119090;    0.113751;    0.109013;    0.107796;    0.106960;    0.105543;    0.105574;    0.105558;
 16;    0.011769;    0.127879;    0.120432;    0.114826;    0.110830;    0.109521;    0.108261;    0.106724;    0.106726;    0.106742;
 17;    0.012463;    0.126593;    0.118995;    0.114007;    0.109440;    0.107830;    0.106708;    0.105273;    0.105294;    0.105308;
 18;    0.010793;    0.125210;    0.117821;    0.112680;    0.108776;    0.107532;    0.106866;    0.105082;    0.105101;    0.105109;
 19;    0.012229;    0.127050;    0.118599;    0.112633;    0.109435;    0.107925;    0.106876;    0.105325;    0.105364;    0.105372;
 20;    0.010954;    0.128973;    0.120224;    0.114901;    0.110330;    0.109000;    0.108409;    0.106370;    0.106416;    0.106422;
 21;    0.011239;    0.128369;    0.119584;    0.114375;    0.110149;    0.108930;    0.107873;    0.105949;    0.105989;    0.105961;
 22;    0.011154;    0.128342;    0.119975;    0.114526;    0.110789;    0.109663;    0.108747;    0.106879;    0.106873;    0.106893;
 23;    0.012363;    0.127157;    0.119056;    0.113190;    0.109852;    0.108637;    0.107924;    0.105879;    0.105904;    0.105909;
 24;    0.013969;    0.129169;    0.121286;    0.115726;    0.111344;    0.110073;    0.109481;    0.107380;    0.107386;    0.107412;
 25;    0.010960;    0.126990;    0.119431;    0.114098;    0.109600;    0.107906;    0.107237;    0.105636;    0.105683;    0.105643;
 26;    0.010843;    0.127896;    0.119927;    0.114679;    0.110698;    0.109441;    0.108671;    0.106933;    0.106944;    0.106959;
 27;    0.012753;    0.128276;    0.119477;    0.114129;    0.110313;    0.109036;    0.108077;    0.106330;    0.106351;    0.106356;
 28;    0.012694;    0.128690;    0.119859;    0.114538;    0.110729;    0.109506;    0.108621;    0.106681;    0.106705;    0.106692;
 29;    0.013106;    0.129765;    0.120435;    0.115041;    0.110995;    0.110016;    0.109115;    0.107243;    0.107247;    0.107268;
 30;    0.010201;    0.128496;    0.120151;    0.115091;    0.110602;    0.109057;    0.108459;    0.106598;    0.106625;    0.106632;
 31;    0.012823;    0.128441;    0.120344;    0.114235;    0.110148;    0.108715;    0.107863;    0.106094;    0.106112;    0.106116;
 32;    0.010881;    0.127300;    0.120080;    0.113578;    0.109625;    0.108604;    0.107675;    0.105998;    0.106004;    0.106033;
 33;    0.011559;    0.128574;    0.119576;    0.113630;    0.109754;    0.108148;    0.107488;    0.106043;    0.106062;    0.106072;
 34;    0.011574;    0.129020;    0.120147;    0.114619;    0.110286;    0.109088;    0.108336;    0.106946;    0.106985;    0.106963;
 35;    0.010823;    0.127876;    0.120053;    0.114483;    0.110649;    0.109404;    0.108559;    0.106476;    0.106496;    0.106515;
 36;    0.013012;    0.126366;    0.119535;    0.114152;    0.109543;    0.107953;    0.107221;    0.105401;    0.105420;    0.105437;
 37;    0.010757;    0.127521;    0.120038;    0.114650;    0.109433;    0.107926;    0.107001;    0.105604;    0.105617;    0.105637;
 38;    0.010299;    0.127760;    0.119361;    0.113916;    0.110132;    0.108647;    0.107768;    0.105862;    0.105866;    0.105886;
 39;    0.011563;    0.125601;    0.118075;    0.112780;    0.108379;    0.107241;    0.106382;    0.104302;    0.104318;    0.104323;
 40;    0.011452;    0.128659;    0.121016;    0.114675;    0.110071;    0.108723;    0.107872;    0.106253;    0.106276;    0.106292;
 41;    0.012312;    0.127829;    0.119863;    0.113935;    0.110295;    0.108479;    0.107533;    0.105993;    0.105982;    0.105995;
 42;    0.013469;    0.129207;    0.120032;    0.114845;    0.110213;    0.108788;    0.108039;    0.106278;    0.106296;    0.106306;
 43;    0.011716;    0.128548;    0.119946;    0.114461;    0.110337;    0.109243;    0.108229;    0.106767;    0.106798;    0.106813;
 44;    0.012228;    0.128207;    0.120382;    0.114358;    0.110710;    0.109381;    0.109059;    0.106636;    0.106656;    0.106674;
 45;    0.010604;    0.126704;    0.118354;    0.113086;    0.109294;    0.107807;    0.106943;    0.105110;    0.105152;    0.105140;
 46;    0.011202;    0.128879;    0.120175;    0.115047;    0.110973;    0.109308;    0.108432;    0.106523;    0.106545;    0.106564;
 47;    0.012806;    0.128485;    0.119653;    0.114855;    0.110602;    0.109118;    0.108589;    0.106896;    0.106907;    0.106921;
 48;    0.012410;    0.126532;    0.118783;    0.113901;    0.110095;    0.108831;    0.107670;    0.105780;    0.105806;    0.105816;
 49;    0.010254;    0.126899;    0.118961;    0.113942;    0.110150;    0.108532;    0.107456;    0.105831;    0.105817;    0.105837;
 50;    0.011911;    0.128108;    0.119702;    0.113715;    0.109556;    0.108114;    0.107336;    0.105784;    0.105830;    0.105831;
 51;    0.011422;    0.129292;    0.120841;    0.115925;    0.111623;    0.110084;    0.109123;    0.107549;    0.107563;    0.107581;
 52;    0.013409;    0.128114;    0.120185;    0.114662;    0.109820;    0.108483;    0.107423;    0.105826;    0.105832;    0.105841;
 53;    0.011788;    0.126820;    0.120550;    0.114254;    0.109920;    0.108311;    0.107526;    0.105938;    0.105946;    0.105953;
 54;    0.011369;    0.129582;    0.121801;    0.114676;    0.111026;    0.109382;    0.108627;    0.106994;    0.107041;    0.107046;
 55;    0.010930;    0.127035;    0.118262;    0.112885;    0.108850;    0.107413;    0.106353;    0.104916;    0.104942;    0.104966;
 56;    0.011299;    0.127917;    0.119584;    0.113301;    0.108912;    0.107283;    0.106720;    0.105252;    0.105248;    0.105267;
 57;    0.010511;    0.128883;    0.121001;    0.115109;    0.110565;    0.108934;    0.108263;    0.106397;    0.106420;    0.106434;
 58;    0.012699;    0.128417;    0.120278;    0.114390;    0.110646;    0.109068;    0.108238;    0.106616;    0.106680;    0.106677;
 59;    0.011011;    0.127590;    0.120114;    0.115107;    0.110233;    0.108507;    0.107703;    0.105721;    0.105779;    0.105770;
 60;    0.012022;    0.127914;    0.119853;    0.114652;    0.110767;    0.108878;    0.108040;    0.106298;    0.106369;    0.106296;
 61;    0.014488;    0.127018;    0.118837;    0.112903;    0.109272;    0.108013;    0.107175;    0.105482;    0.105481;    0.105490;
 62;    0.011207;    0.127242;    0.119036;    0.113855;    0.109363;    0.108108;    0.107154;    0.105401;    0.105393;    0.105409;
 63;    0.012050;    0.128841;    0.120156;    0.113601;    0.109606;    0.108345;    0.107356;    0.105628;    0.105661;    0.105668;
 64;    0.010802;    0.127934;    0.119747;    0.114613;    0.109776;    0.108568;    0.108298;    0.106381;    0.106408;    0.106433;
 65;    0.013374;    0.126611;    0.119086;    0.113340;    0.109474;    0.107830;    0.106775;    0.104953;    0.104961;    0.104979;
 66;    0.010812;    0.127467;    0.119638;    0.114450;    0.110596;    0.109133;    0.108123;    0.106337;    0.106380;    0.106364;
 67;    0.013372;    0.126124;    0.118228;    0.112699;    0.109339;    0.108432;    0.107825;    0.105953;    0.105958;    0.105966;
 68;    0.010408;    0.127752;    0.119644;    0.114264;    0.110378;    0.109050;    0.108026;    0.105834;    0.105866;    0.105875;
 69;    0.012288;    0.126475;    0.119164;    0.113644;    0.108914;    0.107764;    0.107027;    0.105227;    0.105247;    0.105253;
 70;    0.013396;    0.128743;    0.120991;    0.114496;    0.110766;    0.109323;    0.108426;    0.106695;    0.106717;    0.106718;
 71;    0.012408;    0.127541;    0.119052;    0.113389;    0.109510;    0.108257;    0.107558;    0.106029;    0.106030;    0.106040;
 72;    0.011501;    0.127903;    0.119149;    0.114047;    0.110314;    0.108983;    0.108418;    0.106293;    0.106346;    0.106309;
 73;    0.010746;    0.129461;    0.121040;    0.115772;    0.111732;    0.110369;    0.109405;    0.107551;    0.107575;    0.107590;
 74;    0.012646;    0.128615;    0.119742;    0.115008;    0.110005;    0.108409;    0.107685;    0.105700;    0.105724;    0.105721;
 75;    0.010643;    0.128455;    0.120618;    0.114246;    0.109675;    0.108516;    0.108031;    0.105835;    0.105846;    0.105854;
 76;    0.012908;    0.128501;    0.119592;    0.113844;    0.110218;    0.108914;    0.107970;    0.106179;    0.106209;    0.106213;
 77;    0.012619;    0.126410;    0.118464;    0.112401;    0.108320;    0.107215;    0.106335;    0.104486;    0.104490;    0.104493;
 78;    0.012000;    0.127364;    0.120237;    0.114350;    0.109764;    0.108269;    0.107379;    0.105521;    0.105540;    0.105561;
 79;    0.011467;    0.128106;    0.120075;    0.114311;    0.110597;    0.109008;    0.108120;    0.106331;    0.106379;    0.106383;
 80;    0.012670;    0.127943;    0.119610;    0.113850;    0.109226;    0.107715;    0.106747;    0.104990;    0.104996;    0.105006;
 81;    0.012326;    0.126992;    0.118907;    0.113783;    0.109552;    0.108221;    0.107311;    0.105579;    0.105593;    0.105611;
 82;    0.011768;    0.127038;    0.118758;    0.113171;    0.108973;    0.107788;    0.106908;    0.105187;    0.105226;    0.105233;
 83;    0.015173;    0.125308;    0.117627;    0.111956;    0.108024;    0.107073;    0.106449;    0.104345;    0.104386;    0.104379;
 84;    0.011656;    0.126619;    0.119636;    0.114221;    0.109553;    0.107952;    0.107763;    0.105819;    0.105859;    0.105873;
 85;    0.011620;    0.127305;    0.119912;    0.114329;    0.110420;    0.109141;    0.108302;    0.106300;    0.106329;    0.106329;
 86;    0.012643;    0.129156;    0.120349;    0.114108;    0.109880;    0.108613;    0.108162;    0.105856;    0.105862;    0.105881;
 87;    0.011595;    0.127847;    0.119265;    0.113293;    0.109281;    0.108048;    0.106857;    0.105202;    0.105174;    0.105193;
 88;    0.012609;    0.129673;    0.121281;    0.115423;    0.110810;    0.109408;    0.108695;    0.106574;    0.106597;    0.106615;
 89;    0.011563;    0.128654;    0.120760;    0.115575;    0.110727;    0.109181;    0.108131;    0.106877;    0.106897;    0.106926;
 90;    0.011401;    0.127031;    0.119254;    0.113255;    0.109381;    0.107616;    0.107007;    0.105424;    0.105445;    0.105464;
 91;    0.010405;    0.128919;    0.120852;    0.114822;    0.110472;    0.109153;    0.108263;    0.106650;    0.106655;    0.106659;
 92;    0.010778;    0.127628;    0.119654;    0.114550;    0.109891;    0.108096;    0.107254;    0.105294;    0.105311;    0.105318;
 93;    0.011204;    0.127746;    0.119884;    0.114634;    0.110346;    0.108768;    0.107848;    0.106187;    0.106210;    0.106207;
 94;    0.011116;    0.128053;    0.120006;    0.113814;    0.110238;    0.108641;    0.108412;    0.106017;    0.106040;    0.106054;
 95;    0.012455;    0.128669;    0.120267;    0.114617;    0.110665;    0.108945;    0.108090;    0.106642;    0.106696;    0.106672;
 96;    0.010591;    0.128975;    0.120297;    0.114517;    0.110425;    0.108900;    0.108325;    0.105957;    0.106001;    0.106013;
 97;    0.010466;    0.128282;    0.121134;    0.115727;    0.111406;    0.109983;    0.109459;    0.107259;    0.107256;    0.107285;
 98;    0.012052;    0.128261;    0.120596;    0.114817;    0.110292;    0.108858;    0.108179;    0.106108;    0.106128;    0.106154;
 99;    0.011273;    0.127837;    0.118835;    0.113279;    0.108752;    0.107251;    0.106468;    0.105013;    0.105040;    0.105049;
100;    0.014322;    0.127217;    0.118616;    0.113265;    0.109046;    0.107485;    0.106761;    0.105004;    0.105020;    0.105045;
