Simulation;Time;PC0;PC1;PC2;PC3;PC4;PC5;PC6;PC7;PC8;
Nan;Nan;1;0;0;0;0;0;0;0;0;
  0;    0.125666;    0.984987;    0.964907;    0.945738;    0.934850;    0.881699;    0.789889;    0.668500;    0.486929;    0.283041;
  1;    0.118315;    1.009930;    0.989124;    0.980574;    0.930102;    0.865357;    0.737701;    0.663183;    0.476035;    0.293706;
  2;    0.116673;    1.033292;    1.018356;    1.025105;    0.997784;    0.919271;    0.796133;    0.696634;    0.512381;    0.312726;
  3;    0.119699;    1.017007;    1.000659;    1.004451;    0.950808;    0.902333;    0.785591;    0.662990;    0.456069;    0.309834;
  4;    0.115377;    1.036136;    1.034714;    1.001078;    0.955431;    0.842890;    0.805021;    0.708450;    0.511957;    0.281429;
  5;    0.118739;    0.996400;    0.984467;    0.971090;    0.949251;    0.914159;    0.832734;    0.722894;    0.562100;    0.314991;
  6;    0.118222;    0.999054;    0.995164;    0.959817;    0.912226;    0.874828;    0.786761;    0.685748;    0.536926;    0.287194;
  7;    0.114890;    1.026012;    0.998260;    0.989341;    0.953950;    0.904679;    0.812720;    0.704517;    0.502938;    0.263871;
  8;    0.124005;    0.994598;    0.981820;    0.963805;    0.951867;    0.895760;    0.767268;    0.661466;    0.531615;    0.292368;
  9;    0.114322;    1.016326;    0.997473;    0.987002;    0.987710;    0.933866;    0.814641;    0.706714;    0.544209;    0.356070;
 10;    0.116666;    1.018098;    1.024086;    1.004991;    0.946616;    0.888433;    0.808189;    0.682065;    0.530283;    0.334183;
 11;    0.115490;    0.996088;    0.998834;    0.979531;    0.928108;    0.885541;    0.803581;    0.681626;    0.525695;    0.290183;
 12;    0.115305;    0.991756;    0.989361;    0.975468;    0.916946;    0.857306;    0.713031;    0.597219;    0.467954;    0.289394;
 13;    0.122949;    0.995664;    0.980448;    0.965167;    0.924878;    0.874416;    0.787862;    0.676435;    0.544034;    0.288772;
 14;    0.114249;    0.979697;    0.967235;    0.949850;    0.915699;    0.851616;    0.736319;    0.604924;    0.420458;    0.203913;
 15;    0.124563;    0.992295;    0.977083;    0.942097;    0.866237;    0.812621;    0.722811;    0.585210;    0.456594;    0.264397;
 16;    0.117029;    1.017482;    0.993802;    0.970536;    0.920540;    0.901715;    0.831285;    0.706444;    0.577589;    0.323802;
 17;    0.116271;    0.987789;    0.980604;    0.951300;    0.877000;    0.823274;    0.761665;    0.609084;    0.504595;    0.295465;
 18;    0.115915;    0.981248;    0.967411;    0.904950;    0.851740;    0.819459;    0.731856;    0.660602;    0.528738;    0.300232;
 19;    0.115781;    0.985797;    0.972870;    0.968881;    0.936238;    0.899207;    0.807344;    0.671556;    0.512705;    0.225937;
 20;    0.117605;    1.007023;    1.018449;    0.989011;    0.964264;    0.879105;    0.810747;    0.742071;    0.598394;    0.343793;
 21;    0.114918;    1.000517;    0.981689;    0.963743;    0.920871;    0.876363;    0.796887;    0.640912;    0.458738;    0.270981;
 22;    0.114456;    1.021950;    1.005614;    0.938123;    0.875463;    0.812686;    0.747442;    0.656766;    0.501318;    0.296777;
 23;    0.123868;    0.997389;    1.006643;    1.008156;    0.959571;    0.859725;    0.786944;    0.636105;    0.498726;    0.253815;
 24;    0.116152;    1.031601;    1.032839;    1.013679;    0.964852;    0.895877;    0.825861;    0.699690;    0.559182;    0.304602;
 25;    0.115308;    0.992147;    0.985500;    0.976042;    0.936634;    0.861069;    0.735261;    0.620297;    0.486832;    0.275436;
 26;    0.116976;    1.020690;    1.015475;    0.981112;    0.958440;    0.931431;    0.830606;    0.657031;    0.539986;    0.338782;
 27;    0.121384;    1.008299;    0.995052;    0.961490;    0.918945;    0.892540;    0.800996;    0.680478;    0.501529;    0.316074;
 28;    0.116425;    1.016558;    1.021564;    0.982793;    0.924398;    0.848073;    0.762940;    0.653956;    0.471917;    0.287193;
 29;    0.116682;    1.029339;    1.014726;    0.997594;    0.942696;    0.879135;    0.816636;    0.640278;    0.488673;    0.240785;
 30;    0.116263;    1.012597;    1.021098;    1.000062;    0.968086;    0.913132;    0.805421;    0.724362;    0.573452;    0.344854;
 31;    0.115458;    1.001457;    0.988732;    0.983867;    0.961517;    0.895362;    0.810929;    0.669471;    0.502681;    0.298666;
 32;    0.116524;    1.002032;    0.976899;    0.958019;    0.903204;    0.743664;    0.686762;    0.600243;    0.475881;    0.268029;
 33;    0.117634;    1.001840;    1.000104;    0.964901;    0.934006;    0.862441;    0.766820;    0.639257;    0.510442;    0.307171;
 34;    0.116460;    1.020913;    1.025072;    0.990989;    0.906262;    0.846587;    0.786095;    0.688372;    0.542000;    0.346465;
 35;    0.115473;    1.011388;    1.016856;    0.979607;    0.929830;    0.848359;    0.790784;    0.709047;    0.537889;    0.342968;
 36;    0.120232;    0.988423;    0.966274;    0.949301;    0.908872;    0.860128;    0.764579;    0.662935;    0.506789;    0.249374;
 37;    0.115869;    0.992544;    0.951679;    0.928706;    0.902775;    0.838790;    0.760874;    0.653047;    0.471068;    0.204188;
 38;    0.118424;    0.998296;    0.995467;    0.969685;    0.931756;    0.858404;    0.788832;    0.701874;    0.554106;    0.276814;
 39;    0.113721;    0.964755;    0.953079;    0.930345;    0.858348;    0.806337;    0.741762;    0.641519;    0.482289;    0.288454;
 40;    0.116521;    1.006758;    0.998616;    0.946498;    0.917423;    0.865173;    0.787331;    0.676739;    0.538708;    0.295740;
 41;    0.117403;    0.998985;    0.989877;    0.955391;    0.928112;    0.814578;    0.738254;    0.641560;    0.440256;    0.230860;
 42;    0.117297;    1.008416;    0.980637;    0.957463;    0.940610;    0.891966;    0.787226;    0.702117;    0.520893;    0.253608;
 43;    0.115775;    1.017337;    1.003742;    0.998775;    0.958268;    0.867578;    0.777249;    0.670556;    0.508531;    0.275060;
 44;    0.115952;    1.014171;    1.010467;    0.983938;    0.962739;    0.918578;    0.765193;    0.633411;    0.529298;    0.284286;
 45;    0.115829;    0.982313;    0.965434;    0.940689;    0.912470;    0.888427;    0.802405;    0.637867;    0.469833;    0.285665;
 46;    0.115905;    1.013114;    0.993389;    0.973720;    0.953259;    0.913204;    0.826630;    0.691541;    0.531736;    0.305299;
 47;    0.114971;    1.019676;    1.007643;    0.994701;    0.965245;    0.918277;    0.780646;    0.640931;    0.521729;    0.283807;
 48;    0.119434;    0.996642;    0.953155;    0.937385;    0.922089;    0.892204;    0.790427;    0.690775;    0.516732;    0.271946;
 49;    0.116280;    0.999100;    0.969579;    0.935340;    0.858763;    0.823286;    0.759428;    0.682431;    0.533095;    0.292187;
 50;    0.121124;    0.996412;    0.997159;    0.970598;    0.910069;    0.873949;    0.795991;    0.685404;    0.535624;    0.263799;
 51;    0.121597;    1.036781;    1.025805;    0.990858;    0.955353;    0.870144;    0.777879;    0.645812;    0.525025;    0.340514;
 52;    0.117812;    0.997729;    0.983447;    0.960625;    0.946842;    0.885761;    0.758920;    0.641124;    0.507566;    0.274633;
 53;    0.116235;    1.000006;    0.980555;    0.980900;    0.939194;    0.870402;    0.772881;    0.603848;    0.433645;    0.202743;
 54;    0.117312;    1.024089;    0.985844;    0.973828;    0.929178;    0.868505;    0.825572;    0.731047;    0.513990;    0.267511;
 55;    0.115706;    0.977591;    0.960224;    0.936690;    0.894228;    0.816364;    0.758071;    0.667896;    0.513107;    0.304465;
 56;    0.120132;    0.985476;    0.974247;    0.955459;    0.910945;    0.855885;    0.726038;    0.564226;    0.478840;    0.305873;
 57;    0.115948;    1.009980;    1.004169;    0.977919;    0.951183;    0.902743;    0.831711;    0.685399;    0.490101;    0.322212;
 58;    0.118813;    1.014861;    0.999335;    0.977331;    0.945024;    0.879898;    0.827597;    0.712087;    0.573463;    0.330453;
 59;    0.115319;    0.995588;    0.997720;    0.952837;    0.895518;    0.838633;    0.779592;    0.658530;    0.501370;    0.339720;
 60;    0.115566;    1.006892;    0.999311;    0.951953;    0.918953;    0.862704;    0.780090;    0.669706;    0.488138;    0.232574;
 61;    0.115002;    0.988249;    0.978811;    0.954828;    0.935389;    0.880573;    0.763633;    0.676535;    0.479585;    0.280546;
 62;    0.117940;    0.988591;    0.968771;    0.950956;    0.918176;    0.849040;    0.772199;    0.659146;    0.520879;    0.303090;
 63;    0.114663;    0.993092;    0.974317;    0.939135;    0.868149;    0.817420;    0.720886;    0.661185;    0.513146;    0.319495;
 64;    0.115201;    1.007813;    0.989641;    0.950854;    0.940877;    0.904529;    0.790575;    0.682007;    0.510693;    0.268642;
 65;    0.117397;    0.978066;    0.962530;    0.950238;    0.915288;    0.849798;    0.776691;    0.651114;    0.454624;    0.234331;
 66;    0.115212;    1.006375;    1.008317;    0.984339;    0.909247;    0.864036;    0.799854;    0.686721;    0.529013;    0.319600;
 67;    0.117778;    1.002912;    0.978754;    0.939028;    0.903751;    0.845802;    0.712274;    0.552137;    0.461441;    0.267592;
 68;    0.116130;    0.996797;    0.968733;    0.945826;    0.898631;    0.867711;    0.792126;    0.695109;    0.530779;    0.304545;
 69;    0.115885;    0.981896;    0.974885;    0.969469;    0.931928;    0.882678;    0.819981;    0.697268;    0.479936;    0.283545;
 70;    0.115678;    1.016670;    0.986230;    0.982569;    0.952415;    0.864794;    0.771323;    0.658995;    0.507857;    0.277450;
 71;    0.122752;    1.000644;    0.944138;    0.929529;    0.890925;    0.844600;    0.769861;    0.704090;    0.576355;    0.350711;
 72;    0.122102;    1.005761;    1.014793;    0.989558;    0.947277;    0.906956;    0.828069;    0.722758;    0.501088;    0.336676;
 73;    0.121189;    1.034649;    1.029408;    1.010278;    0.999153;    0.956256;    0.874148;    0.692860;    0.548425;    0.329564;
 74;    0.123458;    0.994621;    0.995154;    0.944526;    0.914301;    0.818413;    0.744754;    0.653191;    0.491023;    0.284328;
 75;    0.122283;    0.995924;    0.970411;    0.958785;    0.933598;    0.872642;    0.803790;    0.647051;    0.444763;    0.292186;
 76;    0.117856;    1.005547;    1.010278;    0.974575;    0.937167;    0.861485;    0.797663;    0.654145;    0.522958;    0.298619;
 77;    0.121350;    0.967958;    0.944868;    0.927353;    0.907482;    0.847085;    0.746729;    0.604375;    0.448574;    0.255044;
 78;    0.118435;    0.991929;    0.983854;    0.964580;    0.915085;    0.847718;    0.749173;    0.663563;    0.494688;    0.310138;
 79;    0.118574;    1.009272;    0.987757;    0.977011;    0.949936;    0.910150;    0.777800;    0.649099;    0.518789;    0.258428;
 80;    0.126519;    0.978092;    0.968975;    0.956570;    0.913844;    0.853434;    0.738872;    0.624810;    0.476512;    0.270049;
 81;    0.118753;    0.990917;    0.977044;    0.957027;    0.911645;    0.865305;    0.815540;    0.704876;    0.537285;    0.302434;
 82;    0.115597;    0.980842;    0.976946;    0.980058;    0.960246;    0.913949;    0.823778;    0.702711;    0.505904;    0.295304;
 83;    0.115397;    0.964129;    0.945648;    0.924991;    0.894102;    0.850243;    0.752284;    0.621616;    0.478308;    0.292811;
 84;    0.116794;    0.997938;    0.992720;    0.961345;    0.920569;    0.884481;    0.769510;    0.576850;    0.446741;    0.298633;
 85;    0.124494;    1.005966;    0.981159;    0.975900;    0.940519;    0.864286;    0.821751;    0.690875;    0.553244;    0.351759;
 86;    0.117480;    0.997340;    0.977631;    0.952455;    0.919863;    0.873254;    0.812474;    0.686969;    0.503819;    0.314232;
 87;    0.117177;    0.982959;    0.972809;    0.955552;    0.904239;    0.821929;    0.716460;    0.607591;    0.487471;    0.300111;
 88;    0.116199;    1.012110;    1.001144;    0.972859;    0.924641;    0.895206;    0.815109;    0.706820;    0.533023;    0.242760;
 89;    0.117404;    1.020964;    1.011965;    0.976131;    0.963700;    0.909988;    0.812761;    0.714069;    0.559391;    0.259945;
 90;    0.122610;    0.986709;    0.969350;    0.950185;    0.931041;    0.896920;    0.805891;    0.676994;    0.505430;    0.298094;
 91;    0.117603;    1.016083;    1.001256;    0.997969;    0.942914;    0.888980;    0.772753;    0.689642;    0.550260;    0.318673;
 92;    0.116008;    0.985502;    0.976068;    0.959284;    0.932439;    0.818097;    0.757193;    0.649366;    0.471224;    0.273972;
 93;    0.123603;    1.003812;    1.000901;    0.988501;    0.972440;    0.928828;    0.825526;    0.630543;    0.457317;    0.288051;
 94;    0.116070;    1.002569;    0.988141;    0.951421;    0.927822;    0.884069;    0.802856;    0.688800;    0.529185;    0.279076;
 95;    0.115453;    1.014862;    1.006395;    1.001221;    0.966371;    0.900239;    0.771985;    0.633856;    0.461008;    0.211085;
 96;    0.115894;    0.998739;    0.978886;    0.984504;    0.960656;    0.919697;    0.824423;    0.640113;    0.450988;    0.245009;
 97;    0.114678;    1.031991;    0.996776;    0.985386;    0.943393;    0.871607;    0.793491;    0.636535;    0.508139;    0.342771;
 98;    0.115343;    1.002473;    0.986295;    0.987056;    0.946056;    0.877412;    0.787171;    0.675558;    0.543438;    0.297654;
 99;    0.115064;    0.978209;    0.954779;    0.942891;    0.881145;    0.839337;    0.773193;    0.682575;    0.487125;    0.272627;
100;    0.116413;    0.979944;    0.954862;    0.939533;    0.935465;    0.877551;    0.797542;    0.674539;    0.534707;    0.290337;
