Simulation;Time;PC0;PC1;PC2;PC3;PC4;PC5;PC6;PC7;PC8;
Nan;Nan;0;0;0;0;0;0;1;0;0;
  0;    0.102997;    0.994757;    0.638019;    0.462694;    0.370398;    0.301501;    0.269767;    0.225689;    0.231679;    0.237981;
  1;    0.103324;    1.025499;    0.659207;    0.470835;    0.373175;    0.306312;    0.271767;    0.233251;    0.240995;    0.254290;
  2;    0.087522;    1.029100;    0.675437;    0.486681;    0.383250;    0.313255;    0.280774;    0.241016;    0.248456;    0.251930;
  3;    0.097611;    0.983937;    0.645194;    0.486207;    0.389854;    0.314425;    0.278020;    0.233361;    0.237992;    0.247543;
  4;    0.081883;    1.032054;    0.673877;    0.496049;    0.392142;    0.322693;    0.285992;    0.239013;    0.242992;    0.250416;
  5;    0.083291;    0.997984;    0.637583;    0.462414;    0.378082;    0.305482;    0.275285;    0.228853;    0.233520;    0.238695;
  6;    0.089493;    1.010290;    0.652700;    0.468567;    0.381681;    0.302146;    0.271602;    0.229735;    0.235088;    0.244627;
  7;    0.080874;    1.017675;    0.657252;    0.481199;    0.389040;    0.313381;    0.272884;    0.236953;    0.237037;    0.244842;
  8;    0.081834;    0.978302;    0.627950;    0.465633;    0.381654;    0.302160;    0.268724;    0.227720;    0.236757;    0.243500;
  9;    0.080400;    1.005182;    0.653583;    0.480194;    0.389760;    0.312940;    0.278034;    0.233119;    0.240343;    0.244773;
 10;    0.080060;    1.017443;    0.660514;    0.481630;    0.384500;    0.314239;    0.278709;    0.234409;    0.242277;    0.245361;
 11;    0.081453;    0.989330;    0.643201;    0.468607;    0.380686;    0.307918;    0.271483;    0.227835;    0.233043;    0.243083;
 12;    0.092639;    0.970323;    0.644791;    0.463923;    0.380820;    0.308126;    0.277393;    0.229625;    0.234757;    0.235583;
 13;    0.079162;    1.005676;    0.630806;    0.460979;    0.375500;    0.305914;    0.269017;    0.225892;    0.230473;    0.239766;
 14;    0.081430;    0.983349;    0.646085;    0.474655;    0.376223;    0.302936;    0.269153;    0.226595;    0.229473;    0.235905;
 15;    0.088543;    1.015656;    0.629454;    0.456002;    0.363127;    0.298036;    0.264719;    0.228474;    0.234324;    0.239889;
 16;    0.080728;    1.002872;    0.655578;    0.483915;    0.388597;    0.317174;    0.272521;    0.233382;    0.235953;    0.243199;
 17;    0.080248;    0.974345;    0.634438;    0.479852;    0.375860;    0.303576;    0.263722;    0.226335;    0.231494;    0.236888;
 18;    0.081940;    0.945231;    0.624667;    0.460320;    0.374209;    0.304910;    0.272191;    0.225964;    0.228119;    0.230826;
 19;    0.080099;    0.986184;    0.627121;    0.452891;    0.378593;    0.303419;    0.264155;    0.226206;    0.233528;    0.237393;
 20;    0.081146;    1.028919;    0.645923;    0.475621;    0.377494;    0.308304;    0.279055;    0.231163;    0.241032;    0.247354;
 21;    0.080866;    1.015145;    0.635113;    0.472692;    0.379086;    0.310525;    0.270293;    0.226726;    0.236295;    0.242069;
 22;    0.082991;    1.014628;    0.645198;    0.472947;    0.387417;    0.322272;    0.278603;    0.232637;    0.234958;    0.243318;
 23;    0.081018;    0.988324;    0.638723;    0.458827;    0.381997;    0.309757;    0.277502;    0.229926;    0.234339;    0.240069;
 24;    0.081022;    1.032216;    0.673683;    0.483047;    0.388587;    0.318496;    0.288416;    0.239892;    0.240915;    0.250659;
 25;    0.079858;    0.982824;    0.639370;    0.468741;    0.375984;    0.300639;    0.269122;    0.228874;    0.235474;    0.237444;
 26;    0.080066;    1.003966;    0.651074;    0.479326;    0.387776;    0.316208;    0.280862;    0.235497;    0.237237;    0.244014;
 27;    0.084650;    1.013421;    0.633097;    0.471295;    0.382626;    0.311740;    0.273000;    0.228245;    0.231838;    0.240947;
 28;    0.079467;    1.022924;    0.643134;    0.473726;    0.386491;    0.315655;    0.277150;    0.231989;    0.238443;    0.242699;
 29;    0.081438;    1.047703;    0.650054;    0.476781;    0.384451;    0.319242;    0.281080;    0.235501;    0.240890;    0.252024;
 30;    0.080717;    1.017412;    0.651752;    0.477690;    0.383379;    0.308420;    0.277949;    0.234233;    0.240032;    0.245852;
 31;    0.080215;    1.016224;    0.654006;    0.466705;    0.377879;    0.305371;    0.271563;    0.232105;    0.238132;    0.244162;
 32;    0.083249;    0.989857;    0.647807;    0.457427;    0.373606;    0.308652;    0.272518;    0.231523;    0.234581;    0.241600;
 33;    0.081511;    1.020160;    0.643374;    0.455827;    0.374131;    0.299885;    0.269534;    0.233999;    0.239603;    0.244316;
 34;    0.083894;    1.030029;    0.644505;    0.469231;    0.376518;    0.308656;    0.274468;    0.235448;    0.242599;    0.246196;
 35;    0.081685;    1.003354;    0.655371;    0.473424;    0.386868;    0.315716;    0.280630;    0.233460;    0.238595;    0.243503;
 36;    0.081306;    0.968181;    0.653491;    0.471934;    0.376344;    0.302109;    0.271463;    0.230444;    0.232250;    0.238003;
 37;    0.079784;    0.993973;    0.650917;    0.475782;    0.369433;    0.301080;    0.266732;    0.231216;    0.233188;    0.243018;
 38;    0.081770;    1.001453;    0.639918;    0.468501;    0.382591;    0.309341;    0.272385;    0.229017;    0.232746;    0.239002;
 39;    0.081181;    0.952834;    0.624174;    0.458456;    0.365962;    0.301281;    0.266261;    0.221317;    0.224630;    0.229564;
 40;    0.082114;    1.019894;    0.661427;    0.470053;    0.373079;    0.305716;    0.271678;    0.233937;    0.239223;    0.244152;
 41;    0.080049;    1.002772;    0.645696;    0.464018;    0.384851;    0.302793;    0.267561;    0.230140;    0.232984;    0.239393;
 42;    0.081399;    1.034480;    0.639781;    0.473155;    0.376224;    0.305572;    0.273077;    0.230167;    0.235712;    0.245160;
 43;    0.081769;    1.019073;    0.644950;    0.473321;    0.379783;    0.313024;    0.273817;    0.234110;    0.241266;    0.247496;
 44;    0.088662;    1.010517;    0.661457;    0.470475;    0.387454;    0.313718;    0.290551;    0.235631;    0.240096;    0.249293;
 45;    0.081519;    0.978300;    0.621513;    0.461704;    0.377071;    0.303087;    0.266467;    0.223221;    0.230076;    0.234200;
 46;    0.080944;    1.026785;    0.640989;    0.475950;    0.388577;    0.309028;    0.272734;    0.228142;    0.235375;    0.248395;
 47;    0.082874;    1.017957;    0.638861;    0.474877;    0.385014;    0.309426;    0.279245;    0.233442;    0.237496;    0.248174;
 48;    0.081493;    0.973792;    0.630321;    0.471516;    0.386844;    0.313227;    0.269852;    0.225700;    0.231510;    0.236510;
 49;    0.080401;    0.981782;    0.633847;    0.467351;    0.386284;    0.307556;    0.266879;    0.227676;    0.229529;    0.238004;
 50;    0.081920;    1.008911;    0.644924;    0.462568;    0.372254;    0.301712;    0.270057;    0.231638;    0.239897;    0.244424;
 51;    0.080848;    1.035479;    0.665819;    0.487582;    0.394286;    0.317056;    0.279385;    0.240590;    0.245344;    0.252796;
 52;    0.081476;    1.008052;    0.651992;    0.470842;    0.372202;    0.304230;    0.267736;    0.230731;    0.235801;    0.241047;
 53;    0.082042;    0.977939;    0.664739;    0.469655;    0.379404;    0.303425;    0.272203;    0.234189;    0.236392;    0.238389;
 54;    0.081784;    1.042414;    0.675683;    0.463803;    0.384936;    0.306649;    0.277231;    0.239161;    0.247347;    0.253846;
 55;    0.079856;    0.985101;    0.615850;    0.451568;    0.369018;    0.296042;    0.258217;    0.222262;    0.230925;    0.239439;
 56;    0.082058;    1.004576;    0.639399;    0.455049;    0.363232;    0.291692;    0.265961;    0.228859;    0.233534;    0.240812;
 57;    0.081000;    1.025720;    0.665159;    0.477595;    0.379917;    0.306558;    0.277460;    0.235080;    0.240580;    0.246579;
 58;    0.081813;    1.015811;    0.657253;    0.466658;    0.386278;    0.307472;    0.274980;    0.235705;    0.246462;    0.247072;
 59;    0.081206;    0.995856;    0.653312;    0.484996;    0.380799;    0.306322;    0.272498;    0.229827;    0.234597;    0.238754;
 60;    0.087660;    1.004441;    0.640983;    0.473101;    0.390604;    0.305551;    0.270939;    0.228965;    0.237153;    0.237302;
 61;    0.081675;    0.984960;    0.628079;    0.452867;    0.374200;    0.303210;    0.268103;    0.226675;    0.228968;    0.237759;
 62;    0.082424;    0.989132;    0.635958;    0.472851;    0.372384;    0.307711;    0.270863;    0.227724;    0.229516;    0.241774;
 63;    0.080897;    1.026164;    0.647614;    0.455339;    0.369840;    0.301873;    0.266227;    0.229859;    0.236998;    0.244648;
 64;    0.081657;    1.004097;    0.640593;    0.475560;    0.372719;    0.307018;    0.281987;    0.232385;    0.236877;    0.244907;
 65;    0.080171;    0.975379;    0.633937;    0.459267;    0.377583;    0.299825;    0.263004;    0.223601;    0.228422;    0.234869;
 66;    0.082629;    0.994298;    0.643018;    0.476022;    0.389143;    0.313152;    0.273617;    0.230382;    0.235786;    0.239322;
 67;    0.080717;    0.965604;    0.629359;    0.456657;    0.378920;    0.313612;    0.279991;    0.230779;    0.230991;    0.236215;
 68;    0.081826;    1.000738;    0.642509;    0.469377;    0.384437;    0.311579;    0.273160;    0.227195;    0.234340;    0.241426;
 69;    0.081590;    0.971259;    0.638257;    0.467248;    0.367470;    0.303506;    0.271506;    0.228028;    0.232963;    0.236899;
 70;    0.079757;    1.022818;    0.668055;    0.467375;    0.383428;    0.309320;    0.274612;    0.236491;    0.240466;    0.246251;
 71;    0.080849;    0.996727;    0.633849;    0.457670;    0.374856;    0.304474;    0.271922;    0.231287;    0.235349;    0.240443;
 72;    0.088456;    1.004810;    0.634490;    0.467570;    0.385416;    0.310976;    0.280921;    0.230132;    0.239017;    0.242115;
 73;    0.082278;    1.039986;    0.663793;    0.484946;    0.395237;    0.320012;    0.280739;    0.237599;    0.244480;    0.253018;
 74;    0.083484;    1.020025;    0.635971;    0.476547;    0.374763;    0.303745;    0.272594;    0.226430;    0.232906;    0.242505;
 75;    0.081761;    1.015988;    0.663587;    0.465672;    0.369135;    0.304552;    0.279716;    0.233777;    0.237519;    0.243965;
 76;    0.082841;    1.018848;    0.636066;    0.465587;    0.381160;    0.309066;    0.272629;    0.228434;    0.236735;    0.242374;
 77;    0.081199;    0.971216;    0.627510;    0.449304;    0.362673;    0.299494;    0.264683;    0.223342;    0.227662;    0.234256;
 78;    0.084932;    0.990554;    0.656065;    0.471020;    0.375082;    0.303554;    0.270412;    0.230094;    0.234907;    0.242602;
 79;    0.081037;    1.008622;    0.649024;    0.467648;    0.386250;    0.308539;    0.272838;    0.231173;    0.239012;    0.243165;
 80;    0.082403;    1.004724;    0.637448;    0.460940;    0.367307;    0.298178;    0.261694;    0.225176;    0.229212;    0.238156;
 81;    0.080943;    0.983706;    0.632074;    0.469381;    0.376729;    0.306324;    0.269811;    0.226796;    0.231365;    0.238664;
 82;    0.078782;    0.985189;    0.627831;    0.455410;    0.368382;    0.301410;    0.266430;    0.225554;    0.234047;    0.238856;
 83;    0.082820;    0.947672;    0.617131;    0.447592;    0.363689;    0.301366;    0.270264;    0.221948;    0.227270;    0.229979;
 84;    0.081547;    0.973869;    0.656371;    0.473536;    0.375602;    0.302035;    0.280839;    0.234250;    0.239405;    0.240925;
 85;    0.081286;    0.990006;    0.649223;    0.473479;    0.386094;    0.315888;    0.277765;    0.231389;    0.236190;    0.238668;
 86;    0.080577;    1.032598;    0.643308;    0.456798;    0.370194;    0.302170;    0.275832;    0.228471;    0.233218;    0.243875;
 87;    0.079559;    1.003315;    0.634195;    0.453623;    0.370020;    0.301936;    0.262862;    0.225969;    0.228509;    0.238027;
 88;    0.081536;    1.044335;    0.661838;    0.480603;    0.380011;    0.309540;    0.278225;    0.233212;    0.242275;    0.250764;
 89;    0.081652;    1.020254;    0.656216;    0.484684;    0.382109;    0.308393;    0.269652;    0.235116;    0.241223;    0.252569;
 90;    0.080905;    0.984660;    0.635331;    0.455548;    0.374906;    0.295879;    0.267201;    0.227947;    0.232435;    0.239834;
 91;    0.081466;    1.026985;    0.660512;    0.472181;    0.378552;    0.308395;    0.274355;    0.235336;    0.238549;    0.246097;
 92;    0.085646;    0.997396;    0.640240;    0.470509;    0.377761;    0.300208;    0.267419;    0.225561;    0.231483;    0.237531;
 93;    0.081410;    1.000354;    0.646052;    0.476947;    0.383607;    0.307614;    0.271396;    0.230714;    0.235901;    0.240514;
 94;    0.081033;    1.008024;    0.650850;    0.460464;    0.382836;    0.305443;    0.283744;    0.231565;    0.236401;    0.242988;
 95;    0.081493;    1.021698;    0.651896;    0.473615;    0.385348;    0.306563;    0.272271;    0.234568;    0.244245;    0.245741;
 96;    0.082126;    1.028620;    0.643059;    0.469681;    0.380701;    0.305609;    0.276306;    0.227091;    0.236600;    0.245851;
 97;    0.081104;    1.011137;    0.670690;    0.486204;    0.393184;    0.318072;    0.288730;    0.237152;    0.239000;    0.252035;
 98;    0.082510;    1.010740;    0.660803;    0.472465;    0.378554;    0.306694;    0.276850;    0.232770;    0.236822;    0.247943;
 99;    0.080897;    1.003273;    0.623613;    0.454097;    0.362992;    0.292746;    0.261220;    0.225068;    0.233372;    0.241436;
100;    0.081601;    0.988434;    0.622777;    0.463672;    0.370810;    0.298791;    0.266569;    0.223641;    0.229690;    0.240459;
