Simulation;Time;PC0;PC1;PC2;PC3;PC4;PC5;PC6;PC7;PC8;
Nan;Nan;0;0;0;1;0;0;0;0;0;
  0;    0.141301;    0.997004;    0.547945;    0.341699;    0.202026;    0.204241;    0.213634;    0.214639;    0.221527;    0.233945;
  1;    0.123767;    1.030294;    0.571844;    0.350705;    0.205775;    0.212600;    0.214155;    0.223561;    0.232515;    0.244618;
  2;    0.107993;    1.029194;    0.583973;    0.364796;    0.211787;    0.219795;    0.220717;    0.230464;    0.239584;    0.250443;
  3;    0.079158;    0.977095;    0.547124;    0.360448;    0.212160;    0.214003;    0.218569;    0.227678;    0.233446;    0.239264;
  4;    0.082114;    1.030115;    0.574287;    0.368904;    0.214214;    0.220824;    0.226921;    0.231820;    0.240294;    0.249576;
  5;    0.096131;    0.998357;    0.541354;    0.337460;    0.206427;    0.213812;    0.219698;    0.225547;    0.233427;    0.246371;
  6;    0.083257;    1.006786;    0.557834;    0.342253;    0.204562;    0.210762;    0.216020;    0.225386;    0.228200;    0.238767;
  7;    0.086992;    1.017705;    0.558201;    0.353743;    0.212288;    0.213492;    0.219033;    0.227833;    0.232036;    0.240735;
  8;    0.081446;    0.975354;    0.531403;    0.341143;    0.206997;    0.209369;    0.219601;    0.230248;    0.234886;    0.234452;
  9;    0.081207;    0.998983;    0.556990;    0.351421;    0.210809;    0.214012;    0.223534;    0.229707;    0.235860;    0.245471;
 10;    0.088852;    1.015175;    0.567778;    0.356614;    0.209618;    0.217873;    0.224264;    0.233513;    0.240157;    0.246094;
 11;    0.079829;    0.981573;    0.548682;    0.341149;    0.205864;    0.211036;    0.217222;    0.219610;    0.228190;    0.235382;
 12;    0.082924;    0.959996;    0.545837;    0.335741;    0.206735;    0.213022;    0.215427;    0.220393;    0.225076;    0.231976;
 13;    0.083038;    1.010886;    0.537872;    0.337277;    0.205074;    0.208428;    0.216607;    0.223931;    0.231479;    0.244281;
 14;    0.082192;    0.978455;    0.548152;    0.349811;    0.202248;    0.208893;    0.218415;    0.220575;    0.224552;    0.232977;
 15;    0.080374;    1.033438;    0.541495;    0.341896;    0.202915;    0.207084;    0.213208;    0.225030;    0.238431;    0.242257;
 16;    0.082350;    0.996868;    0.558961;    0.354221;    0.211638;    0.213257;    0.216823;    0.224166;    0.233432;    0.245272;
 17;    0.084817;    0.970481;    0.540718;    0.355429;    0.203833;    0.207100;    0.208172;    0.215081;    0.223949;    0.232386;
 18;    0.085836;    0.937264;    0.528176;    0.337236;    0.205231;    0.208036;    0.208914;    0.215153;    0.218029;    0.225394;
 19;    0.078559;    0.984520;    0.529096;    0.324534;    0.205889;    0.209593;    0.217732;    0.221049;    0.233602;    0.240595;
 20;    0.081633;    1.038135;    0.553168;    0.353460;    0.206794;    0.216601;    0.223962;    0.234229;    0.242031;    0.252409;
 21;    0.081427;    1.020848;    0.541136;    0.347351;    0.206193;    0.209538;    0.217030;    0.224353;    0.231613;    0.241570;
 22;    0.080351;    1.015550;    0.548166;    0.344427;    0.212858;    0.214815;    0.221931;    0.221543;    0.232957;    0.241546;
 23;    0.080247;    0.984493;    0.538505;    0.329982;    0.208520;    0.217961;    0.221178;    0.226595;    0.230665;    0.236689;
 24;    0.081951;    1.032226;    0.572535;    0.355989;    0.212686;    0.219994;    0.225038;    0.227784;    0.239369;    0.248372;
 25;    0.078683;    0.980410;    0.548535;    0.349015;    0.204308;    0.210619;    0.212851;    0.216439;    0.223396;    0.231293;
 26;    0.081448;    1.001899;    0.551671;    0.352611;    0.212615;    0.220993;    0.225640;    0.236162;    0.237629;    0.239725;
 27;    0.082206;    1.017222;    0.537519;    0.342854;    0.208445;    0.213452;    0.219364;    0.230614;    0.237308;    0.242936;
 28;    0.080913;    1.026507;    0.543949;    0.345341;    0.211326;    0.219042;    0.230047;    0.231355;    0.240124;    0.246045;
 29;    0.081974;    1.060178;    0.552307;    0.350064;    0.213168;    0.216795;    0.223880;    0.235314;    0.241013;    0.250948;
 30;    0.082813;    1.020734;    0.554061;    0.353953;    0.209063;    0.215523;    0.220011;    0.228960;    0.239648;    0.244152;
 31;    0.080303;    1.018532;    0.558318;    0.342258;    0.205880;    0.214212;    0.222100;    0.226616;    0.238768;    0.243621;
 32;    0.082464;    0.984880;    0.560292;    0.334255;    0.205752;    0.211470;    0.214575;    0.227892;    0.234322;    0.235608;
 33;    0.080081;    1.029735;    0.546675;    0.335668;    0.206590;    0.210998;    0.218885;    0.223794;    0.234973;    0.251118;
 34;    0.081397;    1.041867;    0.554031;    0.350162;    0.210477;    0.220083;    0.220952;    0.229730;    0.240801;    0.250832;
 35;    0.080774;    0.997672;    0.552677;    0.343291;    0.210211;    0.218825;    0.220970;    0.227197;    0.231708;    0.246443;
 36;    0.082088;    0.957671;    0.555288;    0.348113;    0.203406;    0.205895;    0.215190;    0.216776;    0.222727;    0.230333;
 37;    0.081930;    0.995850;    0.562712;    0.360748;    0.202867;    0.208612;    0.212880;    0.224737;    0.230059;    0.235334;
 38;    0.081308;    1.001025;    0.540476;    0.341353;    0.207656;    0.210435;    0.215567;    0.220858;    0.230144;    0.237182;
 39;    0.082153;    0.948774;    0.532228;    0.337889;    0.199677;    0.203557;    0.203316;    0.208678;    0.216701;    0.224779;
 40;    0.081280;    1.022786;    0.573123;    0.351324;    0.205437;    0.211194;    0.218723;    0.229163;    0.232415;    0.240011;
 41;    0.080731;    0.999860;    0.548085;    0.337043;    0.207011;    0.212420;    0.215008;    0.220518;    0.228905;    0.238790;
 42;    0.082960;    1.046785;    0.548791;    0.352969;    0.206416;    0.213704;    0.218915;    0.225774;    0.235377;    0.251572;
 43;    0.081480;    1.025926;    0.550206;    0.349321;    0.210641;    0.213384;    0.221245;    0.233608;    0.241145;    0.245467;
 44;    0.084697;    1.006048;    0.558945;    0.341628;    0.210707;    0.219617;    0.228093;    0.234980;    0.240251;    0.244009;
 45;    0.080981;    0.976161;    0.526129;    0.336069;    0.203814;    0.206775;    0.216812;    0.226423;    0.231742;    0.233432;
 46;    0.081453;    1.028870;    0.544762;    0.346647;    0.208828;    0.211259;    0.219738;    0.225852;    0.231548;    0.247699;
 47;    0.086539;    1.025106;    0.542665;    0.351918;    0.211282;    0.215666;    0.224381;    0.229626;    0.237473;    0.245693;
 48;    0.081392;    0.964814;    0.531765;    0.341625;    0.208623;    0.210950;    0.213603;    0.219664;    0.226434;    0.237633;
 49;    0.080020;    0.974115;    0.533800;    0.337928;    0.208301;    0.210217;    0.212312;    0.216060;    0.227521;    0.232160;
 50;    0.081241;    1.014614;    0.551555;    0.342056;    0.205416;    0.209718;    0.220801;    0.224651;    0.233850;    0.241578;
 51;    0.081675;    1.036956;    0.561843;    0.360448;    0.215108;    0.217788;    0.223891;    0.231509;    0.239487;    0.251869;
 52;    0.080742;    1.011654;    0.559551;    0.350908;    0.203575;    0.209902;    0.220153;    0.226341;    0.231173;    0.238668;
 53;    0.080244;    0.964275;    0.572288;    0.346517;    0.205500;    0.212208;    0.214044;    0.220735;    0.226874;    0.235799;
 54;    0.079830;    1.043202;    0.580411;    0.337825;    0.209351;    0.216751;    0.220648;    0.231259;    0.238428;    0.253932;
 55;    0.078892;    0.990189;    0.525041;    0.329959;    0.200996;    0.211293;    0.212871;    0.218299;    0.228454;    0.238263;
 56;    0.081491;    1.012935;    0.551104;    0.338456;    0.200699;    0.206356;    0.209180;    0.219108;    0.229476;    0.243615;
 57;    0.082460;    1.027171;    0.569968;    0.354934;    0.206823;    0.213604;    0.217074;    0.225697;    0.232279;    0.249303;
 58;    0.081887;    1.014800;    0.556401;    0.340128;    0.210096;    0.213563;    0.218704;    0.224445;    0.235290;    0.247232;
 59;    0.081311;    0.990512;    0.556883;    0.360950;    0.204480;    0.206948;    0.214182;    0.218250;    0.228230;    0.243426;
 60;    0.081932;    0.999153;    0.543769;    0.344180;    0.207972;    0.214785;    0.221024;    0.230474;    0.230213;    0.236641;
 61;    0.081864;    0.985111;    0.536342;    0.329688;    0.205355;    0.210383;    0.219177;    0.223401;    0.227753;    0.235930;
 62;    0.081033;    0.991801;    0.542696;    0.351449;    0.204474;    0.207338;    0.215188;    0.224369;    0.227947;    0.235218;
 63;    0.081315;    1.035058;    0.554937;    0.333225;    0.203297;    0.210845;    0.216299;    0.223760;    0.237991;    0.247911;
 64;    0.082002;    1.011315;    0.552562;    0.358379;    0.207314;    0.212765;    0.223079;    0.228862;    0.243020;    0.246684;
 65;    0.081514;    0.967254;    0.539508;    0.332498;    0.201718;    0.206440;    0.215149;    0.216443;    0.220488;    0.229807;
 66;    0.080205;    0.987639;    0.544656;    0.346849;    0.209771;    0.218874;    0.222221;    0.222326;    0.234385;    0.238038;
 67;    0.080532;    0.961409;    0.530605;    0.330795;    0.210721;    0.210321;    0.217675;    0.224373;    0.233746;    0.233688;
 68;    0.080355;    0.996287;    0.541942;    0.337986;    0.206113;    0.211461;    0.214971;    0.222535;    0.231042;    0.239275;
 69;    0.081969;    0.969338;    0.550658;    0.349425;    0.202457;    0.207968;    0.218480;    0.222217;    0.227883;    0.235676;
 70;    0.105381;    1.020166;    0.567680;    0.339293;    0.209124;    0.213110;    0.225491;    0.227036;    0.237103;    0.243398;
 71;    0.081081;    1.001638;    0.540860;    0.337452;    0.207449;    0.210008;    0.217034;    0.223742;    0.235260;    0.245544;
 72;    0.080365;    1.006667;    0.534782;    0.339716;    0.209804;    0.218578;    0.219344;    0.227449;    0.235563;    0.240230;
 73;    0.082438;    1.041312;    0.561438;    0.354141;    0.214342;    0.220269;    0.229163;    0.238444;    0.243244;    0.249703;
 74;    0.081481;    1.029041;    0.544431;    0.355191;    0.203502;    0.209476;    0.216452;    0.227628;    0.239506;    0.243944;
 75;    0.080828;    1.020559;    0.569764;    0.345846;    0.203477;    0.209529;    0.219031;    0.227213;    0.233333;    0.243004;
 76;    0.085545;    1.024633;    0.540044;    0.337929;    0.208003;    0.212746;    0.215575;    0.226732;    0.233464;    0.247175;
 77;    0.083031;    0.972488;    0.536148;    0.328823;    0.199321;    0.202355;    0.206725;    0.214193;    0.222002;    0.232287;
 78;    0.079841;    0.984457;    0.563538;    0.348860;    0.203521;    0.209467;    0.215563;    0.217413;    0.224542;    0.236210;
 79;    0.081491;    1.004962;    0.550052;    0.337875;    0.209238;    0.209136;    0.216243;    0.225327;    0.231358;    0.240553;
 80;    0.081811;    1.010649;    0.548339;    0.341387;    0.199610;    0.204858;    0.211816;    0.219595;    0.230530;    0.237887;
 81;    0.080438;    0.983409;    0.537220;    0.345698;    0.205246;    0.209820;    0.215890;    0.217185;    0.228691;    0.236140;
 82;    0.080770;    0.989233;    0.537260;    0.335537;    0.202293;    0.211118;    0.217077;    0.223241;    0.226217;    0.235920;
 83;    0.081779;    0.944687;    0.526173;    0.327338;    0.200088;    0.203424;    0.208932;    0.215661;    0.220151;    0.229469;
 84;    0.083942;    0.967573;    0.560874;    0.355403;    0.206087;    0.207317;    0.212371;    0.215628;    0.219190;    0.232694;
 85;    0.081585;    0.981645;    0.552489;    0.345131;    0.209123;    0.211577;    0.220770;    0.223622;    0.231910;    0.242533;
 86;    0.084000;    1.041835;    0.554133;    0.334214;    0.202920;    0.210067;    0.216869;    0.228527;    0.243691;    0.247961;
 87;    0.081105;    1.009541;    0.541852;    0.331158;    0.202559;    0.206068;    0.211658;    0.219699;    0.226522;    0.240007;
 88;    0.080615;    1.051142;    0.569248;    0.355485;    0.206344;    0.214021;    0.225803;    0.232970;    0.245899;    0.252615;
 89;    0.083254;    1.023286;    0.565245;    0.363713;    0.209508;    0.214063;    0.224414;    0.226014;    0.236805;    0.240692;
 90;    0.081559;    0.982269;    0.544042;    0.333331;    0.203374;    0.206508;    0.214524;    0.221933;    0.232585;    0.237503;
 91;    0.085740;    1.031168;    0.567162;    0.349247;    0.208429;    0.214209;    0.220287;    0.231892;    0.238176;    0.248826;
 92;    0.082475;    0.996203;    0.546071;    0.346922;    0.202072;    0.206150;    0.212073;    0.221403;    0.232128;    0.240994;
 93;    0.082092;    0.997981;    0.551219;    0.351967;    0.207601;    0.212415;    0.218932;    0.224517;    0.232570;    0.241424;
 94;    0.081176;    1.006106;    0.551645;    0.333425;    0.207397;    0.209974;    0.213444;    0.222985;    0.230604;    0.240517;
 95;    0.081647;    1.024583;    0.554097;    0.347769;    0.210088;    0.213281;    0.221466;    0.232703;    0.234402;    0.243637;
 96;    0.084776;    1.033108;    0.549746;    0.342845;    0.204526;    0.216287;    0.220521;    0.228047;    0.237646;    0.247210;
 97;    0.083568;    1.002673;    0.570693;    0.356987;    0.213348;    0.212938;    0.219108;    0.225404;    0.231491;    0.238806;
 98;    0.081694;    1.010194;    0.565351;    0.348974;    0.205783;    0.211191;    0.214686;    0.225839;    0.235485;    0.243848;
 99;    0.080136;    1.015531;    0.536483;    0.338359;    0.200073;    0.207654;    0.214723;    0.225975;    0.234081;    0.240418;
100;    0.081502;    0.992881;    0.532113;    0.342624;    0.201897;    0.206339;    0.214823;    0.219816;    0.226320;    0.237654;
