Simulation;Time;PC0;PC1;PC2;PC3;PC4;PC5;PC6;PC7;PC8;
Nan;Nan;0;0;0;0;0;0;0;1;0;
  0;    0.189799;    0.989150;    0.757114;    0.827943;    0.894632;    0.935570;    0.917222;    0.841136;    0.759181;    0.764091;
  1;    0.173047;    1.014954;    0.778008;    0.847272;    0.897487;    0.911553;    0.915689;    0.855916;    0.779453;    0.789569;
  2;    0.176342;    1.021561;    0.793445;    0.860205;    0.900319;    0.918790;    0.902582;    0.901811;    0.798843;    0.803542;
  3;    0.209389;    1.000944;    0.784103;    0.876759;    0.904701;    0.928073;    0.927028;    0.844826;    0.788727;    0.796111;
  4;    0.183070;    1.034077;    0.798982;    0.887973;    0.927124;    0.943214;    0.906646;    0.874682;    0.802103;    0.806653;
  5;    0.171925;    0.996090;    0.760962;    0.846264;    0.923221;    0.927040;    0.908864;    0.853189;    0.766771;    0.772266;
  6;    0.173720;    1.002813;    0.770908;    0.857081;    0.899231;    0.898529;    0.915332;    0.856535;    0.772884;    0.776574;
  7;    0.171495;    1.018125;    0.783906;    0.864412;    0.910121;    0.936375;    0.907949;    0.863346;    0.786032;    0.789981;
  8;    0.173106;    0.985797;    0.760254;    0.834809;    0.904303;    0.900235;    0.921322;    0.866530;    0.765039;    0.771093;
  9;    0.172722;    1.012942;    0.786239;    0.868897;    0.940919;    0.980468;    0.949904;    0.898329;    0.791762;    0.798311;
 10;    0.172169;    1.018952;    0.789159;    0.880425;    0.928021;    0.960286;    0.931592;    0.882547;    0.794419;    0.798767;
 11;    0.170677;    0.990815;    0.769366;    0.850844;    0.895190;    0.922480;    0.894296;    0.851300;    0.773023;    0.778522;
 12;    0.168704;    0.970406;    0.761567;    0.845523;    0.910366;    0.878762;    0.863451;    0.853691;    0.766500;    0.773838;
 13;    0.175263;    1.002660;    0.759791;    0.839679;    0.896564;    0.914626;    0.903913;    0.877958;    0.763451;    0.767995;
 14;    0.172571;    0.976220;    0.754749;    0.824446;    0.878094;    0.884812;    0.863633;    0.803774;    0.758069;    0.762500;
 15;    0.171496;    1.010434;    0.754309;    0.799000;    0.834750;    0.874637;    0.895256;    0.834015;    0.757357;    0.761037;
 16;    0.175209;    1.003728;    0.781852;    0.853340;    0.894446;    0.926020;    0.946309;    0.890356;    0.784420;    0.788653;
 17;    0.174853;    0.984012;    0.763959;    0.835126;    0.884349;    0.887731;    0.866591;    0.842726;    0.763628;    0.769107;
 18;    0.176860;    0.967091;    0.760375;    0.841282;    0.845604;    0.898192;    0.911448;    0.844131;    0.763842;    0.768324;
 19;    0.169557;    0.988257;    0.753527;    0.828539;    0.883419;    0.901079;    0.866621;    0.807525;    0.758984;    0.763808;
 20;    0.172803;    1.022829;    0.770260;    0.836040;    0.912362;    0.927541;    0.944284;    0.892189;    0.776942;    0.782299;
 21;    0.171548;    1.016813;    0.767332;    0.842473;    0.906648;    0.920647;    0.900261;    0.864128;    0.771443;    0.775555;
 22;    0.172082;    1.025340;    0.784075;    0.831220;    0.881802;    0.894240;    0.916650;    0.855064;    0.788312;    0.792624;
 23;    0.172267;    0.991808;    0.763365;    0.850229;    0.882006;    0.887087;    0.883281;    0.821954;    0.769938;    0.779519;
 24;    0.173033;    1.029795;    0.793151;    0.870487;    0.919461;    0.982918;    0.968090;    0.890090;    0.797989;    0.801927;
 25;    0.171700;    0.978098;    0.759286;    0.841984;    0.889864;    0.896783;    0.889301;    0.849665;    0.763895;    0.771346;
 26;    0.178829;    1.016790;    0.785780;    0.863618;    0.890569;    0.936333;    0.916054;    0.870598;    0.791682;    0.797296;
 27;    0.174046;    1.017804;    0.771238;    0.847188;    0.902584;    0.938324;    0.909089;    0.861414;    0.775460;    0.779572;
 28;    0.171224;    1.022407;    0.773570;    0.834126;    0.877649;    0.943046;    0.921736;    0.888757;    0.777785;    0.782282;
 29;    0.175756;    1.043468;    0.780193;    0.853621;    0.904188;    0.916762;    0.901499;    0.845975;    0.784591;    0.790589;
 30;    0.170263;    1.018586;    0.777444;    0.870338;    0.922863;    0.915081;    0.908513;    0.875628;    0.784103;    0.789180;
 31;    0.172029;    1.002191;    0.765213;    0.841739;    0.879102;    0.908806;    0.918675;    0.845622;    0.770970;    0.776241;
 32;    0.171354;    0.985966;    0.772649;    0.834547;    0.856040;    0.898857;    0.919399;    0.852974;    0.776597;    0.780302;
 33;    0.172258;    1.009295;    0.759195;    0.841497;    0.879451;    0.883387;    0.899438;    0.861960;    0.764655;    0.768211;
 34;    0.172670;    1.020749;    0.770868;    0.872995;    0.913533;    0.947581;    0.913424;    0.879107;    0.778765;    0.783179;
 35;    0.171279;    1.007906;    0.779801;    0.853767;    0.882125;    0.932708;    0.918631;    0.868462;    0.784503;    0.788413;
 36;    0.170604;    0.973235;    0.770592;    0.839083;    0.903453;    0.946057;    0.942303;    0.860662;    0.773694;    0.781884;
 37;    0.171682;    0.986336;    0.763891;    0.811686;    0.895336;    0.891518;    0.882497;    0.811841;    0.768912;    0.772704;
 38;    0.173209;    1.001395;    0.763848;    0.847447;    0.881961;    0.925411;    0.888204;    0.836160;    0.765640;    0.769520;
 39;    0.173501;    0.960153;    0.746324;    0.833083;    0.848885;    0.882744;    0.872355;    0.819703;    0.748619;    0.751572;
 40;    0.175719;    1.006162;    0.774760;    0.829057;    0.891362;    0.922863;    0.905098;    0.850428;    0.778080;    0.782635;
 41;    0.172672;    0.992294;    0.762456;    0.835975;    0.868855;    0.848866;    0.853649;    0.827072;    0.768409;    0.772418;
 42;    0.169752;    1.029293;    0.770112;    0.849135;    0.889353;    0.909923;    0.889659;    0.864195;    0.772903;    0.777929;
 43;    0.171343;    1.021295;    0.776471;    0.858968;    0.889543;    0.909918;    0.900685;    0.854483;    0.781992;    0.786800;
 44;    0.174195;    1.015156;    0.784020;    0.863639;    0.929032;    0.937550;    0.897287;    0.872798;    0.789621;    0.796428;
 45;    0.173242;    0.980389;    0.751400;    0.826806;    0.881361;    0.918280;    0.873271;    0.832723;    0.753472;    0.760893;
 46;    0.178160;    1.024403;    0.776300;    0.853271;    0.932209;    0.949167;    0.917031;    0.856916;    0.778936;    0.783793;
 47;    0.176480;    1.023683;    0.775975;    0.848581;    0.915607;    0.951297;    0.903875;    0.847816;    0.783068;    0.788426;
 48;    0.174692;    0.992289;    0.771325;    0.821281;    0.893970;    0.916250;    0.881875;    0.868461;    0.775030;    0.780617;
 49;    0.170877;    0.997891;    0.772630;    0.838159;    0.887732;    0.882197;    0.883300;    0.868357;    0.773399;    0.778765;
 50;    0.172790;    1.003480;    0.763799;    0.839338;    0.889990;    0.893317;    0.887137;    0.822516;    0.767097;    0.771855;
 51;    0.168984;    1.040622;    0.796406;    0.872721;    0.936354;    0.935425;    0.904553;    0.894718;    0.799442;    0.808850;
 52;    0.172589;    0.994316;    0.762815;    0.841565;    0.889630;    0.899930;    0.877505;    0.834897;    0.765264;    0.769725;
 53;    0.173109;    0.983440;    0.784843;    0.852697;    0.914592;    0.951736;    0.900180;    0.841707;    0.787338;    0.791092;
 54;    0.178025;    1.027398;    0.787475;    0.825330;    0.897814;    0.918756;    0.903689;    0.877641;    0.792152;    0.797739;
 55;    0.176277;    0.982920;    0.746013;    0.810422;    0.854959;    0.875068;    0.880114;    0.837913;    0.750335;    0.754945;
 56;    0.173981;    0.983331;    0.746615;    0.818547;    0.855725;    0.855253;    0.859498;    0.839955;    0.748422;    0.752329;
 57;    0.171101;    1.017175;    0.779101;    0.859676;    0.899221;    0.922523;    0.930556;    0.865648;    0.781980;    0.787983;
 58;    0.173247;    1.015691;    0.779499;    0.856401;    0.915535;    0.923459;    0.898097;    0.865219;    0.784130;    0.789142;
 59;    0.170835;    0.992902;    0.769480;    0.846529;    0.871480;    0.883863;    0.904749;    0.851817;    0.772562;    0.778743;
 60;    0.172576;    1.010803;    0.776594;    0.837996;    0.884041;    0.907348;    0.905220;    0.889369;    0.782344;    0.785463;
 61;    0.171282;    0.979945;    0.751913;    0.821669;    0.871124;    0.892291;    0.882008;    0.849678;    0.758318;    0.762548;
 62;    0.169393;    0.988989;    0.758059;    0.828992;    0.881769;    0.892492;    0.878268;    0.837105;    0.759735;    0.763894;
 63;    0.179488;    1.011720;    0.759577;    0.827715;    0.865561;    0.873368;    0.892196;    0.860581;    0.763448;    0.767809;
 64;    0.172578;    1.007463;    0.772446;    0.841546;    0.854544;    0.904073;    0.905159;    0.851736;    0.779079;    0.785756;
 65;    0.173295;    0.982032;    0.760946;    0.838418;    0.896068;    0.906705;    0.856764;    0.842002;    0.764775;    0.769083;
 66;    0.172362;    0.998436;    0.772852;    0.829613;    0.868914;    0.925306;    0.909991;    0.855317;    0.780485;    0.785859;
 67;    0.179547;    0.978852;    0.763901;    0.834534;    0.880022;    0.867436;    0.841504;    0.824576;    0.766995;    0.770839;
 68;    0.173093;    1.008384;    0.772769;    0.841554;    0.898265;    0.903367;    0.899479;    0.875525;    0.777022;    0.781571;
 69;    0.175779;    0.976369;    0.761511;    0.849611;    0.887664;    0.906367;    0.901349;    0.816842;    0.768973;    0.773209;
 70;    0.171090;    1.018379;    0.784664;    0.854791;    0.904597;    0.916253;    0.916349;    0.866604;    0.786962;    0.790745;
 71;    0.169528;    1.002561;    0.764895;    0.800432;    0.856440;    0.893920;    0.893195;    0.868471;    0.771976;    0.776424;
 72;    0.173346;    1.008523;    0.766222;    0.855625;    0.882953;    0.933154;    0.924128;    0.852302;    0.772408;    0.777049;
 73;    0.172208;    1.038952;    0.792011;    0.876235;    0.944220;    0.966675;    0.934722;    0.909037;    0.798223;    0.803617;
 74;    0.171305;    1.017452;    0.763893;    0.834230;    0.884198;    0.899490;    0.879567;    0.852065;    0.768883;    0.773067;
 75;    0.171251;    1.001692;    0.767519;    0.830233;    0.882746;    0.906310;    0.884924;    0.844048;    0.772525;    0.777338;
 76;    0.174168;    1.016810;    0.766695;    0.843303;    0.897797;    0.916046;    0.891524;    0.866902;    0.768360;    0.773612;
 77;    0.169833;    0.961526;    0.738723;    0.798570;    0.863569;    0.842749;    0.851494;    0.812044;    0.742086;    0.745886;
 78;    0.171794;    0.986462;    0.770099;    0.853984;    0.898788;    0.913857;    0.900536;    0.834721;    0.770082;    0.778245;
 79;    0.177833;    1.008620;    0.774434;    0.841658;    0.897079;    0.900739;    0.915447;    0.864714;    0.776931;    0.782473;
 80;    0.171890;    0.995928;    0.754079;    0.836082;    0.890869;    0.892787;    0.876011;    0.855801;    0.759958;    0.763606;
 81;    0.177551;    0.988353;    0.759765;    0.816114;    0.870803;    0.904143;    0.897657;    0.862093;    0.764381;    0.773074;
 82;    0.173118;    0.983510;    0.751322;    0.844584;    0.866379;    0.914473;    0.902437;    0.832791;    0.758248;    0.766158;
 83;    0.173629;    0.958032;    0.744289;    0.814169;    0.872060;    0.882213;    0.875050;    0.804948;    0.749688;    0.753720;
 84;    0.178251;    0.979493;    0.773120;    0.843978;    0.902629;    0.895311;    0.878324;    0.859284;    0.775829;    0.781267;
 85;    0.173888;    0.997055;    0.778869;    0.830532;    0.905561;    0.945178;    0.920419;    0.885398;    0.784590;    0.791575;
 86;    0.182026;    1.017397;    0.763715;    0.832622;    0.881508;    0.936859;    0.897125;    0.838916;    0.767271;    0.771782;
 87;    0.172123;    0.995695;    0.752168;    0.809038;    0.866089;    0.880669;    0.881167;    0.835385;    0.756046;    0.760708;
 88;    0.173398;    1.031756;    0.779093;    0.855686;    0.903812;    0.958234;    0.962200;    0.939713;    0.787056;    0.792512;
 89;    0.171850;    1.018805;    0.783737;    0.859473;    0.891597;    0.913789;    0.904674;    0.855911;    0.787930;    0.793358;
 90;    0.171015;    0.984415;    0.760533;    0.840044;    0.909828;    0.906702;    0.869781;    0.843489;    0.767134;    0.773163;
 91;    0.172035;    1.016810;    0.776512;    0.858920;    0.917424;    0.917986;    0.890743;    0.865789;    0.780752;    0.787829;
 92;    0.171813;    0.988874;    0.756985;    0.835059;    0.854924;    0.894040;    0.864050;    0.808039;    0.761906;    0.766517;
 93;    0.178842;    1.007122;    0.775967;    0.855204;    0.904977;    0.957477;    0.920010;    0.853347;    0.782393;    0.786575;
 94;    0.175424;    1.000717;    0.766548;    0.836856;    0.878547;    0.902139;    0.923595;    0.848137;    0.768555;    0.774978;
 95;    0.170084;    1.013256;    0.771677;    0.857183;    0.892515;    0.897787;    0.894868;    0.830980;    0.776874;    0.783990;
 96;    0.172288;    1.016336;    0.765512;    0.845754;    0.916818;    0.944762;    0.922730;    0.837585;    0.772925;    0.777624;
 97;    0.230148;    1.015212;    0.796371;    0.891517;    0.931562;    0.945783;    0.936838;    0.873031;    0.797274;    0.801173;
 98;    0.171988;    1.000992;    0.771597;    0.868885;    0.908847;    0.923464;    0.893729;    0.848523;    0.777039;    0.781886;
 99;    0.171962;    0.986940;    0.739640;    0.813221;    0.861595;    0.895281;    0.876359;    0.824363;    0.746611;    0.751504;
100;    0.170906;    0.984760;    0.747917;    0.816979;    0.888238;    0.883723;    0.880611;    0.848815;    0.750740;    0.758433;
