Simulation;Time;PC0;PC1;PC2;PC3;PC4;PC5;PC6;PC7;PC8;
Nan;Nan;0;0;0;0;0;0;0;1;0;
  0;    0.035231;    0.988567;    0.882056;    0.842689;    0.875393;    0.900238;    0.848124;    0.858050;    0.874965;    0.930501;
  1;    0.030759;    1.018445;    0.917601;    0.857437;    0.909741;    0.894215;    0.863413;    0.877085;    0.908147;    0.976206;
  2;    0.029144;    1.029718;    0.930440;    0.883778;    0.912504;    0.919777;    0.889885;    0.915935;    0.932441;    0.984771;
  3;    0.034824;    1.000133;    0.907241;    0.886196;    0.927288;    0.940437;    0.889186;    0.903651;    0.907257;    0.959809;
  4;    0.030706;    1.032808;    0.929296;    0.896988;    0.910622;    0.906834;    0.896826;    0.909987;    0.925589;    0.978434;
  5;    0.034082;    0.996432;    0.890118;    0.852623;    0.900461;    0.899967;    0.859210;    0.882790;    0.890277;    0.947318;
  6;    0.030598;    1.007035;    0.905334;    0.851769;    0.904727;    0.890485;    0.852926;    0.889968;    0.897292;    0.948203;
  7;    0.031346;    1.022678;    0.921169;    0.879566;    0.921261;    0.944106;    0.880440;    0.901457;    0.916882;    0.962800;
  8;    0.029545;    0.986706;    0.887343;    0.857232;    0.890436;    0.904942;    0.859909;    0.886036;    0.887980;    0.944602;
  9;    0.029369;    1.012250;    0.913154;    0.877271;    0.929365;    0.928487;    0.880024;    0.912066;    0.909186;    0.969888;
 10;    0.028229;    1.017743;    0.917046;    0.875809;    0.904106;    0.933691;    0.882675;    0.909481;    0.913060;    0.967442;
 11;    0.033734;    0.995920;    0.906715;    0.853829;    0.905472;    0.900657;    0.858176;    0.887982;    0.896644;    0.949921;
 12;    0.029894;    0.983123;    0.902233;    0.849779;    0.879047;    0.880334;    0.854233;    0.880428;    0.897801;    0.951501;
 13;    0.028357;    0.998755;    0.887788;    0.853729;    0.904136;    0.901886;    0.855745;    0.878897;    0.882096;    0.938837;
 14;    0.029549;    0.980400;    0.887103;    0.840981;    0.884519;    0.894343;    0.840942;    0.857785;    0.880709;    0.927145;
 15;    0.031951;    1.000011;    0.876865;    0.847019;    0.866491;    0.883488;    0.852032;    0.858030;    0.875855;    0.931516;
 16;    0.029759;    1.010397;    0.920531;    0.875675;    0.914756;    0.938295;    0.876392;    0.898191;    0.913419;    0.961376;
 17;    0.039605;    0.983196;    0.886189;    0.858954;    0.912407;    0.897772;    0.854895;    0.878145;    0.884774;    0.941872;
 18;    0.029829;    0.964749;    0.878670;    0.855383;    0.920983;    0.935110;    0.863190;    0.881325;    0.872128;    0.921772;
 19;    0.029433;    0.987400;    0.878921;    0.843294;    0.880702;    0.863754;    0.849596;    0.879046;    0.881395;    0.937080;
 20;    0.030807;    1.015862;    0.895372;    0.861907;    0.909548;    0.903381;    0.865162;    0.898771;    0.896665;    0.954727;
 21;    0.029239;    1.007921;    0.887872;    0.856282;    0.884110;    0.894792;    0.861417;    0.878393;    0.888160;    0.948241;
 22;    0.029849;    1.021195;    0.908376;    0.876863;    0.894977;    0.905865;    0.884916;    0.897976;    0.905900;    0.956996;
 23;    0.029879;    0.993590;    0.894136;    0.855517;    0.873270;    0.886279;    0.862930;    0.884431;    0.892294;    0.953826;
 24;    0.028376;    1.031668;    0.935922;    0.885768;    0.934831;    0.936722;    0.890446;    0.917431;    0.924948;    0.972808;
 25;    0.028180;    0.986164;    0.896145;    0.848607;    0.914923;    0.888614;    0.852605;    0.876445;    0.890236;    0.939733;
 26;    0.029882;    1.014792;    0.913630;    0.882266;    0.926560;    0.932921;    0.885812;    0.908124;    0.911521;    0.963174;
 27;    0.030980;    1.010262;    0.896125;    0.865539;    0.897692;    0.908155;    0.872490;    0.898364;    0.895748;    0.952305;
 28;    0.030466;    1.018710;    0.901630;    0.871148;    0.910190;    0.925765;    0.874618;    0.895206;    0.901434;    0.954816;
 29;    0.035039;    1.034727;    0.909614;    0.877638;    0.900498;    0.899458;    0.885836;    0.908542;    0.909416;    0.974413;
 30;    0.029502;    1.013303;    0.903461;    0.871215;    0.925342;    0.915652;    0.877168;    0.900523;    0.901657;    0.958989;
 31;    0.028710;    1.007055;    0.900906;    0.850288;    0.915945;    0.923540;    0.855234;    0.876037;    0.901232;    0.957039;
 32;    0.028109;    0.999387;    0.937688;    0.853837;    0.871319;    0.891237;    0.861441;    0.888535;    0.910437;    0.951302;
 33;    0.029224;    1.007544;    0.895012;    0.850894;    0.884161;    0.886902;    0.858852;    0.884861;    0.893715;    0.945463;
 34;    0.028421;    1.021452;    0.906573;    0.869055;    0.916737;    0.920868;    0.877595;    0.897224;    0.910936;    0.967126;
 35;    0.028768;    1.009681;    0.914790;    0.870387;    0.896677;    0.915879;    0.874380;    0.896827;    0.908385;    0.958719;
 36;    0.028750;    0.980020;    0.911819;    0.856210;    0.897467;    0.903858;    0.858646;    0.882436;    0.890157;    0.948532;
 37;    0.029081;    0.993285;    0.896428;    0.849265;    0.868438;    0.895440;    0.850367;    0.870489;    0.897194;    0.942408;
 38;    0.029096;    0.999935;    0.891177;    0.853601;    0.903976;    0.904766;    0.857751;    0.867567;    0.891178;    0.942459;
 39;    0.029420;    0.960637;    0.867305;    0.832794;    0.867370;    0.846134;    0.835182;    0.849211;    0.863004;    0.905765;
 40;    0.029857;    1.013221;    0.919321;    0.854342;    0.905696;    0.899232;    0.861215;    0.888197;    0.905663;    0.957233;
 41;    0.028326;    1.002365;    0.904226;    0.849681;    0.896040;    0.864606;    0.850023;    0.890275;    0.905656;    0.949362;
 42;    0.029848;    1.018677;    0.892829;    0.860338;    0.880840;    0.909675;    0.863327;    0.883033;    0.891480;    0.950649;
 43;    0.028390;    1.017816;    0.904394;    0.871457;    0.885514;    0.905541;    0.877828;    0.897225;    0.906317;    0.962339;
 44;    0.031781;    1.015596;    0.920518;    0.869328;    0.900183;    0.915476;    0.878275;    0.900889;    0.909304;    0.966294;
 45;    0.029078;    0.980329;    0.876839;    0.846490;    0.890430;    0.897270;    0.845144;    0.864958;    0.877188;    0.937422;
 46;    0.030681;    1.020196;    0.908787;    0.868467;    0.919086;    0.933555;    0.868534;    0.887993;    0.900905;    0.956527;
 47;    0.027990;    1.016216;    0.902070;    0.879525;    0.938818;    0.933564;    0.885123;    0.894996;    0.901953;    0.961811;
 48;    0.028685;    0.986318;    0.888813;    0.866064;    0.914493;    0.921916;    0.872359;    0.879719;    0.885566;    0.942947;
 49;    0.028280;    0.990288;    0.886912;    0.865124;    0.896535;    0.912901;    0.875137;    0.882956;    0.884689;    0.940700;
 50;    0.034430;    1.001311;    0.890896;    0.850565;    0.906368;    0.899506;    0.857483;    0.900660;    0.890505;    0.945919;
 51;    0.027583;    1.033852;    0.927779;    0.894024;    0.951860;    0.933220;    0.901403;    0.911232;    0.918856;    0.987236;
 52;    0.028498;    1.000958;    0.899291;    0.851018;    0.886711;    0.886466;    0.849592;    0.871671;    0.897212;    0.950695;
 53;    0.028476;    0.993270;    0.950440;    0.861737;    0.908314;    0.887091;    0.865918;    0.896331;    0.909292;    0.948515;
 54;    0.028778;    1.035844;    0.931780;    0.863133;    0.911235;    0.898898;    0.869332;    0.902041;    0.923926;    0.983058;
 55;    0.028239;    0.977759;    0.869136;    0.838210;    0.885586;    0.870293;    0.844951;    0.863309;    0.869401;    0.925730;
 56;    0.028830;    0.992553;    0.886845;    0.832449;    0.873132;    0.879802;    0.833150;    0.863584;    0.886738;    0.937309;
 57;    0.028238;    1.018918;    0.910174;    0.859215;    0.907266;    0.920604;    0.863775;    0.888234;    0.905457;    0.961007;
 58;    0.028758;    1.015619;    0.914353;    0.868373;    0.893254;    0.917500;    0.873606;    0.902422;    0.908443;    0.964433;
 59;    0.030294;    0.996153;    0.896263;    0.858034;    0.911421;    0.891229;    0.855894;    0.877980;    0.896763;    0.950031;
 60;    0.029128;    1.009162;    0.906260;    0.864938;    0.883375;    0.891546;    0.868168;    0.889472;    0.899473;    0.945454;
 61;    0.028855;    0.984916;    0.887298;    0.841701;    0.895769;    0.900346;    0.851311;    0.867964;    0.886748;    0.930787;
 62;    0.029812;    0.987963;    0.882170;    0.850500;    0.904276;    0.873838;    0.850918;    0.868959;    0.882482;    0.928566;
 63;    0.030031;    1.008137;    0.886522;    0.839476;    0.893384;    0.902551;    0.847490;    0.880382;    0.885256;    0.942403;
 64;    0.029115;    1.003442;    0.896728;    0.867080;    0.881942;    0.903162;    0.876884;    0.885214;    0.897697;    0.957300;
 65;    0.030015;    0.979584;    0.882918;    0.841955;    0.885666;    0.890666;    0.847521;    0.867651;    0.875237;    0.922689;
 66;    0.030586;    1.002558;    0.903225;    0.865666;    0.905938;    0.907349;    0.868481;    0.899137;    0.904038;    0.951568;
 67;    0.028878;    0.983839;    0.898355;    0.865337;    0.882422;    0.911979;    0.876858;    0.896389;    0.894288;    0.938044;
 68;    0.028749;    1.002538;    0.891749;    0.857906;    0.881571;    0.903012;    0.861387;    0.876845;    0.890973;    0.945092;
 69;    0.028249;    0.977791;    0.884086;    0.847051;    0.881993;    0.860648;    0.854610;    0.873844;    0.883270;    0.928638;
 70;    0.030111;    1.023508;    0.926722;    0.863264;    0.919250;    0.903738;    0.868308;    0.901695;    0.915749;    0.967852;
 71;    0.031121;    0.999976;    0.889311;    0.857032;    0.891762;    0.904640;    0.866715;    0.874670;    0.891093;    0.941335;
 72;    0.028863;    1.003803;    0.891092;    0.866184;    0.903438;    0.906445;    0.871421;    0.886782;    0.891752;    0.945359;
 73;    0.030117;    1.036997;    0.925378;    0.888749;    0.926493;    0.941315;    0.891294;    0.912926;    0.922771;    0.976177;
 74;    0.029744;    1.004356;    0.881093;    0.855892;    0.897530;    0.895052;    0.860082;    0.879437;    0.880508;    0.942225;
 75;    0.028752;    1.005691;    0.912191;    0.845273;    0.878238;    0.865597;    0.852108;    0.875317;    0.895596;    0.947709;
 76;    0.028262;    1.011716;    0.893876;    0.858826;    0.902107;    0.891384;    0.861442;    0.886902;    0.891500;    0.950063;
 77;    0.029459;    0.967439;    0.871216;    0.824138;    0.870579;    0.851011;    0.828272;    0.848557;    0.870200;    0.913858;
 78;    0.029656;    0.992484;    0.897528;    0.850441;    0.886713;    0.906406;    0.850901;    0.876722;    0.893195;    0.951802;
 79;    0.030654;    1.009516;    0.901690;    0.863392;    0.892042;    0.912249;    0.870439;    0.878608;    0.900928;    0.954472;
 80;    0.029968;    0.989758;    0.874791;    0.833748;    0.860122;    0.873466;    0.841532;    0.865615;    0.871870;    0.928724;
 81;    0.030557;    0.988251;    0.885896;    0.851917;    0.892264;    0.895149;    0.855330;    0.885593;    0.885187;    0.945449;
 82;    0.029896;    0.983723;    0.877505;    0.839494;    0.857698;    0.873060;    0.845366;    0.865924;    0.876667;    0.933734;
 83;    0.030269;    0.957937;    0.863800;    0.831373;    0.846433;    0.858285;    0.842191;    0.857608;    0.863475;    0.907634;
 84;    0.029519;    0.987230;    0.919437;    0.862490;    0.886421;    0.893921;    0.868310;    0.886791;    0.896666;    0.944704;
 85;    0.028364;    1.001858;    0.907864;    0.867802;    0.895336;    0.913152;    0.872361;    0.900247;    0.905594;    0.960741;
 86;    0.028222;    1.014537;    0.896690;    0.844722;    0.896507;    0.885312;    0.851937;    0.892572;    0.890646;    0.952309;
 87;    0.029716;    0.990803;    0.875715;    0.838374;    0.891932;    0.895221;    0.846707;    0.864236;    0.870491;    0.928690;
 88;    0.029747;    1.026814;    0.903684;    0.861977;    0.897401;    0.928241;    0.869987;    0.895202;    0.904251;    0.965005;
 89;    0.028486;    1.020680;    0.916032;    0.875084;    0.914446;    0.928266;    0.876212;    0.892570;    0.916716;    0.973218;
 90;    0.028805;    0.987211;    0.891205;    0.846766;    0.863532;    0.887869;    0.852990;    0.872639;    0.886292;    0.939264;
 91;    0.029288;    1.019508;    0.910397;    0.864613;    0.904440;    0.912709;    0.870377;    0.887268;    0.908966;    0.965266;
 92;    0.028513;    0.989744;    0.882579;    0.843392;    0.894165;    0.866907;    0.844200;    0.864532;    0.883058;    0.937369;
 93;    0.029383;    1.002401;    0.895217;    0.866743;    0.932326;    0.889567;    0.870870;    0.894289;    0.895732;    0.941798;
 94;    0.030686;    1.005694;    0.902223;    0.853128;    0.892236;    0.871940;    0.855608;    0.878356;    0.898223;    0.959629;
 95;    0.030667;    1.014638;    0.904871;    0.865347;    0.895990;    0.895953;    0.872970;    0.896709;    0.906002;    0.962911;
 96;    0.029662;    1.013814;    0.898519;    0.848087;    0.910009;    0.906114;    0.852120;    0.878349;    0.893825;    0.947695;
 97;    0.029601;    1.022375;    0.934248;    0.889701;    0.949707;    0.945727;    0.889255;    0.912622;    0.926082;    0.975140;
 98;    0.029543;    1.005693;    0.906567;    0.856605;    0.911094;    0.902795;    0.858521;    0.883824;    0.900169;    0.948157;
 99;    0.028141;    0.987127;    0.870512;    0.829598;    0.867258;    0.878018;    0.831657;    0.859982;    0.873430;    0.925396;
100;    0.030560;    0.982804;    0.872638;    0.838503;    0.896930;    0.887911;    0.841856;    0.879785;    0.870483;    0.940583;
