Simulation;Time;PC0;PC1;PC2;PC3;PC4;PC5;PC6;PC7;PC8;
Nan;Nan;0;1;0;0;0;0;0;0;0;
  0;    0.030085;    0.987021;    0.761641;    0.805973;    0.859655;    0.914815;    0.929611;    0.941469;    0.951157;    0.971012;
  1;    0.029702;    1.011106;    0.780124;    0.828312;    0.881455;    0.907500;    0.934083;    0.980189;    0.985813;    1.000913;
  2;    0.031121;    1.021077;    0.802451;    0.859153;    0.931146;    0.960490;    0.966647;    1.009124;    1.004950;    1.024047;
  3;    0.030790;    0.998804;    0.792749;    0.846484;    0.911190;    0.930208;    0.979595;    1.003402;    1.002849;    1.007931;
  4;    0.029435;    1.029407;    0.803860;    0.875811;    0.915094;    0.945921;    0.958722;    1.004093;    1.003529;    1.021906;
  5;    0.030095;    1.000356;    0.769880;    0.828573;    0.870998;    0.908835;    0.948014;    0.981456;    0.997036;    1.003840;
  6;    0.030519;    0.997686;    0.773933;    0.829830;    0.868049;    0.899968;    0.933924;    0.970671;    0.975167;    0.984534;
  7;    0.030225;    1.023455;    0.793812;    0.840100;    0.887511;    0.923912;    0.970159;    0.975167;    0.989662;    1.005226;
  8;    0.030156;    0.990529;    0.771103;    0.824038;    0.868742;    0.915900;    0.955156;    0.959415;    0.992392;    0.983583;
  9;    0.028969;    1.005577;    0.789444;    0.842953;    0.893799;    0.961807;    1.002316;    0.993634;    1.015264;    1.039030;
 10;    0.029064;    1.010134;    0.790093;    0.853387;    0.896226;    0.952294;    0.980084;    1.005615;    1.022195;    1.018994;
 11;    0.032895;    0.984867;    0.774219;    0.841294;    0.889535;    0.910519;    0.953028;    0.956409;    0.988142;    0.976934;
 12;    0.029713;    0.972274;    0.772543;    0.838709;    0.890920;    0.903896;    0.936709;    0.950662;    0.955683;    0.978275;
 13;    0.030149;    1.007848;    0.766614;    0.821654;    0.864929;    0.908855;    0.944359;    0.969899;    1.005028;    0.992133;
 14;    0.030626;    0.973282;    0.760124;    0.810432;    0.861174;    0.905135;    0.930392;    0.935405;    0.941212;    0.953803;
 15;    0.029688;    1.017984;    0.760475;    0.813808;    0.850154;    0.900277;    0.946495;    0.959660;    0.975863;    0.997336;
 16;    0.029439;    1.004670;    0.791812;    0.831764;    0.878308;    0.911379;    0.957805;    0.983645;    0.992010;    1.004552;
 17;    0.028133;    0.977402;    0.767022;    0.819279;    0.856955;    0.885374;    0.909353;    0.929709;    0.947823;    0.970866;
 18;    0.029159;    0.960101;    0.765585;    0.817648;    0.859904;    0.902674;    0.934219;    0.926418;    0.974770;    0.993463;
 19;    0.029711;    0.991196;    0.761112;    0.813927;    0.864415;    0.912828;    0.934848;    0.964350;    0.982289;    0.979930;
 20;    0.029136;    1.024994;    0.773975;    0.830466;    0.897162;    0.926901;    0.975981;    1.008103;    1.032043;    1.031373;
 21;    0.029667;    1.015574;    0.768579;    0.825185;    0.874165;    0.915446;    0.943466;    0.970864;    0.998519;    1.012579;
 22;    0.029083;    1.024111;    0.789840;    0.845997;    0.892780;    0.915048;    0.943589;    1.003571;    1.022951;    1.023230;
 23;    0.030148;    0.994540;    0.772690;    0.847767;    0.919361;    0.946748;    0.946021;    0.968248;    0.997161;    0.987790;
 24;    0.029628;    1.028488;    0.798470;    0.861104;    0.905765;    0.935267;    0.976123;    0.993819;    1.040728;    1.030977;
 25;    0.030388;    0.981984;    0.770619;    0.827109;    0.877638;    0.910272;    0.942302;    0.950141;    0.954347;    0.969539;
 26;    0.028521;    1.014229;    0.791849;    0.849482;    0.901003;    0.966632;    1.000047;    1.013118;    1.000113;    1.032176;
 27;    0.029864;    1.019928;    0.775902;    0.824137;    0.868275;    0.926567;    0.974925;    1.002196;    0.998404;    1.028930;
 28;    0.028315;    1.029620;    0.781675;    0.847826;    0.886186;    0.922303;    0.953354;    0.980655;    1.018888;    1.016940;
 29;    0.029332;    1.053945;    0.788400;    0.847771;    0.904918;    0.957675;    1.005606;    1.011861;    1.020922;    1.031548;
 30;    0.030642;    1.017625;    0.781688;    0.849336;    0.897054;    0.948615;    0.983712;    1.024798;    1.039284;    1.025019;
 31;    0.029151;    1.006859;    0.773169;    0.827018;    0.888819;    0.919583;    0.968272;    0.978449;    0.998179;    1.003699;
 32;    0.028174;    0.983310;    0.781317;    0.834105;    0.891161;    0.917927;    0.938387;    0.980898;    0.979346;    0.978240;
 33;    0.029345;    1.020038;    0.768986;    0.824117;    0.874376;    0.911020;    0.935483;    0.972384;    1.026977;    1.040484;
 34;    0.030123;    1.035862;    0.784772;    0.848559;    0.892962;    0.934484;    0.982049;    1.003080;    1.019272;    1.045098;
 35;    0.028337;    1.004487;    0.784710;    0.853211;    0.890209;    0.918812;    0.946887;    0.966554;    1.001221;    1.016790;
 36;    0.028258;    0.961272;    0.771699;    0.828305;    0.876550;    0.905388;    0.942648;    0.940894;    0.954659;    0.973061;
 37;    0.028720;    0.984551;    0.770432;    0.825264;    0.864268;    0.916105;    0.929865;    0.963826;    0.976540;    0.976211;
 38;    0.029722;    1.003770;    0.770557;    0.831757;    0.869643;    0.911003;    0.952764;    0.968070;    0.997796;    0.982371;
 39;    0.028454;    0.953747;    0.750050;    0.801829;    0.846194;    0.866265;    0.894511;    0.926129;    0.925785;    0.938967;
 40;    0.029173;    1.004184;    0.779469;    0.828015;    0.890512;    0.931265;    0.966604;    0.988615;    0.978210;    0.994121;
 41;    0.028934;    0.999540;    0.773304;    0.829822;    0.870746;    0.925936;    0.936744;    0.979397;    0.983599;    0.985264;
 42;    0.029330;    1.032225;    0.771881;    0.831463;    0.891923;    0.928816;    0.950002;    0.984606;    1.019415;    1.022223;
 43;    0.028715;    1.026250;    0.784860;    0.837366;    0.895673;    0.934966;    0.966575;    1.008513;    1.007027;    1.015071;
 44;    0.028919;    1.008220;    0.786341;    0.842948;    0.901974;    0.938277;    0.979189;    1.003535;    1.010238;    1.009354;
 45;    0.028423;    0.984539;    0.758262;    0.804622;    0.856933;    0.905158;    0.943669;    0.959092;    0.948106;    0.981773;
 46;    0.028190;    1.025485;    0.780025;    0.826665;    0.882616;    0.921958;    0.969250;    0.987444;    0.999479;    1.014242;
 47;    0.029856;    1.031452;    0.785115;    0.835496;    0.895474;    0.952902;    0.962435;    0.994793;    1.041181;    1.027172;
 48;    0.028706;    0.985134;    0.774191;    0.816366;    0.864674;    0.912743;    0.944362;    0.955362;    0.979544;    0.973788;
 49;    0.029263;    0.991125;    0.773750;    0.829851;    0.876215;    0.885747;    0.924179;    0.967291;    0.995269;    0.988799;
 50;    0.027994;    1.004809;    0.767171;    0.826742;    0.878213;    0.913917;    0.945069;    0.979902;    0.988021;    0.988864;
 51;    0.029492;    1.039819;    0.800180;    0.851670;    0.909560;    0.964078;    0.993203;    1.027517;    1.036126;    1.038871;
 52;    0.030199;    0.999083;    0.771235;    0.828731;    0.870409;    0.925692;    0.943488;    0.961394;    0.969067;    0.977710;
 53;    0.029809;    0.965703;    0.783556;    0.832816;    0.896714;    0.939903;    0.946556;    0.962728;    0.966305;    0.994414;
 54;    0.029746;    1.025510;    0.791311;    0.835388;    0.894517;    0.937651;    0.984813;    1.013339;    1.006482;    1.018313;
 55;    0.029865;    0.988169;    0.751981;    0.814065;    0.858931;    0.904142;    0.929625;    0.972046;    0.988368;    0.985527;
 56;    0.031351;    0.995973;    0.759920;    0.812748;    0.871493;    0.890923;    0.910445;    0.925833;    0.961040;    0.995122;
 57;    0.029651;    1.011698;    0.780533;    0.835407;    0.899917;    0.931910;    0.959782;    0.972578;    0.992117;    1.022720;
 58;    0.029836;    1.014993;    0.784344;    0.831101;    0.893228;    0.938988;    0.956866;    1.005079;    1.015780;    1.027611;
 59;    0.027969;    0.986638;    0.772295;    0.832094;    0.862109;    0.905668;    0.919258;    0.944952;    0.976723;    1.009451;
 60;    0.028062;    1.005001;    0.779136;    0.838592;    0.885229;    0.922433;    0.960504;    0.975401;    0.987581;    0.981871;
 61;    0.029621;    0.988143;    0.764717;    0.820108;    0.866388;    0.903792;    0.939331;    0.969200;    0.987360;    0.990813;
 62;    0.031191;    0.989998;    0.763571;    0.812108;    0.860151;    0.901055;    0.925223;    0.958577;    0.964471;    0.980888;
 63;    0.029002;    1.012652;    0.762777;    0.818146;    0.854857;    0.900113;    0.924400;    0.974281;    1.010318;    1.023357;
 64;    0.029636;    1.009060;    0.779372;    0.853498;    0.884075;    0.942392;    0.979487;    1.019614;    1.044429;    1.021376;
 65;    0.029670;    0.968636;    0.760266;    0.811840;    0.867343;    0.903689;    0.935768;    0.953279;    0.947053;    0.963203;
 66;    0.029606;    0.998597;    0.780756;    0.857982;    0.910056;    0.924841;    0.981935;    1.013794;    1.012612;    0.999960;
 67;    0.028793;    0.988901;    0.778958;    0.824555;    0.871577;    0.916056;    0.919812;    0.935283;    0.954613;    0.969734;
 68;    0.028929;    0.998088;    0.770352;    0.820564;    0.878071;    0.907234;    0.965676;    0.993302;    0.977542;    0.988966;
 69;    0.028337;    0.967387;    0.764164;    0.820301;    0.882721;    0.924850;    0.966495;    0.985408;    0.983278;    0.968096;
 70;    0.035740;    1.013762;    0.787083;    0.836108;    0.889676;    0.922211;    0.948739;    0.967854;    0.982935;    1.006638;
 71;    0.028952;    1.005343;    0.772770;    0.822791;    0.872410;    0.922559;    0.956667;    1.001494;    1.008632;    1.015337;
 72;    0.028832;    1.015194;    0.775412;    0.841852;    0.884294;    0.943699;    0.962125;    0.985496;    0.994201;    1.033960;
 73;    0.030221;    1.041849;    0.798246;    0.865864;    0.906851;    0.977221;    1.013440;    1.012018;    1.044554;    1.067348;
 74;    0.030504;    1.014631;    0.762617;    0.814044;    0.869383;    0.900034;    0.938214;    0.969373;    0.977735;    0.990112;
 75;    0.028990;    0.998334;    0.769832;    0.818534;    0.869861;    0.918949;    0.953192;    0.981942;    0.978712;    0.998147;
 76;    0.029894;    1.022449;    0.772909;    0.833736;    0.871656;    0.904702;    0.945052;    0.965636;    0.998128;    1.023347;
 77;    0.029403;    0.967771;    0.748514;    0.791898;    0.840505;    0.886986;    0.921437;    0.919499;    0.958100;    0.959715;
 78;    0.030230;    0.976756;    0.771661;    0.819935;    0.877109;    0.907582;    0.935081;    0.949374;    0.955798;    0.967196;
 79;    0.028755;    1.008183;    0.781147;    0.826092;    0.882469;    0.924804;    0.957799;    0.962053;    0.992068;    0.986866;
 80;    0.030523;    0.990261;    0.752250;    0.809802;    0.868014;    0.891011;    0.913712;    0.954333;    0.985386;    0.972481;
 81;    0.029414;    0.989572;    0.767196;    0.820022;    0.862760;    0.896747;    0.940535;    0.986086;    0.996366;    0.989666;
 82;    0.027819;    0.985582;    0.757670;    0.823317;    0.884217;    0.921088;    0.960038;    0.985079;    0.982304;    0.981224;
 83;    0.028639;    0.953691;    0.748757;    0.801702;    0.850392;    0.898235;    0.940993;    0.948062;    0.955060;    0.962511;
 84;    0.029291;    0.972558;    0.779338;    0.830785;    0.874087;    0.905570;    0.950759;    0.971935;    0.951511;    0.970793;
 85;    0.029322;    0.990584;    0.782786;    0.838243;    0.900953;    0.937285;    0.954950;    1.002184;    1.000827;    1.003291;
 86;    0.028787;    1.017768;    0.765547;    0.816912;    0.871035;    0.925924;    0.969624;    0.992685;    0.990895;    1.012909;
 87;    0.029175;    0.997229;    0.756279;    0.810254;    0.869152;    0.891863;    0.932700;    0.941401;    0.962701;    0.994478;
 88;    0.028472;    1.026553;    0.778234;    0.835485;    0.883793;    0.959110;    1.004595;    1.026210;    1.046861;    1.027456;
 89;    0.028936;    1.018439;    0.790789;    0.856128;    0.897186;    0.934222;    0.966848;    1.004897;    1.001881;    1.000841;
 90;    0.028967;    0.981298;    0.764431;    0.815873;    0.871163;    0.912766;    0.966095;    0.969756;    0.988164;    1.009874;
 91;    0.028058;    1.019654;    0.784633;    0.859037;    0.908396;    0.924257;    0.959214;    0.995642;    1.003027;    1.010331;
 92;    0.030651;    0.988016;    0.761591;    0.813196;    0.866502;    0.893527;    0.941542;    0.948608;    0.992463;    0.992364;
 93;    0.030171;    0.999500;    0.777940;    0.832610;    0.888642;    0.953498;    0.990613;    0.980380;    0.993343;    0.999372;
 94;    0.030142;    1.004208;    0.775091;    0.828088;    0.862980;    0.898438;    0.925887;    0.950810;    0.981309;    0.990842;
 95;    0.031208;    1.022039;    0.783351;    0.838608;    0.897855;    0.934376;    0.974287;    0.994546;    1.015143;    1.012005;
 96;    0.029610;    1.016137;    0.767295;    0.832184;    0.898087;    0.954547;    1.004991;    1.007730;    1.008450;    1.014818;
 97;    0.037346;    1.011908;    0.802977;    0.848010;    0.893727;    0.925146;    0.976923;    0.998188;    0.985391;    1.008954;
 98;    0.029375;    0.998868;    0.776388;    0.828767;    0.889909;    0.908559;    0.967728;    0.976625;    1.011232;    1.005792;
 99;    0.030031;    0.999375;    0.749688;    0.814963;    0.874145;    0.901011;    0.952957;    0.986820;    0.982287;    0.997347;
100;    0.032306;    0.989341;    0.753286;    0.812909;    0.857868;    0.912376;    0.935729;    0.929821;    0.956019;    0.980627;
