Simulation;Time;PC0;PC1;PC2;PC3;PC4;PC5;PC6;PC7;PC8;
Nan;Nan;0;0;0;1;0;0;0;0;0;
  0;    0.010967;    1.000000;    0.848028;    0.761587;    0.748313;    0.872247;    1.105990;    1.409311;    2.095572;    9.125470;
  1;    0.001087;    1.000000;    0.860035;    0.751814;    0.736329;    0.879718;    1.123224;    1.462014;    2.557442;   32.444595;
  2;    0.001232;    1.000000;    0.862784;    0.767480;    0.750506;    0.915557;    1.145064;    1.861366;    3.663791;   36.255696;
  3;    0.001093;    1.000000;    0.867750;    0.799653;    0.792407;    0.949112;    1.144733;    1.564585;    5.290074;    9.190693;
  4;    0.001492;    1.000000;    0.854080;    0.786726;    0.757351;    0.918249;    1.691511;    2.767077;    3.793842;  636.024350;
  5;    0.001605;    1.000000;    0.849275;    0.768750;    0.771831;    0.941681;    1.168132;    1.618934;    2.603564;   10.222501;
  6;    0.001178;    1.000000;    0.851760;    0.752762;    0.760710;    1.262502;    1.487043;    2.326611;    2.935029; 2563.387700;
  7;    0.001540;    1.000000;    0.858868;    0.777180;    0.773128;    0.924100;    1.209261;    1.714758;    4.296172;18880.957617;
  8;    0.001897;    1.000000;    0.859764;    0.778043;    0.790652;    1.041786;    1.374525;    1.791516;    5.169351;   12.595486;
  9;    0.001362;    1.000000;    0.860723;    0.775810;    0.778722;    0.944524;    1.841428;    2.461919;   14.820163;   21.675592;
 10;    0.001153;    1.000000;    0.858343;    0.768868;    0.755765;    0.934171;    1.309221;    1.930207;    3.669878;    7.533536;
 11;    0.001175;    1.000000;    0.865081;    0.772311;    0.775717;    0.986349;    1.241066;    2.241607;    9.442281;  201.135117;
 12;    0.001212;    1.000000;    0.870967;    0.781856;    0.787574;    0.957247;    1.225848;    1.712607;    4.362093;   22.951614;
 13;    0.001086;    1.000000;    0.843999;    0.770282;    0.758608;    0.914694;    1.128907;    2.018633;    3.896752;   26.551211;
 14;    0.001333;    1.000000;    0.855539;    0.771654;    0.760236;    0.992408;    2.017289;    2.512815;    4.664101;   18.634023;
 15;    0.001214;    1.000000;    0.841036;    0.760172;    0.733144;    0.921801;    1.156275;    2.295829;    3.843150;   11.380075;
 16;    0.001443;    1.000000;    0.861542;    0.784840;    0.774550;    0.937784;    1.335105;    1.793966;   10.915022;   16.914321;
 17;    0.001258;    1.000000;    0.858096;    0.799308;    0.772418;    0.923278;    1.325963;    1.813956;    2.646569; 1737.943021;
 18;    0.001364;    1.000000;    0.876484;    0.800653;    0.797600;    0.951205;    1.936453;    2.240750;    3.524764;   10.129992;
 19;    0.001076;    1.000000;    0.849400;    0.765823;    0.788833;    0.989045;    1.467760;    1.746145;    4.252404;  405.354834;
 20;    0.001316;    1.000000;    0.838028;    0.757098;    0.743354;    0.938964;    1.168223;    1.610161;    5.785655;  113.400522;
 21;    0.001396;    1.000000;    0.839147;    0.767043;    0.756522;    0.994585;    1.198085;    1.832396;    3.041881;   22.982247;
 22;    0.001234;    1.000000;    0.851732;    0.778970;    0.773124;    0.977446;    1.460450;    1.971372;    3.689761;   83.606753;
 23;    0.001340;    1.000000;    0.858337;    0.775210;    0.786280;    0.983780;    1.762445;    3.039526;    9.384925;   22.555827;
 24;    0.001209;    1.000000;    0.859944;    0.770417;    0.755047;    1.002103;    1.514354;    2.726365;    5.504218;   76.872829;
 25;    0.001137;    1.000000;    0.863181;    0.771195;    0.766967;    0.957363;    1.979617;    2.405001;    3.775896;   29.467188;
 26;    0.001513;    1.000000;    0.861880;    0.784372;    0.780631;    1.028768;    1.346180;    2.166037;    5.546355;   11.170420;
 27;    0.001346;    1.000000;    0.846407;    0.773404;    0.769651;    0.909887;    1.229267;    1.486860;    3.965223;   18.556070;
 28;    0.001689;    1.000000;    0.842214;    0.769630;    0.768764;    1.013317;    1.367513;    1.992885;    4.425828;   27.904990;
 29;    0.001183;    1.000000;    0.838442;    0.765245;    0.751375;    0.877169;    1.474999;    2.142741;    4.342339;123509.613859;
 30;    0.001558;    1.000000;    0.851313;    0.767776;    0.760789;    0.909967;    1.188580;    1.703033;    2.537366;    6.059314;
 31;    0.001359;    1.000000;    0.846828;    0.753436;    0.751695;    0.912163;    1.161138;    1.809869;    2.992155;    9.298546;
 32;    0.001625;    1.000000;    0.899166;    0.773988;    0.760631;    0.972975;    1.414545;    3.000959;   10.934321;   13.814657;
 33;    0.001154;    1.000000;    0.849285;    0.749218;    0.755307;    0.926949;    1.182204;    1.597278;   21.418035;   58.356959;
 34;    0.001335;    1.000000;    0.849633;    0.760695;    0.750455;    1.267888;    2.284363;    3.191921;   10.728345;   25.757673;
 35;    0.001078;    1.000000;    0.860778;    0.776548;    0.776031;    1.184266;    1.958680;    2.860982;    4.132666;   23.943081;
 36;    0.001356;    1.000000;    0.885981;    0.786159;    0.772053;    0.918402;    1.255558;    3.415478;    4.613433;   52.076700;
 37;    0.001517;    1.000000;    0.858613;    0.765982;    0.743872;    0.924415;    1.153529;    1.671945;    3.508229;  220.218121;
 38;    0.001126;    1.000000;    0.847301;    0.768701;    0.773196;    0.957846;    1.209594;    1.672331;    2.850326;   11.528312;
 39;    0.001436;    1.000000;    0.857348;    0.782863;    0.766375;    0.900484;    1.480663;    1.950058;    3.955346;   37.334345;
 40;    0.001082;    1.000000;    0.859969;    0.750633;    0.736481;    0.883771;    1.243894;    1.735081;    3.030721;   13.139914;
 41;    0.001094;    1.000000;    0.850999;    0.758069;    0.775748;    0.918917;    1.431142;    4.276658;    9.184227;  120.531130;
 42;    0.001139;    1.000000;    0.836458;    0.751834;    0.739431;    0.970512;    1.171800;    1.851282;    6.139903;   15.419212;
 43;    0.001182;    1.000000;    0.850443;    0.771925;    0.760323;    0.932381;    1.670528;    4.480867;   12.033399;   33.559577;
 44;    0.001062;    1.000000;    0.864059;    0.767919;    0.773186;    0.962739;    1.645728;    2.491912;    8.991032;   19.571281;
 45;    0.001245;    1.000000;    0.850063;    0.774293;    0.778586;    1.046325;    1.318192;    1.979245;    3.727048;   30.298051;
 46;    0.001531;    1.000000;    0.844956;    0.762338;    0.764543;    0.962521;    1.419730;    1.722299;    3.093897;   14.970580;
 47;    0.001186;    1.000000;    0.850146;    0.774484;    0.771810;    0.986774;    1.238106;    2.507540;    3.658749;   18.621573;
 48;    0.001190;    1.000000;    0.859492;    0.794500;    0.797015;    1.141205;    1.399436;    1.790282;    3.737308;   71.251797;
 49;    0.001575;    1.000000;    0.855533;    0.786848;    0.793107;    1.011904;    1.474923;    2.280815;    2.813136;   28.894863;
 50;    0.001849;    1.000000;    0.849329;    0.753461;    0.750282;    0.953448;    1.165096;    1.575198;    3.563760;    5.963025;
 51;    0.001326;    1.000000;    0.855212;    0.773104;    0.767435;    0.916026;    1.134513;    2.906676;    4.367334;   10.023353;
 52;    0.001215;    1.000000;    0.849927;    0.759570;    0.740960;    0.894322;    1.719702;    2.554031;    6.106312;  629.127445;
 53;    0.001648;    1.000000;    0.905958;    0.772788;    0.772150;    1.004783;    1.308976;    2.065250;   13.937848;  185.137704;
 54;    0.001171;    1.000000;    0.850897;    0.740698;    0.751244;    0.970728;    1.216073;    2.265387;    7.165488;   99.313166;
 55;    0.001170;    1.000000;    0.847752;    0.764761;    0.762634;    0.949028;    1.595375;    2.097608;    3.995415;   35.872507;
 56;    0.001193;    1.000000;    0.849265;    0.743912;    0.741779;    0.925837;    1.182822;    2.396860;    4.515355;  155.902688;
 57;    0.001704;    1.000000;    0.847732;    0.752509;    0.745995;    1.034688;    1.238611;    1.512144;    2.593785;  177.111505;
 58;    0.001181;    1.000000;    0.859391;    0.762461;    0.772392;    1.003702;    1.198141;    1.756042;   10.017349;   51.746905;
 59;    0.001894;    1.000000;    0.850765;    0.773148;    0.758316;    1.021067;    1.316415;    1.586032;    6.071786; 2239.032210;
 60;    0.001039;    1.000000;    0.855139;    0.767353;    0.782595;    1.609497;    1.785765;    3.921134;    4.782712;   24.334741;
 61;    0.001366;    1.000000;    0.859263;    0.768370;    0.773002;    0.920420;    1.142274;    1.853275;    3.430161;  282.103801;
 62;    0.001343;    1.000000;    0.851628;    0.779736;    0.755214;    0.890567;    2.023562;    2.483419;   22.047885;   26.613420;
 63;    0.001384;    1.000000;    0.836224;    0.739615;    0.735776;    0.929616;    1.218176;    1.847681;    5.058298;    9.948706;
 64;    0.001473;    1.000000;    0.857216;    0.774755;    0.751614;    1.084871;    1.507965;    3.086570;   23.280638;  713.702598;
 65;    0.001334;    1.000000;    0.858491;    0.766994;    0.775540;    0.942702;    1.652182;    3.880887;    6.939295; 1206.492716;
 66;    0.001407;    1.000000;    0.855894;    0.780319;    0.787164;    0.983604;    1.440800;    1.919284;    4.993573;   31.867400;
 67;    0.001323;    1.000000;    0.874641;    0.800199;    0.798638;    0.987331;    1.206096;    1.963003;    9.042643;20748.042570;
 68;    0.001118;    1.000000;    0.843753;    0.772519;    0.773354;    1.218426;    2.122541;    8.025529;   13.167930;   59.920414;
 69;    0.001173;    1.000000;    0.864231;    0.777945;    0.755170;    0.935584;    1.184855;    1.744555;    9.415912;   79.071759;
 70;    0.001107;    1.000000;    0.859826;    0.754155;    0.763945;    0.908820;    1.268180;    1.872586;    5.701479;   30.697707;
 71;    0.001160;    1.000000;    0.856025;    0.768657;    0.769771;    1.153110;    1.398540;    1.762785;    3.258787;   17.478366;
 72;    0.001329;    1.000000;    0.847165;    0.776325;    0.779661;    0.942148;    1.146519;    1.577990;   14.126092;  216.232949;
 73;    0.001340;    1.000000;    0.846383;    0.768947;    0.766739;    1.065616;    1.260776;    1.843132;    3.892760;   20.904638;
 74;    0.001380;    1.000000;    0.833837;    0.758307;    0.743021;    0.975663;    1.170950;    2.015209;   13.130204;1143210.982965;
 75;    0.001336;    1.000000;    0.859462;    0.749088;    0.730480;    0.879992;    1.394990;    3.573542;   10.341291;12052.631581;
 76;    0.001247;    1.000000;    0.841812;    0.762673;    0.767251;    0.922996;    1.181896;    1.763731;    6.138524;  140.704604;
 77;    0.001431;    1.000000;    0.851583;    0.765533;    0.753781;    0.912771;    1.288780;    2.063314;    8.861783;   42.956518;
 78;    0.001108;    1.000000;    0.858111;    0.764632;    0.754484;    0.923604;    1.114849;    1.734932;    3.824687;   22.751607;
 79;    0.001145;    1.000000;    0.851248;    0.765957;    0.778233;    0.926887;    1.274587;    1.594670;    2.727683;   13.279361;
 80;    0.001144;    1.000000;    0.838248;    0.746281;    0.735012;    0.913379;    1.141406;    1.788075;    2.761198;  751.698604;
 81;    0.001166;    1.000000;    0.852857;    0.780247;    0.771083;    0.945829;    1.265458;    1.557864;    3.726036;   12.714853;
 82;    0.001226;    1.000000;    0.849978;    0.767248;    0.757535;    0.989366;    1.208710;    1.959128;    3.043349;  841.925497;
 83;    0.001063;    1.000000;    0.861153;    0.783631;    0.773429;    0.945123;    1.182863;    2.318304;    4.129301;   21.238272;
 84;    0.001365;    1.000000;    0.892942;    0.779812;    0.770611;    0.929544;    1.147315;    2.143600;    6.533223;2292345.538559;
 85;    0.001313;    1.000000;    0.861168;    0.781748;    0.778671;    0.971947;    1.266324;    2.582175;   10.340763;   12.473507;
 86;    0.001098;    1.000000;    0.840247;    0.745128;    0.734739;    0.889667;    1.099977;    2.055251;    6.126405; 3066.036200;
 87;    0.001380;    1.000000;    0.839482;    0.755204;    0.747675;    0.888443;    1.576967;    2.272766;    3.263215;   18.252342;
 88;    0.001144;    1.000000;    0.835164;    0.748194;    0.730848;    1.047636;    1.448687;    1.757688;    5.833507;   64.021766;
 89;    0.001344;    1.000000;    0.857162;    0.767838;    0.754070;    0.935462;    1.938724;    3.644484;   10.419789;26900.070405;
 90;    0.001445;    1.000000;    0.863938;    0.758735;    0.770445;    0.945875;    1.337256;    2.393566;    4.914078;   17.633682;
 91;    0.001371;    1.000000;    0.849095;    0.755068;    0.746184;    0.886841;    1.190011;    1.719698;    2.336022;    9.369902;
 92;    0.001140;    1.000000;    0.842249;    0.761439;    0.755651;    1.116425;    1.334209;    2.343311;    5.743429; 2045.828448;
 93;    0.001325;    1.000000;    0.853488;    0.770417;    0.769563;    0.927148;    1.304054;    2.142273;    5.746884;   52.329252;
 94;    0.001332;    1.000000;    0.851241;    0.759326;    0.771463;    0.954209;    1.216789;    1.852549;    3.987684;   15.396061;
 95;    0.001132;    1.000000;    0.849487;    0.760896;    0.766124;    0.924024;    1.203179;    4.432532;    8.873283;   17.933924;
 96;    0.001280;    1.000000;    0.838404;    0.746279;    0.747664;    0.992005;    1.367628;    2.323715;    9.953743;  501.334581;
 97;    0.001506;    1.000000;    0.866273;    0.785138;    0.775419;    0.916540;    1.231609;    1.619613;    2.554558;   31.948080;
 98;    0.001466;    1.000000;    0.852835;    0.760058;    0.747886;    0.894427;    1.132614;    2.310748;    8.195166;  234.681493;
 99;    0.001203;    1.000000;    0.840568;    0.746850;    0.738934;    0.944434;    1.168510;    2.270285;  504.716191; 1060.807321;
100;    0.001498;    1.000000;    0.846672;    0.767219;    0.759240;    0.891049;    1.244722;    1.684351;    3.843503;  446.715858;
