Simulation;Time;PC0;PC1;PC2;PC3;PC4;PC5;PC6;PC7;PC8;
Nan;Nan;0;0;0;1;0;0;0;0;0;
  0;    0.505592;    0.992340;    0.792418;    0.745961;    0.752396;    0.987730;    1.451369;    2.389220;    3.069769;   42.517681;
  1;    0.376262;    1.022244;    0.818356;    0.746830;    0.762895;    1.100728;    1.564831;    2.187826;    8.627649;   22.367250;
  2;    0.555904;    1.030049;    0.837763;    0.771891;    0.796008;    1.143444;    1.666460;    2.487059;    7.747544;   68.381448;
  3;    0.743685;    0.991857;    0.809238;    0.787563;    0.800120;    1.023189;    1.304918;    2.543980;   20.018979;  111.468178;
  4;    0.348452;    1.032090;    0.831610;    0.798118;    0.803095;    1.133097;    1.470825;    2.316319;    3.651862;   38.111162;
  5;    0.414421;    0.997828;    0.792388;    0.747209;    0.776664;    1.102245;    1.459150;    1.850480;    9.649326;   42.032145;
  6;    0.430816;    1.003613;    0.806131;    0.746385;    0.764213;    1.021949;    1.381207;    2.463506;    5.885682;   39.208949;
  7;    0.325043;    1.020856;    0.819155;    0.764941;    0.804774;    1.072625;    1.386285;    1.860726;    3.497141;   23.948475;
  8;    0.611828;    0.982771;    0.786121;    0.749940;    0.779109;    0.946805;    1.435509;    2.762423;    9.128298;   59.871406;
  9;    0.427191;    1.005216;    0.813149;    0.766474;    0.787638;    0.967323;    1.308650;    1.900271;    3.810533;   46.833091;
 10;    0.410004;    1.015833;    0.819298;    0.770862;    0.776753;    1.057747;    1.492900;    2.202906;    5.197006;   51.005151;
 11;    0.423737;    0.986647;    0.799229;    0.749984;    0.771143;    0.931652;    1.272408;    1.742372;    3.421151;   53.969399;
 12;    0.519872;    0.971421;    0.798442;    0.741047;    0.783734;    1.058770;    1.931737;    3.048765;    6.398834;   60.457569;
 13;    0.477069;    1.005591;    0.788327;    0.752838;    0.765825;    1.042733;    1.298316;    2.027756;    9.569495;   54.493769;
 14;    0.609496;    0.978542;    0.791310;    0.736377;    0.756588;    0.930332;    1.431839;    2.698861;    7.194863;   67.130679;
 15;    0.454741;    1.018665;    0.787962;    0.750487;    0.756955;    0.949888;    1.322449;    2.083970;    4.203259;   25.301880;
 16;    0.449194;    1.004274;    0.815452;    0.759844;    0.802999;    0.967887;    1.281383;    2.204791;    3.318560;   45.243227;
 17;    0.892072;    0.976724;    0.792708;    0.747476;    0.761374;    0.943955;    1.180419;    1.840106;   25.184659;  113.468720;
 18;    0.490257;    0.953461;    0.783793;    0.746840;    0.779971;    1.019516;    1.552821;    2.434236;    4.231939;   57.024761;
 19;    0.399467;    0.985372;    0.779969;    0.725892;    0.771889;    0.931645;    1.315644;    1.805404;    5.287770;   39.909013;
 20;    0.446689;    1.026871;    0.802061;    0.756029;    0.765199;    0.971801;    1.573998;    2.712349;   10.363765;   55.191520;
 21;    0.874461;    1.013699;    0.791118;    0.746811;    0.769853;    0.927010;    1.248697;    2.209873;   18.187535;  111.940386;
 22;    0.765828;    1.018241;    0.809024;    0.769236;    0.790673;    0.947304;    1.550279;    3.095041;    5.355975;   87.327881;
 23;    0.494033;    0.989454;    0.793072;    0.742094;    0.784778;    1.064668;    2.008654;    4.298209;   16.347627;   59.894306;
 24;    0.520962;    1.031778;    0.831380;    0.781196;    0.793019;    1.027976;    1.388563;    1.891156;   16.008756;   55.856169;
 25;    0.281505;    0.984444;    0.796156;    0.752269;    0.772696;    1.016194;    1.312063;    3.975214;    5.342672;   11.228723;
 26;    0.587674;    1.008983;    0.812582;    0.768525;    0.794987;    1.046820;    1.870366;    5.032591;    8.953122;   73.333203;
 27;    0.558512;    1.014405;    0.793540;    0.755498;    0.775961;    0.962409;    1.310373;    2.354748;   11.615792;   72.064965;
 28;    0.446311;    1.023371;    0.800120;    0.759065;    0.794217;    1.046959;    1.558121;    3.502190;    6.846339;   38.277699;
 29;    0.535523;    1.049446;    0.811545;    0.766252;    0.799242;    1.055877;    1.333341;    2.362071;    8.286558;   60.068238;
 30;    0.606098;    1.017810;    0.809466;    0.770608;    0.781315;    0.983654;    1.221945;    4.057084;   12.527518;   72.739345;
 31;    0.700397;    1.012064;    0.806483;    0.744199;    0.768602;    1.015878;    1.480042;    2.141654;    7.150637;  103.781413;
 32;    0.907989;    0.990526;    0.810061;    0.749124;    0.783318;    1.823420;    2.905678;    8.196983;   34.014867;  121.440109;
 33;    0.449875;    1.019767;    0.795650;    0.740109;    0.776052;    1.006931;    1.366941;    2.140744;    5.370658;   59.697977;
 34;    0.639769;    1.034462;    0.807967;    0.762689;    0.795625;    2.128374;    3.696604;    4.785741;   11.702038;   77.926263;
 35;    0.407144;    1.002703;    0.809923;    0.761346;    0.782427;    0.982408;    1.247448;    2.013169;    4.878916;   63.208731;
 36;    0.237309;    0.968207;    0.808007;    0.759583;    0.764928;    0.974908;    1.384101;    2.118380;    3.877467;   11.495866;
 37;    1.237208;    0.994022;    0.804852;    0.748647;    0.756203;    1.020744;    1.283268;    7.169276;   18.472281;   93.742571;
 38;    0.330044;    1.000286;    0.791428;    0.740773;    0.781833;    0.967516;    1.209737;    3.110945;    4.070999;   22.374383;
 39;    0.455395;    0.954447;    0.774838;    0.729738;    0.754260;    1.033575;    1.299373;    2.099437;    4.278012;   44.551352;
 40;    0.211902;    1.016227;    0.816923;    0.748513;    0.767556;    0.990191;    1.264380;    2.151696;    3.633157;    6.320494;
 41;    0.921095;    0.999545;    0.798916;    0.744132;    0.776679;    0.981090;    1.382635;    2.930486;   17.586443;  114.592467;
 42;    0.461835;    1.032999;    0.796342;    0.752427;    0.765952;    0.960889;    1.270211;    1.890869;    7.002913;   66.295025;
 43;    0.597409;    1.023068;    0.808090;    0.758625;    0.788481;    0.994816;    1.978241;    3.343568;    8.993345;   82.904704;
 44;    0.536498;    1.008907;    0.814907;    0.754230;    0.784370;    0.996991;    1.439873;    2.430576;    6.079255;   46.961326;
 45;    0.557522;    0.978757;    0.774564;    0.733098;    0.773455;    0.955908;    1.470083;    3.120136;   13.355154;   61.779062;
 46;    0.557542;    1.023374;    0.800357;    0.764878;    0.775334;    0.992462;    1.303694;    1.703837;    6.129768;   70.661535;
 47;    0.362520;    1.023693;    0.803757;    0.775934;    0.791473;    0.954514;    1.409003;    2.022437;    4.459106;   32.126429;
 48;    0.750557;    0.976777;    0.787746;    0.761306;    0.782080;    2.500574;    3.853007;    5.290446;   10.391140;   97.055641;
 49;    0.781624;    0.983574;    0.791387;    0.762158;    0.778022;    0.979428;    1.678047;    2.216001;   21.784696;   93.877947;
 50;    0.638099;    1.007888;    0.797644;    0.737223;    0.762239;    1.919280;    3.107876;   10.990752;   32.227172;   58.896274;
 51;    0.467940;    1.037081;    0.823569;    0.787766;    0.799282;    0.952355;    1.466074;    2.479879;    4.808275;   60.506766;
 52;    0.653961;    1.006186;    0.807518;    0.757589;    0.761561;    0.990991;    1.711046;    3.159935;    7.009760;   73.606079;
 53;    0.552704;    0.976338;    0.822860;    0.756746;    0.774543;    0.993332;    1.238563;    2.949551;   10.177809;   57.048319;
 54;    0.457957;    1.035665;    0.831556;    0.750515;    0.782242;    0.980991;    1.254700;    1.928886;    5.788217;   65.306447;
 55;    0.634935;    0.985838;    0.772027;    0.736377;    0.759369;    1.070748;    1.560522;    3.360207;    5.380925;   87.691291;
 56;    0.726958;    1.002649;    0.793442;    0.727148;    0.754031;    1.029156;    1.306680;    2.143396;   13.949808;   90.391501;
 57;    0.342274;    1.020423;    0.816676;    0.750228;    0.764929;    0.945926;    1.416259;    2.418559;    4.527933;   39.042658;
 58;    0.633094;    1.014832;    0.812223;    0.757299;    0.786683;    0.979902;    3.989987;    8.745689;   21.783157;   88.945375;
 59;    0.705383;    0.991967;    0.804392;    0.758882;    0.766639;    1.035708;    1.440239;    1.988979;   28.409001;   78.062540;
 60;    0.325499;    1.002120;    0.800084;    0.764145;    0.773760;    1.140208;    1.513580;    2.441667;    4.965660;   27.180463;
 61;    0.650946;    0.986355;    0.784966;    0.736864;    0.777366;    1.036090;    1.484875;    2.085998;    5.470532;   84.812464;
 62;    0.439390;    0.990611;    0.788235;    0.739958;    0.762377;    0.958324;    1.315293;    1.931950;    2.968562;   43.467042;
 63;    0.393831;    1.019563;    0.798065;    0.727827;    0.752739;    1.048560;    1.549027;    2.720931;    6.512962;   38.946662;
 64;    0.637938;    1.009999;    0.804531;    0.762425;    0.776854;    0.999866;    1.779322;    3.734729;   12.809228;   77.769085;
 65;    0.349172;    0.970965;    0.786533;    0.738522;    0.747909;    0.978863;    2.348967;    4.386320;    7.193578;   21.469135;
 66;    0.406774;    0.994617;    0.799875;    0.759940;    0.787424;    1.222666;    2.495039;    3.781073;    7.596742;   26.164066;
 67;    0.929125;    0.977071;    0.792157;    0.754016;    0.803954;    1.023788;    1.390876;    3.608805;   29.483601;  135.867086;
 68;    0.336468;    0.996573;    0.795950;    0.753889;    0.763450;    1.058540;    1.487911;    1.948854;    3.841420;   33.010888;
 69;    0.458012;    0.973422;    0.794443;    0.743506;    0.753036;    1.004139;    1.434906;    2.238508;    5.502024;   48.526558;
 70;    0.325075;    1.018583;    0.821772;    0.750068;    0.784982;    1.054243;    1.876841;    3.053989;    7.396636;   20.188331;
 71;    0.335654;    1.001541;    0.794225;    0.748130;    0.776733;    1.138114;    1.468021;    2.315221;    4.272213;   42.049304;
 72;    0.478059;    1.006908;    0.791685;    0.758232;    0.786911;    1.055547;    1.446302;    2.129113;   10.367013;   61.890348;
 73;    0.479127;    1.039114;    0.822681;    0.781622;    0.798448;    0.985741;    1.412514;    2.575896;    4.958700;   58.617276;
 74;    0.313131;    1.016590;    0.789349;    0.759415;    0.749514;    0.908302;    1.180874;    1.929586;    4.692754;   27.503058;
 75;    0.514257;    1.010884;    0.813374;    0.741568;    0.751871;    0.935845;    2.026435;    3.756112;   11.694851;   52.272004;
 76;    0.472865;    1.018097;    0.793345;    0.741857;    0.780995;    1.024571;    1.307309;    2.249836;    4.472139;   43.097573;
 77;    0.496873;    0.970668;    0.777888;    0.722919;    0.750553;    1.021859;    1.599132;    2.521519;    7.224966;   44.591618;
 78;    0.374655;    0.986469;    0.807449;    0.748353;    0.757167;    0.924580;    1.286754;    2.030101;    3.647494;   43.004356;
 79;    0.606002;    1.006611;    0.805882;    0.754813;    0.783123;    0.911671;    1.243431;    2.766773;    6.159399;   89.872731;
 80;    0.300468;    0.998438;    0.787338;    0.732867;    0.739020;    0.962892;    1.531839;    2.467024;    6.345388;   16.602838;
 81;    0.367954;    0.986319;    0.789130;    0.748775;    0.770062;    0.957566;    1.272085;    1.646824;    5.636674;   37.995560;
 82;    0.496304;    0.986188;    0.783802;    0.739791;    0.756858;    0.959689;    1.252770;    4.782771;   10.386877;   53.150899;
 83;    0.581432;    0.951776;    0.771858;    0.726671;    0.753159;    0.928140;    1.209634;    2.079665;   11.994140;   65.280601;
 84;    0.849259;    0.978067;    0.811282;    0.758030;    0.780761;    1.079493;    1.497394;    6.494148;   18.366449;  132.521901;
 85;    0.440011;    0.990365;    0.806880;    0.759132;    0.786600;    1.028764;    1.597508;    2.386245;    6.282942;   64.753789;
 86;    0.404626;    1.025387;    0.797876;    0.742341;    0.750539;    0.992631;    1.316377;    2.444170;    7.409403;   32.560407;
 87;    0.389257;    0.999847;    0.785535;    0.733968;    0.748052;    0.932193;    1.251387;    1.885401;    3.309348;   48.244850;
 88;    0.737525;    1.036493;    0.816870;    0.753406;    0.763446;    1.050062;    1.350326;    2.078209;    7.006840;   99.554180;
 89;    0.858093;    1.022200;    0.820144;    0.773142;    0.781112;    0.934855;    1.321906;    1.961504;    8.866698;   95.123714;
 90;    0.522146;    0.983693;    0.791527;    0.737984;    0.765351;    0.905284;    1.284034;    2.312614;    4.914259;   41.764281;
 91;    0.345589;    1.025377;    0.817828;    0.757400;    0.778852;    0.973765;    1.529603;    2.026274;    4.034197;   42.533489;
 92;    0.783386;    0.992095;    0.791880;    0.753802;    0.750617;    0.957070;    1.210893;    2.118820;   15.796022;  113.325007;
 93;    0.423371;    1.000033;    0.803017;    0.757693;    0.775471;    0.984547;    1.460912;    1.976296;    4.297496;   41.947466;
 94;    0.336774;    1.004798;    0.803374;    0.744464;    0.778114;    0.972580;    1.234657;    3.397431;    6.532268;   19.842650;
 95;    0.330943;    1.021163;    0.808151;    0.754565;    0.788596;    0.946750;    1.392696;    2.844608;    6.761272;   28.453279;
 96;    0.561156;    1.020507;    0.795821;    0.742336;    0.754725;    0.981081;    1.379584;    2.166941;   14.024542;   74.139745;
 97;    0.303446;    1.013087;    0.832955;    0.790504;    0.794131;    0.955587;    1.382311;    1.941857;    3.980846;   22.069251;
 98;    0.640491;    1.006883;    0.813028;    0.756099;    0.772200;    1.012352;    1.288780;    2.295268;    6.570191;   75.618673;
 99;    0.375521;    1.001993;    0.777194;    0.730787;    0.745061;    1.165946;    1.826558;    2.868808;    5.881595;   36.131111;
100;    0.483125;    0.988320;    0.776136;    0.729751;    0.751811;    0.959879;    1.347281;    2.365397;    7.359708;   56.519039;
