Simulation;Time;PC0;PC1;PC2;PC3;PC4;PC5;PC6;PC7;PC8;
Nan;Nan;0;0;0;1;0;0;0;0;0;
  0;    0.081854;    0.994205;    0.849050;    0.763585;    0.751283;    0.890480;    1.174660;    1.497000;    2.246780;   16.639262;
  1;    0.061540;    1.027029;    0.890511;    0.777392;    0.762353;    0.964772;    1.233900;    1.665365;    2.952196;  816.971930;
  2;    0.059501;    1.038034;    0.903104;    0.803817;    0.786023;    0.991833;    1.242769;    2.081981;    5.324492;  726.311478;
  3;    0.061045;    0.994390;    0.868027;    0.805726;    0.796890;    0.968974;    1.208457;    1.992468;    4.324737;  145.041207;
  4;    0.060487;    1.035533;    0.892232;    0.826911;    0.793432;    1.004684;    1.805267;    3.124412;    5.991189;  774.813689;
  5;    0.061710;    0.995399;    0.848923;    0.768275;    0.772828;    0.986173;    1.262389;    1.729669;    3.178411;10957.541623;
  6;    0.061020;    1.006751;    0.866261;    0.764356;    0.772172;    1.306069;    1.591543;    2.364145;    3.383855; 5076.668445;
  7;    0.059403;    1.020435;    0.880376;    0.798891;    0.795589;    0.966517;    1.310431;    2.065677;    5.008822; 1854.172761;
  8;    0.062973;    0.980428;    0.844992;    0.768844;    0.782167;    1.048691;    1.434233;    4.610809;    9.203726;  682.305315;
  9;    0.058878;    1.008380;    0.874962;    0.789178;    0.792701;    0.970911;    1.529216;    3.045346;   26.598105;  383.679535;
 10;    0.058042;    1.020988;    0.883992;    0.793112;    0.780033;    1.028265;    1.418249;    2.549365;    4.483853;   68.555381;
 11;    0.059091;    0.990934;    0.865731;    0.771252;    0.775343;    1.017597;    1.410146;    2.765526;   74.767006; 1793.451475;
 12;    0.058032;    0.977008;    0.860701;    0.768994;    0.774893;    0.972596;    1.287795;    1.820323;    5.449697;  202.151419;
 13;    0.064519;    1.000755;    0.847140;    0.775157;    0.763158;    0.935308;    1.193014;    1.891598;   13.411082;   59.511942;
 14;    0.059170;    0.983045;    0.849978;    0.768100;    0.758149;    1.036888;    1.588581;    2.634107;    5.144485;   74.085678;
 15;    0.058939;    1.011050;    0.847495;    0.771201;    0.745431;    0.967753;    1.248333;    2.702464;    6.065230;   15.928380;
 16;    0.059052;    1.008080;    0.880601;    0.797667;    0.788787;    0.970468;    1.408472;    1.970432;   14.910882; 5139.558526;
 17;    0.058326;    0.979741;    0.848714;    0.794315;    0.766643;    0.950423;    1.363974;    1.847202;    7.480520;40625.755430;
 18;    0.058626;    0.956952;    0.843460;    0.772788;    0.769782;    0.977548;    1.817267;    2.443074;    3.856221;  295.674818;
 19;    0.061186;    0.980866;    0.833635;    0.751466;    0.774683;    1.000581;    1.422988;    1.980333;   13.065159; 5741.475430;
 20;    0.064761;    1.022192;    0.859112;    0.779976;    0.765936;    0.990681;    1.291916;    2.439014;    8.061090;  487.458867;
 21;    0.059893;    1.008173;    0.847099;    0.776529;    0.767921;    1.023324;    1.300119;    2.062550;    3.680820;   95.002599;
 22;    0.057981;    1.014797;    0.864268;    0.792474;    0.787611;    1.007720;    1.443259;    2.083624;    4.113468;  269.352914;
 23;    0.057527;    0.987871;    0.850548;    0.767200;    0.779433;    1.078101;    1.922907;    3.946745;   12.422347;52552.878046;
 24;    0.059070;    1.034290;    0.899588;    0.804331;    0.789135;    1.137968;    1.651462;    6.379725;   20.129684;4773394.732751;
 25;    0.059178;    0.988792;    0.861370;    0.771016;    0.767537;    1.010826;    1.775578;    2.536172;    4.055645; 1404.347159;
 26;    0.058127;    1.008558;    0.872759;    0.795692;    0.792926;    1.050905;    1.463742;    2.631681;    8.153099;   29.793789;
 27;    0.058807;    1.008204;    0.853919;    0.782229;    0.778674;    0.941582;    1.282303;    2.284427;    5.110347; 3181.787273;
 28;    0.058910;    1.016373;    0.855379;    0.784252;    0.783508;    1.043409;    1.524114;    2.293001;    6.546469;  841.037911;
 29;    0.058607;    1.039688;    0.869006;    0.795145;    0.782490;    0.943150;    1.520286;    2.738563;    5.633752; 3795.238207;
 30;    0.058499;    1.016388;    0.867590;    0.787154;    0.780337;    0.962851;    1.290491;    1.961441;    3.727454;  278.651098;
 31;    0.059909;    1.012759;    0.864054;    0.766635;    0.767029;    0.970632;    1.345483;    2.009896;    4.351125;  388.377558;
 32;    0.057387;    0.999629;    0.905255;    0.776624;    0.765162;    0.998967;    1.519944;    3.946960;    8.321546;   31.327406;
 33;    0.059507;    1.013916;    0.859262;    0.759716;    0.767400;    0.964022;    1.285256;    1.764641;   26.686736; 1995.952416;
 34;    0.058270;    1.029155;    0.872250;    0.786215;    0.776464;    1.346398;    2.425428;   10.955138;  519.384135; 9480.092652;
 35;    0.059624;    1.003977;    0.870390;    0.786046;    0.786678;    1.357212;    2.081821;    3.302873;    5.574620; 1340.666475;
 36;    0.059620;    0.979940;    0.879587;    0.781121;    0.768843;    0.931618;    1.805389;    3.260029;    5.810560;  466.100533;
 37;    0.063422;    1.001017;    0.868547;    0.777469;    0.753647;    0.958350;    1.223002;    2.723314;    5.347945;  365.565051;
 38;    0.058733;    0.996941;    0.847003;    0.769433;    0.776938;    0.982913;    1.280760;    1.790773;    3.120240;   18.151636;
 39;    0.059576;    0.958232;    0.830464;    0.757370;    0.741782;    0.914004;    1.487246;    2.175239;    4.529452; 2304.943235;
 40;    0.058783;    1.022614;    0.890465;    0.773503;    0.760148;    0.947656;    1.340139;    2.361818;    4.648314;   32.636337;
 41;    0.058592;    0.999308;    0.857949;    0.761693;    0.782262;    0.956329;    1.547930;    5.434948;   12.501119; 2483.818075;
 42;    0.057407;    1.026005;    0.857200;    0.776216;    0.763097;    1.018526;    1.286104;    2.099875;    9.324072;  554.853491;
 43;    0.061952;    1.018811;    0.866758;    0.789420;    0.778180;    0.970375;    1.723661;    3.759359;   35.892241;25864.609320;
 44;    0.059583;    1.011002;    0.879784;    0.778716;    0.787122;    1.030854;    1.634879;    3.020638;   11.813023;  503.769124;
 45;    0.058692;    0.975362;    0.831063;    0.759076;    0.764597;    1.047632;    1.495908;    2.261378;   10.301295;  387.085483;
 46;    0.057540;    1.018553;    0.863472;    0.781673;    0.784976;    1.008487;    1.522182;    1.894438;    3.761061;  557.797687;
 47;    0.058173;    1.016479;    0.863145;    0.791726;    0.789576;    1.025859;    1.540544;    2.614707;    4.325196;   43.204269;
 48;    0.058490;    0.976482;    0.844517;    0.783411;    0.785329;    1.139924;    1.437591;    1.908766;    4.344550; 2017.004341;
 49;    0.063540;    0.982553;    0.844509;    0.779079;    0.786731;    1.042383;    1.566188;    2.385102;    3.731788;  546.417000;
 50;    0.059997;    1.006670;    0.858881;    0.763107;    0.759770;    0.979172;    1.327861;    1.938963;    4.027536;    7.708026;
 51;    0.059005;    1.034913;    0.887518;    0.806984;    0.802059;    0.972852;    1.234683;    2.928882;    5.367716;  483.120487;
 52;    0.058647;    1.009120;    0.866159;    0.776527;    0.756949;    0.951395;    1.698437;    3.091256;    7.716023;26793.380927;
 53;    0.057909;    0.991923;    0.932261;    0.773945;    0.773484;    1.016448;    1.352497;    2.320878;   39.962671;  507.166390;
 54;    0.059276;    1.039794;    0.896682;    0.769891;    0.783038;    1.035321;    1.298738;    3.419735;   25.655430;  381.674289;
 55;    0.062519;    0.981466;    0.832864;    0.754675;    0.753904;    1.095080;    1.553075;    2.286687;    5.696630;  209.061617;
 56;    0.058554;    1.002442;    0.855052;    0.750461;    0.748962;    0.951992;    1.235751;    2.545757;    5.653820;  579.483404;
 57;    0.059873;    1.023961;    0.877066;    0.776947;    0.771905;    1.063465;    1.307272;    1.706637;    2.958012; 2928.778804;
 58;    0.057662;    1.014650;    0.875573;    0.776116;    0.787576;    1.021904;    1.265491;    1.986992;   12.739470;  262.016679;
 59;    0.058900;    0.997322;    0.858886;    0.787177;    0.767803;    1.047918;    1.357642;    1.721135;   13.638354;  528.962133;
 60;    0.059999;    1.001363;    0.860673;    0.775247;    0.791615;    1.614521;    2.032958;    3.569979;    5.453079;   61.254807;
 61;    0.058081;    0.985483;    0.848700;    0.757873;    0.764830;    0.931220;    1.242439;    1.942615;    7.270279;  202.333555;
 62;    0.057905;    0.990522;    0.846361;    0.778769;    0.755606;    0.909351;    2.282891;    3.347070;   41.035542;68736.571671;
 63;    0.058559;    1.016599;    0.852712;    0.751654;    0.749793;    0.991497;    1.289772;    2.493107;    5.230071; 5051.064420;
 64;    0.076146;    1.010127;    0.868366;    0.789380;    0.765198;    1.152037;    1.676754;    3.478280;   23.437178;  383.489272;
 65;    0.058832;    0.974943;    0.844679;    0.753146;    0.763181;    0.970787;    1.932840;    4.451598;    7.612636; 1280.984604;
 66;    0.060328;    0.995181;    0.856936;    0.783535;    0.790572;    1.106582;    1.495316;    2.126649;   10.425390;  496.521272;
 67;    0.058360;    0.975850;    0.855972;    0.782107;    0.781683;    0.992457;    1.381096;    2.470119;   47.472879; 1069.716600;
 68;    0.063730;    0.995457;    0.845490;    0.774537;    0.776813;    1.339333;    2.386887;    8.554174;   16.446753;  662.215193;
 69;    0.059660;    0.980795;    0.855910;    0.771190;    0.749172;    0.955753;    1.433868;    2.627042;   36.060081;1634114.296009;
 70;    0.059111;    1.021622;    0.886737;    0.771882;    0.784690;    0.950881;    1.393001;    2.092947;    6.982747; 1114.156486;
 71;    0.059066;    0.998266;    0.853430;    0.769616;    0.770916;    1.166042;    1.475165;    1.998071;   34.406697;48469.211592;
 72;    0.057495;    1.000103;    0.845889;    0.779588;    0.783834;    0.994878;    1.224725;    1.786130;   23.575855; 2431.188858;
 73;    0.058954;    1.035606;    0.879640;    0.801934;    0.801270;    1.111817;    1.398048;    2.197072;    7.816104;  895.870651;
 74;    0.058582;    1.011397;    0.845371;    0.775917;    0.759922;    1.006149;    1.268260;    2.466333;   33.568991;  851.032557;
 75;    0.060079;    1.015942;    0.882412;    0.766199;    0.748666;    0.935129;    1.460377;    3.563240;   14.923776;  244.463400;
 76;    0.057611;    1.010760;    0.850580;    0.771237;    0.777899;    0.985034;    1.248113;    2.011193;   15.872564; 3335.293826;
 77;    0.063981;    0.972026;    0.835823;    0.747095;    0.737731;    0.918296;    1.309260;    2.248063;   10.255010; 5887.997780;
 78;    0.058397;    0.995718;    0.865468;    0.770043;    0.759234;    0.947184;    1.176285;    1.863274;    4.261814;   45.769612;
 79;    0.062762;    1.006157;    0.859652;    0.773811;    0.787905;    0.953600;    1.341234;    1.891558;    3.238066;  445.532118;
 80;    0.061002;    0.998477;    0.842994;    0.750816;    0.741356;    0.933667;    1.230854;    1.900108;    3.151872;   77.574153;
 81;    0.061335;    0.985259;    0.844927;    0.774692;    0.765884;    0.974239;    1.315942;    1.654531;    7.947677;  359.429059;
 82;    0.058430;    0.984992;    0.839626;    0.759531;    0.750973;    0.989822;    1.308499;    2.060610;    3.234000;  822.338583;
 83;    0.066723;    0.954106;    0.827376;    0.750295;    0.742596;    0.927541;    1.213361;    2.323163;    5.364571;  765.926156;
 84;    0.059110;    0.988570;    0.889347;    0.781163;    0.771477;    0.941354;    1.205117;    2.554362;    9.027735;88810.005288;
 85;    0.059757;    0.995023;    0.864011;    0.784241;    0.782250;    1.006623;    1.555020;    2.826122;   12.859991;27034.517514;
 86;    0.059997;    1.022533;    0.860725;    0.764042;    0.755655;    0.954980;    1.202702;    2.326047;   10.733795;  445.186231;
 87;    0.058673;    0.996581;    0.839542;    0.754506;    0.749069;    0.920810;    1.689884;    2.442483;    3.792683;  679.090966;
 88;    0.057169;    1.036645;    0.871097;    0.782692;    0.765582;    1.111312;    1.492915;    2.128697;    8.506374;  531.020986;
 89;    0.060500;    1.024815;    0.883554;    0.795686;    0.782414;    0.989875;    1.910271;    8.988530;   33.284910;10798.021106;
 90;    0.057640;    0.986427;    0.857441;    0.753501;    0.766978;    0.957230;    1.509282;    2.780061;    5.432156;47811.702380;
 91;    0.057316;    1.026899;    0.877213;    0.779270;    0.771245;    0.940497;    1.281297;    1.991937;    2.729141; 3831.100921;
 92;    0.058135;    0.993284;    0.843091;    0.766719;    0.760021;    1.154051;    1.435242;    2.565489;    7.147910;1069799.009908;
 93;    0.059193;    1.001645;    0.859520;    0.780562;    0.778955;    0.972717;    1.430808;    2.350662;   17.277472; 5136.321876;
 94;    0.066212;    1.004470;    0.860842;    0.764979;    0.777674;    0.982347;    1.262489;    1.914398;    7.446841;509056.227429;
 95;    0.058788;    1.018501;    0.866753;    0.778652;    0.786135;    0.968123;    1.386126;    4.069675;   16.734229;   60.555585;
 96;    0.058764;    1.017100;    0.856629;    0.763752;    0.766066;    1.049805;    1.545181;    2.813568;   24.222632; 1588.502314;
 97;    0.058369;    1.019913;    0.897084;    0.810358;    0.799398;    0.956594;    1.303704;    1.772192;    3.012390; 6166.026332;
 98;    0.058540;    1.011745;    0.872268;    0.776286;    0.764872;    0.934456;    1.212617;    2.540861;   11.465304; 5790.449559;
 99;    0.059905;    0.996634;    0.836397;    0.749093;    0.741081;    0.970058;    1.293910;    2.365030;   27.593531;  206.937832;
100;    0.060849;    0.984944;    0.834225;    0.761645;    0.754289;    0.907187;    1.327962;    1.777161;   15.455487;23244.919992;
