Simulation;Time;PC0;PC1;PC2;PC3;PC4;PC5;PC6;PC7;PC8;
Nan;Nan;0;1;0;0;0;0;0;0;0;
  0;    0.150466;    0.990411;    0.196410;    0.189888;    0.183964;    0.177737;    0.157901;    0.128407;    0.090510;    0.053592;
  1;    0.150703;    1.013066;    0.201321;    0.194355;    0.187343;    0.167339;    0.148647;    0.135600;    0.104175;    0.059252;
  2;    0.152660;    1.000720;    0.207064;    0.201740;    0.201588;    0.188635;    0.163416;    0.133901;    0.091616;    0.047719;
  3;    0.165673;    0.968466;    0.204519;    0.198286;    0.194999;    0.172627;    0.162895;    0.138719;    0.096162;    0.051328;
  4;    0.152116;    1.018193;    0.207385;    0.205602;    0.195558;    0.181962;    0.159605;    0.141533;    0.102804;    0.050796;
  5;    0.151401;    1.006949;    0.198590;    0.194350;    0.184972;    0.177627;    0.160538;    0.141610;    0.107822;    0.062090;
  6;    0.151867;    0.995407;    0.199614;    0.194824;    0.184441;    0.172030;    0.151804;    0.132709;    0.091217;    0.055705;
  7;    0.149297;    1.019194;    0.204901;    0.197597;    0.188613;    0.176669;    0.165316;    0.135842;    0.105682;    0.056185;
  8;    0.150444;    0.983748;    0.198909;    0.193445;    0.187095;    0.174001;    0.156180;    0.126410;    0.103921;    0.057590;
  9;    0.149680;    0.987662;    0.203681;    0.199290;    0.193372;    0.188889;    0.172555;    0.138576;    0.100678;    0.062985;
 10;    0.149269;    0.996863;    0.203707;    0.201473;    0.192919;    0.185251;    0.165187;    0.135196;    0.105874;    0.061277;
 11;    0.161742;    0.966166;    0.199684;    0.199243;    0.191510;    0.176483;    0.163018;    0.132514;    0.106674;    0.055851;
 12;    0.149835;    0.939805;    0.199399;    0.198611;    0.190924;    0.172754;    0.161903;    0.135143;    0.097825;    0.054051;
 13;    0.147613;    1.028155;    0.197661;    0.192869;    0.184773;    0.176326;    0.155219;    0.128329;    0.104428;    0.053428;
 14;    0.150313;    0.962589;    0.196133;    0.191932;    0.181673;    0.170966;    0.148535;    0.117713;    0.083678;    0.040250;
 15;    0.150946;    1.060799;    0.195972;    0.181525;    0.169259;    0.163270;    0.153518;    0.127449;    0.097169;    0.054047;
 16;    0.209162;    0.983317;    0.204289;    0.196288;    0.186879;    0.173812;    0.159583;    0.132494;    0.101173;    0.054612;
 17;    0.151912;    0.960090;    0.197852;    0.192684;    0.182182;    0.170088;    0.155705;    0.123825;    0.090002;    0.053011;
 18;    0.154786;    0.924857;    0.197545;    0.191241;    0.184470;    0.172658;    0.157727;    0.126703;    0.109200;    0.070811;
 19;    0.150421;    1.000193;    0.196279;    0.191365;    0.186271;    0.180730;    0.163737;    0.144043;    0.107993;    0.052029;
 20;    0.156052;    1.054947;    0.199618;    0.193493;    0.191730;    0.178409;    0.166431;    0.147311;    0.115921;    0.069399;
 21;    0.155156;    1.040668;    0.198221;    0.193398;    0.187240;    0.174791;    0.155518;    0.127924;    0.105166;    0.060975;
 22;    0.149966;    1.027712;    0.203695;    0.199345;    0.189443;    0.169859;    0.151636;    0.137978;    0.107650;    0.057940;
 23;    0.150554;    0.989793;    0.199280;    0.200183;    0.197345;    0.180204;    0.152208;    0.119977;    0.089233;    0.047678;
 24;    0.147454;    1.023301;    0.206011;    0.202542;    0.194265;    0.181711;    0.169967;    0.137520;    0.108822;    0.059004;
 25;    0.147235;    0.965045;    0.198854;    0.194169;    0.189088;    0.176359;    0.162420;    0.135562;    0.097770;    0.057751;
 26;    0.155225;    1.003460;    0.204209;    0.200222;    0.191031;    0.184156;    0.165739;    0.138689;    0.102894;    0.065873;
 27;    0.148683;    1.039309;    0.200097;    0.192985;    0.182304;    0.174282;    0.160584;    0.135296;    0.096521;    0.061841;
 28;    0.156042;    1.051390;    0.201661;    0.200527;    0.189547;    0.171610;    0.154978;    0.128409;    0.103166;    0.057497;
 29;    0.150415;    1.094955;    0.203292;    0.198242;    0.191294;    0.180745;    0.167989;    0.139004;    0.105044;    0.055627;
 30;    0.146682;    1.026005;    0.201615;    0.199564;    0.191841;    0.182390;    0.168021;    0.146848;    0.107702;    0.063746;
 31;    0.151856;    1.015863;    0.199452;    0.195019;    0.190589;    0.176864;    0.161044;    0.127107;    0.103422;    0.058826;
 32;    0.151731;    0.952105;    0.201431;    0.196787;    0.186642;    0.173737;    0.156868;    0.138951;    0.106485;    0.056470;
 33;    0.149195;    1.050367;    0.198313;    0.193947;    0.185155;    0.169174;    0.154241;    0.135979;    0.111503;    0.065497;
 34;    0.150837;    1.060777;    0.202370;    0.199435;    0.185718;    0.173206;    0.163435;    0.141692;    0.103892;    0.061759;
 35;    0.152453;    0.992986;    0.202415;    0.200448;    0.188500;    0.175166;    0.151610;    0.132482;    0.107055;    0.063612;
 36;    0.148114;    0.916020;    0.199332;    0.196511;    0.188048;    0.173682;    0.161478;    0.136225;    0.105654;    0.063747;
 37;    0.150816;    0.971229;    0.198754;    0.196001;    0.186652;    0.176859;    0.158753;    0.131241;    0.092082;    0.043711;
 38;    0.151945;    1.012893;    0.198711;    0.195639;    0.187327;    0.172885;    0.159832;    0.135141;    0.105883;    0.050845;
 39;    0.144402;    0.935401;    0.193486;    0.188798;    0.182359;    0.165559;    0.151561;    0.135276;    0.095839;    0.055665;
 40;    0.145921;    0.999895;    0.201024;    0.194412;    0.190215;    0.179269;    0.164137;    0.140602;    0.103874;    0.059469;
 41;    0.148883;    1.000465;    0.199443;    0.195265;    0.188168;    0.178397;    0.151666;    0.133803;    0.093585;    0.057510;
 42;    0.149849;    1.071909;    0.199016;    0.195103;    0.191401;    0.179189;    0.160700;    0.136260;    0.108024;    0.053402;
 43;    0.151104;    1.041105;    0.202413;    0.197932;    0.191929;    0.173100;    0.157365;    0.142284;    0.104443;    0.057893;
 44;    0.159800;    0.998302;    0.202921;    0.194106;    0.188193;    0.169450;    0.154807;    0.133662;    0.101900;    0.060301;
 45;    0.147637;    0.988249;    0.195662;    0.190685;    0.181232;    0.166743;    0.150762;    0.130685;    0.096535;    0.058018;
 46;    0.147970;    1.046103;    0.201171;    0.192949;    0.186477;    0.177486;    0.165853;    0.138015;    0.103213;    0.056224;
 47;    0.156058;    1.051079;    0.202492;    0.198400;    0.194829;    0.184459;    0.156662;    0.129811;    0.106286;    0.058058;
 48;    0.151405;    0.965953;    0.199867;    0.189291;    0.182131;    0.173672;    0.151912;    0.119642;    0.089925;    0.044567;
 49;    0.150461;    0.977832;    0.199717;    0.194054;    0.186024;    0.156260;    0.144518;    0.128790;    0.105373;    0.058277;
 50;    0.153857;    1.018804;    0.198011;    0.194041;    0.181420;    0.167161;    0.151714;    0.133873;    0.100477;    0.045312;
 51;    0.151654;    1.044883;    0.206299;    0.197707;    0.192517;    0.177941;    0.154916;    0.136827;    0.107230;    0.064315;
 52;    0.147286;    1.001338;    0.198971;    0.193317;    0.184528;    0.178027;    0.161327;    0.136684;    0.097996;    0.048378;
 53;    0.147393;    0.908532;    0.202302;    0.196990;    0.195467;    0.185933;    0.165434;    0.140760;    0.101322;    0.067772;
 54;    0.146156;    1.027880;    0.204246;    0.194178;    0.190658;    0.182628;    0.172143;    0.147777;    0.106469;    0.060071;
 55;    0.149084;    1.005799;    0.193932;    0.189745;    0.177923;    0.169829;    0.151767;    0.134611;    0.102403;    0.047208;
 56;    0.147954;    1.013467;    0.195952;    0.190332;    0.183898;    0.165195;    0.143353;    0.121809;    0.099837;    0.063448;
 57;    0.156718;    1.014562;    0.201313;    0.198182;    0.192630;    0.176769;    0.157248;    0.127815;    0.086100;    0.055010;
 58;    0.156156;    1.015213;    0.202386;    0.195272;    0.192166;    0.181007;    0.162665;    0.144823;    0.106807;    0.061670;
 59;    0.147883;    0.971720;    0.199322;    0.195587;    0.182164;    0.173216;    0.151765;    0.130772;    0.106329;    0.066706;
 60;    0.147492;    1.001849;    0.201062;    0.198975;    0.190298;    0.181971;    0.163261;    0.131786;    0.101467;    0.049747;
 61;    0.156046;    0.987965;    0.197244;    0.190849;    0.184027;    0.170030;    0.157178;    0.134800;    0.108572;    0.065113;
 62;    0.148097;    0.992343;    0.197014;    0.192507;    0.187150;    0.174397;    0.155762;    0.130778;    0.096246;    0.059918;
 63;    0.151026;    1.045252;    0.196658;    0.191519;    0.180616;    0.168197;    0.144248;    0.132792;    0.105960;    0.058499;
 64;    0.153711;    1.011139;    0.200996;    0.199837;    0.189247;    0.181129;    0.167376;    0.147849;    0.115106;    0.063557;
 65;    0.148489;    0.952921;    0.196030;    0.190534;    0.183843;    0.168028;    0.154610;    0.127458;    0.088053;    0.048131;
 66;    0.150347;    0.985633;    0.201490;    0.202561;    0.195140;    0.179875;    0.173879;    0.153030;    0.114711;    0.060173;
 67;    0.153095;    0.965550;    0.201224;    0.193793;    0.183051;    0.175799;    0.156616;    0.124417;    0.095503;    0.056761;
 68;    0.153116;    1.000241;    0.198806;    0.192735;    0.186856;    0.172268;    0.162422;    0.140864;    0.099601;    0.060536;
 69;    0.147078;    0.943205;    0.197236;    0.192365;    0.190011;    0.181274;    0.169561;    0.144944;    0.106975;    0.057974;
 70;    0.151667;    1.008914;    0.203100;    0.194956;    0.191550;    0.174976;    0.148992;    0.124668;    0.096936;    0.058596;
 71;    0.150618;    1.013175;    0.199290;    0.191266;    0.183816;    0.175023;    0.155761;    0.136629;    0.103896;    0.066591;
 72;    0.147365;    1.030915;    0.199984;    0.198954;    0.190210;    0.185386;    0.163371;    0.136549;    0.106968;    0.066402;
 73;    0.150484;    1.053850;    0.205891;    0.203347;    0.194157;    0.189015;    0.172528;    0.142342;    0.116032;    0.072375;
 74;    0.153521;    1.047980;    0.196734;    0.191442;    0.183353;    0.168413;    0.148478;    0.129195;    0.097782;    0.055304;
 75;    0.148533;    1.002350;    0.198630;    0.194192;    0.187626;    0.178362;    0.159754;    0.138034;    0.101193;    0.059885;
 76;    0.153558;    1.050619;    0.199328;    0.196622;    0.185985;    0.171877;    0.160061;    0.131345;    0.100341;    0.063042;
 77;    0.147460;    0.967460;    0.193123;    0.186230;    0.178288;    0.170797;    0.157364;    0.129497;    0.101623;    0.055557;
 78;    0.150076;    0.951466;    0.199115;    0.194115;    0.187511;    0.173995;    0.153328;    0.119943;    0.088749;    0.053673;
 79;    0.147845;    1.006367;    0.201543;    0.194180;    0.187783;    0.174069;    0.159242;    0.135098;    0.101066;    0.057407;
 80;    0.158398;    1.010542;    0.194086;    0.188973;    0.186112;    0.173630;    0.150045;    0.124211;    0.097290;    0.045148;
 81;    0.150088;    0.987332;    0.197831;    0.193025;    0.184444;    0.164425;    0.154969;    0.136772;    0.102510;    0.053419;
 82;    0.153463;    0.993481;    0.195466;    0.192882;    0.190045;    0.179495;    0.161461;    0.139452;    0.102896;    0.061828;
 83;    0.151250;    0.936295;    0.193116;    0.189060;    0.182799;    0.175241;    0.163272;    0.132562;    0.089373;    0.050267;
 84;    0.154890;    0.930258;    0.201226;    0.194598;    0.188307;    0.172174;    0.160032;    0.132630;    0.091557;    0.054904;
 85;    0.150995;    0.964947;    0.201969;    0.199218;    0.196728;    0.185424;    0.168401;    0.149839;    0.112318;    0.063785;
 86;    0.153044;    1.051816;    0.197257;    0.188965;    0.182391;    0.170209;    0.156468;    0.127632;    0.080261;    0.054509;
 87;    0.150147;    1.021013;    0.195028;    0.189659;    0.182603;    0.165381;    0.152082;    0.125854;    0.097373;    0.054432;
 88;    0.148114;    1.050625;    0.200737;    0.193019;    0.184708;    0.179941;    0.167694;    0.143807;    0.109567;    0.050983;
 89;    0.154325;    1.014231;    0.203978;    0.195983;    0.184138;    0.175370;    0.160740;    0.142640;    0.103285;    0.051034;
 90;    0.148279;    0.972281;    0.197271;    0.192654;    0.187535;    0.177946;    0.168549;    0.144190;    0.112970;    0.070300;
 91;    0.149811;    1.025607;    0.202259;    0.200102;    0.192295;    0.176781;    0.154404;    0.134469;    0.093337;    0.055996;
 92;    0.146942;    0.992205;    0.196431;    0.191565;    0.183892;    0.173380;    0.157398;    0.127223;    0.103221;    0.059599;
 93;    0.148261;    0.992313;    0.200712;    0.197712;    0.192919;    0.187728;    0.170814;    0.136806;    0.100904;    0.064305;
 94;    0.147890;    1.006939;    0.199987;    0.194388;    0.184780;    0.173067;    0.155219;    0.127178;    0.101131;    0.057359;
 95;    0.151251;    1.033999;    0.201935;    0.195774;    0.192728;    0.180390;    0.164085;    0.129796;    0.099341;    0.052541;
 96;    0.150508;    1.045133;    0.197831;    0.189901;    0.185710;    0.178737;    0.165850;    0.137269;    0.100152;    0.055889;
 97;    0.211442;    0.978436;    0.207366;    0.199125;    0.185639;    0.169537;    0.161489;    0.138801;    0.094587;    0.062158;
 98;    0.148119;    0.992861;    0.200350;    0.193874;    0.189914;    0.176559;    0.167614;    0.138686;    0.108314;    0.054960;
 99;    0.147055;    1.034653;    0.193317;    0.192048;    0.188267;    0.172165;    0.161812;    0.141152;    0.100056;    0.057114;
100;    0.150046;    1.005002;    0.194452;    0.191825;    0.184712;    0.180710;    0.161876;    0.127730;    0.098597;    0.060595;
