Simulation;Time;PC0;PC1;PC2;PC3;PC4;PC5;PC6;PC7;PC8;
Nan;Nan;0;0;0;0;0;0;1;0;0;
  0;    0.103820;    1.416991;    1.259838;    1.156736;    1.102938;    1.080109;    1.075869;    1.034833;    1.035269;    1.035069;
  1;    0.071654;    1.431960;    1.277697;    1.161100;    1.106893;    1.085007;    1.077217;    1.044110;    1.044846;    1.045786;
  2;    0.086053;    1.434202;    1.286993;    1.176507;    1.120601;    1.096330;    1.092591;    1.061239;    1.062100;    1.062300;
  3;    0.071993;    1.411495;    1.263103;    1.178844;    1.126972;    1.101513;    1.095385;    1.062991;    1.063568;    1.064041;
  4;    0.077573;    1.435560;    1.282991;    1.191210;    1.131592;    1.110258;    1.105255;    1.063950;    1.064411;    1.064800;
  5;    0.070464;    1.417929;    1.257393;    1.155978;    1.111474;    1.087655;    1.087784;    1.046885;    1.047276;    1.047432;
  6;    0.071675;    1.424611;    1.271569;    1.160966;    1.116137;    1.084898;    1.082663;    1.042974;    1.042916;    1.043177;
  7;    0.070242;    1.427744;    1.270681;    1.169503;    1.124437;    1.098606;    1.087513;    1.060189;    1.059353;    1.059743;
  8;    0.069462;    1.407930;    1.250451;    1.155564;    1.114231;    1.083878;    1.078594;    1.048479;    1.049357;    1.049868;
  9;    0.069664;    1.421847;    1.271569;    1.170799;    1.125928;    1.099281;    1.094609;    1.057873;    1.058876;    1.059397;
 10;    0.075169;    1.428176;    1.277604;    1.175236;    1.121760;    1.099603;    1.094100;    1.055926;    1.057155;    1.057034;
 11;    0.070887;    1.414053;    1.265421;    1.161417;    1.115667;    1.091830;    1.085736;    1.046390;    1.047037;    1.047447;
 12;    0.072036;    1.404444;    1.260389;    1.153519;    1.112905;    1.089977;    1.090019;    1.047960;    1.048785;    1.047958;
 13;    0.069458;    1.421684;    1.255159;    1.157231;    1.108203;    1.087512;    1.080397;    1.043038;    1.043108;    1.043643;
 14;    0.077600;    1.411237;    1.260784;    1.162595;    1.110303;    1.081565;    1.075327;    1.035375;    1.035567;    1.035683;
 15;    0.069815;    1.426468;    1.250801;    1.151947;    1.093339;    1.072102;    1.064134;    1.035798;    1.036518;    1.035986;
 16;    0.068130;    1.420880;    1.272852;    1.171885;    1.124780;    1.102742;    1.088454;    1.058051;    1.058099;    1.058529;
 17;    0.070074;    1.406593;    1.256159;    1.165577;    1.109869;    1.081988;    1.071399;    1.041113;    1.041577;    1.041892;
 18;    0.071429;    1.391226;    1.245058;    1.150602;    1.104937;    1.084236;    1.080672;    1.044508;    1.045016;    1.045180;
 19;    0.071144;    1.411663;    1.248428;    1.141430;    1.108098;    1.082991;    1.071101;    1.041569;    1.042476;    1.042678;
 20;    0.069319;    1.433038;    1.264791;    1.166241;    1.111851;    1.088906;    1.087849;    1.047736;    1.048794;    1.048963;
 21;    0.070875;    1.426318;    1.257711;    1.162417;    1.112701;    1.092194;    1.082579;    1.044627;    1.045643;    1.044986;
 22;    0.069846;    1.426025;    1.264129;    1.166392;    1.121973;    1.106843;    1.096296;    1.058555;    1.058465;    1.058905;
 23;    0.070480;    1.412858;    1.255198;    1.150353;    1.113395;    1.092667;    1.090146;    1.049652;    1.050198;    1.050351;
 24;    0.073092;    1.435210;    1.280972;    1.178914;    1.126215;    1.105207;    1.107766;    1.062192;    1.062253;    1.062887;
 25;    0.069474;    1.411003;    1.261430;    1.161098;    1.110051;    1.080558;    1.075298;    1.044260;    1.045341;    1.044608;
 26;    0.069704;    1.421069;    1.265600;    1.169469;    1.123371;    1.101875;    1.096257;    1.062445;    1.062706;    1.063103;
 27;    0.070870;    1.425284;    1.257183;    1.160623;    1.115790;    1.094833;    1.086819;    1.051634;    1.052008;    1.052156;
 28;    0.069539;    1.429894;    1.260851;    1.164535;    1.120464;    1.100094;    1.094566;    1.055408;    1.055922;    1.055482;
 29;    0.069709;    1.441831;    1.265500;    1.167993;    1.118688;    1.102585;    1.094389;    1.058232;    1.058389;    1.058931;
 30;    0.069906;    1.427732;    1.266325;    1.171088;    1.119204;    1.092089;    1.091309;    1.053548;    1.054216;    1.054355;
 31;    0.070020;    1.427127;    1.268715;    1.157654;    1.111342;    1.086442;    1.080062;    1.045619;    1.045998;    1.046145;
 32;    0.068889;    1.414449;    1.271447;    1.155013;    1.106840;    1.090861;    1.083058;    1.048834;    1.049105;    1.049732;
 33;    0.071604;    1.428596;    1.257925;    1.148257;    1.105323;    1.077645;    1.073086;    1.044287;    1.044730;    1.044946;
 34;    0.072670;    1.433552;    1.264333;    1.162163;    1.110350;    1.089624;    1.083482;    1.056346;    1.057267;    1.056805;
 35;    0.069834;    1.420845;    1.267419;    1.166376;    1.122284;    1.101664;    1.098445;    1.055309;    1.055896;    1.056363;
 36;    0.070241;    1.404066;    1.266777;    1.165626;    1.112032;    1.084078;    1.080424;    1.043974;    1.044313;    1.044731;
 37;    0.073062;    1.416904;    1.268182;    1.166354;    1.103629;    1.077311;    1.067600;    1.040214;    1.040421;    1.040953;
 38;    0.069911;    1.419551;    1.256970;    1.157716;    1.115533;    1.090745;    1.084197;    1.045462;    1.045525;    1.045909;
 39;    0.068406;    1.395568;    1.246087;    1.149410;    1.095958;    1.076235;    1.071453;    1.029482;    1.029862;    1.029916;
 40;    0.069414;    1.429545;    1.278521;    1.162353;    1.107515;    1.084516;    1.077617;    1.044802;    1.045326;    1.045752;
 41;    0.075217;    1.420323;    1.264177;    1.155475;    1.118242;    1.086175;    1.076956;    1.047189;    1.046691;    1.046994;
 42;    0.071205;    1.435628;    1.261480;    1.164301;    1.109631;    1.084309;    1.080139;    1.045131;    1.045593;    1.045889;
 43;    0.070346;    1.428311;    1.262955;    1.163381;    1.113570;    1.094837;    1.085512;    1.056118;    1.056828;    1.057214;
 44;    0.070057;    1.424519;    1.271267;    1.162397;    1.121824;    1.099019;    1.106213;    1.055900;    1.056381;    1.056831;
 45;    0.068077;    1.407817;    1.246241;    1.150029;    1.107938;    1.082238;    1.075812;    1.039732;    1.040694;    1.040431;
 46;    0.068633;    1.431994;    1.265457;    1.169530;    1.124408;    1.095634;    1.089970;    1.051128;    1.051658;    1.052102;
 47;    0.070154;    1.427608;    1.259046;    1.168600;    1.120205;    1.094652;    1.093424;    1.059347;    1.059658;    1.060000;
 48;    0.069649;    1.405910;    1.253452;    1.164026;    1.120669;    1.099227;    1.087692;    1.051082;    1.051705;    1.051937;
 49;    0.070907;    1.409988;    1.254623;    1.162703;    1.120741;    1.093249;    1.083330;    1.049880;    1.049656;    1.050131;
 50;    0.069498;    1.423422;    1.261009;    1.151590;    1.103560;    1.078117;    1.072391;    1.041387;    1.042558;    1.042593;
 51;    0.068440;    1.436573;    1.274463;    1.181367;    1.132342;    1.105307;    1.096597;    1.065201;    1.065588;    1.065995;
 52;    0.087003;    1.423487;    1.267894;    1.165095;    1.106737;    1.083741;    1.074840;    1.041118;    1.041249;    1.041479;
 53;    0.070271;    1.409111;    1.279333;    1.163783;    1.114960;    1.086745;    1.081356;    1.049620;    1.049904;    1.050097;
 54;    0.070274;    1.439803;    1.286241;    1.158792;    1.119498;    1.091252;    1.087458;    1.053509;    1.054663;    1.054801;
 55;    0.075403;    1.411496;    1.244108;    1.144781;    1.098680;    1.073198;    1.062191;    1.034431;    1.035023;    1.035569;
 56;    0.070227;    1.421303;    1.259650;    1.144067;    1.093670;    1.064745;    1.061784;    1.032693;    1.032620;    1.033051;
 57;    0.072599;    1.432031;    1.276958;    1.168197;    1.116050;    1.087356;    1.085016;    1.047359;    1.047961;    1.048238;
 58;    0.068958;    1.426856;    1.268843;    1.161077;    1.120513;    1.092463;    1.086182;    1.054017;    1.055540;    1.055442;
 59;    0.070172;    1.417664;    1.268556;    1.174646;    1.117529;    1.088169;    1.084800;    1.043526;    1.044826;    1.044703;
 60;    0.069542;    1.421268;    1.264170;    1.166640;    1.126273;    1.092594;    1.086159;    1.052515;    1.054363;    1.052588;
 61;    0.070786;    1.411311;    1.252647;    1.145260;    1.104483;    1.083055;    1.076833;    1.043207;    1.043050;    1.043291;
 62;    0.070488;    1.413799;    1.254307;    1.159747;    1.104756;    1.083917;    1.076339;    1.040050;    1.039854;    1.040226;
 63;    0.070290;    1.431570;    1.264108;    1.146452;    1.100063;    1.078554;    1.070340;    1.035652;    1.036387;    1.036587;
 64;    0.069668;    1.421492;    1.262497;    1.166232;    1.106627;    1.085649;    1.090333;    1.051626;    1.052170;    1.052793;
 65;    0.070704;    1.406786;    1.257416;    1.151978;    1.110143;    1.081602;    1.072017;    1.036051;    1.036337;    1.036737;
 66;    0.068711;    1.416298;    1.262539;    1.167271;    1.124372;    1.099603;    1.089681;    1.055683;    1.056701;    1.056362;
 67;    0.069173;    1.401382;    1.247818;    1.149367;    1.109069;    1.094728;    1.092815;    1.054991;    1.055156;    1.055354;
 68;    0.071079;    1.419467;    1.260886;    1.163684;    1.119265;    1.097318;    1.090369;    1.046479;    1.047389;    1.047593;
 69;    0.069785;    1.405273;    1.259434;    1.157601;    1.099555;    1.079404;    1.075742;    1.040256;    1.040817;    1.040988;
 70;    0.081710;    1.430480;    1.277731;    1.160681;    1.119529;    1.095050;    1.087852;    1.053725;    1.054152;    1.054174;
 71;    0.073226;    1.417117;    1.253800;    1.150248;    1.105760;    1.084321;    1.078977;    1.049062;    1.049213;    1.049483;
 72;    0.070163;    1.421145;    1.253460;    1.160308;    1.118387;    1.095428;    1.095612;    1.053315;    1.054549;    1.053646;
 73;    0.069154;    1.438455;    1.275543;    1.178874;    1.132892;    1.109939;    1.102596;    1.065000;    1.065601;    1.065962;
 74;    0.070953;    1.429055;    1.258825;    1.168865;    1.109878;    1.082515;    1.081715;    1.039463;    1.039952;    1.039863;
 75;    0.068728;    1.427281;    1.273334;    1.157381;    1.101799;    1.081246;    1.084013;    1.039991;    1.040337;    1.040515;
 76;    0.070909;    1.427792;    1.257534;    1.154175;    1.113483;    1.090931;    1.083652;    1.047531;    1.048345;    1.048475;
 77;    0.069356;    1.404556;    1.248762;    1.140038;    1.091063;    1.073633;    1.065486;    1.029295;    1.029536;    1.029682;
 78;    0.068406;    1.415151;    1.271660;    1.163453;    1.109803;    1.083539;    1.075848;    1.039753;    1.040228;    1.040763;
 79;    0.069541;    1.423398;    1.266226;    1.161273;    1.121102;    1.094300;    1.085547;    1.050716;    1.051854;    1.051959;
 80;    0.069407;    1.421591;    1.259361;    1.152898;    1.099142;    1.074121;    1.064696;    1.029985;    1.030015;    1.030271;
 81;    0.069930;    1.411018;    1.253258;    1.159106;    1.109415;    1.086705;    1.078449;    1.044977;    1.045345;    1.045817;
 82;    0.068805;    1.411533;    1.250735;    1.148779;    1.098998;    1.078927;    1.072344;    1.037827;    1.038772;    1.038905;
 83;    0.073444;    1.392316;    1.240910;    1.138954;    1.091703;    1.076182;    1.076021;    1.032958;    1.033845;    1.033548;
 84;    0.070280;    1.406883;    1.267385;    1.164430;    1.110319;    1.081466;    1.087519;    1.047404;    1.048276;    1.048643;
 85;    0.067939;    1.414502;    1.267275;    1.166348;    1.121263;    1.101566;    1.094648;    1.055191;    1.055843;    1.055843;
 86;    0.070631;    1.435062;    1.266314;    1.154198;    1.103558;    1.082302;    1.085257;    1.039032;    1.039224;    1.039618;
 87;    0.069373;    1.420527;    1.254748;    1.147307;    1.100363;    1.079397;    1.066918;    1.034071;    1.033608;    1.034019;
 88;    0.068997;    1.440807;    1.277555;    1.170798;    1.115812;    1.091473;    1.089437;    1.047316;    1.047855;    1.048277;
 89;    0.071196;    1.429489;    1.274714;    1.176358;    1.119339;    1.091568;    1.081213;    1.055203;    1.055695;    1.056402;
 90;    0.072801;    1.411461;    1.258844;    1.147945;    1.106866;    1.075919;    1.072873;    1.041421;    1.041807;    1.042290;
 91;    0.069646;    1.432428;    1.274701;    1.164589;    1.113520;    1.090394;    1.082349;    1.051040;    1.051020;    1.051089;
 92;    0.073833;    1.418085;    1.261255;    1.165322;    1.112661;    1.081422;    1.076308;    1.037130;    1.037490;    1.037679;
 93;    0.070251;    1.419402;    1.264917;    1.167204;    1.118828;    1.091171;    1.083287;    1.050435;    1.051015;    1.050889;
 94;    0.070536;    1.422808;    1.265425;    1.153983;    1.115326;    1.088190;    1.096844;    1.045712;    1.046295;    1.046608;
 95;    0.069723;    1.429653;    1.267111;    1.162851;    1.119528;    1.088912;    1.083345;    1.053043;    1.054268;    1.053590;
 96;    0.070018;    1.433054;    1.266141;    1.160087;    1.114468;    1.087887;    1.089294;    1.042037;    1.043135;    1.043475;
 97;    0.070044;    1.425353;    1.281969;    1.182676;    1.131951;    1.108020;    1.110920;    1.063433;    1.063348;    1.063997;
 98;    0.070543;    1.425120;    1.273347;    1.167136;    1.114089;    1.088879;    1.087951;    1.045600;    1.046194;    1.046875;
 99;    0.069827;    1.420406;    1.248783;    1.145038;    1.092309;    1.065620;    1.059325;    1.030824;    1.031516;    1.031740;
100;    0.070578;    1.413524;    1.248055;    1.149696;    1.101218;    1.074140;    1.069576;    1.034410;    1.034803;    1.035423;
