Simulation;Time;PC0;PC1;PC2;PC3;PC4;PC5;PC6;PC7;PC8;
Nan;Nan;0;0;0;1;0;0;0;0;0;
  0;    0.042447;    0.990518;    0.927077;    0.888307;    0.868409;    0.893824;    0.943342;    0.940749;    0.947500;    0.968905;
  1;    0.030208;    1.020189;    0.967864;    0.905067;    0.882870;    0.927061;    0.941488;    0.972903;    0.988730;    1.003957;
  2;    0.031469;    1.036137;    0.981085;    0.937188;    0.911021;    0.966667;    0.979248;    1.013885;    1.025853;    1.051835;
  3;    0.030294;    1.003437;    0.954843;    0.941604;    0.916300;    0.949158;    0.975777;    1.018701;    1.023069;    1.019843;
  4;    0.036364;    1.035775;    0.980161;    0.960605;    0.915557;    0.960098;    0.969665;    1.000710;    1.028655;    1.039553;
  5;    0.030434;    0.995799;    0.934373;    0.897502;    0.886485;    0.937155;    0.960817;    0.986968;    1.001296;    1.030896;
  6;    0.030884;    1.003672;    0.948625;    0.893104;    0.884257;    0.914013;    0.949855;    0.978917;    0.978717;    0.989027;
  7;    0.030482;    1.022666;    0.967765;    0.932768;    0.914936;    0.940073;    0.966785;    0.999633;    0.999189;    1.004460;
  8;    0.034120;    0.986096;    0.930580;    0.900145;    0.894469;    0.917953;    0.979940;    1.014040;    1.020280;    0.987205;
  9;    0.030572;    1.011559;    0.958640;    0.922182;    0.910383;    0.937249;    0.984222;    1.004170;    1.008574;    1.032742;
 10;    0.027776;    1.019832;    0.964593;    0.923074;    0.901710;    0.947697;    0.976693;    1.006162;    1.019193;    1.020979;
 11;    0.028601;    0.992996;    0.951707;    0.898008;    0.886584;    0.924205;    0.956717;    0.968621;    0.986384;    0.986619;
 12;    0.030197;    0.982907;    0.954129;    0.896163;    0.886824;    0.928300;    0.962477;    0.967809;    0.968035;    0.976521;
 13;    0.028572;    0.998719;    0.931947;    0.904708;    0.879689;    0.910481;    0.949320;    0.974010;    0.984402;    1.003841;
 14;    0.029295;    0.981706;    0.933658;    0.893744;    0.868546;    0.913013;    0.948077;    0.950129;    0.952828;    0.968999;
 15;    0.027876;    1.003548;    0.923171;    0.900271;    0.867714;    0.892337;    0.921564;    0.957166;    1.000448;    0.981184;
 16;    0.029047;    1.011841;    0.972108;    0.929025;    0.907965;    0.936321;    0.954862;    0.981060;    1.007106;    1.033955;
 17;    0.028538;    0.982960;    0.933009;    0.919513;    0.879132;    0.909849;    0.921190;    0.950646;    0.976496;    0.982377;
 18;    0.028504;    0.966671;    0.924035;    0.901750;    0.886142;    0.920102;    0.932507;    0.957950;    0.961318;    0.968179;
 19;    0.029792;    0.982839;    0.918114;    0.881367;    0.884252;    0.914038;    0.957544;    0.971727;    0.991142;    0.993619;
 20;    0.028495;    1.016124;    0.940847;    0.909329;    0.885982;    0.943006;    0.981883;    1.017567;    1.023506;    1.025138;
 21;    0.029873;    1.005111;    0.932345;    0.903623;    0.884744;    0.918239;    0.956077;    0.978929;    0.990226;    1.003060;
 22;    0.030318;    1.017658;    0.953737;    0.923281;    0.909809;    0.936537;    0.975194;    0.965510;    0.992645;    1.009651;
 23;    0.028424;    0.991678;    0.937704;    0.897822;    0.894662;    0.950213;    0.968427;    0.988248;    0.997820;    0.997442;
 24;    0.030835;    1.033214;    0.984451;    0.934901;    0.911361;    0.960257;    0.982377;    0.995286;    1.025308;    1.030507;
 25;    0.029752;    0.990134;    0.944568;    0.896928;    0.881578;    0.926408;    0.948078;    0.955572;    0.965346;    0.969878;
 26;    0.028796;    1.013411;    0.960122;    0.928134;    0.913370;    0.962168;    0.999202;    1.034422;    1.033203;    1.014726;
 27;    0.029333;    1.008242;    0.940370;    0.912934;    0.897058;    0.931820;    0.953503;    1.002518;    1.010571;    1.006307;
 28;    0.029580;    1.016447;    0.947128;    0.915152;    0.902325;    0.951909;    0.997428;    1.001251;    1.014317;    1.006767;
 29;    0.028857;    1.035548;    0.957171;    0.927204;    0.907190;    0.947657;    0.982265;    1.009113;    1.011038;    1.019297;
 30;    0.028948;    1.014872;    0.948041;    0.918542;    0.899616;    0.941304;    0.967056;    0.994957;    1.026217;    1.014628;
 31;    0.028119;    1.008238;    0.946062;    0.894038;    0.882435;    0.929142;    0.968351;    0.983227;    1.021025;    1.002374;
 32;    0.027932;    1.000591;    0.978715;    0.905769;    0.885346;    0.935621;    0.946823;    1.002829;    1.017650;    0.993793;
 33;    0.028163;    1.009085;    0.936782;    0.893455;    0.885399;    0.922693;    0.966083;    0.968027;    0.990401;    1.026882;
 34;    0.029600;    1.025858;    0.955012;    0.919123;    0.900128;    0.957982;    0.968606;    0.999808;    1.024568;    1.029721;
 35;    0.030022;    1.006942;    0.960104;    0.915311;    0.902351;    0.959449;    0.970596;    0.998332;    1.006646;    1.036264;
 36;    0.028900;    0.983333;    0.958123;    0.910995;    0.881513;    0.913833;    0.959265;    0.969537;    0.982892;    0.979546;
 37;    0.027811;    0.997628;    0.947914;    0.903239;    0.870785;    0.914920;    0.935791;    0.982364;    0.987693;    0.987308;
 38;    0.029150;    0.997483;    0.934296;    0.896812;    0.889106;    0.920580;    0.943425;    0.959687;    0.974216;    0.976074;
 39;    0.029756;    0.960841;    0.914734;    0.879867;    0.857826;    0.897425;    0.905951;    0.923735;    0.936985;    0.948408;
 40;    0.030911;    1.016271;    0.969311;    0.902351;    0.881128;    0.927144;    0.966201;    1.006319;    0.995055;    0.996717;
 41;    0.029287;    0.999178;    0.946992;    0.890636;    0.892184;    0.933784;    0.944188;    0.956062;    0.972263;    0.987127;
 42;    0.027857;    1.018969;    0.935754;    0.904834;    0.883589;    0.921278;    0.945575;    0.969894;    0.996289;    1.019153;
 43;    0.028971;    1.018221;    0.951865;    0.921547;    0.901032;    0.934947;    0.969524;    1.013919;    1.034240;    1.020588;
 44;    0.028134;    1.012270;    0.963651;    0.910989;    0.904514;    0.958407;    1.001663;    1.027918;    1.037406;    1.018752;
 45;    0.030040;    0.978142;    0.918194;    0.886165;    0.875558;    0.917354;    0.957525;    1.003283;    1.002901;    0.977620;
 46;    0.028726;    1.016377;    0.949166;    0.912198;    0.898473;    0.925791;    0.960037;    0.981349;    0.994003;    1.021109;
 47;    0.028941;    1.017758;    0.947983;    0.926051;    0.911296;    0.947570;    0.991085;    0.995096;    1.014321;    1.014629;
 48;    0.029236;    0.984546;    0.931990;    0.912303;    0.898919;    0.926077;    0.951295;    0.974512;    0.982444;    1.010054;
 49;    0.029824;    0.989172;    0.928240;    0.910795;    0.899014;    0.926436;    0.943678;    0.946995;    0.984896;    0.981940;
 50;    0.029383;    1.002567;    0.935443;    0.894881;    0.879915;    0.912191;    0.960246;    0.977216;    0.994893;    0.991688;
 51;    0.030767;    1.035660;    0.969871;    0.944826;    0.923379;    0.950273;    0.981245;    1.003391;    1.023872;    1.047789;
 52;    0.031817;    1.004564;    0.949358;    0.901430;    0.873692;    0.917292;    0.955435;    0.975330;    0.981720;    0.985311;
 53;    0.029759;    0.995156;    0.980702;    0.904270;    0.891009;    0.944771;    0.959223;    0.982678;    0.992405;    1.014801;
 54;    0.030489;    1.033512;    0.984332;    0.904594;    0.900891;    0.943909;    0.968562;    1.002076;    1.018713;    1.047723;
 55;    0.029202;    0.979916;    0.911819;    0.881866;    0.867770;    0.930073;    0.939351;    0.958315;    0.970615;    0.977452;
 56;    0.028787;    0.995655;    0.933045;    0.879974;    0.863144;    0.897056;    0.920404;    0.937360;    0.967325;    1.001399;
 57;    0.029076;    1.018369;    0.956373;    0.904896;    0.887854;    0.924859;    0.951031;    0.983076;    0.983795;    1.020008;
 58;    0.028720;    1.014735;    0.957135;    0.910320;    0.905512;    0.935436;    0.965985;    0.985668;    1.016412;    1.036968;
 59;    0.027538;    0.996628;    0.943806;    0.913706;    0.879257;    0.906894;    0.944042;    0.957333;    0.978954;    1.017873;
 60;    0.028992;    1.003575;    0.945554;    0.906143;    0.902350;    0.932047;    0.968223;    0.996997;    0.976843;    0.983398;
 61;    0.028031;    0.986589;    0.932774;    0.886580;    0.881062;    0.923119;    0.960545;    0.971044;    0.974366;    0.980686;
 62;    0.028936;    0.989750;    0.931275;    0.904739;    0.872712;    0.908278;    0.937023;    0.963323;    0.968279;    0.980781;
 63;    0.028998;    1.007196;    0.928332;    0.880129;    0.868304;    0.916417;    0.938690;    0.966760;    1.008099;    1.003705;
 64;    0.028598;    1.009201;    0.946336;    0.920839;    0.890051;    0.925294;    0.980206;    0.991962;    1.022265;    1.018088;
 65;    0.030178;    0.976192;    0.924416;    0.880911;    0.873044;    0.915002;    0.951101;    0.945882;    0.953389;    0.965445;
 66;    0.028497;    0.999659;    0.948696;    0.912090;    0.902127;    0.960147;    0.984605;    0.981782;    1.016159;    0.996115;
 67;    0.030374;    0.986675;    0.945651;    0.912855;    0.901968;    0.929459;    0.969636;    0.999208;    1.019005;    0.991073;
 68;    0.028780;    0.995993;    0.934147;    0.900551;    0.887859;    0.924096;    0.945058;    0.973514;    0.989702;    0.996197;
 69;    0.030186;    0.981235;    0.933207;    0.896801;    0.869811;    0.909831;    0.970384;    0.975225;    0.981232;    0.987999;
 70;    0.028413;    1.019641;    0.973335;    0.904672;    0.898477;    0.937632;    0.992663;    0.997565;    1.021748;    1.016307;
 71;    0.029279;    0.999217;    0.932931;    0.902005;    0.891002;    0.915346;    0.948780;    0.975808;    1.006291;    1.021864;
 72;    0.034334;    1.002366;    0.934683;    0.910007;    0.900627;    0.952380;    0.971855;    0.993831;    1.007658;    0.996589;
 73;    0.028392;    1.035223;    0.969982;    0.934831;    0.920079;    0.958735;    0.995232;    1.031891;    1.033392;    1.038794;
 74;    0.029210;    1.004687;    0.924078;    0.905224;    0.874745;    0.913501;    0.936545;    0.959827;    0.990590;    0.993763;
 75;    0.029757;    1.007935;    0.959388;    0.891924;    0.869207;    0.913498;    0.954286;    0.976890;    0.986251;    1.005663;
 76;    0.028290;    1.008675;    0.936279;    0.901246;    0.893375;    0.931394;    0.948514;    0.991614;    0.996105;    1.012007;
 77;    0.030994;    0.970398;    0.918203;    0.870540;    0.853243;    0.888146;    0.913258;    0.941870;    0.952678;    0.967606;
 78;    0.030010;    0.994203;    0.944827;    0.897414;    0.875070;    0.909850;    0.946380;    0.956526;    0.971629;    0.990665;
 79;    0.028365;    1.007403;    0.943826;    0.905091;    0.901348;    0.921253;    0.957205;    0.985963;    0.993638;    0.999717;
 80;    0.031111;    0.990323;    0.916510;    0.875387;    0.857693;    0.887670;    0.926172;    0.947751;    0.979641;    0.976887;
 81;    0.028485;    0.987522;    0.932787;    0.901787;    0.881221;    0.920272;    0.952919;    0.958413;    0.989892;    0.990223;
 82;    0.032107;    0.983332;    0.922257;    0.885709;    0.868441;    0.923647;    0.955259;    0.974815;    0.971620;    0.979042;
 83;    0.034234;    0.958115;    0.907702;    0.874160;    0.859543;    0.892101;    0.925120;    0.946431;    0.951155;    0.970481;
 84;    0.029884;    0.992317;    0.967724;    0.913121;    0.892131;    0.921366;    0.954166;    0.969938;    0.971676;    0.997878;
 85;    0.028731;    0.999400;    0.951987;    0.912626;    0.898029;    0.928171;    0.972832;    0.984557;    1.007085;    1.028018;
 86;    0.029899;    1.012456;    0.939214;    0.892319;    0.870659;    0.918044;    0.952413;    0.984582;    1.023674;    1.004796;
 87;    0.027740;    0.991132;    0.917951;    0.882119;    0.867255;    0.896026;    0.916776;    0.939456;    0.958535;    0.984652;
 88;    0.029592;    1.026831;    0.948705;    0.911504;    0.885805;    0.928757;    0.987463;    1.002458;    1.036360;    1.025193;
 89;    0.027639;    1.023275;    0.964741;    0.926158;    0.903044;    0.934467;    0.992653;    0.994794;    1.027549;    1.000693;
 90;    0.032810;    0.986539;    0.933711;    0.886112;    0.882615;    0.908148;    0.950667;    0.963863;    1.000109;    0.998108;
 91;    0.028691;    1.022573;    0.956934;    0.910817;    0.893541;    0.928575;    0.956026;    0.983222;    1.007116;    1.025619;
 92;    0.028083;    0.990171;    0.926383;    0.891701;    0.869934;    0.900564;    0.930967;    0.957431;    0.984971;    0.991369;
 93;    0.029047;    1.002512;    0.937181;    0.911698;    0.895299;    0.936025;    0.967983;    0.979730;    0.986604;    0.992322;
 94;    0.028229;    1.003709;    0.946307;    0.895325;    0.891173;    0.917904;    0.939765;    0.977217;    0.984809;    1.001551;
 95;    0.029176;    1.017046;    0.948327;    0.910877;    0.901905;    0.935341;    0.976081;    1.012959;    0.992103;    1.000382;
 96;    0.027806;    1.009756;    0.938309;    0.890148;    0.878549;    0.945433;    0.962975;    0.991177;    0.997949;    1.000110;
 97;    0.029933;    1.024744;    0.988140;    0.943426;    0.919697;    0.942009;    0.976864;    1.002628;    1.008296;    1.015088;
 98;    0.029613;    1.008036;    0.954614;    0.903948;    0.883470;    0.924443;    0.947916;    0.982170;    0.997881;    1.005145;
 99;    0.029910;    0.989264;    0.914380;    0.875088;    0.856610;    0.901695;    0.936995;    0.980841;    0.994269;    0.977479;
100;    0.028615;    0.982944;    0.913729;    0.888438;    0.867339;    0.905354;    0.942787;    0.959543;    0.969717;    0.991194;
