Simulation;Time;PC0;PC1;PC2;PC3;PC4;PC5;PC6;PC7;PC8;
Nan;Nan;0;0;0;0;0;0;1;0;0;
  0;    0.076769;    0.995136;    0.672722;    0.588118;    0.663352;   12.799855;   26.418250;   68.209964; 2983.939580;85882.477358;
  1;    0.070343;    1.026026;    0.698920;    0.591821;    0.667365;    9.908199;   13.976900;   84.618705;  262.055158;518170.000901;
  2;    0.065166;    1.030380;    0.711603;    0.609879;    0.689660;   33.963220;   39.650530;  109.428789;  655.534485;95953.391976;
  3;    0.060850;    0.984919;    0.679917;    0.616714;    0.703793;   34.159514;   43.482825;   95.739943;  333.843831;23750.756344;
  4;    0.059583;    1.033119;    0.705519;    0.634228;    0.701754;   41.703131;   59.266086;  111.043616;  161.957566; 2277.096074;
  5;    0.060527;    0.997493;    0.670248;    0.589932;    0.692444;   16.565044;   45.494207;   92.262683;  213.891836;206833.890505;
  6;    0.059101;    1.010521;    0.688553;    0.590793;    0.693105;   14.222356;   39.111624;   93.018846;  200.244223;64390.829417;
  7;    0.058852;    1.017594;    0.690365;    0.606408;    0.700345;    7.508642;   28.080149;  136.069840;  154.997665;120258.903343;
  8;    0.059699;    0.977983;    0.662730;    0.587593;    0.696387;   11.512963;   17.963553;  111.166729; 1789.179595;23454.921412;
  9;    0.057771;    1.005636;    0.690263;    0.607200;    0.705558;    8.505056;   30.841606;   71.481467;  108.814374; 9298.267317;
 10;    0.058158;    1.018370;    0.698367;    0.610859;    0.689905;   26.565581;   42.176902;  110.030489;  355.032789;601390.619961;
 11;    0.059646;    0.989846;    0.682115;    0.596559;    0.698995;   13.105320;   23.891638;  103.841495;  263.426021;17366.723114;
 12;    0.059006;    0.970834;    0.675492;    0.590507;    0.683660;   10.319146;   22.178736;  107.552753;  200.463685;39756.613447;
 13;    0.057697;    1.004936;    0.668009;    0.593603;    0.675695;   15.744681;   44.429718;   79.987152;  103.988648;116306.575097;
 14;    0.059292;    0.984349;    0.674524;    0.595343;    0.683801;   26.593779;   59.234157;  117.510374;  152.633170; 2958.270025;
 15;    0.059734;    1.014730;    0.662566;    0.582683;    0.648401;   12.727369;   15.478237;   58.788039;  128.394320; 8314.959100;
 16;    0.058295;    1.003511;    0.692220;    0.611907;    0.697878;    9.722839;   64.171481;  127.376431; 2534.957835;6819940.016282;
 17;    0.058258;    0.975352;    0.669072;    0.603559;    0.684258;    4.952263;    6.624361;   84.626454;  739.734176;32116.573465;
 18;    0.059527;    0.945851;    0.657383;    0.586464;    0.672096;    6.317026;   27.061208;   55.058967;   67.139153;24098.954290;
 19;    0.057057;    0.984896;    0.658819;    0.575788;    0.693950;    7.511096;   44.207043;  204.584818; 1021.583115;68082.737536;
 20;    0.059045;    1.028351;    0.679356;    0.599635;    0.678370;   15.588901;   44.090966;  154.679181;  614.478974;61070.890101;
 21;    0.058256;    1.014419;    0.670035;    0.599268;    0.681461;   27.532928;   52.836547;   91.569317;  156.579676;35846.494909;
 22;    0.057935;    1.013908;    0.679893;    0.608220;    0.689609;    2.035775;   35.150822;  231.407035;  624.830471;90675.254697;
 23;    0.059218;    0.987578;    0.668855;    0.588599;    0.690367;   22.804942;   37.373051;  176.012471;  364.573065; 7856.151475;
 24;    0.058760;    1.032663;    0.704956;    0.617934;    0.694505;    4.603175;   12.470670;  186.567809;  419.988700;16827.885846;
 25;    0.059163;    0.983723;    0.676862;    0.590555;    0.679994;    6.215849;   32.618582;   92.795079;  180.557171;  352.143698;
 26;    0.059260;    1.003964;    0.683517;    0.608681;    0.698778;   21.544270;   47.485697;  329.206709; 6686.085650;23109.474128;
 27;    0.058636;    1.012390;    0.671752;    0.599997;    0.687739;    5.941312;   12.552957;  191.870865; 1060.131482; 8495.504402;
 28;    0.058142;    1.021696;    0.675229;    0.604326;    0.693479;   19.533278;   41.112690;  203.953883;  283.674106;11213.029205;
 29;    0.059469;    1.046115;    0.682020;    0.608387;    0.682069;    8.453128;   23.953920;   93.088278;  140.349834;90995.298243;
 30;    0.059876;    1.017474;    0.683683;    0.604435;    0.692321;   10.343478;   27.245705;  226.463547; 1000.467304;478897.908063;
 31;    0.057236;    1.016061;    0.684727;    0.589239;    0.679236;   29.703731;   46.658618;  142.004580;  488.553470;22613.885979;
 32;    0.059034;    0.990870;    0.694790;    0.591453;    0.669633;   14.027684;   37.335663;  310.396031;  570.253157;39218.491417;
 33;    0.059677;    1.018884;    0.673572;    0.577430;    0.678574;    6.851898;  116.562001;  677.602334; 1668.786971;2325216.655876;
 34;    0.057617;    1.029161;    0.681337;    0.595328;    0.676177;   28.144223;   33.629798;  213.557765;  773.201142;13356.785835;
 35;    0.059015;    1.003354;    0.685374;    0.605816;    0.700305;    8.340209;   24.050914;  155.298233;  925.592751;751823.587861;
 36;    0.056956;    0.970333;    0.687433;    0.597703;    0.690449;   37.999368;   47.975680;   74.194456;  118.432998;  426.339470;
 37;    0.058668;    0.995554;    0.685062;    0.594014;    0.664641;   22.950449;  105.841362;  753.893554; 1622.416725;40378.540665;
 38;    0.058765;    1.000831;    0.670046;    0.593290;    0.694354;    5.410078;   16.705200;   45.961015;   70.298380; 1831.745555;
 39;    0.058448;    0.953616;    0.655143;    0.584182;    0.652150;    9.983141;   17.432792;   40.888117;  107.358754;21902.639766;
 40;    0.057486;    1.020751;    0.699816;    0.592136;    0.669800;    6.834271;   14.961708;   89.956231;  113.295018; 1460.810574;
 41;    0.057742;    1.002387;    0.679578;    0.586194;    0.701302;   32.712084;   48.674214;  118.631843;  188.671820;  377.488899;
 42;    0.057757;    1.033621;    0.676211;    0.596020;    0.673331;   16.617262;   26.619660;  112.184412;  207.583614;113165.921363;
 43;    0.058997;    1.018387;    0.678918;    0.600924;    0.680417;   21.393403;   27.512071;  103.211940;  945.348612;90145.725971;
 44;    0.059623;    1.010458;    0.691263;    0.599026;    0.698042;   86.357827;  183.350803; 1276.140697; 2802.164247;43452.422757;
 45;    0.058623;    0.977730;    0.656456;    0.585131;    0.682757;   10.590887;   46.491853;  130.187952;  841.415636;11469268.353847;
 46;    0.057407;    1.026072;    0.683403;    0.604605;    0.704563;    8.858109;   57.439688;   93.202413;  467.823717;21912.630232;
 47;    0.061727;    1.017157;    0.674333;    0.602739;    0.694333;   14.043856;   45.317684;  180.346689; 1934.057867;11259.380904;
 48;    0.058813;    0.973866;    0.665964;    0.603926;    0.697927;   35.214760;   54.838324;   87.322166; 1970.224724;256448.456237;
 49;    0.058649;    0.981728;    0.667407;    0.600889;    0.708989;    5.303891;   11.432403;   84.853433;  190.090053;1173897.664007;
 50;    0.064538;    1.008494;    0.676319;    0.582428;    0.667222;   13.421400;   21.596289;  138.600411;  233.444158;11773753.367841;
 51;    0.058187;    1.035413;    0.697690;    0.618444;    0.711888;   26.357747;   41.748394;  134.937408; 3844.972313;55608.084194;
 52;    0.057894;    1.008731;    0.684524;    0.596003;    0.669325;   16.206195;   34.263374;  533.499790;10233.979946;14331131.798139;
 53;    0.060010;    0.980191;    0.700898;    0.593864;    0.685706;   15.556302;   91.618317;  215.260477; 1556.145577;10771.158258;
 54;    0.059591;    1.042218;    0.709183;    0.589442;    0.696046;    6.570968;    7.647373;  346.698780;  968.204184; 7749.048526;
 55;    0.057770;    0.984430;    0.655160;    0.576144;    0.665167;   34.232282;   50.463199;  272.806915;  407.566378;142289.368169;
 56;    0.058480;    1.004245;    0.673584;    0.569355;    0.666923;   19.755030;   26.646066;   80.071605;   96.865617;39972.654510;
 57;    0.058800;    1.026300;    0.696436;    0.598954;    0.692336;    8.709007;   20.740379;   76.305445;  319.468928;10578.637153;
 58;    0.059072;    1.015447;    0.688027;    0.594803;    0.698700;   14.929583;   16.243237;   73.038996;  310.584094; 1476.983850;
 59;    0.058715;    0.997147;    0.683972;    0.608716;    0.691088;    4.030833;    9.106117;  115.912727; 1301.570685;302129457.819404;
 60;    0.058009;    1.004318;    0.680807;    0.599251;    0.713906;   45.102017;   57.628666;  102.329662;  289.001316; 1829.742124;
 61;    0.058934;    0.984450;    0.665900;    0.578927;    0.672081;   13.354788;   20.462524;  119.465014;  182.071145;  718.371824;
 62;    0.058075;    0.989440;    0.666736;    0.596809;    0.666997;    4.566709;    6.049496;  176.725753;  277.050950;15969.533238;
 63;    0.058469;    1.025148;    0.677743;    0.576980;    0.659805;   20.285786;   38.386175;   94.583220;  294.436239; 7363.275914;
 64;    0.058827;    1.004519;    0.678501;    0.598526;    0.664901;   16.104916;   65.319933;  217.832680;  751.861749;9030528.421561;
 65;    0.058757;    0.975808;    0.670186;    0.583048;    0.688531;   51.881341;   77.952382;  126.630763;  669.459406;1506537.589820;
 66;    0.058272;    0.994396;    0.677865;    0.604992;    0.708543;   14.972627;   44.036517;  128.263893;  248.694780; 5950.077819;
 67;    0.062638;    0.965103;    0.661942;    0.591044;    0.671890;    7.511453;   23.540203;   79.551942; 2530.659026;527010.297914;
 68;    0.059631;    1.000525;    0.673909;    0.603025;    0.701457;    9.613208;   39.891585;  166.014815;  327.681403;28814.285952;
 69;    0.059993;    0.972665;    0.673667;    0.589878;    0.654499;   30.773805;   37.922108;  159.229625;  510.282504;80429.378213;
 70;    0.059119;    1.022706;    0.698220;    0.594176;    0.708799;   20.653535;   37.873095;  284.834189;  594.169271;38065.326761;
 71;    0.059965;    0.995998;    0.667330;    0.582855;    0.671673;   27.878280;   47.145564;  104.976256;  212.289344;220807.130608;
 72;    0.057851;    1.003693;    0.665785;    0.598819;    0.692671;   20.439276;   40.903973;   93.722464;  360.968693; 9358.697582;
 73;    0.059142;    1.039461;    0.695361;    0.618343;    0.713412;   11.098917;   45.303580;  132.031222;  412.399224;65543.604862;
 74;    0.063696;    1.019801;    0.670835;    0.600248;    0.682815;    5.072857;    8.034294;  115.175927;  172.024034;13651.568076;
 75;    0.060294;    1.016554;    0.692900;    0.588781;    0.657787;   40.903360;   52.438020;  273.243736;58052.810458;794404.725518;
 76;    0.059482;    1.017413;    0.670755;    0.590477;    0.689023;   17.485957;   22.348974;   62.477643;  197.934586;899464.643265;
 77;    0.058801;    0.971168;    0.658949;    0.573720;    0.644933;    8.565014;   48.475170;  136.629213; 1093.634279; 2665.207033;
 78;    0.059497;    0.992021;    0.688850;    0.594498;    0.676734;   26.306644;   43.868397;  116.568131;11622.736469;28029.230116;
 79;    0.058582;    1.008244;    0.681818;    0.595783;    0.709886;   10.409930;   57.475316;  112.312075;  228.289210;105353.246118;
 80;    0.058277;    1.004777;    0.671293;    0.581129;    0.660223;    5.005359;   41.345304;   87.653303;  171.455167; 9376.186425;
 81;    0.057576;    0.983743;    0.665351;    0.595034;    0.677402;    9.843476;   24.207049;  257.746740;  561.472331; 4124.973734;
 82;    0.063947;    0.984972;    0.661631;    0.581661;    0.659714;   10.510168;   88.410702;  261.846157;  586.215852;10600.924911;
 83;    0.059620;    0.947924;    0.649636;    0.574122;    0.647982;   16.382780;   32.551820;  229.605702; 5427.789862;103129.337854;
 84;    0.058378;    0.975747;    0.688679;    0.593434;    0.677478;   23.804178;   66.319325;  141.875429;  679.408609;15681.607945;
 85;    0.058322;    0.990628;    0.683785;    0.605310;    0.693672;    3.706786;   34.790499;  160.187450;  246.532739; 7786.902646;
 86;    0.059157;    1.031861;    0.682397;    0.587471;    0.681112;   16.618521;  186.566092;  492.813836;  776.558505;1002762.649365;
 87;    0.059666;    1.002543;    0.665609;    0.580421;    0.660405;    7.446817;   12.828820;  158.155767; 1105.687376;12276.912172;
 88;    0.059219;    1.044399;    0.695645;    0.604649;    0.681616;   30.095412;   97.541040;  331.810478;  414.423881; 1520.327755;
 89;    0.058243;    1.021059;    0.694770;    0.607011;    0.691167;   11.340679;   12.641769;  114.689556;  494.497691;91000.569191;
 90;    0.058170;    0.984751;    0.674035;    0.575918;    0.680654;    9.627944;   25.869216;  143.164933;  416.064677;100274.011020;
 91;    0.058698;    1.027038;    0.693508;    0.597080;    0.678761;   20.176214;   31.200079;   76.995736;  444.964788; 4810.205676;
 92;    0.058780;    0.997933;    0.673398;    0.595627;    0.686415;   11.693728;   30.225902;  218.829729; 1317.316415;19863.730663;
 93;    0.063836;    1.000730;    0.680576;    0.600583;    0.693859;   31.001620;   76.516161;  251.329421;  498.654877; 2491.571087;
 94;    0.059456;    1.007491;    0.681126;    0.587751;    0.691711;    5.513573;   18.281850;   80.406895;  194.482909; 4020.074354;
 95;    0.058739;    1.021163;    0.683824;    0.594228;    0.697800;   11.964459;   14.011673;  164.031622;  663.708757;446218.196919;
 96;    0.058562;    1.027895;    0.681919;    0.592603;    0.687398;   76.198023;  126.422390;  319.710584;  794.074084;328759085.195730;
 97;    0.060956;    1.012379;    0.704945;    0.622227;    0.707338;    4.620297;    7.582545;   40.985978;   83.765838;733145.858211;
 98;    0.058781;    1.011521;    0.691187;    0.599732;    0.679143;    8.387723;   11.539011;  214.456086;  864.244960;28900.026741;
 99;    0.058128;    1.002428;    0.658967;    0.571687;    0.650605;   35.202198;   66.703176;  174.947988;  271.677593; 1601.183758;
100;    0.058315;    0.988011;    0.658302;    0.581068;    0.668279;   19.112016;   25.140927;   76.007147;  254.302902;37390.880670;
