Simulation;Time;PC0;PC1;PC2;PC3;PC4;PC5;PC6;PC7;PC8;
Nan;Nan;0;0;0;1;0;0;0;0;0;
  0;    0.307062;    0.992340;    0.703404;    0.572823;    0.463148;    0.420165;    0.388001;    0.309299;    0.237805;    0.137542;
  1;    0.318576;    1.022244;    0.726562;    0.574376;    0.469953;    0.439219;    0.377418;    0.327778;    0.233098;    0.146104;
  2;    0.239528;    1.030049;    0.744129;    0.593831;    0.487474;    0.461326;    0.387506;    0.334919;    0.240852;    0.140569;
  3;    0.244057;    0.991857;    0.718105;    0.605146;    0.491565;    0.454065;    0.415137;    0.363432;    0.268381;    0.156097;
  4;    0.242411;    1.032090;    0.738475;    0.613430;    0.490682;    0.448849;    0.390328;    0.332907;    0.272094;    0.159648;
  5;    0.244835;    0.997828;    0.703187;    0.574102;    0.474966;    0.440748;    0.390848;    0.346723;    0.268702;    0.174569;
  6;    0.240437;    1.003613;    0.715371;    0.573227;    0.469415;    0.436270;    0.392946;    0.332322;    0.234216;    0.134406;
  7;    0.238907;    1.020856;    0.726084;    0.587248;    0.491890;    0.439421;    0.396087;    0.349363;    0.255944;    0.128632;
  8;    0.236786;    0.982771;    0.697615;    0.575137;    0.478778;    0.445647;    0.418297;    0.363612;    0.270263;    0.140670;
  9;    0.243222;    1.005216;    0.721813;    0.587240;    0.485645;    0.448098;    0.420147;    0.361078;    0.269341;    0.168370;
 10;    0.248818;    1.015833;    0.727674;    0.592553;    0.480030;    0.449236;    0.405538;    0.352864;    0.272493;    0.157035;
 11;    0.237870;    0.986647;    0.709384;    0.575537;    0.473975;    0.449261;    0.407554;    0.340877;    0.268785;    0.149352;
 12;    0.240541;    0.971421;    0.707661;    0.567396;    0.478693;    0.449245;    0.383488;    0.316626;    0.222288;    0.120573;
 13;    0.252507;    1.005591;    0.699809;    0.577785;    0.470627;    0.425201;    0.388710;    0.331197;    0.254645;    0.151690;
 14;    0.239611;    0.978542;    0.702032;    0.566678;    0.463046;    0.441729;    0.398588;    0.314570;    0.214137;    0.110442;
 15;    0.245527;    1.018665;    0.698983;    0.576698;    0.463439;    0.423995;    0.367568;    0.315453;    0.258863;    0.138424;
 16;    0.238592;    1.004274;    0.724060;    0.582781;    0.485882;    0.446165;    0.394969;    0.328741;    0.268336;    0.172028;
 17;    0.242664;    0.976724;    0.702775;    0.574333;    0.467399;    0.433196;    0.384113;    0.329498;    0.243415;    0.130956;
 18;    0.245465;    0.953461;    0.694476;    0.572525;    0.475972;    0.437064;    0.383666;    0.334053;    0.251907;    0.140507;
 19;    0.235054;    0.985372;    0.691381;    0.555648;    0.474301;    0.443945;    0.405645;    0.341728;    0.277932;    0.166056;
 20;    0.246211;    1.026871;    0.712017;    0.580657;    0.472143;    0.454606;    0.404958;    0.360741;    0.270753;    0.169176;
 21;    0.241778;    1.013699;    0.702355;    0.573791;    0.472840;    0.436411;    0.398015;    0.338752;    0.233198;    0.121517;
 22;    0.239462;    1.018241;    0.717349;    0.589169;    0.489175;    0.454016;    0.407140;    0.308229;    0.244141;    0.136998;
 23;    0.240451;    0.989454;    0.702921;    0.568480;    0.481904;    0.458390;    0.396685;    0.335098;    0.226742;    0.156128;
 24;    0.242071;    1.031778;    0.736646;    0.599928;    0.487754;    0.457432;    0.407502;    0.342628;    0.278181;    0.153383;
 25;    0.237537;    0.984444;    0.707413;    0.578845;    0.472339;    0.445332;    0.399703;    0.305362;    0.235998;    0.136726;
 26;    0.245407;    1.008983;    0.720310;    0.589044;    0.488986;    0.468139;    0.418520;    0.363966;    0.266996;    0.153612;
 27;    0.239119;    1.014405;    0.704358;    0.577465;    0.479819;    0.445654;    0.398009;    0.348373;    0.261718;    0.147024;
 28;    0.246037;    1.023371;    0.709850;    0.581376;    0.483391;    0.451711;    0.414762;    0.330784;    0.251862;    0.145927;
 29;    0.236790;    1.049446;    0.719454;    0.587809;    0.488540;    0.448125;    0.408109;    0.343779;    0.243194;    0.120467;
 30;    0.243096;    1.017810;    0.717511;    0.592281;    0.479757;    0.451893;    0.414217;    0.349243;    0.269703;    0.146997;
 31;    0.238186;    1.012064;    0.715332;    0.570567;    0.471738;    0.441417;    0.399853;    0.338143;    0.262824;    0.132797;
 32;    0.243082;    0.990526;    0.719585;    0.575926;    0.477259;    0.421724;    0.357010;    0.319350;    0.240413;    0.133189;
 33;    0.239459;    1.019767;    0.705256;    0.568676;    0.473933;    0.438062;    0.403074;    0.323017;    0.240814;    0.159563;
 34;    0.240548;    1.034462;    0.717335;    0.586278;    0.484546;    0.434826;    0.365537;    0.321876;    0.244749;    0.148808;
 35;    0.240018;    1.002703;    0.717701;    0.583623;    0.482812;    0.462487;    0.409272;    0.348526;    0.271771;    0.178836;
 36;    0.242225;    0.968207;    0.715188;    0.583472;    0.469453;    0.429749;    0.401984;    0.337999;    0.257449;    0.156667;
 37;    0.238872;    0.994022;    0.715030;    0.578482;    0.463941;    0.425993;    0.384849;    0.330997;    0.231214;    0.110439;
 38;    0.241547;    1.000286;    0.702034;    0.569116;    0.477569;    0.443647;    0.403428;    0.313220;    0.245689;    0.135009;
 39;    0.244449;    0.954447;    0.687799;    0.562192;    0.460398;    0.421560;    0.366448;    0.301628;    0.220588;    0.136393;
 40;    0.239398;    1.016227;    0.725598;    0.575424;    0.469630;    0.436490;    0.403217;    0.346265;    0.247108;    0.149959;
 41;    0.249263;    0.999545;    0.708725;    0.570617;    0.477256;    0.445093;    0.391831;    0.312521;    0.209821;    0.118950;
 42;    0.240083;    1.032999;    0.707157;    0.579099;    0.470275;    0.441617;    0.396917;    0.337584;    0.247216;    0.147872;
 43;    0.237160;    1.023068;    0.716621;    0.582786;    0.483587;    0.443021;    0.391820;    0.347953;    0.259317;    0.144731;
 44;    0.238997;    1.008907;    0.721846;    0.578312;    0.483953;    0.466260;    0.431346;    0.372419;    0.279174;    0.146919;
 45;    0.239893;    0.978757;    0.687743;    0.562088;    0.468512;    0.441927;    0.404607;    0.356560;    0.247444;    0.131997;
 46;    0.236903;    1.023374;    0.710445;    0.587432;    0.478672;    0.439517;    0.402255;    0.349229;    0.258877;    0.164359;
 47;    0.248488;    1.023693;    0.712619;    0.595745;    0.486749;    0.453114;    0.422353;    0.354602;    0.260646;    0.151517;
 48;    0.246117;    0.976777;    0.699394;    0.583257;    0.481918;    0.419296;    0.378746;    0.333541;    0.259240;    0.170786;
 49;    0.237906;    0.983574;    0.701612;    0.583699;    0.480269;    0.444078;    0.378786;    0.321716;    0.258524;    0.141665;
 50;    0.247146;    1.007888;    0.707273;    0.565394;    0.469264;    0.417309;    0.378536;    0.316979;    0.242598;    0.133184;
 51;    0.237358;    1.037081;    0.729647;    0.604802;    0.492356;    0.458969;    0.409057;    0.343850;    0.262149;    0.152104;
 52;    0.237282;    1.006186;    0.716093;    0.582643;    0.466165;    0.435480;    0.393394;    0.323568;    0.235811;    0.115436;
 53;    0.236167;    0.976338;    0.729480;    0.581097;    0.475045;    0.452387;    0.405000;    0.326267;    0.229770;    0.144687;
 54;    0.240783;    1.035665;    0.737340;    0.575700;    0.480417;    0.457080;    0.407410;    0.350911;    0.251333;    0.162419;
 55;    0.244214;    0.985838;    0.685242;    0.564953;    0.464836;    0.445278;    0.383848;    0.305286;    0.236993;    0.115814;
 56;    0.237254;    1.002649;    0.704248;    0.559390;    0.461403;    0.416657;    0.369747;    0.306738;    0.220687;    0.137451;
 57;    0.239908;    1.020423;    0.724498;    0.577805;    0.471608;    0.444470;    0.391215;    0.331317;    0.248795;    0.158340;
 58;    0.243910;    1.014832;    0.719638;    0.581111;    0.483472;    0.449013;    0.389924;    0.327587;    0.264359;    0.161753;
 59;    0.249627;    0.991967;    0.713883;    0.583902;    0.468062;    0.424732;    0.386550;    0.315610;    0.212162;    0.144637;
 60;    0.239213;    1.002120;    0.709643;    0.585425;    0.478765;    0.443171;    0.400664;    0.346949;    0.234359;    0.131038;
 61;    0.239405;    0.986355;    0.697099;    0.564814;    0.474247;    0.433464;    0.398692;    0.341519;    0.238235;    0.130549;
 62;    0.241404;    0.990611;    0.699562;    0.568355;    0.467713;    0.432124;    0.384347;    0.328150;    0.255907;    0.139011;
 63;    0.238272;    1.019563;    0.707696;    0.558385;    0.463347;    0.429703;    0.378751;    0.314146;    0.255790;    0.153719;
 64;    0.240212;    1.009999;    0.714534;    0.587096;    0.476491;    0.445909;    0.399578;    0.324334;    0.254090;    0.132002;
 65;    0.236813;    0.970965;    0.697837;    0.565932;    0.463943;    0.435265;    0.393579;    0.310470;    0.225740;    0.138275;
 66;    0.248459;    0.994617;    0.709839;    0.583335;    0.484244;    0.462230;    0.404279;    0.322135;    0.261875;    0.143618;
 67;    0.240343;    0.977071;    0.702008;    0.577324;    0.489635;    0.442117;    0.405600;    0.354149;    0.266330;    0.107031;
 68;    0.246206;    0.996573;    0.705354;    0.577862;    0.472951;    0.434230;    0.382618;    0.339540;    0.266026;    0.154381;
 69;    0.238218;    0.973422;    0.705385;    0.571614;    0.464582;    0.434338;    0.409787;    0.340700;    0.259337;    0.145186;
 70;    0.242888;    1.018583;    0.728080;    0.575600;    0.480683;    0.440892;    0.400306;    0.327914;    0.247351;    0.140793;
 71;    0.244418;    1.001541;    0.704200;    0.574640;    0.478100;    0.431353;    0.386298;    0.329533;    0.266730;    0.165956;
 72;    0.238351;    1.006908;    0.701983;    0.581202;    0.482878;    0.459596;    0.397569;    0.346966;    0.257347;    0.143163;
 73;    0.236969;    1.039114;    0.729558;    0.600208;    0.491975;    0.462643;    0.410727;    0.346912;    0.263319;    0.162733;
 74;    0.240081;    1.016590;    0.701034;    0.583986;    0.462872;    0.436194;    0.393947;    0.327568;    0.255636;    0.139436;
 75;    0.248917;    1.010884;    0.720729;    0.569794;    0.463821;    0.434878;    0.385999;    0.325169;    0.229022;    0.152685;
 76;    0.244796;    1.018097;    0.703991;    0.567729;    0.478631;    0.447906;    0.391938;    0.341784;    0.247617;    0.144698;
 77;    0.246325;    0.970668;    0.690175;    0.554346;    0.459043;    0.418377;    0.363149;    0.300135;    0.212234;    0.132758;
 78;    0.242029;    0.986469;    0.716563;    0.575054;    0.465795;    0.434959;    0.392018;    0.323395;    0.240539;    0.129976;
 79;    0.239947;    1.006611;    0.714620;    0.579210;    0.481601;    0.445362;    0.407341;    0.343531;    0.251203;    0.138553;
 80;    0.239995;    0.998438;    0.698885;    0.563091;    0.455178;    0.415866;    0.373953;    0.314833;    0.234865;    0.134585;
 81;    0.243609;    0.986319;    0.700032;    0.574457;    0.471827;    0.440649;    0.396092;    0.334541;    0.266406;    0.157791;
 82;    0.239405;    0.986188;    0.695321;    0.568304;    0.465596;    0.445607;    0.403755;    0.343505;    0.245793;    0.139412;
 83;    0.245193;    0.951776;    0.684285;    0.557351;    0.462855;    0.431184;    0.392224;    0.327930;    0.222571;    0.135230;
 84;    0.239417;    0.978067;    0.719378;    0.583571;    0.476305;    0.436551;    0.394450;    0.301190;    0.199612;    0.125362;
 85;    0.242503;    0.990365;    0.715811;    0.582594;    0.482395;    0.445527;    0.407074;    0.335986;    0.250271;    0.153138;
 86;    0.240080;    1.025387;    0.708262;    0.569770;    0.463411;    0.433762;    0.390837;    0.338033;    0.275776;    0.151135;
 87;    0.244482;    0.999847;    0.696899;    0.563314;    0.462603;    0.424226;    0.372522;    0.321225;    0.246702;    0.141623;
 88;    0.238844;    1.036493;    0.724862;    0.579117;    0.470193;    0.433307;    0.412179;    0.351169;    0.275920;    0.132813;
 89;    0.244828;    1.022200;    0.728088;    0.595740;    0.481137;    0.455436;    0.425324;    0.348027;    0.264506;    0.120514;
 90;    0.239020;    0.983693;    0.702382;    0.566830;    0.470192;    0.438828;    0.402217;    0.331963;    0.265639;    0.156615;
 91;    0.237357;    1.025377;    0.725674;    0.581929;    0.477645;    0.440199;    0.377171;    0.332142;    0.256116;    0.161622;
 92;    0.239049;    0.992095;    0.702662;    0.579160;    0.462016;    0.428394;    0.389906;    0.324482;    0.246991;    0.111365;
 93;    0.244579;    1.000033;    0.712652;    0.582168;    0.477535;    0.446428;    0.399089;    0.339156;    0.255761;    0.151179;
 94;    0.247109;    1.004798;    0.712076;    0.570389;    0.476658;    0.439425;    0.393469;    0.324003;    0.237826;    0.150971;
 95;    0.242567;    1.021163;    0.717044;    0.578870;    0.482891;    0.451588;    0.401988;    0.344014;    0.227520;    0.133805;
 96;    0.238406;    1.020507;    0.706642;    0.569466;    0.466585;    0.454721;    0.398703;    0.341283;    0.242981;    0.136715;
 97;    0.246469;    1.013087;    0.738703;    0.606479;    0.490847;    0.449554;    0.398445;    0.344765;    0.245215;    0.150357;
 98;    0.237782;    1.006883;    0.721192;    0.581866;    0.472148;    0.436106;    0.390097;    0.326716;    0.246765;    0.147899;
 99;    0.240719;    1.001993;    0.690065;    0.562092;    0.457873;    0.420996;    0.370403;    0.326264;    0.256284;    0.134749;
100;    0.237157;    0.988320;    0.688881;    0.559165;    0.462778;    0.428034;    0.394856;    0.327709;    0.227856;    0.147530;
