Simulation;Time;PC0;PC1;PC2;PC3;PC4;PC5;PC6;PC7;PC8;
Nan;Nan;0;1;0;0;0;0;0;0;0;
  0;    0.262271;    0.987021;    0.687271;    0.652009;    0.633517;    0.605295;    0.530288;    0.435685;    0.306474;    0.161325;
  1;    0.252667;    1.011106;    0.704113;    0.673661;    0.648773;    0.587882;    0.509242;    0.451887;    0.321403;    0.187131;
  2;    0.242639;    1.021077;    0.724310;    0.703373;    0.693931;    0.638667;    0.556875;    0.489439;    0.350240;    0.228633;
  3;    0.248066;    0.998804;    0.715665;    0.690706;    0.668738;    0.596280;    0.543484;    0.460128;    0.325748;    0.165079;
  4;    0.243862;    1.029407;    0.725608;    0.719494;    0.681318;    0.627326;    0.537151;    0.469148;    0.349978;    0.181660;
  5;    0.242073;    1.000356;    0.694810;    0.677953;    0.645622;    0.594848;    0.527065;    0.462506;    0.350864;    0.194320;
  6;    0.247234;    0.997686;    0.698558;    0.679223;    0.634445;    0.569231;    0.512212;    0.452540;    0.336456;    0.168688;
  7;    0.245673;    1.023455;    0.716602;    0.686020;    0.646545;    0.593686;    0.541877;    0.433858;    0.317798;    0.158104;
  8;    0.240224;    0.990529;    0.695974;    0.672991;    0.639296;    0.609195;    0.558954;    0.436670;    0.357000;    0.204190;
  9;    0.240628;    1.005577;    0.712605;    0.688866;    0.664647;    0.644692;    0.590912;    0.484623;    0.352134;    0.229648;
 10;    0.241896;    1.010134;    0.712905;    0.693987;    0.652970;    0.624258;    0.546094;    0.471882;    0.361891;    0.215884;
 11;    0.243223;    0.984867;    0.698720;    0.686988;    0.655910;    0.590258;    0.535736;    0.420390;    0.334704;    0.182077;
 12;    0.238400;    0.972274;    0.697479;    0.690568;    0.664539;    0.603766;    0.557064;    0.462711;    0.337400;    0.217842;
 13;    0.236890;    1.007848;    0.691662;    0.670748;    0.638384;    0.586219;    0.532084;    0.458086;    0.366939;    0.183183;
 14;    0.239984;    0.973282;    0.686212;    0.664018;    0.635426;    0.596659;    0.539944;    0.435926;    0.321115;    0.185025;
 15;    0.239102;    1.017984;    0.685920;    0.664378;    0.602741;    0.568302;    0.512403;    0.429742;    0.327969;    0.196463;
 16;    0.239489;    1.004670;    0.714904;    0.680313;    0.649560;    0.602363;    0.557883;    0.472398;    0.352539;    0.193557;
 17;    0.240795;    0.977402;    0.692195;    0.672814;    0.614559;    0.548038;    0.475258;    0.404258;    0.307061;    0.182893;
 18;    0.238507;    0.960101;    0.691185;    0.668770;    0.638029;    0.595102;    0.547856;    0.438989;    0.358287;    0.227507;
 19;    0.237298;    0.991196;    0.686771;    0.666396;    0.637656;    0.606315;    0.525837;    0.442591;    0.342822;    0.199842;
 20;    0.246398;    1.024994;    0.698411;    0.674359;    0.662184;    0.606587;    0.555128;    0.484989;    0.378523;    0.210892;
 21;    0.238513;    1.015574;    0.693318;    0.668641;    0.640777;    0.581899;    0.523035;    0.457835;    0.350026;    0.210147;
 22;    0.241708;    1.024111;    0.712679;    0.687624;    0.656318;    0.593874;    0.532333;    0.469589;    0.346442;    0.189561;
 23;    0.244079;    0.994540;    0.697325;    0.694521;    0.681015;    0.617893;    0.520441;    0.436695;    0.355556;    0.172385;
 24;    0.243187;    1.028488;    0.720685;    0.705650;    0.670135;    0.617078;    0.556365;    0.473943;    0.379339;    0.192428;
 25;    0.245443;    0.981984;    0.695672;    0.677273;    0.654430;    0.595673;    0.524913;    0.420733;    0.315629;    0.193766;
 26;    0.239851;    1.014229;    0.714617;    0.694455;    0.663012;    0.634363;    0.568789;    0.468121;    0.331882;    0.218811;
 27;    0.246515;    1.019928;    0.700037;    0.671789;    0.638386;    0.613016;    0.565075;    0.482261;    0.357714;    0.225942;
 28;    0.240082;    1.029620;    0.705311;    0.693776;    0.653263;    0.582942;    0.494006;    0.406272;    0.306697;    0.130435;
 29;    0.242595;    1.053945;    0.711146;    0.692032;    0.659014;    0.609826;    0.568741;    0.470878;    0.345644;    0.172301;
 30;    0.239312;    1.017625;    0.705375;    0.696685;    0.664490;    0.627471;    0.570782;    0.503835;    0.395661;    0.221552;
 31;    0.237988;    1.006859;    0.697787;    0.672609;    0.651428;    0.602782;    0.553755;    0.458142;    0.348568;    0.192072;
 32;    0.239096;    0.983310;    0.705058;    0.672260;    0.648767;    0.591559;    0.503804;    0.431635;    0.314211;    0.197156;
 33;    0.244621;    1.020038;    0.693693;    0.673268;    0.645540;    0.598410;    0.523627;    0.459697;    0.372420;    0.225282;
 34;    0.249944;    1.035862;    0.707972;    0.692358;    0.655634;    0.603056;    0.538902;    0.442540;    0.353922;    0.215289;
 35;    0.240456;    1.004487;    0.708279;    0.697415;    0.657509;    0.608957;    0.548906;    0.472307;    0.354866;    0.210020;
 36;    0.243579;    0.961272;    0.696959;    0.680560;    0.654353;    0.608101;    0.555191;    0.455050;    0.340335;    0.207540;
 37;    0.241901;    0.984551;    0.695402;    0.675493;    0.637323;    0.612795;    0.539484;    0.444316;    0.322746;    0.148024;
 38;    0.237142;    1.003770;    0.695281;    0.682808;    0.643067;    0.606724;    0.556314;    0.456873;    0.354523;    0.163425;
 39;    0.255789;    0.953747;    0.677054;    0.657121;    0.624855;    0.562480;    0.491540;    0.424586;    0.301524;    0.178681;
 40;    0.239700;    1.004184;    0.703419;    0.657658;    0.644408;    0.598223;    0.535876;    0.459209;    0.324658;    0.191893;
 41;    0.241184;    0.999540;    0.697976;    0.677740;    0.640462;    0.606671;    0.518643;    0.452156;    0.321774;    0.181540;
 42;    0.240949;    1.032225;    0.696165;    0.673404;    0.648456;    0.600285;    0.537378;    0.460590;    0.356523;    0.178468;
 43;    0.239214;    1.026250;    0.708275;    0.681062;    0.646351;    0.603731;    0.537293;    0.468407;    0.348539;    0.201094;
 44;    0.246727;    1.008220;    0.709838;    0.690852;    0.664232;    0.622919;    0.572574;    0.496656;    0.383716;    0.220040;
 45;    0.246210;    0.984539;    0.684337;    0.657238;    0.632064;    0.605142;    0.554078;    0.458118;    0.312452;    0.191056;
 46;    0.244924;    1.025485;    0.703847;    0.675670;    0.652358;    0.606107;    0.552759;    0.468561;    0.349410;    0.182034;
 47;    0.240562;    1.031452;    0.708439;    0.666012;    0.638279;    0.602483;    0.504500;    0.419544;    0.344830;    0.180827;
 48;    0.239806;    0.985134;    0.699052;    0.658710;    0.632309;    0.595171;    0.534977;    0.452377;    0.344034;    0.173790;
 49;    0.241770;    0.991125;    0.698406;    0.676078;    0.641816;    0.567324;    0.517075;    0.449231;    0.366483;    0.207661;
 50;    0.246323;    1.004809;    0.692390;    0.678877;    0.654304;    0.604490;    0.537178;    0.461246;    0.340084;    0.163447;
 51;    0.236537;    1.039819;    0.721854;    0.695960;    0.665507;    0.624727;    0.550613;    0.473709;    0.359598;    0.197810;
 52;    0.240044;    0.999083;    0.696060;    0.678161;    0.637026;    0.606238;    0.526997;    0.415266;    0.314787;    0.170676;
 53;    0.238208;    0.965703;    0.707628;    0.683009;    0.669935;    0.630583;    0.554520;    0.450203;    0.305742;    0.205624;
 54;    0.242585;    1.025510;    0.714325;    0.677096;    0.657842;    0.608696;    0.567443;    0.488614;    0.355560;    0.211414;
 55;    0.239654;    0.988169;    0.678378;    0.661863;    0.628057;    0.594323;    0.536277;    0.474343;    0.370051;    0.209809;
 56;    0.245496;    0.995973;    0.685750;    0.663685;    0.642314;    0.573826;    0.486091;    0.369532;    0.298627;    0.197730;
 57;    0.239770;    1.011698;    0.704321;    0.683384;    0.663290;    0.607073;    0.536482;    0.428763;    0.324224;    0.200433;
 58;    0.242290;    1.014993;    0.707835;    0.681025;    0.662847;    0.623712;    0.553646;    0.496504;    0.388744;    0.225436;
 59;    0.238652;    0.986638;    0.697183;    0.683344;    0.639987;    0.604887;    0.536296;    0.465751;    0.362654;    0.235111;
 60;    0.238460;    1.005001;    0.703241;    0.674195;    0.642062;    0.591500;    0.537491;    0.442930;    0.348008;    0.191238;
 61;    0.242273;    0.988143;    0.690155;    0.670942;    0.637034;    0.598283;    0.543225;    0.464856;    0.334052;    0.201509;
 62;    0.238169;    0.989998;    0.689080;    0.663606;    0.632786;    0.592492;    0.531211;    0.459467;    0.335636;    0.197648;
 63;    0.243279;    1.012652;    0.688159;    0.666082;    0.616970;    0.575122;    0.506603;    0.441853;    0.333126;    0.204312;
 64;    0.239349;    1.009060;    0.703291;    0.699170;    0.651434;    0.629992;    0.571736;    0.504549;    0.396840;    0.210136;
 65;    0.246589;    0.968636;    0.686155;    0.662117;    0.636475;    0.585150;    0.513471;    0.416417;    0.263156;    0.149740;
 66;    0.238798;    0.998597;    0.704840;    0.703581;    0.675546;    0.597409;    0.558505;    0.480881;    0.338223;    0.165727;
 67;    0.237757;    0.988901;    0.703479;    0.674281;    0.641884;    0.598399;    0.506789;    0.414201;    0.298591;    0.196593;
 68;    0.239332;    0.998088;    0.695334;    0.667165;    0.643544;    0.585586;    0.550892;    0.478160;    0.337377;    0.159627;
 69;    0.244867;    0.967387;    0.690006;    0.673299;    0.661846;    0.621421;    0.568700;    0.476853;    0.342765;    0.183842;
 70;    0.239410;    1.013762;    0.710456;    0.683828;    0.660545;    0.609576;    0.547564;    0.454465;    0.334363;    0.195404;
 71;    0.242340;    1.005343;    0.697282;    0.668030;    0.639076;    0.607039;    0.545650;    0.483863;    0.375685;    0.228165;
 72;    0.243301;    1.015194;    0.699709;    0.689561;    0.652721;    0.620080;    0.543093;    0.463219;    0.321461;    0.205851;
 73;    0.240242;    1.041849;    0.720377;    0.705318;    0.666235;    0.636390;    0.567644;    0.443732;    0.352874;    0.231585;
 74;    0.238880;    1.014631;    0.688077;    0.665426;    0.640724;    0.589994;    0.535697;    0.448982;    0.320464;    0.164540;
 75;    0.240924;    0.998334;    0.694839;    0.667821;    0.630438;    0.597486;    0.534849;    0.460990;    0.324217;    0.209106;
 76;    0.238841;    1.022449;    0.697410;    0.682617;    0.643844;    0.592864;    0.543596;    0.450366;    0.351608;    0.211618;
 77;    0.239279;    0.967771;    0.675567;    0.646703;    0.607163;    0.575847;    0.513219;    0.388373;    0.315852;    0.186558;
 78;    0.238169;    0.976756;    0.696534;    0.672035;    0.646940;    0.598205;    0.538863;    0.450632;    0.343116;    0.201298;
 79;    0.246979;    1.008183;    0.705073;    0.674284;    0.657114;    0.618524;    0.538847;    0.422118;    0.332043;    0.180523;
 80;    0.246871;    0.990261;    0.678857;    0.659472;    0.641340;    0.583558;    0.525833;    0.466150;    0.368270;    0.189116;
 81;    0.240677;    0.989572;    0.692318;    0.662341;    0.626992;    0.569643;    0.527515;    0.460799;    0.338427;    0.187016;
 82;    0.238717;    0.985582;    0.683863;    0.668396;    0.648693;    0.607005;    0.547431;    0.463850;    0.334617;    0.189452;
 83;    0.243890;    0.953691;    0.675677;    0.655580;    0.627664;    0.586186;    0.542181;    0.449924;    0.324835;    0.172026;
 84;    0.244285;    0.972558;    0.703823;    0.674928;    0.643208;    0.597133;    0.545974;    0.467792;    0.329349;    0.180798;
 85;    0.239289;    0.990584;    0.706608;    0.683598;    0.669066;    0.624637;    0.547585;    0.487688;    0.362665;    0.217824;
 86;    0.236612;    1.017768;    0.690396;    0.664025;    0.637504;    0.607524;    0.549377;    0.439845;    0.315426;    0.195736;
 87;    0.243318;    0.997229;    0.682401;    0.663683;    0.637367;    0.571839;    0.502403;    0.390463;    0.262827;    0.159018;
 88;    0.241726;    1.026553;    0.702209;    0.683319;    0.646755;    0.635216;    0.582523;    0.490305;    0.394960;    0.197299;
 89;    0.254138;    1.018439;    0.713715;    0.697566;    0.656096;    0.598672;    0.533631;    0.456494;    0.325111;    0.182803;
 90;    0.238943;    0.981298;    0.690012;    0.668398;    0.648441;    0.608052;    0.563171;    0.457486;    0.354494;    0.220896;
 91;    0.240213;    1.019654;    0.707766;    0.697534;    0.659643;    0.589223;    0.529912;    0.453128;    0.348499;    0.211814;
 92;    0.240769;    0.988016;    0.687269;    0.666982;    0.641861;    0.587965;    0.532932;    0.426416;    0.344828;    0.176693;
 93;    0.239395;    0.999500;    0.702220;    0.681350;    0.659849;    0.640058;    0.586574;    0.480038;    0.356634;    0.193942;
 94;    0.240735;    1.004208;    0.699591;    0.678403;    0.632398;    0.562558;    0.493115;    0.417839;    0.326098;    0.173631;
 95;    0.238657;    1.022039;    0.706728;    0.686288;    0.665812;    0.618521;    0.554053;    0.436771;    0.325095;    0.179990;
 96;    0.245557;    1.016137;    0.692237;    0.679712;    0.667498;    0.641716;    0.585479;    0.469420;    0.327378;    0.177886;
 97;    0.341466;    1.011908;    0.725102;    0.695830;    0.665028;    0.608084;    0.572776;    0.496472;    0.353913;    0.211689;
 98;    0.250872;    0.998868;    0.700830;    0.679664;    0.663788;    0.599605;    0.560148;    0.459644;    0.377337;    0.211718;
 99;    0.247803;    0.999375;    0.676226;    0.660052;    0.634227;    0.566545;    0.513602;    0.428014;    0.283005;    0.169410;
100;    0.240363;    0.989341;    0.679807;    0.666084;    0.636252;    0.609666;    0.540557;    0.423344;    0.324975;    0.200527;
