Simulation;Time;PC0;PC1;PC2;PC3;PC4;PC5;PC6;PC7;PC8;
Nan;Nan;0;0;0;0;0;0;0;1;0;
  0;    0.025014;    1.000000;    0.913415;    0.924991;    1.474124;    2.283921;    8.651472;   16.987820;   42.473042; 4864.741179;
  1;    0.001494;    1.000000;    0.921068;    0.909858;    1.127640;    2.656131;   11.554983;   15.973945;  121.902860;  366.532576;
  2;    0.001107;    1.000000;    0.927382;    0.931969;    1.460908;    5.996690;   18.669461;   24.766949;  108.066182;  142.821669;
  3;    0.001398;    1.000000;    0.931863;    0.966784;    1.262108;    1.934748;   26.504045;   33.728666;  122.220473; 1696.153100;
  4;    0.001125;    1.000000;    0.921621;    0.938072;    5.518124;    9.673827;   16.828031;   33.723245;   97.640091; 4992.564547;
  5;    0.001092;    1.000000;    0.917035;    0.932270;    1.132464;    2.815404;   18.913299;   30.691127;   51.431942;  486.189043;
  6;    0.001401;    1.000000;    0.917159;    0.913193;    1.094707;    2.275296;   13.744561;   23.868071;   92.263320;  345.262896;
  7;    0.001130;    1.000000;    0.924720;    0.932538;    1.153597;    1.537339;   26.156931;   61.444734;   88.142892; 1812.595989;
  8;    0.001177;    1.000000;    0.924915;    0.946643;    1.360886;    1.746000;   21.362704;   27.671272;  341.283291;12124.832501;
  9;    0.001227;    1.000000;    0.922429;    0.940374;    1.151218;    3.068480;   14.103860;   44.215947;  108.876888;13103.812547;
 10;    0.001074;    1.000000;    0.920487;    0.933244;    1.802881;    5.385326;   11.200096;   21.733066;  671.893061;10258212.867286;
 11;    0.001152;    1.000000;    0.931975;    0.928770;    1.186410;    2.012688;   15.098547;   19.097379;   89.754291; 1741.320990;
 12;    0.001623;    1.000000;    0.942065;    0.938972;    1.422752;    5.701175;   11.382258;   69.057235;  102.669360; 1515.553830;
 13;    0.001191;    1.000000;    0.911071;    0.928565;    1.886294;    2.723969;   14.916052;   59.092169;  132.708598;  286.411553;
 14;    0.001089;    1.000000;    0.926351;    0.927261;    1.204234;    1.720068;   18.171683;   28.580770;  152.250547; 1932.900845;
 15;    0.001419;    1.000000;    0.900722;    0.923079;    2.188331;    2.608853;   16.334409;   23.366677;   82.162111; 1157.250866;
 16;    0.001369;    1.000000;    0.931396;    0.939849;    1.150184;    4.670285;    8.497919;   14.569172;   47.719789;  253.022070;
 17;    0.001367;    1.000000;    0.920410;    0.943007;    1.094631;    1.888163;   14.321225;   23.821854;  112.720513;  349.675850;
 18;    0.002801;    1.000000;    0.933921;    0.967965;    1.130523;    1.808163;   11.572535;   20.276464;   90.191861; 5510.580857;
 19;    0.001259;    1.000000;    0.914233;    0.929297;    1.224874;    2.608093;   10.394611;   19.989156;   93.312613; 2675.475147;
 20;    0.001206;    1.000000;    0.902414;    0.921456;    1.184053;    2.301247;  108.382964;  261.648304;  552.454394;10050.665867;
 21;    0.001560;    1.000000;    0.902467;    0.925220;    2.263601;    3.047248;   17.317508;   40.616662;  289.954306;38432.546383;
 22;    0.001595;    1.000000;    0.912880;    0.934680;    1.626743;    3.423264;   37.560989;   59.227461;   92.147959; 6051.987607;
 23;    0.001143;    1.000000;    0.925461;    0.938739;    3.978070;    4.768543;   14.543259;   16.917036;   96.722444;  115.863500;
 24;    0.001119;    1.000000;    0.925919;    0.929241;    1.122267;    1.834884;   17.126522;   21.174096;  216.978527;11178.951412;
 25;    0.001451;    1.000000;    0.932635;    0.935850;    1.104888;    6.461227;   16.426097;   28.168810;  396.975247;  506.920631;
 26;    0.001107;    1.000000;    0.922442;    0.946310;    1.295186;   15.837994;   38.780885;   69.717169;  148.224836;  162.300821;
 27;    0.001172;    1.000000;    0.909917;    0.933996;    1.191112;    1.704649;    8.649679;   27.651272;  188.355301;  441.894447;
 28;    0.001345;    1.000000;    0.910751;    0.929901;    1.178252;    2.601418;   20.072918;   89.651393;  109.741392;  223.362124;
 29;    0.001346;    1.000000;    0.904911;    0.929331;    2.244443;    8.145079;   15.306249;   19.298682;   62.522264; 4246.046087;
 30;    0.001168;    1.000000;    0.914402;    0.936377;    1.166500;   22.611628;   34.199761;   60.620170;  157.522923;  341.385328;
 31;    0.001219;    1.000000;    0.916772;    0.915093;    1.218178;    2.434993;   13.527818;   40.272881;  187.675668;  367.387044;
 32;    0.001223;    1.000000;    0.962163;    0.926545;    4.448585;    9.505956;  324.490731;  659.634680;  780.074615; 1886.666615;
 33;    0.001342;    1.000000;    0.915342;    0.922258;    1.219069;    4.341509;   10.498751;   37.223332;  129.120290;375818.315051;
 34;    0.001383;    1.000000;    0.916910;    0.930102;    1.142787;    1.714525;   22.714979;   78.100388;  120.275065;  674.727851;
 35;    0.001364;    1.000000;    0.927500;    0.935843;    1.538430;    2.214879;   14.031625;   27.955016;  123.271479;10043.048809;
 36;    0.001401;    1.000000;    0.949447;    0.945334;    1.154014;    4.011761;   25.541166;   35.478508;   45.931626;  457.568762;
 37;    0.001233;    1.000000;    0.923171;    0.924766;    2.094212;    4.226437;   37.537036;   99.001455;  244.745989; 3299.386049;
 38;    0.001082;    1.000000;    0.915128;    0.928000;    1.103708;    2.079220;    9.498039;   48.115714;  166.346041;  212.341853;
 39;    0.001058;    1.000000;    0.922078;    0.940341;    1.395888;    4.734695;    9.375596;   19.371476;   68.082346;  118.796445;
 40;    0.001515;    1.000000;    0.926100;    0.912189;    1.116223;    3.036189;   27.803586;   30.425674;   76.722672;  116.306324;
 41;    0.001576;    1.000000;    0.923318;    0.917100;    1.202454;    7.322490;   20.520247;  179.042161;  326.087114; 1116.040098;
 42;    0.001236;    1.000000;    0.898819;    0.918509;    2.241559;    3.859885;   18.257256;   20.549461;  144.405064;  285.053187;
 43;    0.001101;    1.000000;    0.912976;    0.932164;    3.217905;    3.608741;   10.353316;   51.527471;  232.950335;34673.444401;
 44;    0.001478;    1.000000;    0.926177;    0.928253;    5.842576;   17.406070;   53.046604;   79.438406; 1242.980528;1513209.941281;
 45;    0.001352;    1.000000;    0.918732;    0.935847;    1.162717;    1.714039;   32.185294;   73.804223;  482.481593;20062.914322;
 46;    0.001166;    1.000000;    0.911972;    0.922913;    1.069921;    1.657284;   10.168450;   21.598311;   59.627635;10512.650290;
 47;    0.001655;    1.000000;    0.912944;    0.945132;    1.151414;    3.150001;   13.438882;   23.473789;  519.796664;  620.474170;
 48;    0.001739;    1.000000;    0.922857;    0.957483;    1.399172;    1.876532;   16.417185;   21.886121;  112.652412;  196.764088;
 49;    0.001092;    1.000000;    0.917184;    0.953274;    1.271245;    1.594671;   13.178863;   17.680584;  176.819417; 5313.132557;
 50;    0.001113;    1.000000;    0.910645;    0.922553;    1.070281;    1.770356;   17.913543;   39.181495;  440.494580; 2912.025034;
 51;    0.001315;    1.000000;    0.919894;    0.941249;    1.474017;    2.312550;   21.835934;   57.918897;  107.699112; 5536.212450;
 52;    0.001480;    1.000000;    0.921057;    0.918849;    1.327399;    4.229094;    9.652094;   22.643850;  186.408768;  436.157516;
 53;    0.001148;    1.000000;    0.954219;    0.940395;    1.185609;    3.737926;   15.706001;   33.814534; 3588.636807;106111.211970;
 54;    0.001250;    1.000000;    0.914500;    0.902282;    1.161414;    8.386721;   13.833778;   18.082222;   65.912007;  398.221303;
 55;    0.001607;    1.000000;    0.913083;    0.935868;    1.169073;    3.546227;    8.263703;   12.512344; 6306.136277;11300.923270;
 56;    0.001346;    1.000000;    0.918907;    0.909585;    1.088695;    1.569862;    9.896511;   26.130051;  104.524790;  277.884791;
 57;    0.001507;    1.000000;    0.910373;    0.912888;    1.125000;    1.498013;   28.607344;   45.921759;  110.174103;  208.583471;
 58;    0.001132;    1.000000;    0.922590;    0.930276;    1.509705;    2.136098;   47.094816;   66.272867;  253.001086; 3700.965604;
 59;    0.001146;    1.000000;    0.919614;    0.927347;    1.072344;    4.720648;   15.782492;   27.185688;   56.537771;  182.817163;
 60;    0.001213;    1.000000;    0.918624;    0.929313;    4.833015;   10.303195;   35.509634;   68.456512;   92.395504;  932.230284;
 61;    0.001362;    1.000000;    0.928660;    0.935041;    1.133195;    1.798183;   19.384217;   63.887969;   96.961260;  620.590244;
 62;    0.001102;    1.000000;    0.917004;    0.934001;    1.130410;    4.180105;    9.062245;   22.864757;  127.659967;  741.020577;
 63;    0.001504;    1.000000;    0.899638;    0.905250;    1.187501;    1.504124;   15.172353;   23.319170;  167.156344;  315.837692;
 64;    0.001435;    1.000000;    0.917572;    0.942945;    2.521978;    5.093401;   25.906445;   48.214181;  235.232889; 4733.580542;
 65;    0.001312;    1.000000;    0.918289;    0.931914;    1.239783;    6.200224;   22.145395;   24.283764;   79.394666; 2618.848508;
 66;    0.001308;    1.000000;    0.924835;    0.936672;    1.351814;   12.105912;   56.862896;   65.674893;  143.405354; 4881.274975;
 67;    0.001183;    1.000000;    0.941312;    0.964617;    1.906381;    3.822998;   12.561638;   23.293829;   57.242867;  338.132794;
 68;    0.001186;    1.000000;    0.906379;    0.925683;    1.560397;    2.904244;   21.301406;  108.985920;  254.520830; 2683.913329;
 69;    0.001425;    1.000000;    0.924133;    0.939072;    1.343274;   15.557612;   26.832305;   58.842829;  332.959108; 9027.676906;
 70;    0.001060;    1.000000;    0.923489;    0.912877;    1.084340;    2.816285;   15.383662;   68.509912;  149.803097;32800.603810;
 71;    0.001346;    1.000000;    0.914351;    0.934279;    1.638210;    4.509539;   10.573606;   54.726122;  127.744505;16687.289534;
 72;    0.001077;    1.000000;    0.914363;    0.939780;    1.256113;    6.665676;   22.015830;   26.739032;  110.246164;  590.634074;
 73;    0.001644;    1.000000;    0.914523;    0.928321;    1.651528;    2.320130;   15.332046;   50.567380;   99.216439;  121.316411;
 74;    0.001518;    1.000000;    0.896662;    0.922766;    1.163644;    3.632285;   18.057631;   32.148722;  221.639683;  429.899153;
 75;    0.001999;    1.000000;    0.925795;    0.909528;    1.528753;   15.429239;   60.230463;  721.932411; 2524.628148; 3618.972562;
 76;    0.001171;    1.000000;    0.906565;    0.922116;    1.189654;    4.228839;   14.988750;   29.148010;   88.361437; 2505.168763;
 77;    0.001356;    1.000000;    0.922171;    0.928173;    1.334382;    2.256203;   17.447670;   38.378569;  124.643691;  223.956385;
 78;    0.001107;    1.000000;    0.922745;    0.926918;    1.250631;    2.267710;   12.446693;   34.929367; 1069.307151; 1155.994140;
 79;    0.001157;    1.000000;    0.916982;    0.930337;    1.412258;    1.731847;    6.536426;   23.364341;   41.548404; 2805.268397;
 80;    0.001329;    1.000000;    0.900683;    0.913693;    3.547012;    6.227614;   16.331581;   29.253610;  216.215405;  327.352531;
 81;    0.001322;    1.000000;    0.918697;    0.936102;    1.246135;    4.234794;   19.618566;   25.829076;   77.299821; 1060.237812;
 82;    0.001645;    1.000000;    0.914378;    0.926144;    7.952137;    9.563684;   53.401821;  710.882703; 1009.261217;100846.342834;
 83;    0.001148;    1.000000;    0.922903;    0.945446;    3.313571;    4.909651;   18.241948;  105.928432;  300.946779; 1573.196420;
 84;    0.001451;    1.000000;    0.954991;    0.949099;    6.868843;    7.477840;   12.142497;   81.264054;  150.015195;  649.598794;
 85;    0.001351;    1.000000;    0.927248;    0.937505;    1.339463;    3.946889;   21.860250;   33.031555;   68.360274;  268.054725;
 86;    0.001598;    1.000000;    0.905665;    0.901062;    1.044931;    5.313535;   27.031332;   49.114738;  281.825625;10321.297117;
 87;    0.001314;    1.000000;    0.904644;    0.921077;    1.092666;    1.652392;    7.976418;   51.047949;   73.975788;  293.620937;
 88;    0.001306;    1.000000;    0.898793;    0.907175;    1.574922;    2.026124;   41.138502;   70.865835; 8760.773121;3527009.643272;
 89;    0.001328;    1.000000;    0.920329;    0.930274;    1.358089;    1.960122;    8.557660;   29.773971;  113.203934;  353.774479;
 90;    0.001135;    1.000000;    0.923992;    0.928990;    1.795495;    2.104363;   12.595292;   33.961992;  334.656817; 5885.303551;
 91;    0.001120;    1.000000;    0.915551;    0.922250;    1.158970;    2.191593;   17.891206;   24.272188;  122.598365;  280.821735;
 92;    0.001073;    1.000000;    0.913697;    0.922474;    1.161564;    5.806789;   13.430247;   34.118538;  109.868411; 8684.986758;
 93;    0.001330;    1.000000;    0.913421;    0.937991;    1.223380;    4.740789;   18.948650;   22.784132; 1053.333976; 1509.470267;
 94;    0.001080;    1.000000;    0.919939;    0.920763;    1.250154;    3.879615;    8.513806;   17.050039;  182.263329;40828.511441;
 95;    0.001350;    1.000000;    0.918910;    0.929644;    1.332286;   11.841394;   29.488477;   46.709744;  194.443489;  618.075002;
 96;    0.001110;    1.000000;    0.906447;    0.904191;    3.013204;    4.802068;   32.634675;   53.072609; 1128.066968;218112.185458;
 97;    0.001328;    1.000000;    0.934100;    0.946771;    1.109756;    3.390061;    8.307408;   12.067608;   59.475538; 2481.187164;
 98;    0.001195;    1.000000;    0.920880;    0.921844;    1.204081;    4.979337;   21.429505;   27.410654;   73.582410;  815.650693;
 99;    0.001161;    1.000000;    0.908937;    0.914273;    1.160732;    3.208780;   25.421844;   40.011060;   87.777714;  182.995870;
100;    0.001091;    1.000000;    0.912138;    0.925154;    1.082853;    1.860641;   20.830516;   22.012006;  168.182469; 2163.202604;
