Simulation;Time;PC0;PC1;PC2;PC3;PC4;PC5;PC6;PC7;PC8;PC9;
Nan;Nan;0;0;0;0;0;0;0;0;1;0;
0;    0.228264;    0.992005;    0.848295;    0.774903;    0.756294;    0.737424;    0.682203;    0.474849;    0.482216;    0.448287;    0.450970;
1;    0.224739;    1.019585;    0.869788;    0.782744;    0.798163;    0.771745;    0.656806;    0.490320;    0.489493;    0.464684;    0.466998;
2;    0.222914;    1.025745;    0.885513;    0.803581;    0.767381;    0.696755;    0.581031;    0.493932;    0.495783;    0.472929;    0.473864;
3;    0.219649;    0.993482;    0.865050;    0.812671;    0.815626;    0.801546;    0.669540;    0.496238;    0.502154;    0.472355;    0.473985;
4;    0.223058;    1.030798;    0.890636;    0.816666;    0.809736;    0.756536;    0.639309;    0.491319;    0.503986;    0.474213;    0.475370;
5;    0.220822;    0.997790;    0.849834;    0.777579;    0.785577;    0.772899;    0.682893;    0.483299;    0.486009;    0.464458;    0.465252;
6;    0.232563;    1.008201;    0.866741;    0.781647;    0.806538;    0.735439;    0.623062;    0.473301;    0.479118;    0.456629;    0.458469;
7;    0.223775;    1.016659;    0.866359;    0.794952;    0.817306;    0.798498;    0.652442;    0.501313;    0.506322;    0.480488;    0.481848;
8;    0.220446;    0.982611;    0.841510;    0.783591;    0.764062;    0.745161;    0.678078;    0.486683;    0.496275;    0.465730;    0.467124;
9;    0.224424;    1.012347;    0.876512;    0.805679;    0.788351;    0.764603;    0.712767;    0.493416;    0.500141;    0.473836;    0.475483;
10;    0.224355;    1.019599;    0.880846;    0.805222;    0.786154;    0.726236;    0.663756;    0.486781;    0.501110;    0.467581;    0.469482;
11;    0.224559;    0.995068;    0.861765;    0.782593;    0.819367;    0.777786;    0.700847;    0.484033;    0.486963;    0.464747;    0.467811;
12;    0.220799;    0.979741;    0.851396;    0.773190;    0.796215;    0.754008;    0.672848;    0.483615;    0.484460;    0.466196;    0.467150;
13;    0.222135;    1.004261;    0.847952;    0.780420;    0.789343;    0.783688;    0.703112;    0.486659;    0.486698;    0.464052;    0.465296;
14;    0.223325;    0.980351;    0.850469;    0.771513;    0.760028;    0.757985;    0.652443;    0.457584;    0.460651;    0.442038;    0.444345;
15;    0.221255;    1.000757;    0.829604;    0.767715;    0.710526;    0.719583;    0.653682;    0.480864;    0.478066;    0.458054;    0.459499;
16;    0.220969;    1.008296;    0.875336;    0.799503;    0.812551;    0.793701;    0.657068;    0.495616;    0.497392;    0.478119;    0.480164;
17;    0.229144;    0.977483;    0.845822;    0.782741;    0.792975;    0.770307;    0.637904;    0.481787;    0.486520;    0.462245;    0.464140;
18;    0.221991;    0.958020;    0.835151;    0.776428;    0.751775;    0.768306;    0.712063;    0.486238;    0.485925;    0.463578;    0.465136;
19;    0.223017;    0.989110;    0.838049;    0.766396;    0.768012;    0.729205;    0.604957;    0.478837;    0.486995;    0.462136;    0.464083;
20;    0.224522;    1.020953;    0.858533;    0.790162;    0.797838;    0.766988;    0.654214;    0.484839;    0.490168;    0.465088;    0.466375;
21;    0.220594;    1.009788;    0.848846;    0.779563;    0.811743;    0.785081;    0.693755;    0.482108;    0.482184;    0.463930;    0.465533;
22;    0.222300;    1.022650;    0.865552;    0.801600;    0.817909;    0.755416;    0.661220;    0.511215;    0.512874;    0.485308;    0.487783;
23;    0.228897;    0.995475;    0.850460;    0.778356;    0.723025;    0.709769;    0.626606;    0.489201;    0.492691;    0.467889;    0.471012;
24;    0.219804;    1.032618;    0.887059;    0.809482;    0.832405;    0.793491;    0.678060;    0.496309;    0.501418;    0.475884;    0.479843;
25;    0.225079;    0.981622;    0.848680;    0.776681;    0.784832;    0.682593;    0.666184;    0.479086;    0.479053;    0.457813;    0.458372;
26;    0.222922;    1.011532;    0.866682;    0.803766;    0.836226;    0.821200;    0.740402;    0.504151;    0.506149;    0.486293;    0.488090;
27;    0.235575;    1.014609;    0.854703;    0.790697;    0.809208;    0.775033;    0.691175;    0.490270;    0.489537;    0.468365;    0.470734;
28;    0.223969;    1.023204;    0.859949;    0.794394;    0.818634;    0.760300;    0.669163;    0.491187;    0.494083;    0.473507;    0.477435;
29;    0.420949;    1.039564;    0.863158;    0.793767;    0.806830;    0.759344;    0.621210;    0.504048;    0.502900;    0.479370;    0.481138;
30;    0.221183;    1.013490;    0.863252;    0.797694;    0.808996;    0.726959;    0.634063;    0.480942;    0.483487;    0.462829;    0.465234;
31;    0.224883;    1.011961;    0.862321;    0.779923;    0.772035;    0.752106;    0.710428;    0.479792;    0.482689;    0.461334;    0.465614;
32;    0.256355;    0.992745;    0.861293;    0.768327;    0.799440;    0.763343;    0.699720;    0.493559;    0.506795;    0.476937;    0.478488;
33;    0.252763;    1.010302;    0.845002;    0.771854;    0.754728;    0.725380;    0.616343;    0.480369;    0.487755;    0.459369;    0.460638;
34;    0.235774;    1.020217;    0.852499;    0.783828;    0.801936;    0.777658;    0.700960;    0.498787;    0.499188;    0.478380;    0.479129;
35;    0.223174;    1.010408;    0.868918;    0.794335;    0.825947;    0.790018;    0.693997;    0.492612;    0.496605;    0.468284;    0.470655;
36;    0.240001;    0.974538;    0.860171;    0.785333;    0.766902;    0.741732;    0.603975;    0.475824;    0.481445;    0.457292;    0.458410;
37;    0.223572;    0.987577;    0.851043;    0.776815;    0.704458;    0.714002;    0.593748;    0.479662;    0.484226;    0.461687;    0.462872;
38;    0.286898;    0.999387;    0.848516;    0.775425;    0.794829;    0.763971;    0.697856;    0.479851;    0.482286;    0.457525;    0.458697;
39;    0.229445;    0.956167;    0.827116;    0.755642;    0.796857;    0.740101;    0.643257;    0.469751;    0.471583;    0.451380;    0.453362;
40;    0.221510;    1.013510;    0.869877;    0.780162;    0.794942;    0.754851;    0.647082;    0.480328;    0.482811;    0.464444;    0.465628;
41;    0.254447;    1.002325;    0.856172;    0.779208;    0.775935;    0.717628;    0.651162;    0.483818;    0.481747;    0.462346;    0.464533;
42;    0.291011;    1.022858;    0.852717;    0.784591;    0.737269;    0.735657;    0.665076;    0.482891;    0.482847;    0.463747;    0.464115;
43;    0.222851;    1.016417;    0.855424;    0.789258;    0.811141;    0.775072;    0.701806;    0.499802;    0.502058;    0.479030;    0.480532;
44;    0.265506;    1.015663;    0.873110;    0.792170;    0.800369;    0.790538;    0.679414;    0.489595;    0.493762;    0.472291;    0.473311;
45;    0.299419;    0.980194;    0.834267;    0.768247;    0.792494;    0.768579;    0.676143;    0.473706;    0.478449;    0.457460;    0.457980;
46;    0.224084;    1.023861;    0.866336;    0.797427;    0.813925;    0.797076;    0.699343;    0.489880;    0.493402;    0.466986;    0.468260;
47;    0.234514;    1.015852;    0.855882;    0.802719;    0.820916;    0.741566;    0.700660;    0.502131;    0.502532;    0.477177;    0.480921;
48;    0.223212;    0.986371;    0.855816;    0.796032;    0.743311;    0.751291;    0.662830;    0.484456;    0.486748;    0.462408;    0.463749;
49;    0.240534;    0.991682;    0.855832;    0.796537;    0.769057;    0.676851;    0.624378;    0.475939;    0.473880;    0.452805;    0.456557;
50;    0.251986;    1.004349;    0.849032;    0.775559;    0.783462;    0.755124;    0.621026;    0.477884;    0.485016;    0.457146;    0.458606;
51;    0.245565;    1.035619;    0.883879;    0.820437;    0.824960;    0.778621;    0.598570;    0.498173;    0.500179;    0.474914;    0.476382;
52;    0.284286;    1.002159;    0.855270;    0.779986;    0.755326;    0.742101;    0.680050;    0.479328;    0.476915;    0.457758;    0.458763;
53;    0.239881;    0.986575;    0.876072;    0.787072;    0.777709;    0.728559;    0.567355;    0.478272;    0.480494;    0.462307;    0.463456;
54;    0.224213;    1.037510;    0.883741;    0.784565;    0.772004;    0.772681;    0.713742;    0.490528;    0.496409;    0.470206;    0.471712;
55;    0.264758;    0.979876;    0.827565;    0.761174;    0.726533;    0.699100;    0.563045;    0.467009;    0.474242;    0.446526;    0.448236;
56;    0.222329;    0.992398;    0.836306;    0.756007;    0.734738;    0.715397;    0.638875;    0.474989;    0.476406;    0.453088;    0.455254;
57;    0.232735;    1.020523;    0.872718;    0.789285;    0.774357;    0.761392;    0.691399;    0.488862;    0.493325;    0.470041;    0.470104;
58;    0.232824;    1.016061;    0.867720;    0.791848;    0.786293;    0.663030;    0.616523;    0.482559;    0.493027;    0.463830;    0.464639;
59;    0.228552;    0.995297;    0.863383;    0.790230;    0.798244;    0.728411;    0.638321;    0.472000;    0.473987;    0.455839;    0.457621;
60;    0.237310;    1.009925;    0.866021;    0.800667;    0.721431;    0.730848;    0.655727;    0.488138;    0.492160;    0.467374;    0.468742;
61;    0.274019;    0.987112;    0.841350;    0.768204;    0.748194;    0.730855;    0.664811;    0.483864;    0.485723;    0.463503;    0.466231;
62;    0.235456;    0.987185;    0.840426;    0.774203;    0.804219;    0.787579;    0.665529;    0.480632;    0.482514;    0.458202;    0.459144;
63;    0.222970;    1.015695;    0.851459;    0.764144;    0.727544;    0.749459;    0.672038;    0.468468;    0.470690;    0.449669;    0.450561;
64;    0.228951;    0.999854;    0.850831;    0.789488;    0.724314;    0.717922;    0.672460;    0.489789;    0.491725;    0.469247;    0.469924;
65;    0.234541;    0.982275;    0.852346;    0.778248;    0.778301;    0.666240;    0.619835;    0.468002;    0.466440;    0.444684;    0.445839;
66;    0.229064;    1.000467;    0.860374;    0.792521;    0.819357;    0.786628;    0.727175;    0.489639;    0.488892;    0.469181;    0.471205;
67;    0.234549;    0.978591;    0.840873;    0.780058;    0.759915;    0.731949;    0.668355;    0.507193;    0.503445;    0.478263;    0.478675;
68;    0.233181;    1.006611;    0.860791;    0.788677;    0.812630;    0.799805;    0.675744;    0.483583;    0.487234;    0.464872;    0.466608;
69;    0.223940;    0.976132;    0.846352;    0.776778;    0.758233;    0.737954;    0.617343;    0.485783;    0.487767;    0.466289;    0.467124;
70;    0.234840;    1.022223;    0.875093;    0.783139;    0.807130;    0.771224;    0.685769;    0.492390;    0.492928;    0.475042;    0.476813;
71;    0.221069;    0.997249;    0.840692;    0.777337;    0.809956;    0.794549;    0.712171;    0.498671;    0.496507;    0.476064;    0.478862;
72;    0.223848;    1.007500;    0.851432;    0.791866;    0.789323;    0.760964;    0.629344;    0.491544;    0.491436;    0.470534;    0.472729;
73;    0.228689;    1.040170;    0.883062;    0.813808;    0.838902;    0.820696;    0.757503;    0.496659;    0.500230;    0.477885;    0.479012;
74;    0.225147;    1.010520;    0.852499;    0.789574;    0.770582;    0.754600;    0.599900;    0.471967;    0.471524;    0.453024;    0.453869;
75;    0.222011;    1.010418;    0.863974;    0.774698;    0.760003;    0.742845;    0.602119;    0.475685;    0.479416;    0.457259;    0.460221;
76;    0.221873;    1.014841;    0.850681;    0.778406;    0.804862;    0.776420;    0.660373;    0.487784;    0.486558;    0.467342;    0.472190;
77;    0.224562;    0.970066;    0.828942;    0.749962;    0.724128;    0.729512;    0.677101;    0.466712;    0.467532;    0.448690;    0.451010;
78;    0.222595;    0.992097;    0.863474;    0.780328;    0.762799;    0.765558;    0.665151;    0.467253;    0.472150;    0.449348;    0.451878;
79;    0.223517;    1.010682;    0.865250;    0.789808;    0.780171;    0.732670;    0.692738;    0.493994;    0.494295;    0.465187;    0.467033;
80;    0.222806;    0.996203;    0.845976;    0.766508;    0.757632;    0.656732;    0.593277;    0.465458;    0.465884;    0.446521;    0.447630;
81;    0.223287;    0.985605;    0.841443;    0.777002;    0.803142;    0.777396;    0.677041;    0.483883;    0.490937;    0.463656;    0.464962;
82;    0.220833;    0.983561;    0.833451;    0.764768;    0.790882;    0.765626;    0.682814;    0.483291;    0.492699;    0.464168;    0.469483;
83;    0.224884;    0.956255;    0.822779;    0.755210;    0.775129;    0.726141;    0.618295;    0.480891;    0.483227;    0.460721;    0.461799;
84;    0.224546;    0.977859;    0.858673;    0.786757;    0.731170;    0.672369;    0.655382;    0.493622;    0.494322;    0.468682;    0.469515;
85;    0.228230;    0.999168;    0.865936;    0.791135;    0.815125;    0.785434;    0.690200;    0.495594;    0.496335;    0.477918;    0.480382;
86;    0.224481;    1.021920;    0.855857;    0.770674;    0.781676;    0.742585;    0.668399;    0.472949;    0.475638;    0.457317;    0.458573;
87;    0.224496;    1.000904;    0.845580;    0.770880;    0.732142;    0.725380;    0.642572;    0.480690;    0.477490;    0.456474;    0.456742;
88;    0.223941;    1.032821;    0.873515;    0.789020;    0.781639;    0.709386;    0.664194;    0.473511;    0.478998;    0.457803;    0.459575;
89;    0.220448;    1.016121;    0.869471;    0.802376;    0.771343;    0.776825;    0.627238;    0.498895;    0.506411;    0.472959;    0.473948;
90;    0.249454;    0.985777;    0.847366;    0.772490;    0.751629;    0.727063;    0.635196;    0.482359;    0.482772;    0.464937;    0.466421;
91;    0.221236;    1.021365;    0.869583;    0.787921;    0.788754;    0.712306;    0.649443;    0.486448;    0.486914;    0.463521;    0.465494;
92;    0.221316;    0.993903;    0.853801;    0.781514;    0.774529;    0.687014;    0.653664;    0.462825;    0.465725;    0.447306;    0.448434;
93;    0.226525;    1.002022;    0.862679;    0.794806;    0.793580;    0.754131;    0.544752;    0.478095;    0.481594;    0.460716;    0.462902;
94;    0.222221;    1.009482;    0.862081;    0.781655;    0.761148;    0.776307;    0.681632;    0.487097;    0.487090;    0.465771;    0.467250;
95;    0.220943;    1.016747;    0.863688;    0.790741;    0.779521;    0.708551;    0.561442;    0.479245;    0.482958;    0.461605;    0.463554;
96;    0.219631;    1.021949;    0.861577;    0.781736;    0.828174;    0.806725;    0.726360;    0.470295;    0.480420;    0.453682;    0.455495;
97;    0.226704;    1.021713;    0.892269;    0.821035;    0.832705;    0.810317;    0.697411;    0.505110;    0.501867;    0.479547;    0.482370;
98;    0.230051;    1.006235;    0.866914;    0.782268;    0.777665;    0.783644;    0.604858;    0.476538;    0.488478;    0.459724;    0.461963;
99;    0.222989;    0.991386;    0.826246;    0.759298;    0.757128;    0.700316;    0.643517;    0.473937;    0.475929;    0.456610;    0.458651;
100;    0.235216;    0.985116;    0.832890;    0.767548;    0.796507;    0.738240;    0.651752;    0.481285;    0.482436;    0.458867;    0.459594;
