Simulation;Time;PC 0;PC 1;PC 2;PC 3;PC 4;PC 5;PC 6;PC 7;PC 8;PC 9;PC10;PC11;PC12;PC13;PC14;PC15;PC16;PC17;PC18;PC19;PC20;PC21;PC22;PC23;PC24;PC25;PC26;
Nan;Nan;0;0;0;0;0;0;0;0;0;0;0;0;1;0;0;0;0;0;0;0;0;0;0;0;0;0;0;
0;    0.868833;    1.412058;    1.358360;    1.333326;    1.306069;    1.271943;    1.219877;    1.159565;    1.158012;    1.157725;    1.155231;    1.141256;    1.129054;    1.105401;    1.106995;    1.107843;    1.106689;    1.107453;    1.108323;    1.109347;    1.110077;    1.109326;    1.110055;    1.110856;    1.110893;    1.111173;    1.111174;    1.111561;
1;    0.913421;    1.424282;    1.370508;    1.339975;    1.309711;    1.280454;    1.231040;    1.174184;    1.171019;    1.170699;    1.168428;    1.161525;    1.158195;    1.113438;    1.113791;    1.114773;    1.115700;    1.116384;    1.117431;    1.117713;    1.118569;    1.118455;    1.119167;    1.119426;    1.119678;    1.119986;    1.120036;    1.120165;
2;    0.877982;    1.424718;    1.372455;    1.344941;    1.312420;    1.273957;    1.232008;    1.169999;    1.170232;    1.168542;    1.167131;    1.157282;    1.140795;    1.107870;    1.109827;    1.111176;    1.110510;    1.111724;    1.111825;    1.112465;    1.112243;    1.112915;    1.113445;    1.114018;    1.114561;    1.114075;    1.113882;    1.114115;
3;    0.897393;    1.421958;    1.372903;    1.347535;    1.324880;    1.284385;    1.236879;    1.178364;    1.176206;    1.178040;    1.170711;    1.166220;    1.149230;    1.117017;    1.117799;    1.119430;    1.120194;    1.120909;    1.121948;    1.122774;    1.122811;    1.123585;    1.123794;    1.124536;    1.124521;    1.124937;    1.124488;    1.124755;
4;    0.909876;    1.434082;    1.382413;    1.362996;    1.323364;    1.289596;    1.230671;    1.176631;    1.174079;    1.171540;    1.169795;    1.165465;    1.153477;    1.120023;    1.121368;    1.122248;    1.122734;    1.123577;    1.124313;    1.124360;    1.125206;    1.125533;    1.125644;    1.125902;    1.126165;    1.126612;    1.126904;    1.127210;
5;    0.921666;    1.422534;    1.369204;    1.350368;    1.326728;    1.285041;    1.235013;    1.180918;    1.181345;    1.169674;    1.165574;    1.157486;    1.150975;    1.120166;    1.121280;    1.120884;    1.121149;    1.122468;    1.122785;    1.122944;    1.123168;    1.123896;    1.124987;    1.125275;    1.125333;    1.125250;    1.125630;    1.125538;
6;    0.868535;    1.419306;    1.367151;    1.342022;    1.317493;    1.265928;    1.225982;    1.164296;    1.162832;    1.163572;    1.157126;    1.152428;    1.139239;    1.106970;    1.107433;    1.109501;    1.109637;    1.110562;    1.110396;    1.110788;    1.111204;    1.111377;    1.112499;    1.113006;    1.112774;    1.113263;    1.113454;    1.113716;
7;    0.896332;    1.425723;    1.371437;    1.347772;    1.312891;    1.274160;    1.231666;    1.176333;    1.170941;    1.168000;    1.170405;    1.155940;    1.143241;    1.113880;    1.114788;    1.115425;    1.115659;    1.116493;    1.117701;    1.118136;    1.119296;    1.120405;    1.120840;    1.121236;    1.121376;    1.121712;    1.122160;    1.122016;
8;    0.883544;    1.411645;    1.358914;    1.335731;    1.303646;    1.272043;    1.229606;    1.167462;    1.167522;    1.167489;    1.164404;    1.154763;    1.132802;    1.108822;    1.109672;    1.110507;    1.111459;    1.111407;    1.112573;    1.113508;    1.114117;    1.113715;    1.114343;    1.115106;    1.115382;    1.115182;    1.115792;    1.116042;
9;    0.903089;    1.423748;    1.372727;    1.349410;    1.323678;    1.288248;    1.238459;    1.172535;    1.172532;    1.171505;    1.172079;    1.167849;    1.146386;    1.111471;    1.113100;    1.113223;    1.114800;    1.115345;    1.115071;    1.116106;    1.116327;    1.116153;    1.117045;    1.116778;    1.117407;    1.117272;    1.117363;    1.117612;
10;    0.886421;    1.425522;    1.373917;    1.351870;    1.318013;    1.287507;    1.245028;    1.172270;    1.174597;    1.170832;    1.164410;    1.162636;    1.146269;    1.114266;    1.115294;    1.116368;    1.117821;    1.117879;    1.118934;    1.119828;    1.120323;    1.120748;    1.121343;    1.121663;    1.121593;    1.121420;    1.121687;    1.121749;
11;    0.898481;    1.420017;    1.370488;    1.347185;    1.313953;    1.277052;    1.230431;    1.173158;    1.173212;    1.173616;    1.175153;    1.162702;    1.155612;    1.115813;    1.115881;    1.117895;    1.117862;    1.117408;    1.117846;    1.118650;    1.120093;    1.121089;    1.120979;    1.120538;    1.121412;    1.121479;    1.121514;    1.121676;
12;    0.888522;    1.414803;    1.367108;    1.343100;    1.323240;    1.273870;    1.226172;    1.174056;    1.172581;    1.167097;    1.158807;    1.146055;    1.127060;    1.108240;    1.109134;    1.111149;    1.111545;    1.111820;    1.112207;    1.112861;    1.113769;    1.114330;    1.114944;    1.114515;    1.115344;    1.115109;    1.115137;    1.115374;
13;    0.888492;    1.421817;    1.365588;    1.340674;    1.311825;    1.277756;    1.242791;    1.174435;    1.170237;    1.168672;    1.161757;    1.160027;    1.138259;    1.114531;    1.114870;    1.116206;    1.115549;    1.116447;    1.117362;    1.117487;    1.118569;    1.119004;    1.119516;    1.120122;    1.120208;    1.120592;    1.120739;    1.120374;
14;    0.899586;    1.413371;    1.363151;    1.339483;    1.311617;    1.271907;    1.224157;    1.162116;    1.163808;    1.161490;    1.154513;    1.145096;    1.126997;    1.107934;    1.107856;    1.109158;    1.110821;    1.111311;    1.112349;    1.111968;    1.112792;    1.113060;    1.113979;    1.113858;    1.114656;    1.115092;    1.115383;    1.115024;
15;    0.890212;    1.415442;    1.354237;    1.330510;    1.307330;    1.267365;    1.217993;    1.164945;    1.167224;    1.161366;    1.152696;    1.141210;    1.134783;    1.105460;    1.107428;    1.107062;    1.108498;    1.108015;    1.108702;    1.110011;    1.110624;    1.111315;    1.111199;    1.111017;    1.111208;    1.111527;    1.111658;    1.111895;
16;    0.913572;    1.427317;    1.378254;    1.349400;    1.318194;    1.283996;    1.242627;    1.181564;    1.183038;    1.178876;    1.173115;    1.163062;    1.151472;    1.118827;    1.119421;    1.120548;    1.121934;    1.123585;    1.124327;    1.124733;    1.125244;    1.125999;    1.126603;    1.126970;    1.127107;    1.127040;    1.127382;    1.127066;
17;    0.913235;    1.413363;    1.363205;    1.333854;    1.298916;    1.261717;    1.220305;    1.167879;    1.161021;    1.159366;    1.158982;    1.161992;    1.141613;    1.104298;    1.105694;    1.104832;    1.106792;    1.108315;    1.109142;    1.108692;    1.109521;    1.110026;    1.109778;    1.110230;    1.110739;    1.110708;    1.110667;    1.110832;
18;    0.883243;    1.407125;    1.359616;    1.334796;    1.308001;    1.282100;    1.231550;    1.173530;    1.169538;    1.166293;    1.164287;    1.158492;    1.145713;    1.111657;    1.111812;    1.113427;    1.115096;    1.116734;    1.118207;    1.118526;    1.118497;    1.118889;    1.117965;    1.118469;    1.119209;    1.119721;    1.120062;    1.119791;
19;    0.882637;    1.414585;    1.359883;    1.333580;    1.306575;    1.265283;    1.221943;    1.171058;    1.172067;    1.170292;    1.165152;    1.160510;    1.148191;    1.113192;    1.113624;    1.114616;    1.115605;    1.116005;    1.116966;    1.117896;    1.118188;    1.119101;    1.119932;    1.120613;    1.121482;    1.121284;    1.121098;    1.121047;
20;    0.881105;    1.426073;    1.368365;    1.349188;    1.319569;    1.281572;    1.239083;    1.172804;    1.170409;    1.171546;    1.165105;    1.157564;    1.149807;    1.113573;    1.114242;    1.115569;    1.116916;    1.117952;    1.118337;    1.119116;    1.119605;    1.120504;    1.120982;    1.121475;    1.122025;    1.122403;    1.122577;    1.122746;
21;    0.906172;    1.425017;    1.367573;    1.346126;    1.314927;    1.281970;    1.237392;    1.173052;    1.171932;    1.170020;    1.164484;    1.156271;    1.129611;    1.111832;    1.113266;    1.114649;    1.115066;    1.115652;    1.114552;    1.115147;    1.116130;    1.116537;    1.117089;    1.117101;    1.117768;    1.117902;    1.118236;    1.118375;
22;    0.910682;    1.426090;    1.371577;    1.342244;    1.310402;    1.275255;    1.232486;    1.173858;    1.174054;    1.168537;    1.165319;    1.158024;    1.156875;    1.112320;    1.114166;    1.113781;    1.115210;    1.114725;    1.114557;    1.115044;    1.115499;    1.116578;    1.116885;    1.117160;    1.117838;    1.118133;    1.117525;    1.117957;
23;    0.914706;    1.421735;    1.369592;    1.350894;    1.317421;    1.291292;    1.237659;    1.182363;    1.180016;    1.183489;    1.173717;    1.168448;    1.151090;    1.122286;    1.124328;    1.125139;    1.125726;    1.126776;    1.127001;    1.127822;    1.127261;    1.127873;    1.128710;    1.128754;    1.129703;    1.130069;    1.129354;    1.129553;
24;    0.893994;    1.429788;    1.376333;    1.348378;    1.315263;    1.286113;    1.235710;    1.172378;    1.170447;    1.172833;    1.171107;    1.147584;    1.140395;    1.108125;    1.107697;    1.109039;    1.109355;    1.110646;    1.111517;    1.111919;    1.111579;    1.112136;    1.112359;    1.112789;    1.111620;    1.112020;    1.112061;    1.112176;
25;    0.893229;    1.414063;    1.363497;    1.341311;    1.318532;    1.270342;    1.229752;    1.171018;    1.171155;    1.169214;    1.160256;    1.149845;    1.132571;    1.108253;    1.110453;    1.112212;    1.113328;    1.113247;    1.112480;    1.113872;    1.114881;    1.114942;    1.115323;    1.115941;    1.116006;    1.115336;    1.115801;    1.115821;
26;    0.896536;    1.425778;    1.373550;    1.348866;    1.326078;    1.283683;    1.239705;    1.179273;    1.177488;    1.178115;    1.180431;    1.177336;    1.150530;    1.115449;    1.117002;    1.116304;    1.117779;    1.118339;    1.119304;    1.117502;    1.117845;    1.118368;    1.118857;    1.119494;    1.119621;    1.120144;    1.120359;    1.120602;
27;    0.916858;    1.424314;    1.367142;    1.339927;    1.311336;    1.275232;    1.231980;    1.173250;    1.174476;    1.171187;    1.161779;    1.160504;    1.146265;    1.110796;    1.111617;    1.113195;    1.113609;    1.114316;    1.114970;    1.115386;    1.115614;    1.116630;    1.116939;    1.117360;    1.117862;    1.117768;    1.118118;    1.118439;
28;    0.984506;    1.426005;    1.368205;    1.341026;    1.310799;    1.278020;    1.230474;    1.170361;    1.167779;    1.165555;    1.160566;    1.155383;    1.140989;    1.109162;    1.111271;    1.110434;    1.112048;    1.111933;    1.111862;    1.112356;    1.113574;    1.113407;    1.112782;    1.113851;    1.114367;    1.113727;    1.114085;    1.113825;
29;    2.754007;    1.429963;    1.368169;    1.342466;    1.316731;    1.276828;    1.235210;    1.170008;    1.167879;    1.162068;    1.157440;    1.157040;    1.134800;    1.108597;    1.108826;    1.109147;    1.110650;    1.110779;    1.111516;    1.112037;    1.113339;    1.113912;    1.114332;    1.115036;    1.115538;    1.115641;    1.115931;    1.116026;
30;    1.016234;    1.424462;    1.369312;    1.350484;    1.321343;    1.282156;    1.241147;    1.172714;    1.169855;    1.166071;    1.164116;    1.163247;    1.141262;    1.111512;    1.113241;    1.113895;    1.114616;    1.114492;    1.114827;    1.114933;    1.115506;    1.116738;    1.117518;    1.118050;    1.118716;    1.119076;    1.118329;    1.118457;
31;    0.924533;    1.423568;    1.369543;    1.346079;    1.314136;    1.282825;    1.241353;    1.174500;    1.174020;    1.170611;    1.174706;    1.166100;    1.141261;    1.114580;    1.115352;    1.115123;    1.116558;    1.116895;    1.115677;    1.116799;    1.116511;    1.116662;    1.117520;    1.117082;    1.117591;    1.117737;    1.117885;    1.117914;
32;    1.700797;    1.414936;    1.365771;    1.337920;    1.304494;    1.271442;    1.222046;    1.169029;    1.168280;    1.164715;    1.170248;    1.170403;    1.146998;    1.108174;    1.109996;    1.110666;    1.112068;    1.112162;    1.113286;    1.112898;    1.113053;    1.114080;    1.114816;    1.114497;    1.114087;    1.114731;    1.114961;    1.114685;
33;    1.039082;    1.417722;    1.357787;    1.332539;    1.299944;    1.274139;    1.230547;    1.167530;    1.166858;    1.168289;    1.158249;    1.151555;    1.138545;    1.106511;    1.107678;    1.107876;    1.109352;    1.110026;    1.109634;    1.109460;    1.111121;    1.111943;    1.112065;    1.111957;    1.112487;    1.112934;    1.112893;    1.112869;
34;    0.907608;    1.426976;    1.368375;    1.345294;    1.322361;    1.281440;    1.238638;    1.181185;    1.182574;    1.180408;    1.172057;    1.157304;    1.143497;    1.118158;    1.119727;    1.119579;    1.119398;    1.119899;    1.121215;    1.121181;    1.122495;    1.121551;    1.121800;    1.122965;    1.122386;    1.122851;    1.122871;    1.122698;
35;    1.043599;    1.422169;    1.370616;    1.344749;    1.310138;    1.272614;    1.226279;    1.170054;    1.167116;    1.165907;    1.164469;    1.163278;    1.145599;    1.114343;    1.115347;    1.115777;    1.116867;    1.116652;    1.117813;    1.119022;    1.118708;    1.118791;    1.119554;    1.119624;    1.119970;    1.120571;    1.119899;    1.120190;
36;    0.923037;    1.409249;    1.362710;    1.337616;    1.309940;    1.282736;    1.226330;    1.163513;    1.166116;    1.158731;    1.155016;    1.149038;    1.136597;    1.105726;    1.107808;    1.107841;    1.109348;    1.110515;    1.109941;    1.110710;    1.111758;    1.111626;    1.112374;    1.112871;    1.112981;    1.112549;    1.112776;    1.112939;
37;    1.104378;    1.415323;    1.364474;    1.336829;    1.313425;    1.269915;    1.222864;    1.169724;    1.167131;    1.164126;    1.160547;    1.158354;    1.138088;    1.110530;    1.112007;    1.112992;    1.114421;    1.113935;    1.115696;    1.116185;    1.116914;    1.116492;    1.117058;    1.116850;    1.117221;    1.116783;    1.117068;    1.117359;
38;    0.918180;    1.419357;    1.364321;    1.339164;    1.310219;    1.277484;    1.223809;    1.168118;    1.165461;    1.163053;    1.163821;    1.157174;    1.144947;    1.111989;    1.113033;    1.113249;    1.114463;    1.115847;    1.117128;    1.117477;    1.117082;    1.118427;    1.119037;    1.118448;    1.118652;    1.118930;    1.119030;    1.119208;
39;    0.900723;    1.406288;    1.357350;    1.338786;    1.302034;    1.265553;    1.222648;    1.165999;    1.163082;    1.163186;    1.161741;    1.157190;    1.133070;    1.108279;    1.110274;    1.110170;    1.110707;    1.111786;    1.112967;    1.112711;    1.113408;    1.112959;    1.113512;    1.114328;    1.113925;    1.113723;    1.113889;    1.113901;
40;    0.918040;    1.421196;    1.368233;    1.342090;    1.317250;    1.272337;    1.224565;    1.168796;    1.166402;    1.166092;    1.165753;    1.164500;    1.140380;    1.107760;    1.109416;    1.110727;    1.111323;    1.112146;    1.112907;    1.112966;    1.112799;    1.114268;    1.114824;    1.115051;    1.115376;    1.115164;    1.115494;    1.115833;
41;    0.929560;    1.417883;    1.364980;    1.342321;    1.318900;    1.273691;    1.229130;    1.168852;    1.166693;    1.163556;    1.161465;    1.158155;    1.143609;    1.115026;    1.116086;    1.117967;    1.118471;    1.119103;    1.120084;    1.120657;    1.119900;    1.120432;    1.120589;    1.121261;    1.121688;    1.121777;    1.121255;    1.121508;
42;    0.979673;    1.426067;    1.365114;    1.344575;    1.316820;    1.276099;    1.234809;    1.170938;    1.166046;    1.167612;    1.156611;    1.155641;    1.145768;    1.109985;    1.110856;    1.112699;    1.112724;    1.113510;    1.113055;    1.113866;    1.115025;    1.114863;    1.116107;    1.116584;    1.116875;    1.116413;    1.116839;    1.117024;
43;    0.930126;    1.422523;    1.365868;    1.340819;    1.313741;    1.271755;    1.227296;    1.171835;    1.175213;    1.173665;    1.163793;    1.152620;    1.142641;    1.108828;    1.110995;    1.111487;    1.111047;    1.111725;    1.112657;    1.113987;    1.114583;    1.115433;    1.116054;    1.116097;    1.115895;    1.116489;    1.116526;    1.116818;
44;    1.018712;    1.424068;    1.372070;    1.346535;    1.321442;    1.279605;    1.241845;    1.174390;    1.174690;    1.172435;    1.165825;    1.158295;    1.154745;    1.120166;    1.121617;    1.121325;    1.122987;    1.123787;    1.124399;    1.124614;    1.125533;    1.125948;    1.125513;    1.126269;    1.126656;    1.127096;    1.126399;    1.126479;
45;    0.909032;    1.413291;    1.359066;    1.332429;    1.305748;    1.280580;    1.225628;    1.166979;    1.165506;    1.158083;    1.158109;    1.151875;    1.144997;    1.109552;    1.110615;    1.110080;    1.110568;    1.112421;    1.113044;    1.114605;    1.114688;    1.115655;    1.115598;    1.115666;    1.115379;    1.115986;    1.115671;    1.115875;
46;    0.910540;    1.424586;    1.367314;    1.339522;    1.315971;    1.281166;    1.239614;    1.163211;    1.162983;    1.161133;    1.150182;    1.143425;    1.137771;    1.104515;    1.105621;    1.107517;    1.107616;    1.107140;    1.108307;    1.107668;    1.108998;    1.109218;    1.109816;    1.110408;    1.110734;    1.111208;    1.110848;    1.111074;
47;    1.013373;    1.425662;    1.367916;    1.353744;    1.324855;    1.279643;    1.234723;    1.178276;    1.174479;    1.174252;    1.177621;    1.175195;    1.149006;    1.115093;    1.116131;    1.117729;    1.118030;    1.118885;    1.119504;    1.118510;    1.119280;    1.119855;    1.119554;    1.120256;    1.120339;    1.120601;    1.120778;    1.121054;
48;    0.918776;    1.419853;    1.370425;    1.342356;    1.319695;    1.279125;    1.237887;    1.176784;    1.178213;    1.178274;    1.174807;    1.173164;    1.147708;    1.118432;    1.119071;    1.119365;    1.120455;    1.121146;    1.122148;    1.123115;    1.123943;    1.123346;    1.124343;    1.123291;    1.123859;    1.124002;    1.124199;    1.124551;
49;    0.897542;    1.418891;    1.366497;    1.337845;    1.308966;    1.269510;    1.235281;    1.172008;    1.168975;    1.163709;    1.163440;    1.156568;    1.148135;    1.111730;    1.113485;    1.114107;    1.114910;    1.116329;    1.117941;    1.118322;    1.117351;    1.116825;    1.117209;    1.118258;    1.117649;    1.118169;    1.118367;    1.118520;
50;    0.888190;    1.419823;    1.363312;    1.339746;    1.311223;    1.279674;    1.233948;    1.174962;    1.177053;    1.174548;    1.169923;    1.162617;    1.146829;    1.115705;    1.116949;    1.117867;    1.118636;    1.119271;    1.120059;    1.121383;    1.121645;    1.121816;    1.122159;    1.121759;    1.122281;    1.122659;    1.122323;    1.122518;
51;    0.924906;    1.432086;    1.376003;    1.352772;    1.323345;    1.280940;    1.247645;    1.175815;    1.173559;    1.170493;    1.165671;    1.163051;    1.141227;    1.112581;    1.113476;    1.113958;    1.115060;    1.115029;    1.114997;    1.115863;    1.117641;    1.118379;    1.118394;    1.118222;    1.118950;    1.118880;    1.118895;    1.118619;
52;    1.031534;    1.418625;    1.364972;    1.343782;    1.314769;    1.271806;    1.221366;    1.167462;    1.163265;    1.157461;    1.155780;    1.145090;    1.143287;    1.112101;    1.112820;    1.112633;    1.113262;    1.115143;    1.115686;    1.115607;    1.116150;    1.116538;    1.116152;    1.116027;    1.116725;    1.117410;    1.117259;    1.117414;
53;    1.498574;    1.412894;    1.368248;    1.342395;    1.311198;    1.273044;    1.229037;    1.167532;    1.164852;    1.160672;    1.160082;    1.156573;    1.148211;    1.106600;    1.108061;    1.107563;    1.108776;    1.108260;    1.108839;    1.110026;    1.110004;    1.110674;    1.111488;    1.112236;    1.112274;    1.112155;    1.112284;    1.112459;
54;    0.928832;    1.425539;    1.371000;    1.341967;    1.309864;    1.273761;    1.229003;    1.168195;    1.166551;    1.165349;    1.161237;    1.147884;    1.134030;    1.108548;    1.110235;    1.110967;    1.111183;    1.111761;    1.112712;    1.114068;    1.114087;    1.114472;    1.115215;    1.114241;    1.114832;    1.115344;    1.115471;    1.115604;
55;    0.920971;    1.411513;    1.354611;    1.329366;    1.303608;    1.266639;    1.229328;    1.168136;    1.166209;    1.167232;    1.162062;    1.162389;    1.148214;    1.109371;    1.109562;    1.109856;    1.110435;    1.112259;    1.113081;    1.113826;    1.114114;    1.115109;    1.115698;    1.115768;    1.116019;    1.115526;    1.115984;    1.116096;
56;    0.954394;    1.414195;    1.358405;    1.332617;    1.298152;    1.265070;    1.223182;    1.171254;    1.166279;    1.166216;    1.161585;    1.157816;    1.145465;    1.109898;    1.111886;    1.111497;    1.111187;    1.112952;    1.113596;    1.113623;    1.114833;    1.115701;    1.115647;    1.116399;    1.116824;    1.116790;    1.116832;    1.116833;
57;    1.073597;    1.426734;    1.372894;    1.349117;    1.315688;    1.279057;    1.236176;    1.174376;    1.169917;    1.167180;    1.164439;    1.157737;    1.142673;    1.113495;    1.114660;    1.115194;    1.115625;    1.117021;    1.116460;    1.117863;    1.118514;    1.119194;    1.119902;    1.120325;    1.120254;    1.120456;    1.120428;    1.120689;
58;    0.946178;    1.424041;    1.369674;    1.345688;    1.320145;    1.281568;    1.235731;    1.175526;    1.175191;    1.176834;    1.168392;    1.157354;    1.144900;    1.119803;    1.120469;    1.122650;    1.122673;    1.123157;    1.124683;    1.124334;    1.125650;    1.126343;    1.127309;    1.127724;    1.127514;    1.127733;    1.128096;    1.128388;
59;    0.953030;    1.419119;    1.368774;    1.341571;    1.308597;    1.266651;    1.234533;    1.164748;    1.160618;    1.164089;    1.157123;    1.158369;    1.129935;    1.104864;    1.106578;    1.106271;    1.107563;    1.107398;    1.108520;    1.108708;    1.109306;    1.109476;    1.109439;    1.109570;    1.110236;    1.110299;    1.110811;    1.110749;
60;    1.008111;    1.420933;    1.367467;    1.343924;    1.317260;    1.287602;    1.229142;    1.167403;    1.164850;    1.162821;    1.162391;    1.147340;    1.136897;    1.107635;    1.109733;    1.110224;    1.109236;    1.110735;    1.112215;    1.112116;    1.113163;    1.113794;    1.114024;    1.113547;    1.114376;    1.113905;    1.114327;    1.114389;
61;    1.079821;    1.415806;    1.362871;    1.338485;    1.316699;    1.279776;    1.238491;    1.177602;    1.176009;    1.170436;    1.172019;    1.163092;    1.153821;    1.120033;    1.121341;    1.120871;    1.122662;    1.122837;    1.123853;    1.124876;    1.125269;    1.124408;    1.125060;    1.125252;    1.125960;    1.126302;    1.126648;    1.126509;
62;    1.595396;    1.414359;    1.359972;    1.337304;    1.309967;    1.262296;    1.219647;    1.164022;    1.164441;    1.167704;    1.163354;    1.147074;    1.135419;    1.103714;    1.105743;    1.106249;    1.106923;    1.107803;    1.108621;    1.108786;    1.108380;    1.108458;    1.108313;    1.108700;    1.108702;    1.109407;    1.109156;    1.109443;
63;    1.497545;    1.420462;    1.362137;    1.333275;    1.300562;    1.271767;    1.231334;    1.166194;    1.162812;    1.164249;    1.159202;    1.145961;    1.143194;    1.105676;    1.106450;    1.107987;    1.108049;    1.108865;    1.108939;    1.110182;    1.110963;    1.111095;    1.110477;    1.111345;    1.111524;    1.112119;    1.112343;    1.112506;
64;    1.120529;    1.419669;    1.365235;    1.340839;    1.317094;    1.286705;    1.235571;    1.176468;    1.176704;    1.174016;    1.169726;    1.166134;    1.151038;    1.116972;    1.118204;    1.119849;    1.120191;    1.120776;    1.122589;    1.123487;    1.123924;    1.123986;    1.124794;    1.125091;    1.124661;    1.124720;    1.124833;    1.125077;
65;    0.946512;    1.410543;    1.360794;    1.342802;    1.307690;    1.272589;    1.233427;    1.162487;    1.162863;    1.163990;    1.155515;    1.147783;    1.136053;    1.106907;    1.107531;    1.108486;    1.109980;    1.110586;    1.110174;    1.110951;    1.111942;    1.112336;    1.112272;    1.112571;    1.113031;    1.113292;    1.113372;    1.113605;
66;    1.040727;    1.421406;    1.370096;    1.346248;    1.317510;    1.289409;    1.239580;    1.172480;    1.175442;    1.167385;    1.158938;    1.145979;    1.132089;    1.111794;    1.113051;    1.112756;    1.114284;    1.115506;    1.114865;    1.115280;    1.115845;    1.116493;    1.116560;    1.117479;    1.117555;    1.118165;    1.118311;    1.118415;
67;    0.917632;    1.413189;    1.362740;    1.341193;    1.306155;    1.269075;    1.230667;    1.177851;    1.175156;    1.172605;    1.164726;    1.159513;    1.154200;    1.118356;    1.120590;    1.121474;    1.120315;    1.121233;    1.120652;    1.122200;    1.123072;    1.123399;    1.123340;    1.122798;    1.123069;    1.123230;    1.123471;    1.123578;
68;    0.939462;    1.423001;    1.370114;    1.342137;    1.317740;    1.279588;    1.230428;    1.170237;    1.168840;    1.165594;    1.163953;    1.154092;    1.142021;    1.113182;    1.114301;    1.115093;    1.114972;    1.115630;    1.117023;    1.118083;    1.117967;    1.118254;    1.118851;    1.118223;    1.118771;    1.119134;    1.119236;    1.119469;
69;    0.907670;    1.414999;    1.367018;    1.344212;    1.322538;    1.281792;    1.235949;    1.180635;    1.179629;    1.182718;    1.174886;    1.164014;    1.156940;    1.122976;    1.124325;    1.126524;    1.127549;    1.127116;    1.128329;    1.127940;    1.127882;    1.128783;    1.128768;    1.129202;    1.130021;    1.130162;    1.130114;    1.130356;
70;    0.874372;    1.425659;    1.373069;    1.346333;    1.312275;    1.277573;    1.231581;    1.173560;    1.172490;    1.168515;    1.166447;    1.150499;    1.144452;    1.116421;    1.117435;    1.118913;    1.119730;    1.121180;    1.121166;    1.121027;    1.121540;    1.122388;    1.122698;    1.123828;    1.124345;    1.124578;    1.124090;    1.124262;
71;    0.871467;    1.416993;    1.361145;    1.340544;    1.317892;    1.285072;    1.244632;    1.174781;    1.170882;    1.167370;    1.162634;    1.153060;    1.139577;    1.112394;    1.112600;    1.113936;    1.114944;    1.115588;    1.115266;    1.115817;    1.115817;    1.117349;    1.118009;    1.118413;    1.117793;    1.118222;    1.118603;    1.118724;
72;    0.876029;    1.422819;    1.366893;    1.345386;    1.315429;    1.286612;    1.231108;    1.174111;    1.178003;    1.179182;    1.175577;    1.159333;    1.147157;    1.116333;    1.118173;    1.118441;    1.119078;    1.120094;    1.120118;    1.120829;    1.121835;    1.122500;    1.122812;    1.122959;    1.123300;    1.123390;    1.122735;    1.122643;
73;    0.868503;    1.436770;    1.381591;    1.357525;    1.332774;    1.292066;    1.244173;    1.182604;    1.180897;    1.178454;    1.173684;    1.174425;    1.158015;    1.122530;    1.124348;    1.125435;    1.126378;    1.127844;    1.128780;    1.127559;    1.128369;    1.129218;    1.129637;    1.129048;    1.129851;    1.129634;    1.130072;    1.129853;
74;    0.879988;    1.423680;    1.365235;    1.338352;    1.307575;    1.267331;    1.227906;    1.168891;    1.169603;    1.163689;    1.161442;    1.154147;    1.143293;    1.112173;    1.114394;    1.114998;    1.114491;    1.115105;    1.116532;    1.117204;    1.117556;    1.118618;    1.119269;    1.120046;    1.120442;    1.120717;    1.120665;    1.120908;
75;    0.875712;    1.415906;    1.361763;    1.335701;    1.304591;    1.269635;    1.219360;    1.160069;    1.161127;    1.156150;    1.155124;    1.144285;    1.142150;    1.103255;    1.103803;    1.104931;    1.106616;    1.106858;    1.106945;    1.108440;    1.109290;    1.110435;    1.111240;    1.111571;    1.111258;    1.111606;    1.111141;    1.111383;
76;    0.872443;    1.423609;    1.365755;    1.344808;    1.309726;    1.272987;    1.228473;    1.172433;    1.170619;    1.168830;    1.163951;    1.154947;    1.142694;    1.114831;    1.116330;    1.116628;    1.117746;    1.118853;    1.117891;    1.118567;    1.118957;    1.119442;    1.120567;    1.121038;    1.121189;    1.121582;    1.121765;    1.121818;
77;    0.868776;    1.406508;    1.353783;    1.324970;    1.303476;    1.260309;    1.222814;    1.162984;    1.160273;    1.159046;    1.161435;    1.151348;    1.132235;    1.106811;    1.107040;    1.108952;    1.109322;    1.110195;    1.111598;    1.112418;    1.112711;    1.112333;    1.111867;    1.112211;    1.112672;    1.112274;    1.112648;    1.112626;
78;    0.875394;    1.416374;    1.367470;    1.343476;    1.310401;    1.274614;    1.231303;    1.167545;    1.170306;    1.169007;    1.162996;    1.151814;    1.138208;    1.111747;    1.112787;    1.112944;    1.114305;    1.116148;    1.116972;    1.116884;    1.117111;    1.116822;    1.117082;    1.117696;    1.118477;    1.118951;    1.119252;    1.119590;
79;    0.906191;    1.421849;    1.368542;    1.342872;    1.315620;    1.271930;    1.232046;    1.168699;    1.167262;    1.166369;    1.157291;    1.153325;    1.139434;    1.109799;    1.111598;    1.111979;    1.112868;    1.113028;    1.114684;    1.115375;    1.116643;    1.116810;    1.116290;    1.116309;    1.116663;    1.116791;    1.116851;    1.116780;
80;    0.880269;    1.413137;    1.356833;    1.335644;    1.309915;    1.259938;    1.221949;    1.157881;    1.155784;    1.155761;    1.157935;    1.143357;    1.127530;    1.100591;    1.102235;    1.102549;    1.103034;    1.104213;    1.104937;    1.105428;    1.106234;    1.106230;    1.106632;    1.106976;    1.107255;    1.107817;    1.107492;    1.107806;
81;    0.871367;    1.413253;    1.360286;    1.334889;    1.304762;    1.271260;    1.234892;    1.164462;    1.161649;    1.163758;    1.161021;    1.149020;    1.141905;    1.107182;    1.108293;    1.110003;    1.111570;    1.112416;    1.111519;    1.112649;    1.113248;    1.112544;    1.112787;    1.113512;    1.114170;    1.114669;    1.114940;    1.114075;
82;    0.869111;    1.409854;    1.355455;    1.336645;    1.304726;    1.271240;    1.221983;    1.162900;    1.162530;    1.160887;    1.162645;    1.153679;    1.135174;    1.103317;    1.104128;    1.106180;    1.106439;    1.106673;    1.106963;    1.107460;    1.108259;    1.109005;    1.109923;    1.109925;    1.110057;    1.110789;    1.111199;    1.110890;
83;    0.900919;    1.404445;    1.354150;    1.333540;    1.314199;    1.269208;    1.222531;    1.169375;    1.168279;    1.163483;    1.160233;    1.154802;    1.142661;    1.111264;    1.112773;    1.112349;    1.113328;    1.114474;    1.114204;    1.115433;    1.115646;    1.116110;    1.116567;    1.117443;    1.117873;    1.117962;    1.118402;    1.118407;
84;    0.892376;    1.412075;    1.364904;    1.343798;    1.310320;    1.274878;    1.236174;    1.172712;    1.170967;    1.165511;    1.167399;    1.163976;    1.140806;    1.110045;    1.110770;    1.111654;    1.112624;    1.113388;    1.113433;    1.114354;    1.115160;    1.115376;    1.116223;    1.115848;    1.116806;    1.116932;    1.117212;    1.117119;
85;    0.873066;    1.420603;    1.371234;    1.345830;    1.324450;    1.284391;    1.239542;    1.172422;    1.169603;    1.168495;    1.169077;    1.153859;    1.150103;    1.109450;    1.110149;    1.110230;    1.110795;    1.112280;    1.112722;    1.112489;    1.112476;    1.113680;    1.113694;    1.114502;    1.114683;    1.114275;    1.114682;    1.114679;
86;    0.871717;    1.422967;    1.363886;    1.335962;    1.307634;    1.279030;    1.220642;    1.165917;    1.166247;    1.161149;    1.157055;    1.152409;    1.143048;    1.108593;    1.109962;    1.111175;    1.111179;    1.112973;    1.113448;    1.112991;    1.114061;    1.114216;    1.114297;    1.114275;    1.114894;    1.115228;    1.115236;    1.115492;
87;    0.876542;    1.418410;    1.361928;    1.338083;    1.308924;    1.273991;    1.224755;    1.170609;    1.169540;    1.162979;    1.159241;    1.147546;    1.138098;    1.108729;    1.109808;    1.111420;    1.112766;    1.113742;    1.114658;    1.115264;    1.114672;    1.115529;    1.116070;    1.116361;    1.115862;    1.116045;    1.116125;    1.116260;
88;    0.906776;    1.428564;    1.371289;    1.345458;    1.316938;    1.290753;    1.246911;    1.167593;    1.170644;    1.171708;    1.163195;    1.146260;    1.130900;    1.108017;    1.109307;    1.109336;    1.109027;    1.110299;    1.111383;    1.111403;    1.111698;    1.112653;    1.113588;    1.114091;    1.113852;    1.114114;    1.114365;    1.114200;
89;    0.879335;    1.423457;    1.369872;    1.344778;    1.314579;    1.284167;    1.223261;    1.171079;    1.170836;    1.171160;    1.166243;    1.160550;    1.147175;    1.111898;    1.112682;    1.113965;    1.115021;    1.116226;    1.117166;    1.117422;    1.118468;    1.118867;    1.118807;    1.118711;    1.118686;    1.118662;    1.118969;    1.119305;
90;    0.920523;    1.416015;    1.364464;    1.342378;    1.314806;    1.276137;    1.238652;    1.178635;    1.178766;    1.178746;    1.172052;    1.171190;    1.152834;    1.114993;    1.116837;    1.117203;    1.118936;    1.120001;    1.120365;    1.121235;    1.121351;    1.120844;    1.121693;    1.122545;    1.122464;    1.122011;    1.122662;    1.122816;
91;    0.878435;    1.423141;    1.367974;    1.347199;    1.311845;    1.272596;    1.225908;    1.168887;    1.167413;    1.167487;    1.161740;    1.159862;    1.140229;    1.110164;    1.110589;    1.112497;    1.112866;    1.114284;    1.114664;    1.113767;    1.113781;    1.114205;    1.115199;    1.115391;    1.114844;    1.115465;    1.115556;    1.115255;
92;    0.881655;    1.418629;    1.365845;    1.340746;    1.313460;    1.276653;    1.228643;    1.167690;    1.171397;    1.167446;    1.156886;    1.150582;    1.132857;    1.111103;    1.112043;    1.113437;    1.113705;    1.114495;    1.114755;    1.116040;    1.116301;    1.116297;    1.117321;    1.117610;    1.117871;    1.118272;    1.118529;    1.118615;
93;    1.118722;    1.420410;    1.368157;    1.346931;    1.328255;    1.292200;    1.232491;    1.171039;    1.169198;    1.170167;    1.163016;    1.153348;    1.139947;    1.110556;    1.112530;    1.112920;    1.114393;    1.115161;    1.115659;    1.115703;    1.116039;    1.116854;    1.117439;    1.118251;    1.118307;    1.117627;    1.117893;    1.118223;
94;    0.914317;    1.420399;    1.366808;    1.339276;    1.306169;    1.272742;    1.230288;    1.169121;    1.171267;    1.167175;    1.158906;    1.146014;    1.130423;    1.110211;    1.109897;    1.110183;    1.111028;    1.112531;    1.112195;    1.112414;    1.112849;    1.112723;    1.112830;    1.113549;    1.113734;    1.114194;    1.114367;    1.114469;
95;    0.885948;    1.424483;    1.368496;    1.346930;    1.313205;    1.277286;    1.227593;    1.173917;    1.172191;    1.171377;    1.169227;    1.158485;    1.144612;    1.113533;    1.114000;    1.115533;    1.117040;    1.117595;    1.117063;    1.117975;    1.118485;    1.119521;    1.119995;    1.119883;    1.120380;    1.120588;    1.120904;    1.120938;
96;    0.942255;    1.422353;    1.364447;    1.343278;    1.320667;    1.286963;    1.238917;    1.161581;    1.161869;    1.159166;    1.160406;    1.151131;    1.143587;    1.108573;    1.108857;    1.109964;    1.110548;    1.112099;    1.113325;    1.114566;    1.115428;    1.115370;    1.115424;    1.115501;    1.115772;    1.116219;    1.116186;    1.116380;
97;    0.901490;    1.427715;    1.378660;    1.355157;    1.320544;    1.286643;    1.237960;    1.173872;    1.169643;    1.171521;    1.170926;    1.162743;    1.146141;    1.112450;    1.113089;    1.113908;    1.115430;    1.116913;    1.117065;    1.117950;    1.117705;    1.117913;    1.118734;    1.118377;    1.118791;    1.119287;    1.119261;    1.119160;
98;    0.898204;    1.421795;    1.370134;    1.352306;    1.320444;    1.279251;    1.233309;    1.170241;    1.165042;    1.162868;    1.165420;    1.157500;    1.150639;    1.115929;    1.117785;    1.119474;    1.120070;    1.120160;    1.121208;    1.120341;    1.120849;    1.121711;    1.122387;    1.122243;    1.122892;    1.123031;    1.123179;    1.123442;
99;    1.027418;    1.415522;    1.356678;    1.333480;    1.308428;    1.271448;    1.231154;    1.173847;    1.176215;    1.174256;    1.166824;    1.166794;    1.153621;    1.118105;    1.120037;    1.120425;    1.121986;    1.122373;    1.123163;    1.123964;    1.124951;    1.125352;    1.124903;    1.125851;    1.126283;    1.126549;    1.126761;    1.126622;
100;    0.975740;    1.414395;    1.358485;    1.334519;    1.304745;    1.267539;    1.238031;    1.171008;    1.167942;    1.165532;    1.163698;    1.156231;    1.149570;    1.110020;    1.110102;    1.111792;    1.110523;    1.110395;    1.111206;    1.112111;    1.112763;    1.112809;    1.113203;    1.113604;    1.113840;    1.114188;    1.114566;    1.114884;
