Simulation;Time;PC 0;PC 1;PC 2;PC 3;PC 4;PC 5;PC 6;PC 7;PC 8;PC 9;PC10;PC11;PC12;PC13;PC14;PC15;PC16;PC17;PC18;PC19;PC20;PC21;PC22;PC23;PC24;PC25;PC26;
Nan;Nan;0;0;0;0;0;0;0;0;0;0;0;0;1;0;0;0;0;0;0;0;0;0;0;0;0;0;0;
0;    1.445339;    0.985270;    0.802345;    0.706666;    0.610532;    0.505209;    0.377665;    0.251663;    0.245223;    0.231542;    0.205183;    0.165414;    0.110997;    0.036494;    0.036083;    0.035376;    0.033792;    0.032808;    0.031902;    0.030725;    0.029112;    0.026315;    0.024308;    0.021873;    0.018561;    0.014901;    0.010514;    0.006591;
1;    1.430279;    1.012099;    0.824758;    0.714427;    0.610642;    0.516583;    0.388825;    0.265003;    0.254402;    0.246448;    0.220616;    0.192325;    0.147590;    0.036551;    0.035783;    0.035166;    0.034428;    0.033312;    0.032526;    0.031062;    0.029542;    0.027105;    0.025213;    0.022404;    0.019285;    0.015456;    0.010544;    0.005600;
2;    1.446290;    1.015513;    0.832307;    0.727093;    0.617367;    0.504678;    0.392253;    0.262576;    0.261875;    0.248303;    0.222724;    0.175430;    0.108572;    0.036105;    0.035854;    0.035323;    0.033848;    0.032978;    0.031503;    0.030130;    0.027888;    0.025862;    0.023650;    0.021299;    0.018576;    0.014256;    0.009755;    0.005141;
3;    1.457968;    1.004343;    0.829335;    0.731194;    0.642148;    0.519646;    0.395583;    0.267874;    0.253306;    0.248413;    0.228912;    0.178860;    0.126640;    0.036739;    0.036036;    0.035634;    0.034851;    0.033866;    0.032892;    0.031708;    0.029762;    0.028255;    0.025876;    0.023174;    0.019508;    0.015803;    0.010600;    0.005964;
4;    1.437872;    1.033797;    0.847893;    0.759222;    0.632676;    0.524598;    0.381434;    0.262532;    0.252309;    0.239353;    0.210329;    0.182558;    0.123334;    0.037282;    0.036878;    0.036000;    0.034626;    0.033605;    0.032481;    0.030594;    0.028871;    0.026451;    0.023926;    0.021508;    0.018457;    0.015616;    0.011649;    0.006814;
5;    1.440056;    1.004108;    0.817969;    0.734459;    0.643556;    0.519623;    0.390572;    0.267826;    0.258292;    0.231642;    0.201559;    0.161265;    0.123149;    0.037180;    0.036565;    0.035504;    0.034576;    0.033873;    0.032373;    0.030675;    0.028495;    0.026551;    0.025169;    0.022559;    0.019187;    0.014959;    0.011371;    0.005841;
6;    1.437706;    1.003655;    0.821983;    0.726026;    0.633947;    0.494064;    0.386841;    0.257624;    0.251848;    0.234879;    0.206085;    0.166604;    0.100631;    0.036183;    0.035320;    0.035100;    0.033997;    0.032838;    0.031246;    0.029919;    0.028286;    0.026152;    0.024522;    0.021960;    0.018495;    0.015195;    0.011154;    0.006648;
7;    1.437453;    1.016244;    0.827507;    0.731380;    0.617700;    0.502865;    0.389392;    0.267378;    0.254528;    0.242999;    0.231144;    0.173809;    0.124996;    0.036486;    0.035853;    0.035047;    0.034041;    0.033128;    0.032235;    0.030623;    0.029408;    0.027835;    0.025827;    0.023067;    0.019834;    0.016256;    0.012198;    0.006016;
8;    1.435229;    0.982224;    0.801762;    0.709714;    0.602653;    0.503676;    0.389849;    0.258767;    0.256344;    0.245165;    0.211763;    0.168128;    0.098015;    0.036510;    0.035757;    0.035040;    0.034336;    0.033050;    0.032094;    0.031029;    0.029545;    0.027099;    0.024781;    0.022229;    0.018786;    0.014541;    0.011235;    0.006222;
9;    1.437027;    1.012702;    0.832441;    0.737509;    0.644981;    0.531433;    0.403211;    0.265276;    0.260080;    0.247001;    0.220688;    0.194761;    0.134953;    0.036198;    0.035845;    0.034828;    0.034378;    0.033341;    0.031928;    0.030604;    0.028595;    0.026214;    0.024257;    0.021133;    0.018279;    0.014258;    0.010342;    0.006056;
10;    1.447976;    1.015440;    0.832941;    0.740583;    0.627863;    0.525695;    0.410972;    0.261542;    0.260319;    0.250213;    0.218042;    0.182224;    0.126327;    0.036722;    0.036208;    0.035565;    0.035062;    0.033845;    0.032667;    0.031535;    0.029951;    0.027990;    0.025766;    0.022995;    0.019240;    0.014824;    0.011168;    0.006037;
11;    1.434392;    0.999984;    0.824397;    0.730366;    0.619464;    0.506679;    0.387552;    0.262226;    0.251179;    0.234540;    0.210572;    0.155116;    0.112067;    0.036876;    0.036013;    0.035594;    0.034124;    0.032603;    0.031107;    0.029871;    0.028624;    0.027127;    0.024385;    0.020544;    0.018330;    0.014740;    0.010471;    0.005848;
12;    1.434480;    0.989066;    0.819884;    0.725484;    0.642042;    0.504376;    0.383327;    0.266641;    0.260750;    0.233574;    0.213488;    0.178731;    0.101168;    0.036124;    0.035375;    0.035193;    0.034189;    0.033132;    0.031640;    0.030271;    0.028782;    0.027031;    0.024888;    0.021847;    0.019124;    0.014787;    0.010586;    0.005893;
13;    1.438248;    1.005718;    0.813439;    0.716412;    0.615628;    0.508654;    0.408535;    0.264151;    0.253570;    0.242719;    0.216601;    0.184995;    0.115606;    0.036758;    0.036025;    0.035432;    0.034008;    0.032975;    0.031930;    0.030242;    0.028992;    0.026931;    0.024569;    0.021737;    0.018391;    0.014871;    0.010619;    0.004974;
14;    1.438343;    0.986678;    0.811678;    0.718598;    0.618457;    0.502561;    0.382209;    0.252600;    0.248038;    0.238268;    0.203368;    0.147959;    0.096240;    0.036633;    0.035710;    0.035305;    0.034784;    0.033741;    0.032441;    0.029939;    0.028410;    0.026324;    0.024273;    0.021400;    0.019259;    0.015945;    0.011753;    0.005510;
15;    1.454314;    0.994939;    0.793155;    0.700989;    0.612786;    0.499279;    0.375106;    0.259698;    0.257586;    0.237335;    0.214677;    0.176944;    0.131617;    0.036034;    0.035859;    0.034745;    0.033922;    0.032294;    0.031234;    0.030366;    0.028747;    0.026832;    0.024271;    0.021109;    0.017968;    0.014651;    0.010603;    0.005825;
16;    1.436481;    1.016424;    0.839112;    0.731488;    0.624428;    0.516819;    0.403321;    0.270037;    0.270374;    0.255645;    0.220670;    0.178340;    0.122159;    0.036857;    0.035912;    0.035309;    0.034736;    0.034304;    0.033226;    0.031468;    0.029445;    0.027730;    0.025757;    0.023294;    0.019593;    0.015109;    0.011026;    0.005409;
17;    1.443189;    0.988414;    0.813760;    0.708608;    0.597936;    0.487521;    0.378443;    0.262698;    0.250536;    0.233008;    0.219922;    0.190741;    0.127328;    0.035887;    0.035448;    0.034169;    0.033931;    0.033321;    0.032222;    0.030385;    0.028987;    0.027068;    0.024501;    0.021785;    0.018695;    0.014935;    0.010571;    0.005518;
18;    1.440314;    0.969207;    0.802718;    0.707556;    0.610599;    0.520884;    0.391671;    0.265499;    0.256217;    0.243620;    0.219791;    0.188535;    0.127191;    0.036450;    0.035575;    0.035181;    0.035009;    0.034475;    0.033689;    0.032088;    0.029989;    0.027771;    0.024428;    0.022116;    0.019728;    0.016302;    0.012119;    0.005904;
19;    1.432044;    0.988353;    0.802309;    0.703815;    0.607215;    0.487573;    0.375360;    0.261219;    0.261500;    0.246656;    0.222153;    0.179465;    0.124998;    0.036727;    0.036029;    0.035547;    0.034795;    0.033775;    0.032798;    0.031569;    0.029763;    0.028088;    0.026055;    0.023523;    0.020576;    0.015887;    0.010932;    0.005481;
20;    1.442520;    1.018207;    0.820316;    0.736104;    0.631551;    0.517495;    0.403481;    0.263242;    0.255555;    0.247051;    0.222044;    0.192180;    0.139292;    0.036599;    0.035889;    0.035464;    0.034845;    0.034081;    0.032845;    0.031631;    0.030085;    0.028442;    0.026193;    0.023882;    0.020837;    0.016802;    0.011996;    0.006609;
21;    1.431042;    1.014778;    0.818508;    0.731778;    0.624020;    0.518157;    0.400083;    0.263038;    0.258192;    0.238314;    0.206866;    0.172826;    0.096501;    0.036575;    0.036192;    0.035549;    0.034554;    0.033473;    0.031673;    0.030165;    0.028819;    0.026710;    0.024665;    0.021885;    0.019061;    0.015398;    0.011143;    0.006077;
22;    1.441932;    1.017655;    0.827797;    0.721342;    0.614092;    0.507096;    0.391276;    0.265315;    0.258550;    0.246140;    0.215092;    0.190522;    0.141615;    0.036394;    0.035966;    0.034849;    0.034287;    0.032804;    0.031315;    0.029934;    0.028515;    0.027221;    0.024617;    0.021714;    0.018883;    0.015063;    0.009816;    0.005856;
23;    1.438360;    1.000310;    0.817983;    0.732174;    0.619366;    0.527282;    0.391348;    0.268367;    0.260808;    0.256795;    0.230552;    0.201966;    0.134732;    0.037368;    0.037093;    0.036469;    0.035623;    0.034732;    0.033491;    0.031978;    0.029628;    0.027669;    0.025678;    0.022575;    0.020012;    0.016172;    0.010342;    0.005781;
24;    1.440718;    1.030409;    0.841947;    0.737801;    0.627072;    0.528822;    0.399596;    0.266490;    0.259768;    0.252015;    0.233771;    0.193855;    0.133084;    0.035828;    0.034846;    0.034371;    0.033504;    0.032816;    0.031584;    0.030197;    0.028162;    0.025817;    0.023330;    0.020748;    0.016820;    0.013116;    0.009272;    0.004828;
25;    1.440441;    0.987741;    0.812022;    0.721592;    0.633466;    0.500174;    0.391044;    0.263266;    0.250716;    0.221404;    0.194628;    0.145949;    0.099601;    0.036223;    0.036197;    0.035920;    0.035057;    0.033886;    0.032126;    0.030926;    0.029591;    0.027425;    0.024921;    0.022244;    0.018494;    0.013983;    0.010445;    0.005481;
26;    1.448939;    1.014764;    0.830792;    0.733866;    0.641029;    0.516829;    0.400321;    0.270451;    0.265069;    0.249987;    0.237517;    0.198721;    0.125351;    0.036440;    0.036064;    0.034772;    0.034126;    0.032993;    0.031775;    0.029247;    0.027668;    0.025901;    0.023547;    0.021126;    0.018055;    0.014897;    0.011134;    0.006748;
27;    1.488447;    1.014854;    0.819166;    0.717857;    0.618138;    0.507200;    0.392156;    0.265688;    0.264034;    0.251519;    0.217624;    0.182717;    0.123935;    0.036224;    0.035555;    0.035122;    0.034125;    0.033250;    0.032211;    0.030539;    0.028480;    0.027045;    0.024942;    0.022177;    0.019256;    0.015035;    0.011096;    0.006939;
28;    1.443003;    1.019740;    0.822122;    0.719253;    0.615909;    0.512480;    0.390110;    0.262492;    0.254575;    0.247089;    0.222258;    0.178946;    0.122369;    0.036222;    0.035884;    0.034649;    0.034112;    0.032862;    0.031238;    0.029813;    0.028281;    0.026031;    0.023304;    0.021035;    0.017906;    0.013550;    0.009787;    0.004587;
29;    2.317658;    1.031046;    0.822275;    0.723630;    0.628276;    0.509516;    0.396310;    0.262541;    0.256415;    0.230200;    0.206070;    0.180560;    0.116906;    0.036199;    0.035472;    0.034647;    0.034141;    0.033056;    0.032022;    0.030603;    0.029509;    0.027546;    0.025110;    0.022873;    0.019985;    0.016126;    0.012064;    0.006489;
30;    1.566690;    1.013344;    0.822307;    0.739400;    0.634458;    0.518498;    0.405792;    0.262972;    0.257097;    0.231023;    0.208404;    0.186120;    0.136160;    0.036518;    0.036154;    0.035519;    0.034493;    0.033072;    0.031827;    0.030375;    0.028464;    0.027038;    0.025123;    0.022285;    0.019180;    0.015150;    0.009380;    0.005077;
31;    2.552449;    1.010037;    0.822407;    0.727640;    0.618710;    0.516252;    0.403921;    0.264252;    0.260691;    0.250494;    0.235421;    0.197944;    0.124613;    0.036678;    0.035973;    0.034744;    0.033963;    0.032728;    0.030874;    0.029626;    0.027684;    0.025511;    0.023703;    0.020856;    0.017966;    0.014039;    0.009633;    0.005119;
32;    2.141915;    0.991005;    0.818463;    0.716802;    0.605028;    0.502327;    0.379488;    0.262369;    0.257538;    0.245779;    0.234955;    0.203559;    0.133328;    0.036117;    0.035739;    0.034949;    0.034378;    0.033088;    0.032059;    0.030141;    0.028393;    0.026683;    0.024646;    0.021712;    0.018074;    0.014978;    0.010656;    0.005189;
33;    1.882052;    1.000519;    0.800920;    0.705594;    0.600231;    0.512133;    0.394592;    0.261725;    0.258882;    0.250394;    0.220228;    0.186577;    0.120051;    0.036032;    0.035541;    0.034530;    0.033939;    0.033014;    0.031500;    0.029697;    0.028808;    0.026918;    0.024539;    0.021414;    0.018585;    0.014739;    0.010333;    0.005344;
34;    1.524239;    1.017361;    0.817249;    0.723919;    0.633494;    0.511677;    0.397363;    0.270596;    0.263806;    0.247334;    0.227246;    0.192461;    0.134768;    0.036797;    0.036329;    0.035360;    0.034155;    0.032945;    0.031856;    0.030369;    0.028993;    0.026339;    0.023501;    0.021182;    0.017602;    0.014499;    0.009920;    0.004722;
35;    1.504022;    1.006717;    0.825451;    0.726108;    0.611505;    0.499096;    0.381056;    0.258625;    0.252604;    0.238283;    0.225965;    0.193292;    0.120456;    0.036930;    0.036322;    0.035397;    0.034528;    0.032751;    0.031766;    0.030376;    0.028344;    0.026101;    0.024251;    0.021305;    0.017792;    0.014527;    0.009304;    0.005448;
36;    1.660951;    0.977895;    0.813379;    0.717508;    0.619486;    0.527108;    0.387669;    0.256712;    0.257115;    0.242223;    0.216580;    0.184860;    0.130944;    0.036182;    0.036030;    0.035039;    0.034454;    0.033721;    0.032001;    0.030534;    0.029113;    0.026791;    0.024675;    0.021970;    0.018458;    0.014272;    0.009881;    0.005522;
37;    1.505050;    0.991092;    0.813914;    0.710718;    0.623231;    0.498430;    0.378042;    0.261272;    0.254233;    0.244590;    0.215147;    0.182403;    0.107806;    0.036465;    0.035976;    0.035341;    0.034735;    0.033411;    0.032796;    0.031262;    0.029413;    0.026704;    0.024474;    0.021470;    0.018392;    0.013766;    0.010071;    0.005713;
38;    1.486862;    1.000349;    0.811462;    0.714860;    0.614831;    0.510419;    0.378892;    0.257488;    0.248154;    0.239561;    0.221065;    0.174695;    0.122244;    0.036823;    0.036309;    0.035290;    0.034605;    0.033986;    0.032958;    0.031474;    0.029345;    0.027768;    0.025594;    0.022058;    0.018558;    0.015225;    0.010848;    0.005894;
39;    1.487518;    0.968510;    0.799109;    0.718400;    0.601480;    0.492179;    0.378744;    0.257787;    0.250698;    0.233046;    0.207460;    0.172084;    0.104106;    0.036518;    0.036164;    0.035102;    0.034210;    0.033434;    0.032516;    0.030634;    0.028813;    0.026286;    0.024393;    0.021966;    0.018153;    0.013907;    0.009722;    0.005036;
40;    1.499304;    1.006999;    0.822919;    0.723289;    0.629487;    0.502416;    0.382843;    0.261791;    0.249556;    0.231309;    0.208938;    0.184447;    0.130550;    0.036165;    0.035841;    0.035340;    0.034264;    0.033342;    0.032233;    0.030632;    0.028405;    0.027225;    0.024982;    0.022248;    0.019002;    0.014981;    0.011321;    0.006700;
41;    1.493025;    0.995086;    0.811695;    0.720411;    0.628300;    0.499689;    0.383779;    0.256523;    0.248325;    0.237124;    0.215416;    0.188550;    0.117575;    0.037158;    0.036642;    0.036363;    0.035399;    0.034430;    0.033301;    0.031724;    0.029372;    0.027392;    0.024733;    0.022379;    0.019585;    0.015454;    0.010051;    0.005535;
42;    1.500707;    1.019197;    0.813963;    0.726751;    0.628338;    0.509829;    0.398185;    0.262462;    0.252972;    0.247218;    0.221976;    0.191074;    0.131370;    0.036397;    0.035514;    0.035076;    0.033929;    0.032974;    0.031188;    0.029815;    0.028463;    0.026139;    0.024325;    0.021986;    0.018968;    0.014429;    0.010654;    0.006102;
43;    1.494863;    1.011155;    0.817176;    0.719967;    0.622990;    0.501904;    0.387111;    0.264661;    0.262735;    0.251963;    0.224879;    0.183441;    0.118114;    0.036139;    0.035955;    0.035219;    0.033792;    0.032814;    0.031781;    0.030790;    0.029109;    0.027554;    0.025374;    0.022559;    0.019008;    0.015737;    0.011000;    0.006197;
44;    1.484979;    1.007663;    0.824922;    0.725427;    0.631390;    0.507828;    0.401695;    0.259174;    0.256210;    0.241584;    0.219386;    0.174275;    0.121140;    0.037517;    0.036991;    0.035898;    0.035424;    0.034658;    0.033347;    0.031715;    0.030309;    0.028192;    0.025052;    0.022659;    0.019449;    0.015944;    0.010402;    0.005198;
45;    1.490661;    0.986458;    0.801968;    0.702504;    0.608966;    0.519369;    0.384471;    0.259225;    0.252388;    0.234690;    0.216742;    0.182423;    0.133771;    0.036498;    0.035875;    0.034805;    0.033889;    0.033513;    0.032303;    0.031513;    0.029720;    0.027997;    0.025141;    0.022355;    0.018711;    0.015399;    0.010081;    0.005569;
46;    1.494410;    1.018398;    0.822753;    0.720546;    0.630638;    0.519665;    0.408672;    0.257012;    0.253998;    0.236748;    0.203382;    0.171410;    0.121430;    0.035999;    0.035527;    0.035130;    0.034037;    0.032656;    0.031620;    0.029580;    0.028382;    0.026414;    0.024041;    0.021722;    0.018891;    0.015591;    0.010586;    0.005546;
47;    1.628388;    1.015670;    0.818103;    0.746867;    0.639611;    0.513155;    0.394382;    0.268890;    0.254231;    0.250685;    0.226064;    0.176450;    0.103238;    0.036543;    0.036019;    0.035625;    0.034538;    0.033612;    0.032342;    0.030244;    0.028684;    0.026815;    0.023890;    0.021488;    0.018331;    0.014590;    0.010462;    0.005676;
48;    1.841568;    0.998408;    0.823141;    0.717786;    0.630338;    0.509968;    0.397914;    0.265061;    0.261194;    0.252642;    0.229855;    0.196744;    0.125638;    0.037005;    0.036264;    0.035289;    0.034325;    0.033307;    0.032143;    0.030758;    0.029104;    0.026455;    0.024398;    0.020656;    0.017953;    0.014161;    0.010608;    0.006512;
49;    1.470553;    0.998107;    0.816304;    0.711298;    0.610717;    0.494929;    0.396194;    0.262094;    0.252833;    0.230763;    0.210650;    0.171005;    0.111032;    0.036623;    0.036241;    0.035488;    0.034731;    0.034165;    0.033304;    0.031639;    0.028994;    0.026611;    0.023971;    0.021583;    0.017568;    0.014405;    0.010219;    0.005466;
50;    1.476035;    1.000609;    0.808590;    0.714732;    0.613402;    0.511591;    0.392324;    0.265469;    0.264683;    0.254638;    0.224907;    0.177958;    0.126723;    0.036753;    0.036219;    0.035603;    0.034773;    0.033810;    0.032544;    0.031559;    0.029672;    0.027607;    0.025030;    0.021522;    0.018474;    0.015076;    0.009820;    0.005548;
51;    1.651438;    1.033394;    0.837858;    0.744955;    0.640047;    0.514234;    0.417628;    0.267218;    0.261804;    0.242541;    0.194426;    0.165156;    0.086270;    0.036312;    0.035476;    0.034691;    0.034009;    0.032878;    0.031011;    0.029627;    0.028562;    0.026573;    0.023960;    0.021288;    0.018278;    0.013686;    0.010018;    0.005308;
52;    1.874753;    0.998437;    0.813264;    0.725378;    0.622841;    0.500251;    0.374787;    0.257000;    0.244718;    0.233286;    0.221617;    0.169151;    0.132698;    0.036841;    0.036189;    0.035177;    0.034316;    0.033718;    0.032260;    0.030340;    0.028707;    0.026617;    0.023867;    0.020820;    0.018211;    0.015285;    0.010293;    0.006009;
53;    1.927637;    0.986004;    0.824763;    0.727517;    0.621069;    0.505888;    0.392339;    0.261249;    0.253167;    0.246304;    0.224761;    0.178654;    0.131604;    0.036021;    0.035462;    0.034346;    0.033659;    0.032315;    0.031026;    0.029954;    0.028025;    0.026054;    0.023980;    0.021717;    0.018194;    0.014533;    0.010372;    0.005762;
54;    1.519931;    1.017529;    0.828027;    0.721245;    0.614903;    0.504315;    0.387309;    0.259381;    0.254360;    0.222854;    0.200671;    0.155241;    0.083615;    0.036387;    0.036080;    0.035387;    0.034300;    0.033301;    0.032121;    0.031058;    0.029173;    0.026883;    0.024736;    0.021300;    0.017836;    0.014813;    0.010571;    0.005746;
55;    1.508694;    0.982908;    0.792944;    0.696464;    0.604741;    0.494672;    0.391191;    0.260470;    0.256590;    0.245671;    0.204548;    0.178019;    0.115686;    0.036405;    0.035596;    0.034722;    0.033856;    0.033434;    0.032303;    0.030934;    0.029212;    0.027732;    0.025721;    0.022713;    0.019456;    0.014996;    0.011058;    0.006051;
56;    1.706354;    0.988863;    0.800060;    0.700796;    0.591416;    0.490000;    0.379493;    0.264111;    0.252129;    0.236398;    0.208741;    0.176652;    0.122478;    0.036318;    0.036040;    0.034921;    0.033732;    0.033090;    0.031712;    0.030047;    0.028654;    0.027145;    0.024642;    0.022503;    0.019678;    0.015576;    0.010963;    0.005645;
57;    1.522526;    1.018655;    0.830219;    0.735234;    0.622233;    0.510135;    0.396886;    0.264733;    0.251906;    0.237450;    0.223663;    0.191766;    0.121725;    0.036575;    0.036066;    0.035330;    0.034469;    0.033743;    0.031907;    0.031130;    0.029648;    0.027718;    0.025545;    0.022843;    0.019067;    0.015185;    0.010677;    0.005836;
58;    1.650619;    1.008796;    0.820025;    0.724987;    0.629450;    0.512882;    0.392576;    0.261881;    0.252825;    0.238876;    0.204338;    0.170015;    0.123630;    0.037323;    0.036655;    0.036400;    0.035362;    0.034199;    0.033442;    0.031447;    0.030524;    0.028528;    0.026639;    0.023665;    0.019637;    0.015698;    0.011555;    0.006881;
59;    1.545553;    1.003594;    0.826381;    0.724406;    0.615347;    0.495000;    0.401145;    0.258741;    0.251367;    0.246421;    0.212237;    0.182969;    0.114299;    0.035959;    0.035639;    0.034595;    0.033871;    0.032248;    0.031334;    0.029919;    0.028063;    0.025948;    0.023111;    0.020266;    0.017541;    0.014014;    0.010849;    0.005472;
60;    1.513996;    1.006945;    0.821728;    0.726562;    0.630277;    0.531927;    0.390209;    0.260326;    0.253737;    0.226327;    0.207869;    0.162907;    0.110075;    0.036167;    0.035999;    0.035107;    0.033539;    0.032659;    0.031650;    0.029730;    0.028601;    0.026713;    0.024385;    0.020892;    0.018162;    0.013531;    0.010375;    0.005513;
61;    1.801001;    0.986970;    0.804277;    0.709639;    0.622156;    0.510775;    0.397667;    0.263911;    0.259945;    0.245747;    0.228868;    0.184192;    0.134312;    0.037381;    0.036812;    0.035695;    0.035315;    0.034171;    0.033068;    0.031812;    0.030080;    0.027279;    0.025114;    0.022348;    0.019617;    0.016126;    0.011779;    0.005915;
62;    1.505724;    0.991442;    0.806802;    0.716068;    0.616806;    0.488626;    0.378987;    0.258337;    0.255938;    0.248717;    0.221334;    0.169460;    0.129689;    0.035977;    0.035723;    0.034941;    0.033981;    0.033206;    0.032091;    0.030407;    0.028296;    0.025996;    0.023363;    0.021017;    0.017358;    0.014371;    0.009942;    0.005552;
63;    1.748708;    1.006932;    0.810284;    0.706592;    0.597114;    0.503477;    0.395137;    0.259641;    0.253579;    0.239059;    0.207885;    0.169711;    0.126899;    0.036074;    0.035409;    0.035007;    0.033947;    0.032867;    0.031143;    0.029902;    0.028267;    0.025800;    0.023074;    0.020995;    0.018106;    0.015104;    0.011283;    0.006386;
64;    1.514079;    0.999195;    0.811957;    0.715806;    0.625619;    0.523736;    0.394324;    0.265654;    0.263335;    0.247498;    0.224182;    0.169953;    0.105887;    0.036850;    0.036470;    0.036087;    0.035138;    0.033939;    0.033408;    0.032097;    0.030107;    0.027378;    0.025105;    0.022162;    0.018481;    0.014619;    0.010240;    0.006133;
65;    1.487073;    0.980480;    0.807453;    0.728307;    0.612559;    0.504668;    0.399613;    0.254001;    0.249810;    0.242159;    0.206082;    0.180274;    0.125674;    0.036500;    0.035820;    0.035133;    0.034531;    0.033522;    0.031896;    0.030715;    0.029409;    0.027590;    0.024776;    0.022011;    0.019064;    0.015363;    0.010568;    0.006041;
66;    1.607359;    1.005046;    0.824618;    0.729587;    0.629292;    0.533029;    0.403438;    0.262232;    0.262293;    0.244562;    0.213817;    0.166796;    0.112195;    0.036594;    0.036146;    0.035116;    0.034499;    0.033730;    0.031892;    0.030308;    0.028631;    0.026971;    0.024693;    0.022222;    0.018647;    0.015313;    0.010637;    0.006095;
67;    1.508948;    0.981042;    0.805646;    0.716200;    0.601355;    0.490254;    0.384198;    0.266290;    0.260771;    0.248476;    0.216451;    0.173245;    0.125676;    0.037138;    0.036932;    0.036208;    0.034607;    0.033607;    0.031744;    0.030793;    0.029087;    0.026993;    0.024288;    0.020444;    0.017083;    0.013734;    0.009700;    0.005163;
68;    1.537119;    1.009460;    0.824644;    0.720534;    0.626984;    0.511929;    0.388086;    0.259219;    0.244270;    0.233054;    0.209187;    0.177129;    0.123047;    0.036782;    0.036237;    0.035516;    0.034158;    0.033146;    0.032409;    0.031358;    0.029353;    0.027236;    0.024845;    0.021230;    0.018843;    0.015584;    0.011261;    0.006771;
69;    1.505670;    0.982791;    0.812166;    0.718977;    0.631076;    0.512422;    0.389130;    0.266061;    0.262660;    0.255300;    0.224897;    0.178584;    0.121805;    0.037521;    0.037099;    0.036943;    0.036149;    0.034607;    0.033533;    0.031657;    0.029444;    0.027672;    0.024849;    0.022285;    0.019220;    0.014684;    0.010303;    0.005961;
70;    1.420688;    1.014260;    0.829171;    0.727961;    0.614250;    0.507788;    0.388233;    0.261859;    0.256429;    0.243411;    0.218595;    0.161215;    0.119897;    0.036981;    0.036446;    0.036018;    0.035111;    0.034499;    0.032966;    0.031284;    0.029394;    0.027253;    0.024299;    0.022131;    0.018975;    0.015116;    0.010172;    0.005443;
71;    1.407562;    0.994035;    0.804654;    0.719048;    0.630128;    0.525770;    0.412139;    0.266680;    0.246285;    0.233197;    0.211873;    0.158894;    0.108775;    0.036470;    0.035641;    0.035158;    0.034498;    0.033463;    0.031742;    0.030473;    0.028605;    0.027443;    0.025301;    0.022457;    0.018160;    0.015257;    0.011672;    0.006286;
72;    1.417547;    1.007252;    0.814875;    0.726591;    0.619900;    0.521418;    0.385122;    0.262638;    0.264130;    0.257453;    0.237077;    0.178635;    0.117056;    0.036967;    0.036592;    0.035595;    0.034718;    0.033758;    0.032224;    0.030773;    0.029423;    0.027461;    0.025241;    0.022449;    0.019082;    0.015293;    0.010186;    0.005055;
73;    1.419342;    1.040041;    0.844548;    0.746902;    0.653170;    0.528117;    0.403020;    0.268544;    0.264499;    0.248553;    0.221842;    0.203918;    0.136668;    0.037259;    0.037049;    0.036384;    0.035519;    0.034767;    0.033556;    0.031164;    0.029796;    0.027813;    0.025339;    0.021577;    0.018819;    0.014571;    0.010653;    0.004995;
74;    1.408112;    1.012269;    0.814519;    0.713455;    0.608784;    0.491923;    0.387004;    0.258948;    0.252135;    0.224444;    0.207765;    0.173411;    0.117661;    0.036736;    0.036555;    0.035694;    0.034122;    0.032970;    0.032213;    0.030965;    0.029274;    0.027690;    0.025593;    0.023467;    0.020316;    0.016455;    0.011651;    0.006737;
75;    1.412006;    0.997046;    0.811628;    0.713329;    0.609021;    0.501521;    0.377553;    0.253958;    0.248970;    0.232754;    0.212688;    0.181867;    0.130498;    0.036044;    0.035373;    0.034848;    0.034444;    0.033130;    0.031660;    0.030712;    0.029410;    0.028127;    0.026191;    0.023259;    0.019459;    0.015748;    0.010493;    0.005654;
76;    1.402719;    1.010232;    0.813192;    0.726919;    0.611358;    0.500425;    0.384336;    0.261169;    0.240930;    0.213434;    0.166744;    0.139924;    0.109144;    0.036934;    0.036513;    0.035706;    0.034994;    0.034008;    0.032157;    0.030742;    0.029027;    0.027051;    0.025400;    0.022903;    0.019760;    0.016305;    0.011802;    0.006323;
77;    1.417504;    0.971362;    0.792986;    0.689555;    0.607262;    0.484897;    0.382869;    0.256062;    0.247194;    0.241293;    0.222355;    0.168273;    0.094266;    0.036330;    0.035517;    0.035318;    0.034346;    0.033405;    0.032570;    0.031151;    0.029259;    0.026709;    0.023390;    0.021183;    0.018131;    0.013621;    0.010291;    0.005273;
78;    1.411067;    0.992935;    0.820348;    0.725581;    0.615222;    0.506595;    0.392144;    0.258552;    0.258547;    0.245021;    0.219891;    0.183361;    0.112098;    0.036637;    0.036088;    0.035123;    0.034656;    0.034210;    0.033084;    0.031150;    0.029349;    0.026735;    0.024378;    0.022470;    0.019980;    0.016810;    0.012582;    0.007587;
79;    1.420340;    1.008263;    0.823198;    0.725504;    0.627426;    0.502570;    0.389664;    0.261311;    0.257270;    0.247520;    0.216520;    0.177361;    0.123777;    0.036345;    0.035959;    0.034993;    0.033974;    0.032776;    0.031938;    0.030587;    0.029341;    0.027106;    0.024450;    0.021661;    0.018677;    0.014973;    0.010379;    0.004888;
80;    1.415097;    0.990791;    0.801443;    0.714954;    0.621039;    0.487743;    0.384520;    0.252874;    0.246044;    0.225446;    0.212908;    0.164792;    0.115880;    0.035914;    0.035587;    0.034732;    0.033743;    0.033042;    0.031826;    0.030605;    0.029058;    0.026635;    0.024436;    0.021620;    0.018436;    0.015135;    0.010229;    0.006036;
81;    1.409433;    0.987645;    0.806018;    0.708558;    0.607082;    0.503554;    0.401371;    0.257192;    0.245040;    0.242269;    0.223076;    0.181931;    0.131419;    0.036330;    0.035983;    0.035505;    0.035090;    0.034129;    0.032270;    0.031140;    0.029394;    0.026823;    0.024406;    0.021796;    0.018795;    0.015764;    0.011212;    0.005123;
82;    1.424972;    0.981634;    0.798013;    0.716716;    0.610663;    0.506669;    0.382533;    0.257677;    0.252382;    0.237997;    0.226969;    0.193179;    0.115955;    0.035922;    0.035353;    0.035059;    0.033927;    0.032578;    0.031103;    0.029671;    0.028527;    0.026874;    0.025045;    0.022206;    0.018924;    0.016096;    0.012040;    0.005723;
83;    1.413513;    0.963299;    0.791089;    0.707267;    0.625023;    0.498287;    0.378493;    0.260937;    0.253082;    0.241320;    0.227112;    0.189949;    0.127116;    0.036621;    0.036262;    0.035125;    0.034392;    0.033583;    0.031906;    0.030908;    0.028949;    0.027057;    0.024594;    0.022227;    0.019034;    0.015184;    0.011283;    0.006229;
84;    1.416389;    0.982184;    0.815205;    0.726949;    0.617127;    0.507493;    0.398834;    0.265405;    0.260112;    0.252117;    0.242821;    0.202866;    0.121262;    0.036246;    0.035651;    0.034977;    0.034141;    0.032986;    0.031167;    0.029957;    0.028830;    0.026818;    0.024816;    0.021385;    0.019279;    0.015440;    0.011210;    0.005797;
85;    1.418701;    1.004856;    0.829635;    0.732236;    0.645137;    0.523965;    0.404397;    0.265128;    0.259853;    0.247126;    0.223945;    0.161577;    0.130665;    0.036108;    0.035444;    0.034526;    0.033497;    0.032926;    0.031667;    0.030072;    0.028130;    0.026513;    0.023683;    0.021142;    0.017793;    0.013510;    0.009869;    0.005050;
86;    1.406994;    1.011560;    0.812298;    0.710445;    0.611214;    0.514185;    0.376709;    0.257152;    0.254115;    0.241418;    0.210318;    0.180073;    0.134997;    0.036506;    0.036080;    0.035638;    0.034427;    0.033774;    0.032439;    0.030636;    0.029263;    0.027113;    0.024414;    0.021359;    0.018514;    0.015317;    0.010623;    0.006257;
87;    1.415063;    1.000070;    0.808607;    0.715202;    0.613350;    0.506064;    0.382264;    0.263664;    0.259501;    0.241913;    0.212868;    0.177840;    0.109783;    0.036209;    0.035702;    0.035259;    0.034576;    0.033562;    0.032702;    0.031235;    0.028918;    0.027003;    0.024635;    0.021955;    0.018276;    0.014711;    0.010134;    0.005462;
88;    1.445959;    1.026883;    0.829528;    0.730560;    0.629992;    0.537120;    0.420243;    0.259544;    0.257982;    0.243812;    0.220339;    0.174270;    0.121241;    0.036172;    0.035648;    0.034676;    0.033421;    0.032534;    0.031537;    0.029715;    0.028023;    0.026381;    0.024197;    0.021637;    0.018161;    0.014709;    0.010486;    0.005238;
89;    1.437420;    1.010588;    0.824015;    0.726809;    0.620599;    0.521332;    0.377707;    0.261096;    0.250328;    0.231682;    0.206860;    0.166685;    0.113128;    0.036629;    0.036085;    0.035617;    0.034993;    0.034218;    0.033062;    0.031495;    0.030256;    0.028067;    0.025121;    0.021800;    0.018459;    0.014429;    0.010472;    0.006347;
90;    1.472376;    0.989352;    0.810475;    0.720150;    0.619650;    0.506287;    0.401841;    0.268939;    0.266135;    0.254790;    0.224453;    0.183838;    0.124804;    0.036612;    0.036375;    0.035535;    0.035158;    0.034367;    0.032908;    0.031528;    0.029229;    0.026554;    0.024750;    0.022504;    0.019226;    0.014846;    0.011643;    0.006318;
91;    1.432118;    1.011335;    0.821326;    0.735802;    0.618460;    0.501849;    0.382803;    0.260230;    0.254589;    0.241730;    0.189918;    0.176262;    0.121299;    0.036482;    0.035748;    0.035338;    0.034319;    0.033595;    0.032217;    0.030080;    0.028328;    0.026523;    0.024563;    0.021805;    0.018052;    0.014790;    0.010282;    0.005111;
92;    1.432816;    0.998940;    0.815969;    0.719727;    0.620286;    0.510694;    0.386225;    0.257047;    0.257958;    0.240951;    0.201191;    0.172122;    0.121189;    0.036759;    0.036233;    0.035720;    0.034621;    0.033626;    0.032102;    0.030860;    0.028828;    0.026426;    0.024902;    0.022424;    0.019475;    0.016134;    0.011881;    0.006073;
93;    1.483207;    1.003467;    0.821191;    0.732716;    0.652082;    0.538846;    0.392913;    0.261986;    0.257988;    0.250486;    0.230020;    0.174684;    0.104852;    0.036436;    0.036245;    0.035419;    0.035025;    0.034062;    0.032641;    0.030958;    0.029186;    0.027636;    0.025525;    0.023132;    0.019323;    0.014509;    0.009968;    0.006117;
94;    1.480181;    1.004002;    0.818257;    0.715631;    0.605861;    0.503097;    0.390982;    0.260761;    0.254321;    0.231753;    0.211116;    0.174592;    0.114666;    0.036454;    0.035468;    0.034370;    0.033594;    0.032928;    0.031444;    0.029669;    0.028111;    0.025768;    0.023514;    0.021268;    0.018297;    0.015172;    0.010715;    0.005739;
95;    1.456687;    1.013130;    0.820366;    0.730056;    0.618271;    0.506322;    0.381964;    0.264016;    0.252650;    0.241321;    0.222071;    0.184450;    0.137795;    0.036623;    0.035828;    0.035383;    0.034863;    0.033794;    0.032180;    0.030922;    0.029067;    0.027652;    0.025344;    0.022200;    0.019445;    0.015657;    0.011508;    0.006073;
96;    2.461368;    1.011003;    0.814717;    0.726920;    0.640115;    0.532022;    0.407165;    0.252407;    0.248342;    0.240148;    0.223843;    0.169745;    0.106685;    0.036599;    0.035765;    0.035106;    0.034141;    0.033597;    0.032718;    0.031760;    0.030374;    0.027976;    0.025397;    0.022440;    0.019104;    0.015495;    0.010469;    0.006093;
97;    1.436468;    1.020487;    0.843855;    0.749576;    0.632814;    0.526774;    0.399757;    0.264640;    0.253324;    0.247337;    0.219823;    0.175375;    0.128534;    0.036489;    0.035791;    0.035162;    0.034553;    0.033702;    0.032305;    0.031018;    0.028729;    0.026575;    0.024479;    0.021282;    0.018147;    0.015031;    0.010471;    0.005486;
98;    1.518924;    1.004313;    0.822762;    0.741577;    0.631551;    0.511810;    0.390939;    0.257527;    0.251087;    0.223087;    0.208125;    0.163440;    0.108533;    0.037153;    0.036824;    0.036440;    0.035397;    0.034159;    0.033029;    0.031034;    0.029444;    0.027373;    0.025303;    0.022205;    0.019809;    0.015813;    0.011214;    0.006540;
99;    1.454899;    0.987769;    0.791100;    0.699813;    0.610112;    0.497625;    0.387377;    0.260799;    0.263176;    0.250512;    0.231116;    0.198404;    0.136937;    0.037334;    0.037146;    0.036249;    0.035795;    0.034735;    0.033481;    0.032016;    0.030732;    0.028682;    0.025650;    0.023146;    0.019675;    0.015499;    0.011419;    0.005707;
100;    1.530824;    0.990048;    0.801635;    0.709122;    0.606178;    0.495863;    0.405211;    0.264278;    0.257212;    0.240567;    0.224384;    0.172677;    0.128379;    0.036235;    0.035358;    0.034863;    0.033332;    0.031995;    0.031069;    0.029619;    0.028055;    0.025772;    0.023554;    0.021063;    0.018130;    0.014447;    0.010611;    0.006353;
