Simulation;Time;PC 0;PC 1;PC 2;PC 3;PC 4;PC 5;PC 6;PC 7;PC 8;PC 9;PC10;PC11;PC12;PC13;PC14;PC15;PC16;PC17;PC18;PC19;PC20;PC21;PC22;PC23;PC24;PC25;PC26;PC27;PC28;PC29;PC30;PC31;PC32;PC33;PC34;PC35;PC36;PC37;PC38;PC39;PC40;PC41;PC42;PC43;PC44;PC45;PC46;PC47;PC48;PC49;
Nan;Nan;0;0;0;0;0;0;0;0;0;0;0;0;0;0;0;1;0;0;0;0;0;0;0;0;0;0;0;0;0;0;0;0;0;0;0;0;0;0;0;0;0;0;0;0;0;0;0;0;0;0;
0;   22.125872;    0.984233;    0.887188;    0.848469;    0.819776;    0.784456;    0.734044;    0.670086;    0.624422;    0.554480;    0.491139;    0.430648;    0.428792;    0.417122;    0.418544;    0.419892;    0.421167;    0.427720;    0.432877;    0.438309;    0.444271;    0.449765;    0.454879;    0.460356;    0.462910;    0.466109;    0.468265;    0.469100;    0.474396;    0.477907;    0.480756;    0.482504;    0.483743;    0.485040;    0.485636;    0.486157;    0.487247;    0.488058;    0.487437;    0.485866;    0.482629;    0.481165;    0.477288;    0.472951;    0.469325;    0.464483;    0.458104;    0.451697;    0.447128;    0.437344;    0.428591;
1;   22.143379;    1.008501;    0.908829;    0.867220;    0.840503;    0.785824;    0.734291;    0.687300;    0.635787;    0.572006;    0.514403;    0.440961;    0.435911;    0.421703;    0.422571;    0.425032;    0.426398;    0.432414;    0.438298;    0.443385;    0.449350;    0.456159;    0.461254;    0.466058;    0.468423;    0.472036;    0.475917;    0.479133;    0.483023;    0.485873;    0.488102;    0.491070;    0.493525;    0.494968;    0.494423;    0.491354;    0.490823;    0.490844;    0.493471;    0.491251;    0.488988;    0.488492;    0.486792;    0.481948;    0.476664;    0.469688;    0.463680;    0.456397;    0.449869;    0.444784;    0.437574;
2;   22.104127;    1.014611;    0.918171;    0.880429;    0.853742;    0.806409;    0.740757;    0.700412;    0.633237;    0.580133;    0.513661;    0.434403;    0.431147;    0.419225;    0.420388;    0.422788;    0.424424;    0.430500;    0.436711;    0.440516;    0.445820;    0.451177;    0.457492;    0.461533;    0.467241;    0.472887;    0.477855;    0.482370;    0.486310;    0.487961;    0.488518;    0.491892;    0.492802;    0.494106;    0.494698;    0.495824;    0.496427;    0.497094;    0.496789;    0.491810;    0.486159;    0.483787;    0.481705;    0.478739;    0.471560;    0.464807;    0.461224;    0.456364;    0.449946;    0.443876;    0.431880;
3;   22.286502;    1.008157;    0.917407;    0.879248;    0.845194;    0.794898;    0.756427;    0.709189;    0.645942;    0.586036;    0.511168;    0.438282;    0.439271;    0.421868;    0.422721;    0.425506;    0.426020;    0.431330;    0.437717;    0.445330;    0.450624;    0.455205;    0.459907;    0.463641;    0.468209;    0.474160;    0.479210;    0.482519;    0.484703;    0.488821;    0.492128;    0.492926;    0.493815;    0.494657;    0.496596;    0.496729;    0.498187;    0.499043;    0.497928;    0.493865;    0.491246;    0.485982;    0.485700;    0.482905;    0.481340;    0.478287;    0.474057;    0.468552;    0.459473;    0.446839;    0.437643;
4;   22.230297;    1.024990;    0.927275;    0.892090;    0.854267;    0.795033;    0.741413;    0.704555;    0.648488;    0.574121;    0.512250;    0.438529;    0.437478;    0.423374;    0.424156;    0.429383;    0.427928;    0.434520;    0.440960;    0.447648;    0.452155;    0.456553;    0.461019;    0.466148;    0.471934;    0.477162;    0.480901;    0.482958;    0.485864;    0.487901;    0.492125;    0.495268;    0.497091;    0.495618;    0.497309;    0.498965;    0.499206;    0.499010;    0.495671;    0.497129;    0.497101;    0.495530;    0.493432;    0.487768;    0.481314;    0.476380;    0.470347;    0.466858;    0.458124;    0.451005;    0.440914;
5;   22.180039;    1.004313;    0.905909;    0.868723;    0.832199;    0.791752;    0.743167;    0.696080;    0.639246;    0.579573;    0.514018;    0.438333;    0.427289;    0.419003;    0.420376;    0.423244;    0.423327;    0.430607;    0.435243;    0.441186;    0.449041;    0.454675;    0.458484;    0.462249;    0.465731;    0.472079;    0.476348;    0.479135;    0.480752;    0.483398;    0.482688;    0.485930;    0.486643;    0.488379;    0.487342;    0.487701;    0.490172;    0.490259;    0.487791;    0.486979;    0.484112;    0.484634;    0.482402;    0.480401;    0.476413;    0.468696;    0.460579;    0.450480;    0.446012;    0.439909;    0.431020;
6;   22.152944;    0.999100;    0.903156;    0.869099;    0.822307;    0.781318;    0.733500;    0.689534;    0.638006;    0.566191;    0.505012;    0.434973;    0.434691;    0.419967;    0.419826;    0.421735;    0.423790;    0.429398;    0.434656;    0.440209;    0.445765;    0.451163;    0.456436;    0.461356;    0.464673;    0.467522;    0.471323;    0.471802;    0.474533;    0.476387;    0.480403;    0.483882;    0.485524;    0.487188;    0.486790;    0.488567;    0.488265;    0.486820;    0.487624;    0.487723;    0.487094;    0.487096;    0.485498;    0.481123;    0.473148;    0.470325;    0.466418;    0.458713;    0.450077;    0.442358;    0.431066;
7;   22.386931;    1.016409;    0.917126;    0.875497;    0.839007;    0.797775;    0.745394;    0.695216;    0.627523;    0.567101;    0.501776;    0.435664;    0.430283;    0.417564;    0.419310;    0.422778;    0.424212;    0.430625;    0.436124;    0.440734;    0.445280;    0.452439;    0.457680;    0.462250;    0.465202;    0.467442;    0.473384;    0.479067;    0.483964;    0.486891;    0.490462;    0.492121;    0.494184;    0.495333;    0.494898;    0.495286;    0.493350;    0.492256;    0.492711;    0.492965;    0.490637;    0.486164;    0.479586;    0.473511;    0.471543;    0.470052;    0.464992;    0.456594;    0.451368;    0.444386;    0.436630;
8;   22.063641;    0.989862;    0.895039;    0.861982;    0.829367;    0.777910;    0.741918;    0.683039;    0.624555;    0.570477;    0.499680;    0.430043;    0.427136;    0.416689;    0.417946;    0.420215;    0.422035;    0.429100;    0.433661;    0.439509;    0.443074;    0.446402;    0.452469;    0.457911;    0.463167;    0.466764;    0.468919;    0.472045;    0.475847;    0.479395;    0.480962;    0.482667;    0.482879;    0.485301;    0.487292;    0.488140;    0.486571;    0.490272;    0.491501;    0.491472;    0.489293;    0.487162;    0.483122;    0.480158;    0.478042;    0.473048;    0.466308;    0.459303;    0.448912;    0.441377;    0.432999;
9;   22.194225;    1.012133;    0.917458;    0.886796;    0.840630;    0.795835;    0.759110;    0.696172;    0.644054;    0.594274;    0.518483;    0.434714;    0.434209;    0.419742;    0.420642;    0.423201;    0.423254;    0.430659;    0.436243;    0.441757;    0.446119;    0.452876;    0.455715;    0.460950;    0.465697;    0.469464;    0.472136;    0.476091;    0.480522;    0.484511;    0.485294;    0.488927;    0.492000;    0.494256;    0.494049;    0.493632;    0.490908;    0.492246;    0.494496;    0.494523;    0.493510;    0.492341;    0.489776;    0.484084;    0.480298;    0.472448;    0.469247;    0.463900;    0.459065;    0.447896;    0.438680;
10;   22.208011;    1.009168;    0.912842;    0.880925;    0.842645;    0.805692;    0.760143;    0.721192;    0.659147;    0.597396;    0.511622;    0.434160;    0.427483;    0.418438;    0.419265;    0.424594;    0.422762;    0.429832;    0.435572;    0.441654;    0.448765;    0.454651;    0.458922;    0.464393;    0.470862;    0.475952;    0.481979;    0.486551;    0.489756;    0.492788;    0.495056;    0.497458;    0.499727;    0.501573;    0.501560;    0.501210;    0.500392;    0.498672;    0.495905;    0.495480;    0.492061;    0.491579;    0.489914;    0.485443;    0.484253;    0.480253;    0.472064;    0.460290;    0.453968;    0.443994;    0.435140;
11;   22.138847;    0.996283;    0.903955;    0.875223;    0.842241;    0.789898;    0.749612;    0.699778;    0.634986;    0.583761;    0.504062;    0.437076;    0.437814;    0.418430;    0.420227;    0.423216;    0.424259;    0.429581;    0.435478;    0.440568;    0.444525;    0.452158;    0.457492;    0.461367;    0.463164;    0.469344;    0.474486;    0.479016;    0.482843;    0.484031;    0.484545;    0.486440;    0.489308;    0.491268;    0.493407;    0.494920;    0.494620;    0.496028;    0.496181;    0.495188;    0.491511;    0.488396;    0.485338;    0.481238;    0.475853;    0.469324;    0.465026;    0.462549;    0.458155;    0.449590;    0.439918;
12;   22.040605;    0.990885;    0.902646;    0.878583;    0.841147;    0.785051;    0.735596;    0.687222;    0.622181;    0.560402;    0.506911;    0.433737;    0.430936;    0.411658;    0.413207;    0.416646;    0.417505;    0.423129;    0.430063;    0.431910;    0.439527;    0.444431;    0.449201;    0.455409;    0.460765;    0.465649;    0.470684;    0.474055;    0.477680;    0.479860;    0.480441;    0.480164;    0.479995;    0.477195;    0.478534;    0.477677;    0.478587;    0.480387;    0.481322;    0.481830;    0.479154;    0.478610;    0.476153;    0.472526;    0.466709;    0.462967;    0.456564;    0.446283;    0.440777;    0.431843;    0.425486;
13;   22.003175;    1.005216;    0.902441;    0.867100;    0.835985;    0.782964;    0.736208;    0.686438;    0.627725;    0.571024;    0.501366;    0.437998;    0.433121;    0.418791;    0.420632;    0.424562;    0.425576;    0.430288;    0.437179;    0.441738;    0.446963;    0.453741;    0.458555;    0.463169;    0.467112;    0.470065;    0.474206;    0.478303;    0.481657;    0.485740;    0.488235;    0.489120;    0.490620;    0.492700;    0.494124;    0.495463;    0.493249;    0.493048;    0.490360;    0.489428;    0.486048;    0.484582;    0.482988;    0.479919;    0.475351;    0.472242;    0.469370;    0.462834;    0.454134;    0.447403;    0.435331;
14;   22.087624;    0.985892;    0.894031;    0.865834;    0.819725;    0.787014;    0.740839;    0.693206;    0.628268;    0.558736;    0.497139;    0.436670;    0.433598;    0.422052;    0.422655;    0.425246;    0.426566;    0.433367;    0.437828;    0.442245;    0.449772;    0.455232;    0.459970;    0.465456;    0.471823;    0.477117;    0.481589;    0.484763;    0.487179;    0.490080;    0.491409;    0.492577;    0.493628;    0.492914;    0.496056;    0.498661;    0.498753;    0.497584;    0.495917;    0.496287;    0.494575;    0.493322;    0.488969;    0.489276;    0.485230;    0.481136;    0.472811;    0.466406;    0.460635;    0.451961;    0.438437;
15;   22.132112;    0.995345;    0.887157;    0.850687;    0.805494;    0.769291;    0.722016;    0.675592;    0.621321;    0.556550;    0.494216;    0.430588;    0.421335;    0.414193;    0.415707;    0.418313;    0.419274;    0.425208;    0.432084;    0.437933;    0.443045;    0.447787;    0.452813;    0.456727;    0.459966;    0.464495;    0.468854;    0.472495;    0.472667;    0.476297;    0.478862;    0.481065;    0.482700;    0.486828;    0.488990;    0.489015;    0.488943;    0.489224;    0.488708;    0.486432;    0.485563;    0.484257;    0.480959;    0.477474;    0.474608;    0.470375;    0.463148;    0.452043;    0.444751;    0.436137;    0.429808;
16;   22.228132;    1.020082;    0.928150;    0.883590;    0.844378;    0.802125;    0.746521;    0.706355;    0.646301;    0.580957;    0.516418;    0.442738;    0.438438;    0.426640;    0.428012;    0.430330;    0.430383;    0.436274;    0.443556;    0.449107;    0.455910;    0.461908;    0.467805;    0.472287;    0.477971;    0.482772;    0.487508;    0.491478;    0.494989;    0.497015;    0.498054;    0.499756;    0.502966;    0.505012;    0.505614;    0.508163;    0.508846;    0.510003;    0.507819;    0.505866;    0.502625;    0.498947;    0.496156;    0.491266;    0.486066;    0.481711;    0.474306;    0.464770;    0.458461;    0.450706;    0.444559;
17;   21.999939;    0.989213;    0.897123;    0.860047;    0.820235;    0.780240;    0.729036;    0.671941;    0.618167;    0.563022;    0.503120;    0.434072;    0.430642;    0.411838;    0.413305;    0.416359;    0.418528;    0.425855;    0.430597;    0.434667;    0.438637;    0.443381;    0.448908;    0.452952;    0.457424;    0.459819;    0.464782;    0.468504;    0.473301;    0.477568;    0.481467;    0.484038;    0.486912;    0.488178;    0.487058;    0.486622;    0.489055;    0.488721;    0.487933;    0.483540;    0.479682;    0.479273;    0.477179;    0.474972;    0.472080;    0.466032;    0.458180;    0.449553;    0.443590;    0.436486;    0.427029;
18;   22.089745;    0.983683;    0.897891;    0.861601;    0.830461;    0.781342;    0.740506;    0.680826;    0.619953;    0.577585;    0.519318;    0.435826;    0.435964;    0.418044;    0.419578;    0.423196;    0.423376;    0.430387;    0.435440;    0.441869;    0.447001;    0.454228;    0.459829;    0.464497;    0.467397;    0.467349;    0.472375;    0.475511;    0.479737;    0.483099;    0.486922;    0.488095;    0.489897;    0.491577;    0.493020;    0.493247;    0.492893;    0.491479;    0.492887;    0.490433;    0.490200;    0.487385;    0.486761;    0.484494;    0.480300;    0.475315;    0.469095;    0.465001;    0.457098;    0.445640;    0.434948;
19;   22.143224;    0.995551;    0.897014;    0.859285;    0.832552;    0.792966;    0.753670;    0.694458;    0.645080;    0.578956;    0.505885;    0.438725;    0.432642;    0.422629;    0.423978;    0.426770;    0.428767;    0.435446;    0.440752;    0.444102;    0.450555;    0.456330;    0.461219;    0.465684;    0.470425;    0.474954;    0.479637;    0.483810;    0.487378;    0.490037;    0.492268;    0.494149;    0.496545;    0.499140;    0.500975;    0.502732;    0.503054;    0.502402;    0.498516;    0.499085;    0.498121;    0.494281;    0.489776;    0.486636;    0.484278;    0.478999;    0.468757;    0.459906;    0.454296;    0.446551;    0.439553;
20;   22.100808;    1.010394;    0.904892;    0.880149;    0.834628;    0.792375;    0.752374;    0.711657;    0.660718;    0.591066;    0.517114;    0.435926;    0.429821;    0.417202;    0.418439;    0.421781;    0.421460;    0.427136;    0.431652;    0.437795;    0.443066;    0.449596;    0.454147;    0.459462;    0.464310;    0.468899;    0.473363;    0.477590;    0.481638;    0.484586;    0.485246;    0.487351;    0.490279;    0.491903;    0.493319;    0.492738;    0.490953;    0.492875;    0.493802;    0.492594;    0.490817;    0.489225;    0.488388;    0.485922;    0.481692;    0.474606;    0.469034;    0.461926;    0.453614;    0.444503;    0.435580;
21;   22.098114;    1.007163;    0.901414;    0.870383;    0.831477;    0.794813;    0.743030;    0.688110;    0.631125;    0.568861;    0.508118;    0.435745;    0.434348;    0.418109;    0.419187;    0.420112;    0.421932;    0.427838;    0.432744;    0.440048;    0.446631;    0.452055;    0.456563;    0.460704;    0.465507;    0.469981;    0.474513;    0.478556;    0.482196;    0.484182;    0.485128;    0.488080;    0.489442;    0.490161;    0.487201;    0.488225;    0.490468;    0.490628;    0.488523;    0.488345;    0.487256;    0.485243;    0.482705;    0.479330;    0.477526;    0.473511;    0.467883;    0.460713;    0.449404;    0.439651;    0.432624;
22;   22.063753;    1.013966;    0.912704;    0.876409;    0.835027;    0.781909;    0.738819;    0.682727;    0.639196;    0.590409;    0.513053;    0.437162;    0.430623;    0.419025;    0.419847;    0.421770;    0.422721;    0.427854;    0.434064;    0.439794;    0.445707;    0.449730;    0.453687;    0.458883;    0.465045;    0.469076;    0.471358;    0.474121;    0.476078;    0.480479;    0.485343;    0.487320;    0.490569;    0.493320;    0.493221;    0.490607;    0.490143;    0.491630;    0.492172;    0.491549;    0.490589;    0.490675;    0.489725;    0.486567;    0.483214;    0.478478;    0.473078;    0.465310;    0.455999;    0.442952;    0.433447;
23;   22.070722;    1.003541;    0.907803;    0.884099;    0.854162;    0.812970;    0.760465;    0.692683;    0.642723;    0.576440;    0.504722;    0.440437;    0.437435;    0.422115;    0.423739;    0.426706;    0.426965;    0.431596;    0.438703;    0.444008;    0.450478;    0.456017;    0.461250;    0.466870;    0.472141;    0.476648;    0.479685;    0.483995;    0.487279;    0.490217;    0.494280;    0.495879;    0.497135;    0.497501;    0.498166;    0.495142;    0.495372;    0.496540;    0.496281;    0.494756;    0.493922;    0.494119;    0.491605;    0.488120;    0.483168;    0.480114;    0.475352;    0.466351;    0.455200;    0.446172;    0.438089;
24;   22.035807;    1.017878;    0.917424;    0.886934;    0.838951;    0.793691;    0.743980;    0.691356;    0.636490;    0.570523;    0.507603;    0.432786;    0.426073;    0.412416;    0.413384;    0.416244;    0.417486;    0.422386;    0.429639;    0.435469;    0.442256;    0.446276;    0.449175;    0.453786;    0.458245;    0.462976;    0.466550;    0.468517;    0.470379;    0.473888;    0.477032;    0.480229;    0.481905;    0.482956;    0.486371;    0.490004;    0.490572;    0.488995;    0.489323;    0.486450;    0.483576;    0.480088;    0.475223;    0.471793;    0.469643;    0.462414;    0.454575;    0.448065;    0.441491;    0.432588;    0.427019;
25;   22.094913;    0.992361;    0.900266;    0.870551;    0.835719;    0.778829;    0.739075;    0.687829;    0.639095;    0.562705;    0.500527;    0.435226;    0.428828;    0.417443;    0.418661;    0.421564;    0.422391;    0.427623;    0.433689;    0.438916;    0.445790;    0.452322;    0.456156;    0.458989;    0.463880;    0.470193;    0.474558;    0.477995;    0.481837;    0.485084;    0.487402;    0.487638;    0.487955;    0.491032;    0.492515;    0.492230;    0.492178;    0.493237;    0.492662;    0.489787;    0.487665;    0.486180;    0.483506;    0.480845;    0.474181;    0.471420;    0.465990;    0.459149;    0.452463;    0.442538;    0.431629;
26;   23.926670;    1.016798;    0.920219;    0.886161;    0.847938;    0.809238;    0.767851;    0.718349;    0.657980;    0.580643;    0.525303;    0.439911;    0.435964;    0.422139;    0.423775;    0.426522;    0.426891;    0.433083;    0.440427;    0.446002;    0.451367;    0.453949;    0.461225;    0.466520;    0.472499;    0.474881;    0.478271;    0.480659;    0.483523;    0.484618;    0.484773;    0.485472;    0.488854;    0.492613;    0.495269;    0.496442;    0.495597;    0.493915;    0.494443;    0.495740;    0.495772;    0.491512;    0.490395;    0.487443;    0.481506;    0.476896;    0.470633;    0.463844;    0.457971;    0.448591;    0.438168;
27;   22.539624;    1.007638;    0.903428;    0.862479;    0.825818;    0.790537;    0.754852;    0.701684;    0.644751;    0.575103;    0.510467;    0.436218;    0.436599;    0.416165;    0.417390;    0.420431;    0.421540;    0.427209;    0.434378;    0.438387;    0.444324;    0.449401;    0.453924;    0.456444;    0.462406;    0.466373;    0.470721;    0.475091;    0.478021;    0.483102;    0.487199;    0.489222;    0.490577;    0.489033;    0.486803;    0.486922;    0.487494;    0.488416;    0.487316;    0.485575;    0.484199;    0.482213;    0.477540;    0.475113;    0.472226;    0.468719;    0.461973;    0.459043;    0.452271;    0.440778;    0.432829;
28;   41.208228;    1.011184;    0.905429;    0.875950;    0.829777;    0.779495;    0.740532;    0.686570;    0.640486;    0.579288;    0.501445;    0.430789;    0.430948;    0.414509;    0.415796;    0.419272;    0.419658;    0.425613;    0.432720;    0.438446;    0.441286;    0.444827;    0.448693;    0.452500;    0.459375;    0.463781;    0.466972;    0.469555;    0.472578;    0.475909;    0.479933;    0.482798;    0.485344;    0.487179;    0.490197;    0.491882;    0.491049;    0.489644;    0.489264;    0.489742;    0.487264;    0.483592;    0.480308;    0.476343;    0.473666;    0.469154;    0.461200;    0.454558;    0.448381;    0.437593;    0.429618;
29;   43.449879;    1.022069;    0.909894;    0.876909;    0.844049;    0.796545;    0.756888;    0.700107;    0.638615;    0.563183;    0.495956;    0.429264;    0.425289;    0.414916;    0.416693;    0.419905;    0.420398;    0.427055;    0.433730;    0.440083;    0.445261;    0.450053;    0.452646;    0.455509;    0.459133;    0.462613;    0.467270;    0.470605;    0.475608;    0.478306;    0.479229;    0.482267;    0.484126;    0.486136;    0.485896;    0.488087;    0.488749;    0.489161;    0.489773;    0.486716;    0.485014;    0.484634;    0.480707;    0.476490;    0.471608;    0.465269;    0.462583;    0.457307;    0.449077;    0.439933;    0.433212;
30;   22.219358;    1.011318;    0.909997;    0.883239;    0.841577;    0.802624;    0.752118;    0.713405;    0.655845;    0.584252;    0.522867;    0.440589;    0.435491;    0.422943;    0.424672;    0.428659;    0.428903;    0.434688;    0.440988;    0.447824;    0.453114;    0.457743;    0.462337;    0.466243;    0.468230;    0.473100;    0.478259;    0.482298;    0.484902;    0.487262;    0.489162;    0.492497;    0.495775;    0.497157;    0.499486;    0.502084;    0.502394;    0.502049;    0.499202;    0.499420;    0.497639;    0.494993;    0.495976;    0.493641;    0.488649;    0.480168;    0.471057;    0.466401;    0.458930;    0.447923;    0.437620;
31;   35.823085;    1.005198;    0.905150;    0.870749;    0.835037;    0.790742;    0.757160;    0.701862;    0.642256;    0.581452;    0.511420;    0.437592;    0.437956;    0.419526;    0.420923;    0.423598;    0.423042;    0.429480;    0.433523;    0.439911;    0.445304;    0.449575;    0.453058;    0.457578;    0.461803;    0.465484;    0.467110;    0.469553;    0.471823;    0.476753;    0.481525;    0.485043;    0.486097;    0.484654;    0.487218;    0.490704;    0.489423;    0.488738;    0.486481;    0.478117;    0.478286;    0.477188;    0.476192;    0.474710;    0.471712;    0.467405;    0.460815;    0.451907;    0.449085;    0.442874;    0.433435;
32;   30.890111;    0.998025;    0.908701;    0.869964;    0.837187;    0.798278;    0.733587;    0.693200;    0.639199;    0.565653;    0.497980;    0.433465;    0.437899;    0.418144;    0.418587;    0.422224;    0.422738;    0.429229;    0.435282;    0.441970;    0.447518;    0.451624;    0.457565;    0.462316;    0.466764;    0.471338;    0.474583;    0.477602;    0.478284;    0.480373;    0.482150;    0.483451;    0.486441;    0.488897;    0.489957;    0.489266;    0.488274;    0.488071;    0.487395;    0.488021;    0.486956;    0.485549;    0.483403;    0.476575;    0.470167;    0.469848;    0.464807;    0.458520;    0.451923;    0.444234;    0.434621;
33;   24.452966;    0.997637;    0.890996;    0.856360;    0.821720;    0.781746;    0.723094;    0.684114;    0.628873;    0.575871;    0.512830;    0.427910;    0.420742;    0.412228;    0.413863;    0.415274;    0.416499;    0.422270;    0.429293;    0.434960;    0.440854;    0.445501;    0.450843;    0.453439;    0.457821;    0.462080;    0.464567;    0.469148;    0.472710;    0.478004;    0.480676;    0.483748;    0.486794;    0.489267;    0.491545;    0.490877;    0.489725;    0.487056;    0.488395;    0.488103;    0.486638;    0.482093;    0.476740;    0.473258;    0.466432;    0.464087;    0.456145;    0.451065;    0.440860;    0.435624;    0.428258;
34;   29.874193;    1.019274;    0.912173;    0.882613;    0.848147;    0.791350;    0.737267;    0.694721;    0.643281;    0.575183;    0.508479;    0.436094;    0.435569;    0.420128;    0.420647;    0.426359;    0.422895;    0.429037;    0.433758;    0.438553;    0.444952;    0.449267;    0.452960;    0.459589;    0.465530;    0.469997;    0.473665;    0.477628;    0.479837;    0.483530;    0.486103;    0.487167;    0.489481;    0.489984;    0.491330;    0.489077;    0.490649;    0.491710;    0.492741;    0.491787;    0.489793;    0.485076;    0.482132;    0.478413;    0.473358;    0.467936;    0.459173;    0.454953;    0.450551;    0.440906;    0.431596;
35;   22.440005;    1.000417;    0.904695;    0.878316;    0.830373;    0.780265;    0.731266;    0.679373;    0.640177;    0.582460;    0.515328;    0.434725;    0.428111;    0.420921;    0.422077;    0.425400;    0.424368;    0.429800;    0.437652;    0.443750;    0.447268;    0.452774;    0.457160;    0.462938;    0.467210;    0.473138;    0.477410;    0.480071;    0.481224;    0.484828;    0.487398;    0.490747;    0.492417;    0.494371;    0.496178;    0.497506;    0.499522;    0.498916;    0.496703;    0.492597;    0.489212;    0.488495;    0.487895;    0.483960;    0.475991;    0.472440;    0.465325;    0.462372;    0.456119;    0.446114;    0.437352;
36;   25.479169;    0.983126;    0.898370;    0.870574;    0.824211;    0.782745;    0.743884;    0.694440;    0.624864;    0.561894;    0.511240;    0.429400;    0.424241;    0.416663;    0.418142;    0.419302;    0.420747;    0.427663;    0.432977;    0.439398;    0.444553;    0.449158;    0.453916;    0.458362;    0.463211;    0.466280;    0.466627;    0.468952;    0.473735;    0.478338;    0.481593;    0.482195;    0.481972;    0.484733;    0.484808;    0.486242;    0.486685;    0.486618;    0.486914;    0.485317;    0.482278;    0.477357;    0.476367;    0.476052;    0.474249;    0.470113;    0.465526;    0.455944;    0.444198;    0.436865;    0.431571;
37;   22.349732;    0.993230;    0.900208;    0.869809;    0.827936;    0.777592;    0.733488;    0.688972;    0.629264;    0.567023;    0.500869;    0.435284;    0.431503;    0.418414;    0.419979;    0.423151;    0.423440;    0.429214;    0.435600;    0.440093;    0.445950;    0.451503;    0.455942;    0.460776;    0.465333;    0.468932;    0.472232;    0.477656;    0.480821;    0.485810;    0.488357;    0.490643;    0.492218;    0.495075;    0.498604;    0.499918;    0.499237;    0.497653;    0.492918;    0.491571;    0.491052;    0.487111;    0.479240;    0.475813;    0.473100;    0.470588;    0.464795;    0.454754;    0.451612;    0.443982;    0.433094;
38;   22.449234;    0.997660;    0.897787;    0.863301;    0.821091;    0.782451;    0.736657;    0.681007;    0.632812;    0.565289;    0.496378;    0.435721;    0.436822;    0.421442;    0.422018;    0.425866;    0.425928;    0.431323;    0.437493;    0.442970;    0.447897;    0.452577;    0.458082;    0.461587;    0.466657;    0.470405;    0.471247;    0.476027;    0.480377;    0.484439;    0.487225;    0.489670;    0.492474;    0.493598;    0.493648;    0.493331;    0.493997;    0.494507;    0.496479;    0.495677;    0.493148;    0.490047;    0.488430;    0.485670;    0.481050;    0.475787;    0.472856;    0.465720;    0.456659;    0.446345;    0.439237;
39;   22.413460;    0.976924;    0.888515;    0.858614;    0.817900;    0.775383;    0.721789;    0.670134;    0.615718;    0.557292;    0.503398;    0.437597;    0.437895;    0.420149;    0.421035;    0.423888;    0.424457;    0.430950;    0.434967;    0.440939;    0.446486;    0.452130;    0.457008;    0.460054;    0.464132;    0.468924;    0.470640;    0.476575;    0.481928;    0.485282;    0.486452;    0.488168;    0.491447;    0.491228;    0.491181;    0.491633;    0.493571;    0.493558;    0.490890;    0.490206;    0.487490;    0.488366;    0.486916;    0.483931;    0.479743;    0.475882;    0.470553;    0.465264;    0.460479;    0.452693;    0.441149;
40;   22.392353;    1.001584;    0.903755;    0.866467;    0.835190;    0.791589;    0.745699;    0.682368;    0.618853;    0.568802;    0.496245;    0.430792;    0.430437;    0.412745;    0.413565;    0.416685;    0.416431;    0.423135;    0.428650;    0.432557;    0.438572;    0.443311;    0.448405;    0.452036;    0.456772;    0.461094;    0.464702;    0.466593;    0.471332;    0.476417;    0.478806;    0.479870;    0.480412;    0.480253;    0.481417;    0.481764;    0.480435;    0.477743;    0.478711;    0.477915;    0.474492;    0.472846;    0.471866;    0.469265;    0.465602;    0.463979;    0.460916;    0.455325;    0.446059;    0.433604;    0.424654;
41;   22.481560;    0.993651;    0.896446;    0.867462;    0.819481;    0.788996;    0.736421;    0.678225;    0.628841;    0.560926;    0.502749;    0.432054;    0.434262;    0.419481;    0.421590;    0.423915;    0.423509;    0.428650;    0.435868;    0.442555;    0.447445;    0.453162;    0.457219;    0.461442;    0.465688;    0.468276;    0.472839;    0.476763;    0.479478;    0.482126;    0.483046;    0.485991;    0.487717;    0.488386;    0.488887;    0.490285;    0.490189;    0.488478;    0.488376;    0.489373;    0.488364;    0.486416;    0.482516;    0.480816;    0.476512;    0.470422;    0.463538;    0.454392;    0.450855;    0.443529;    0.434285;
42;   22.383350;    1.014589;    0.904111;    0.867860;    0.836287;    0.798369;    0.751348;    0.685264;    0.635396;    0.569161;    0.507186;    0.435568;    0.430779;    0.420799;    0.421636;    0.422989;    0.424225;    0.430003;    0.436022;    0.442494;    0.449297;    0.453777;    0.460290;    0.464620;    0.467956;    0.471111;    0.473619;    0.478760;    0.482090;    0.485076;    0.485617;    0.489721;    0.493475;    0.495123;    0.495263;    0.496658;    0.500030;    0.501180;    0.498967;    0.496495;    0.492797;    0.485624;    0.480565;    0.479163;    0.474793;    0.472696;    0.467083;    0.460847;    0.458482;    0.451214;    0.440617;
43;   22.508211;    1.007417;    0.904731;    0.867128;    0.839271;    0.788402;    0.743438;    0.701224;    0.641913;    0.577012;    0.504365;    0.430074;    0.427825;    0.413663;    0.415211;    0.418435;    0.420354;    0.427471;    0.431775;    0.436268;    0.442603;    0.449047;    0.453646;    0.456982;    0.462038;    0.466512;    0.469542;    0.473961;    0.477472;    0.480989;    0.482605;    0.485442;    0.486719;    0.485028;    0.488133;    0.490728;    0.491844;    0.491898;    0.490157;    0.489259;    0.486039;    0.482933;    0.481386;    0.478130;    0.471737;    0.466264;    0.460662;    0.453290;    0.448643;    0.437896;    0.432232;
44;   22.492761;    1.007091;    0.910440;    0.878424;    0.856759;    0.812151;    0.755403;    0.704378;    0.647424;    0.576193;    0.499382;    0.436005;    0.437424;    0.424526;    0.425721;    0.427993;    0.427572;    0.433607;    0.440434;    0.447174;    0.452835;    0.458663;    0.463998;    0.467241;    0.471616;    0.476260;    0.480370;    0.483925;    0.485273;    0.485798;    0.488691;    0.491067;    0.494705;    0.496297;    0.499345;    0.500756;    0.501572;    0.501097;    0.498570;    0.492704;    0.493565;    0.490483;    0.485106;    0.479544;    0.477438;    0.471948;    0.468046;    0.462274;    0.457634;    0.450162;    0.440176;
45;   22.333218;    0.991956;    0.894502;    0.855289;    0.814037;    0.776716;    0.741457;    0.696828;    0.638823;    0.567962;    0.511355;    0.438365;    0.437928;    0.422752;    0.423841;    0.427402;    0.427364;    0.433920;    0.440654;    0.446155;    0.452294;    0.457452;    0.463349;    0.469133;    0.472248;    0.477709;    0.480917;    0.484108;    0.486247;    0.490586;    0.493717;    0.496730;    0.499458;    0.500753;    0.501088;    0.501301;    0.502319;    0.502363;    0.502170;    0.501661;    0.501988;    0.500885;    0.497281;    0.490534;    0.483636;    0.477383;    0.471192;    0.463534;    0.454312;    0.447635;    0.436671;
46;   22.324033;    1.007453;    0.902800;    0.860401;    0.828812;    0.794674;    0.738381;    0.692087;    0.637046;    0.562924;    0.497361;    0.427760;    0.426508;    0.414075;    0.415433;    0.418372;    0.418686;    0.425000;    0.429509;    0.435350;    0.440392;    0.444915;    0.450825;    0.455799;    0.458603;    0.462711;    0.468391;    0.472741;    0.475780;    0.478610;    0.481119;    0.483763;    0.486922;    0.485964;    0.485877;    0.487804;    0.488795;    0.487492;    0.482110;    0.483281;    0.484549;    0.482254;    0.478834;    0.473892;    0.470231;    0.467151;    0.459802;    0.451606;    0.445321;    0.435758;    0.428267;
47;   22.662180;    1.019014;    0.914257;    0.873060;    0.845855;    0.811881;    0.763239;    0.699197;    0.646528;    0.578044;    0.515078;    0.436282;    0.434324;    0.421250;    0.422707;    0.425367;    0.426003;    0.429919;    0.436902;    0.440263;    0.447473;    0.453075;    0.458331;    0.463362;    0.467032;    0.469749;    0.474412;    0.477651;    0.480962;    0.484329;    0.488048;    0.490880;    0.493766;    0.496511;    0.496338;    0.495021;    0.496868;    0.497709;    0.495631;    0.495776;    0.494508;    0.491886;    0.489411;    0.486148;    0.480336;    0.477886;    0.473078;    0.465909;    0.458659;    0.446150;    0.438692;
48;   23.542969;    0.998123;    0.906200;    0.870911;    0.825711;    0.788733;    0.738493;    0.693966;    0.628040;    0.567924;    0.506489;    0.436673;    0.437195;    0.419097;    0.420700;    0.424691;    0.422467;    0.428939;    0.437133;    0.443859;    0.449527;    0.451667;    0.456083;    0.461193;    0.465308;    0.470415;    0.473991;    0.474743;    0.478483;    0.481717;    0.483990;    0.487082;    0.488453;    0.487424;    0.489915;    0.489032;    0.487850;    0.486526;    0.487400;    0.488895;    0.488095;    0.486357;    0.482273;    0.475366;    0.473051;    0.469939;    0.463351;    0.456224;    0.449295;    0.443604;    0.434919;
49;   24.696491;    0.997692;    0.902256;    0.866849;    0.829425;    0.770309;    0.729184;    0.693591;    0.636367;    0.587083;    0.513685;    0.439815;    0.431880;    0.421295;    0.422882;    0.426669;    0.426988;    0.434132;    0.438887;    0.446484;    0.452527;    0.457881;    0.461693;    0.464335;    0.469201;    0.472494;    0.478609;    0.485067;    0.489874;    0.493306;    0.494936;    0.496965;    0.499014;    0.500271;    0.500348;    0.497735;    0.492385;    0.492713;    0.493138;    0.491567;    0.489414;    0.487968;    0.484716;    0.478860;    0.476957;    0.473507;    0.469460;    0.462607;    0.458249;    0.451564;    0.441561;
50;   26.097695;    1.001025;    0.898928;    0.867754;    0.829046;    0.793181;    0.735087;    0.695257;    0.639214;    0.565939;    0.515672;    0.441375;    0.431073;    0.419703;    0.420759;    0.424496;    0.425712;    0.432671;    0.435887;    0.442229;    0.447303;    0.453668;    0.456937;    0.462648;    0.467363;    0.469866;    0.476490;    0.481945;    0.486346;    0.489866;    0.493497;    0.494902;    0.494664;    0.493859;    0.493607;    0.495530;    0.496177;    0.495315;    0.494695;    0.491832;    0.492809;    0.491691;    0.488614;    0.486184;    0.481903;    0.475053;    0.468902;    0.461830;    0.458159;    0.449397;    0.435251;
51;   30.467142;    1.027035;    0.922749;    0.890560;    0.838659;    0.801828;    0.753049;    0.709641;    0.656036;    0.579941;    0.514995;    0.435466;    0.426975;    0.418488;    0.419277;    0.422380;    0.423686;    0.428899;    0.436959;    0.443585;    0.448335;    0.453868;    0.457977;    0.461326;    0.466178;    0.471431;    0.474544;    0.479864;    0.483017;    0.483735;    0.485575;    0.487532;    0.490853;    0.492953;    0.494647;    0.497349;    0.496028;    0.496623;    0.496148;    0.494465;    0.492233;    0.489388;    0.486763;    0.482461;    0.478669;    0.473570;    0.470139;    0.462146;    0.451093;    0.445088;    0.435917;
52;   27.358305;    0.996057;    0.898205;    0.866857;    0.820234;    0.789508;    0.737356;    0.681271;    0.618535;    0.559724;    0.492939;    0.434002;    0.432762;    0.419690;    0.420444;    0.425517;    0.423137;    0.429098;    0.435288;    0.440037;    0.445590;    0.449681;    0.455231;    0.459635;    0.464338;    0.466757;    0.468742;    0.473084;    0.475009;    0.479147;    0.481356;    0.485542;    0.488885;    0.490167;    0.488612;    0.485912;    0.487822;    0.488516;    0.487207;    0.487913;    0.485738;    0.481652;    0.482341;    0.478930;    0.474309;    0.472808;    0.467572;    0.460073;    0.452970;    0.443255;    0.432998;
53;   32.032145;    0.990799;    0.908461;    0.869303;    0.843782;    0.795351;    0.742688;    0.697276;    0.643752;    0.573497;    0.516650;    0.432175;    0.432349;    0.415987;    0.416814;    0.419677;    0.420526;    0.427093;    0.434270;    0.439423;    0.443529;    0.448364;    0.453700;    0.458612;    0.462955;    0.465126;    0.469755;    0.473297;    0.475973;    0.480486;    0.483642;    0.485193;    0.488046;    0.488483;    0.489596;    0.489501;    0.490555;    0.491272;    0.488463;    0.482847;    0.485291;    0.485902;    0.483030;    0.477255;    0.470757;    0.465162;    0.462637;    0.458999;    0.451805;    0.442494;    0.433549;
54;   25.032683;    1.009446;    0.908314;    0.864703;    0.831146;    0.790460;    0.751913;    0.706226;    0.645768;    0.568535;    0.497381;    0.430965;    0.427031;    0.415010;    0.416475;    0.418734;    0.419850;    0.426689;    0.432537;    0.438216;    0.446020;    0.451276;    0.454639;    0.460305;    0.466177;    0.470892;    0.474076;    0.475331;    0.476896;    0.479161;    0.483108;    0.486157;    0.489295;    0.492414;    0.493533;    0.493308;    0.491862;    0.489414;    0.488417;    0.485978;    0.485947;    0.484745;    0.480743;    0.476519;    0.473078;    0.468278;    0.464051;    0.457458;    0.448803;    0.436019;    0.429850;
55;   24.991114;    0.987418;    0.886374;    0.858884;    0.828436;    0.785464;    0.732957;    0.686300;    0.641982;    0.581332;    0.507662;    0.437369;    0.438389;    0.418090;    0.418876;    0.421852;    0.422930;    0.428697;    0.434463;    0.441329;    0.447347;    0.453025;    0.458436;    0.463018;    0.465774;    0.470237;    0.474931;    0.477753;    0.479456;    0.483036;    0.488238;    0.491878;    0.493186;    0.495362;    0.496540;    0.495494;    0.493608;    0.493494;    0.493069;    0.488920;    0.488203;    0.485860;    0.482869;    0.480078;    0.475984;    0.472394;    0.467170;    0.459813;    0.449556;    0.442607;    0.433390;
56;   28.452265;    0.993638;    0.893491;    0.857828;    0.813072;    0.768785;    0.719643;    0.671870;    0.614849;    0.562342;    0.501158;    0.438628;    0.430241;    0.419318;    0.420269;    0.423686;    0.423349;    0.429181;    0.435093;    0.439881;    0.445985;    0.450509;    0.455885;    0.460894;    0.465854;    0.469990;    0.473614;    0.478126;    0.480687;    0.482508;    0.485234;    0.488524;    0.489969;    0.490605;    0.491162;    0.490182;    0.489858;    0.491503;    0.491861;    0.491806;    0.490868;    0.488173;    0.485138;    0.479234;    0.475807;    0.472905;    0.464980;    0.455283;    0.448824;    0.442947;    0.434859;
57;   24.564611;    1.015522;    0.916387;    0.883431;    0.838905;    0.801663;    0.744764;    0.693663;    0.637712;    0.573283;    0.514374;    0.439041;    0.438890;    0.423195;    0.424615;    0.430062;    0.427969;    0.434008;    0.437444;    0.441764;    0.448334;    0.452151;    0.458718;    0.463342;    0.467586;    0.470389;    0.475349;    0.477127;    0.478211;    0.481083;    0.485146;    0.487789;    0.490077;    0.492925;    0.494082;    0.494917;    0.494590;    0.497047;    0.496557;    0.494681;    0.491540;    0.486975;    0.487505;    0.486033;    0.481973;    0.480383;    0.475153;    0.466455;    0.453853;    0.444985;    0.438895;
58;   25.336801;    1.006095;    0.906080;    0.867984;    0.826346;    0.790300;    0.737552;    0.696907;    0.637474;    0.576445;    0.513236;    0.436088;    0.434080;    0.422194;    0.424199;    0.428898;    0.427645;    0.433088;    0.440054;    0.444550;    0.450723;    0.455458;    0.461460;    0.466425;    0.471159;    0.475615;    0.479591;    0.483159;    0.486703;    0.487892;    0.487940;    0.491007;    0.491099;    0.494767;    0.497179;    0.497210;    0.497348;    0.495122;    0.494327;    0.494802;    0.493945;    0.490487;    0.486571;    0.482458;    0.479433;    0.474710;    0.469165;    0.464941;    0.457638;    0.447436;    0.436930;
59;   25.304987;    0.995905;    0.902969;    0.862312;    0.818361;    0.785759;    0.741888;    0.676825;    0.620614;    0.569677;    0.516836;    0.434011;    0.424200;    0.415723;    0.416631;    0.420004;    0.420998;    0.426979;    0.434232;    0.439950;    0.445579;    0.451071;    0.454882;    0.460898;    0.465717;    0.469398;    0.472814;    0.476931;    0.481528;    0.483781;    0.484443;    0.485527;    0.484087;    0.487329;    0.490283;    0.490673;    0.492026;    0.491106;    0.492477;    0.493235;    0.491624;    0.489358;    0.485220;    0.480560;    0.475920;    0.472878;    0.466871;    0.460797;    0.452388;    0.443524;    0.435683;
60;   32.987217;    1.004670;    0.906558;    0.874830;    0.837706;    0.794191;    0.754262;    0.703832;    0.634652;    0.565121;    0.501158;    0.437463;    0.437613;    0.422204;    0.423212;    0.425142;    0.426117;    0.433999;    0.440283;    0.446269;    0.450729;    0.455417;    0.459440;    0.465949;    0.469852;    0.472967;    0.477997;    0.480411;    0.484205;    0.488382;    0.490853;    0.492369;    0.493752;    0.496930;    0.498663;    0.498188;    0.498790;    0.497116;    0.495832;    0.495916;    0.495409;    0.493120;    0.487189;    0.484781;    0.482300;    0.476861;    0.468734;    0.464097;    0.455739;    0.448840;    0.438598;
61;   24.246005;    0.996403;    0.899974;    0.864142;    0.834833;    0.797169;    0.740161;    0.698746;    0.644055;    0.583900;    0.511449;    0.438254;    0.432075;    0.423973;    0.424901;    0.428220;    0.427276;    0.433534;    0.440960;    0.448003;    0.452590;    0.455184;    0.461462;    0.466656;    0.469847;    0.474210;    0.477841;    0.482423;    0.485752;    0.487837;    0.490771;    0.492808;    0.492312;    0.492986;    0.494810;    0.497335;    0.498445;    0.499011;    0.497757;    0.493219;    0.492034;    0.487839;    0.485169;    0.481893;    0.475757;    0.471375;    0.467322;    0.461263;    0.456269;    0.448895;    0.438763;
62;   34.130615;    0.992376;    0.893996;    0.862930;    0.823655;    0.773887;    0.724662;    0.684925;    0.622866;    0.558799;    0.500021;    0.433381;    0.438526;    0.416893;    0.418383;    0.421103;    0.420894;    0.427308;    0.433197;    0.438105;    0.442315;    0.449481;    0.454326;    0.458876;    0.462479;    0.465927;    0.468330;    0.470894;    0.473428;    0.477316;    0.479682;    0.482584;    0.483983;    0.485592;    0.485967;    0.486055;    0.486776;    0.489130;    0.489953;    0.490067;    0.486715;    0.485472;    0.482517;    0.479984;    0.476289;    0.469835;    0.462089;    0.454237;    0.447786;    0.442933;    0.432962;
63;   25.001998;    1.000229;    0.894499;    0.860066;    0.813884;    0.776502;    0.725612;    0.690134;    0.641149;    0.589167;    0.519531;    0.438754;    0.438103;    0.419516;    0.420675;    0.422939;    0.424508;    0.431888;    0.437763;    0.439928;    0.445482;    0.451895;    0.456846;    0.459573;    0.464189;    0.468060;    0.472845;    0.476359;    0.479743;    0.485351;    0.488773;    0.490231;    0.491417;    0.494434;    0.496016;    0.495333;    0.493856;    0.491895;    0.491837;    0.492019;    0.491526;    0.490797;    0.488789;    0.487355;    0.482943;    0.476403;    0.466698;    0.454953;    0.446984;    0.442177;    0.436434;
64;   24.771364;    1.004997;    0.905799;    0.879727;    0.832765;    0.796531;    0.752164;    0.708354;    0.650411;    0.585266;    0.511339;    0.437967;    0.438008;    0.422720;    0.423899;    0.425650;    0.426223;    0.433492;    0.439177;    0.444532;    0.450257;    0.455033;    0.459335;    0.465189;    0.470139;    0.474541;    0.478344;    0.481596;    0.486344;    0.489911;    0.491085;    0.494950;    0.499800;    0.503195;    0.505180;    0.504934;    0.506718;    0.507625;    0.505531;    0.501132;    0.499131;    0.495906;    0.494040;    0.489297;    0.486012;    0.478959;    0.473870;    0.466148;    0.455561;    0.445925;    0.441967;
65;   31.033001;    0.979789;    0.889486;    0.852228;    0.822410;    0.779772;    0.739974;    0.675313;    0.619943;    0.563341;    0.497772;    0.436205;    0.429212;    0.419453;    0.421552;    0.424098;    0.424133;    0.429738;    0.433935;    0.440644;    0.445771;    0.451496;    0.457759;    0.462488;    0.466882;    0.472006;    0.475149;    0.477589;    0.479634;    0.481178;    0.482085;    0.483394;    0.487433;    0.489819;    0.491555;    0.493023;    0.494490;    0.494171;    0.492545;    0.490139;    0.489170;    0.486828;    0.484130;    0.482192;    0.477777;    0.476452;    0.472998;    0.465741;    0.455439;    0.446852;    0.436151;
66;   26.347276;    1.002083;    0.907374;    0.877098;    0.839713;    0.795106;    0.746824;    0.706296;    0.642910;    0.571102;    0.514346;    0.436544;    0.438111;    0.419108;    0.419181;    0.421349;    0.422772;    0.428695;    0.433452;    0.438608;    0.444527;    0.451049;    0.456527;    0.460975;    0.465648;    0.470450;    0.472152;    0.472837;    0.474649;    0.478881;    0.482561;    0.486842;    0.490772;    0.494030;    0.496041;    0.496694;    0.495342;    0.496827;    0.496525;    0.495118;    0.491766;    0.490065;    0.484203;    0.481251;    0.473959;    0.467760;    0.464588;    0.456082;    0.451936;    0.442764;    0.434555;
67;   24.941781;    0.995246;    0.902896;    0.859888;    0.827157;    0.787941;    0.737510;    0.668913;    0.622573;    0.564027;    0.507825;    0.436673;    0.434388;    0.424095;    0.424888;    0.427179;    0.427574;    0.434057;    0.439108;    0.444644;    0.450358;    0.453979;    0.457387;    0.460518;    0.466600;    0.471184;    0.474920;    0.479193;    0.482298;    0.484810;    0.488034;    0.490491;    0.492969;    0.494372;    0.493477;    0.494699;    0.494842;    0.496091;    0.493533;    0.489950;    0.491920;    0.491571;    0.488758;    0.483711;    0.477564;    0.474813;    0.467441;    0.459299;    0.452642;    0.448481;    0.438933;
68;   24.393360;    1.001909;    0.904325;    0.869707;    0.821322;    0.783576;    0.738668;    0.701342;    0.631706;    0.580572;    0.507186;    0.436544;    0.432040;    0.420072;    0.421251;    0.424754;    0.424396;    0.431180;    0.434994;    0.440759;    0.446722;    0.450214;    0.455984;    0.459112;    0.464022;    0.470533;    0.474655;    0.478080;    0.482663;    0.485336;    0.485752;    0.485628;    0.489284;    0.492692;    0.496149;    0.498175;    0.499684;    0.500406;    0.500026;    0.498198;    0.494106;    0.493108;    0.493493;    0.491449;    0.488344;    0.480087;    0.473831;    0.466150;    0.454348;    0.447728;    0.437156;
69;   24.232497;    0.994558;    0.906240;    0.870510;    0.838691;    0.801087;    0.768116;    0.720577;    0.661581;    0.589783;    0.513604;    0.442908;    0.442842;    0.427556;    0.427978;    0.431046;    0.430608;    0.435693;    0.443466;    0.448727;    0.454552;    0.459564;    0.465665;    0.470134;    0.473235;    0.478501;    0.483352;    0.487419;    0.490518;    0.494404;    0.497446;    0.498434;    0.498824;    0.501593;    0.501771;    0.502693;    0.499755;    0.501170;    0.501040;    0.500072;    0.497778;    0.495849;    0.492094;    0.487873;    0.486056;    0.479513;    0.474813;    0.470330;    0.465899;    0.456991;    0.444524;
70;   21.465681;    1.013564;    0.915678;    0.875389;    0.846260;    0.797522;    0.741906;    0.685080;    0.636822;    0.564250;    0.499728;    0.435698;    0.430747;    0.423858;    0.424588;    0.427712;    0.427033;    0.433225;    0.439580;    0.444751;    0.451386;    0.456722;    0.460488;    0.467145;    0.471152;    0.473502;    0.477504;    0.482560;    0.485795;    0.489029;    0.490804;    0.490910;    0.491190;    0.494616;    0.497160;    0.497460;    0.496891;    0.495854;    0.493753;    0.489766;    0.489664;    0.485318;    0.485528;    0.484736;    0.482789;    0.480261;    0.475450;    0.470238;    0.463788;    0.454223;    0.440450;
71;   21.550260;    1.003456;    0.903533;    0.866375;    0.824775;    0.789235;    0.741808;    0.691500;    0.644981;    0.571282;    0.497626;    0.435371;    0.432933;    0.421091;    0.421757;    0.424314;    0.424931;    0.431360;    0.436842;    0.442015;    0.448595;    0.453852;    0.458488;    0.465113;    0.470215;    0.475665;    0.480023;    0.482908;    0.484754;    0.488975;    0.493007;    0.495079;    0.495601;    0.495395;    0.493826;    0.490938;    0.490168;    0.491027;    0.490719;    0.490922;    0.490030;    0.487097;    0.485767;    0.483889;    0.480993;    0.477302;    0.472392;    0.465986;    0.455289;    0.447262;    0.438117;
72;   21.371218;    1.007896;    0.905943;    0.879453;    0.844512;    0.797532;    0.752370;    0.697256;    0.644951;    0.570404;    0.517524;    0.434618;    0.434903;    0.420646;    0.422275;    0.424753;    0.424689;    0.430454;    0.435645;    0.442077;    0.448623;    0.453999;    0.458440;    0.462237;    0.467270;    0.471924;    0.475290;    0.480463;    0.483965;    0.486532;    0.491662;    0.494405;    0.494037;    0.494103;    0.494116;    0.492835;    0.494065;    0.494849;    0.494269;    0.494369;    0.491786;    0.488384;    0.484213;    0.478884;    0.475561;    0.471195;    0.466239;    0.460256;    0.451074;    0.444927;    0.435502;
73;   21.430960;    1.031677;    0.927090;    0.898759;    0.850324;    0.811242;    0.777450;    0.724218;    0.651369;    0.591191;    0.512114;    0.446765;    0.442724;    0.426339;    0.428385;    0.433743;    0.432967;    0.438166;    0.443484;    0.451598;    0.457699;    0.461369;    0.466114;    0.469625;    0.473420;    0.477397;    0.479752;    0.485261;    0.489324;    0.491929;    0.496214;    0.500949;    0.503195;    0.505482;    0.506435;    0.506154;    0.504261;    0.502554;    0.502483;    0.500597;    0.500515;    0.500323;    0.498677;    0.494481;    0.487498;    0.481936;    0.474910;    0.470844;    0.466355;    0.457578;    0.443694;
74;   21.534245;    1.008148;    0.900961;    0.863014;    0.837296;    0.794569;    0.740502;    0.689551;    0.636140;    0.570726;    0.505636;    0.439985;    0.439875;    0.425317;    0.427012;    0.429841;    0.429515;    0.436170;    0.442735;    0.449191;    0.456346;    0.461256;    0.465036;    0.470542;    0.474644;    0.479127;    0.481636;    0.486642;    0.490256;    0.493021;    0.495555;    0.498234;    0.501371;    0.505566;    0.508586;    0.510330;    0.511604;    0.509893;    0.509615;    0.508069;    0.505833;    0.500886;    0.499008;    0.495226;    0.489047;    0.484392;    0.476110;    0.472019;    0.463972;    0.454103;    0.443329;
75;   21.378719;    0.990600;    0.892141;    0.855185;    0.821233;    0.785582;    0.745682;    0.686805;    0.622906;    0.562558;    0.498517;    0.430083;    0.429011;    0.413919;    0.415378;    0.418923;    0.419389;    0.424431;    0.430475;    0.436989;    0.442502;    0.447356;    0.453922;    0.458475;    0.463754;    0.468359;    0.471253;    0.475244;    0.478633;    0.480632;    0.481481;    0.479861;    0.482383;    0.485676;    0.488171;    0.488951;    0.489871;    0.488397;    0.483157;    0.480978;    0.481612;    0.478465;    0.478232;    0.476872;    0.473611;    0.468113;    0.462048;    0.454157;    0.448705;    0.439142;    0.431260;
76;   21.438938;    1.010159;    0.904859;    0.877240;    0.828153;    0.792473;    0.733083;    0.691954;    0.627327;    0.580420;    0.512647;    0.438362;    0.433985;    0.424366;    0.426088;    0.428076;    0.428652;    0.434458;    0.440529;    0.446073;    0.450125;    0.456456;    0.460528;    0.465747;    0.469883;    0.474297;    0.478431;    0.482336;    0.486222;    0.491480;    0.494601;    0.496775;    0.498554;    0.498957;    0.500539;    0.502575;    0.503879;    0.504045;    0.504362;    0.503196;    0.498639;    0.495999;    0.491634;    0.483414;    0.479788;    0.475921;    0.470904;    0.467801;    0.461625;    0.451805;    0.439830;
77;   21.502591;    0.973451;    0.878893;    0.840454;    0.808613;    0.769313;    0.727396;    0.674058;    0.614076;    0.563539;    0.492637;    0.428872;    0.430149;    0.412442;    0.413339;    0.414823;    0.416385;    0.422383;    0.428789;    0.433838;    0.440155;    0.444851;    0.450563;    0.455687;    0.461224;    0.465635;    0.469218;    0.472771;    0.473923;    0.477839;    0.481315;    0.483709;    0.485996;    0.489113;    0.489178;    0.488547;    0.490199;    0.489385;    0.487687;    0.484727;    0.482281;    0.480879;    0.476914;    0.472413;    0.469696;    0.465994;    0.461160;    0.454142;    0.447466;    0.440867;    0.430256;
78;   21.539238;    0.989934;    0.899550;    0.860804;    0.825172;    0.781300;    0.735579;    0.676682;    0.616705;    0.555523;    0.504465;    0.435092;    0.436511;    0.419141;    0.420501;    0.422697;    0.422412;    0.428398;    0.435612;    0.440380;    0.447483;    0.451098;    0.456486;    0.460531;    0.463028;    0.469224;    0.474242;    0.478673;    0.481896;    0.484970;    0.488634;    0.489182;    0.491384;    0.490803;    0.491846;    0.492083;    0.494396;    0.494953;    0.494100;    0.492349;    0.486381;    0.485531;    0.483128;    0.477921;    0.475386;    0.471039;    0.468092;    0.460274;    0.452253;    0.446873;    0.438033;
79;   21.502713;    1.003355;    0.905627;    0.861458;    0.824359;    0.790942;    0.730293;    0.678449;    0.636753;    0.576221;    0.492832;    0.429040;    0.429497;    0.414892;    0.416005;    0.418200;    0.419048;    0.426095;    0.431610;    0.435085;    0.440888;    0.446035;    0.450615;    0.455028;    0.459925;    0.463374;    0.467909;    0.472235;    0.475689;    0.478600;    0.480307;    0.481517;    0.484369;    0.487923;    0.489486;    0.488369;    0.487468;    0.484667;    0.484106;    0.485760;    0.485175;    0.481268;    0.475770;    0.471090;    0.464197;    0.458231;    0.455783;    0.448618;    0.444620;    0.438562;    0.430695;
80;   23.601290;    0.984541;    0.883851;    0.860941;    0.823310;    0.778629;    0.726756;    0.669653;    0.624803;    0.560282;    0.493136;    0.426412;    0.425331;    0.410867;    0.411882;    0.413091;    0.415371;    0.419745;    0.424803;    0.432677;    0.439346;    0.443784;    0.447057;    0.450715;    0.454401;    0.459754;    0.464057;    0.467989;    0.472112;    0.474446;    0.475379;    0.477157;    0.477790;    0.480464;    0.482190;    0.482213;    0.483199;    0.482430;    0.484729;    0.484183;    0.483107;    0.479277;    0.473456;    0.472360;    0.467744;    0.463421;    0.455635;    0.452347;    0.445024;    0.436565;    0.425628;
81;   21.502265;    0.989352;    0.893298;    0.860496;    0.816573;    0.776584;    0.734790;    0.696042;    0.645635;    0.581843;    0.504337;    0.433802;    0.426667;    0.419154;    0.420013;    0.423745;    0.423646;    0.429877;    0.433129;    0.438530;    0.444479;    0.450645;    0.456689;    0.461229;    0.464526;    0.470184;    0.473220;    0.475610;    0.477481;    0.479055;    0.482554;    0.485897;    0.487509;    0.488508;    0.488557;    0.490859;    0.491441;    0.490465;    0.489515;    0.487253;    0.486844;    0.485098;    0.482071;    0.479014;    0.476777;    0.472389;    0.465155;    0.455368;    0.447620;    0.441002;    0.429840;
82;   21.548372;    0.984111;    0.886842;    0.861731;    0.823987;    0.787437;    0.746627;    0.702116;    0.641962;    0.571406;    0.500967;    0.430109;    0.429795;    0.414427;    0.416089;    0.419509;    0.418469;    0.425732;    0.432514;    0.437859;    0.441379;    0.446088;    0.449474;    0.453775;    0.456112;    0.459300;    0.464364;    0.468012;    0.472514;    0.476012;    0.479639;    0.480546;    0.479980;    0.478692;    0.481224;    0.482702;    0.483201;    0.482911;    0.481630;    0.483155;    0.482642;    0.482702;    0.478616;    0.472558;    0.467416;    0.464488;    0.459146;    0.449321;    0.443778;    0.438277;    0.428966;
83;   21.381598;    0.978204;    0.888797;    0.851285;    0.813621;    0.781774;    0.743590;    0.696196;    0.646433;    0.578233;    0.510535;    0.436418;    0.429356;    0.421296;    0.423269;    0.425528;    0.425603;    0.430348;    0.435720;    0.440258;    0.446690;    0.452805;    0.457162;    0.461846;    0.466555;    0.469326;    0.475023;    0.479363;    0.481392;    0.484838;    0.487088;    0.488222;    0.491060;    0.494942;    0.496264;    0.496842;    0.495560;    0.496034;    0.496120;    0.495423;    0.494207;    0.493511;    0.490937;    0.485979;    0.478305;    0.474875;    0.470986;    0.463645;    0.457393;    0.449196;    0.436430;
84;   21.551463;    0.996348;    0.910970;    0.877519;    0.838127;    0.792407;    0.742163;    0.699291;    0.644652;    0.567513;    0.507704;    0.435897;    0.434717;    0.422677;    0.424303;    0.427164;    0.426680;    0.432508;    0.438767;    0.445935;    0.450840;    0.455064;    0.460802;    0.464412;    0.469101;    0.473050;    0.476341;    0.476679;    0.479627;    0.484209;    0.487759;    0.489897;    0.491813;    0.492287;    0.492252;    0.493213;    0.491473;    0.494431;    0.495443;    0.494622;    0.490519;    0.489230;    0.485338;    0.482142;    0.479115;    0.475382;    0.470332;    0.464275;    0.455384;    0.448361;    0.438934;
85;   21.571564;    1.004851;    0.913322;    0.883498;    0.844092;    0.799541;    0.752300;    0.700317;    0.651885;    0.584116;    0.518882;    0.436142;    0.432767;    0.419408;    0.420786;    0.427119;    0.423720;    0.429853;    0.434712;    0.439749;    0.446511;    0.453154;    0.457849;    0.462940;    0.465522;    0.468554;    0.472473;    0.475387;    0.480065;    0.482783;    0.484914;    0.486192;    0.487821;    0.489773;    0.489745;    0.489651;    0.490185;    0.490062;    0.490366;    0.490629;    0.489431;    0.486938;    0.483678;    0.476993;    0.475742;    0.471686;    0.465142;    0.461862;    0.454525;    0.447068;    0.435755;
86;   21.534399;    1.004291;    0.896721;    0.860593;    0.824348;    0.778802;    0.733376;    0.686737;    0.629508;    0.576522;    0.513041;    0.436369;    0.437548;    0.419916;    0.420443;    0.423887;    0.424520;    0.429169;    0.434313;    0.441803;    0.446553;    0.452794;    0.457702;    0.460607;    0.466282;    0.471529;    0.475915;    0.479147;    0.481091;    0.483144;    0.485876;    0.488668;    0.490748;    0.493344;    0.493663;    0.494944;    0.496612;    0.497914;    0.497825;    0.494088;    0.491659;    0.489027;    0.487662;    0.481945;    0.478799;    0.476441;    0.469849;    0.462619;    0.457213;    0.449861;    0.438571;
87;   22.192573;    1.000128;    0.898363;    0.867106;    0.818148;    0.778368;    0.729337;    0.689694;    0.621247;    0.564922;    0.510679;    0.436799;    0.433074;    0.417994;    0.419374;    0.421943;    0.423108;    0.428647;    0.433265;    0.439619;    0.444963;    0.448807;    0.451596;    0.457889;    0.462440;    0.467007;    0.470342;    0.473659;    0.477549;    0.481020;    0.484000;    0.485169;    0.485729;    0.487786;    0.491376;    0.493268;    0.492937;    0.489142;    0.483711;    0.482001;    0.480608;    0.480719;    0.478128;    0.475849;    0.472224;    0.469271;    0.461904;    0.453598;    0.446444;    0.438929;    0.429485;
88;   22.806932;    1.010689;    0.905169;    0.870583;    0.841090;    0.794427;    0.762571;    0.719340;    0.660573;    0.591999;    0.504011;    0.434171;    0.429765;    0.415526;    0.417034;    0.420204;    0.421057;    0.425844;    0.431486;    0.438232;    0.444018;    0.448838;    0.454665;    0.459499;    0.462393;    0.466083;    0.471040;    0.475408;    0.476989;    0.481354;    0.484623;    0.484448;    0.483590;    0.485717;    0.487885;    0.487880;    0.488355;    0.487943;    0.487692;    0.486865;    0.485035;    0.479095;    0.475177;    0.472049;    0.470377;    0.462862;    0.457823;    0.450202;    0.442854;    0.437508;    0.426379;
89;   22.442422;    1.009236;    0.910413;    0.882926;    0.837546;    0.802802;    0.748878;    0.687025;    0.634894;    0.555154;    0.501480;    0.433924;    0.434162;    0.420227;    0.421718;    0.426782;    0.425457;    0.430926;    0.436011;    0.442197;    0.447709;    0.453065;    0.457447;    0.463606;    0.467245;    0.471859;    0.476751;    0.480733;    0.481960;    0.487503;    0.490057;    0.490024;    0.489196;    0.489162;    0.490913;    0.492641;    0.493720;    0.494916;    0.494902;    0.495427;    0.494325;    0.492693;    0.490548;    0.484116;    0.476218;    0.470873;    0.462215;    0.457014;    0.453815;    0.446844;    0.438928;
90;   22.383518;    0.998384;    0.904388;    0.868112;    0.828172;    0.797713;    0.746116;    0.709234;    0.640469;    0.580574;    0.514845;    0.438179;    0.438732;    0.419611;    0.420806;    0.424348;    0.425002;    0.431561;    0.435976;    0.442285;    0.446869;    0.452194;    0.455088;    0.462240;    0.468535;    0.472037;    0.474925;    0.479864;    0.482201;    0.483795;    0.487524;    0.490159;    0.492752;    0.494407;    0.494324;    0.496354;    0.496330;    0.496826;    0.496302;    0.494167;    0.490493;    0.487996;    0.484844;    0.481279;    0.474718;    0.470610;    0.466320;    0.460311;    0.454925;    0.446388;    0.439725;
91;   22.522389;    1.007855;    0.905816;    0.881530;    0.836469;    0.783725;    0.745955;    0.689483;    0.636757;    0.569920;    0.509027;    0.435090;    0.435972;    0.419579;    0.419673;    0.423172;    0.423357;    0.430390;    0.435862;    0.440678;    0.445634;    0.450582;    0.454155;    0.457770;    0.463611;    0.468347;    0.471511;    0.476413;    0.479933;    0.482036;    0.484388;    0.487236;    0.488999;    0.490168;    0.491966;    0.493127;    0.493983;    0.496236;    0.496161;    0.493652;    0.487921;    0.486736;    0.486545;    0.487184;    0.483237;    0.478576;    0.473135;    0.468434;    0.460182;    0.448451;    0.436009;
92;   24.988894;    0.991906;    0.894699;    0.857144;    0.826213;    0.784843;    0.729252;    0.679768;    0.624348;    0.573053;    0.503978;    0.433493;    0.433331;    0.418019;    0.419514;    0.421392;    0.421752;    0.430177;    0.437390;    0.443214;    0.448440;    0.452174;    0.453642;    0.459757;    0.463753;    0.467721;    0.470660;    0.475729;    0.480621;    0.483679;    0.485230;    0.486040;    0.488699;    0.492656;    0.493261;    0.493992;    0.491401;    0.492670;    0.491778;    0.491193;    0.489261;    0.484869;    0.483840;    0.481417;    0.476591;    0.469564;    0.466733;    0.461331;    0.453959;    0.440805;    0.433417;
93;   38.464837;    1.005648;    0.909530;    0.880070;    0.840521;    0.803232;    0.765141;    0.706644;    0.647696;    0.581650;    0.512732;    0.438831;    0.434777;    0.423652;    0.423809;    0.426578;    0.427799;    0.432555;    0.439058;    0.444085;    0.451876;    0.456877;    0.460356;    0.466199;    0.471193;    0.475525;    0.479427;    0.483639;    0.486272;    0.490657;    0.493321;    0.494027;    0.495465;    0.496471;    0.496052;    0.499047;    0.497531;    0.496573;    0.494745;    0.493638;    0.492391;    0.489344;    0.488597;    0.483771;    0.480226;    0.474420;    0.470348;    0.465101;    0.458032;    0.449955;    0.442450;
94;   31.634117;    1.004153;    0.906094;    0.876319;    0.824972;    0.782541;    0.738924;    0.679308;    0.620031;    0.578915;    0.504159;    0.434921;    0.426637;    0.418852;    0.420022;    0.422775;    0.423306;    0.428089;    0.434907;    0.440049;    0.444765;    0.450084;    0.454567;    0.460119;    0.465482;    0.470715;    0.474609;    0.477646;    0.480536;    0.482612;    0.485124;    0.486224;    0.486139;    0.488554;    0.490435;    0.488901;    0.492455;    0.492253;    0.490478;    0.487974;    0.487778;    0.485777;    0.483059;    0.479095;    0.471772;    0.468062;    0.462007;    0.455166;    0.447949;    0.441769;    0.432009;
95;   23.938988;    1.011708;    0.909334;    0.873935;    0.840929;    0.796643;    0.758641;    0.702708;    0.644296;    0.589721;    0.507696;    0.437559;    0.434029;    0.421596;    0.422928;    0.427670;    0.426621;    0.433707;    0.438314;    0.443231;    0.448357;    0.453842;    0.460542;    0.466419;    0.469867;    0.471946;    0.478415;    0.482376;    0.484940;    0.488058;    0.491661;    0.494002;    0.495803;    0.499025;    0.499272;    0.499913;    0.500898;    0.501757;    0.501466;    0.497035;    0.490809;    0.490142;    0.488635;    0.487258;    0.486119;    0.482123;    0.474241;    0.467757;    0.459582;    0.448706;    0.440875;
96;   25.367909;    0.998049;    0.892208;    0.859340;    0.832828;    0.788655;    0.751182;    0.694525;    0.631443;    0.579572;    0.502362;    0.432570;    0.428596;    0.416677;    0.417524;    0.420779;    0.422260;    0.429013;    0.434268;    0.438932;    0.446638;    0.452794;    0.457829;    0.461895;    0.466427;    0.471413;    0.475860;    0.480147;    0.481587;    0.484898;    0.487102;    0.487487;    0.490497;    0.492142;    0.492084;    0.490226;    0.491825;    0.492184;    0.489996;    0.489098;    0.488145;    0.485133;    0.477775;    0.472869;    0.471147;    0.472036;    0.469688;    0.463914;    0.455939;    0.443534;    0.434052;
97;   23.919608;    1.014973;    0.921612;    0.875394;    0.838343;    0.784734;    0.746402;    0.699390;    0.631746;    0.572662;    0.506032;    0.431469;    0.432759;    0.416591;    0.417720;    0.419444;    0.420472;    0.427064;    0.434339;    0.439717;    0.444555;    0.449501;    0.454178;    0.457854;    0.461907;    0.468366;    0.473865;    0.477334;    0.479994;    0.481928;    0.483868;    0.485116;    0.487317;    0.487755;    0.489761;    0.491730;    0.493263;    0.494260;    0.494989;    0.493025;    0.490292;    0.489285;    0.485865;    0.483430;    0.477382;    0.472068;    0.463138;    0.457347;    0.452236;    0.444307;    0.431620;
98;   25.098699;    1.002565;    0.906479;    0.870421;    0.838406;    0.794638;    0.737904;    0.698513;    0.642405;    0.583206;    0.510565;    0.435808;    0.438135;    0.423826;    0.425701;    0.431426;    0.429214;    0.434911;    0.441993;    0.446964;    0.454225;    0.459059;    0.465112;    0.470158;    0.474580;    0.477343;    0.482702;    0.486142;    0.487248;    0.488179;    0.490522;    0.492423;    0.495315;    0.496827;    0.499939;    0.501885;    0.503047;    0.503902;    0.501560;    0.497953;    0.498308;    0.496719;    0.493304;    0.490763;    0.489099;    0.485044;    0.478305;    0.470943;    0.462591;    0.456104;    0.441255;
99;   26.909539;    0.994900;    0.889652;    0.868122;    0.830514;    0.796243;    0.737633;    0.692957;    0.636792;    0.575949;    0.509781;    0.440138;    0.438327;    0.424551;    0.425778;    0.429428;    0.429167;    0.436192;    0.440975;    0.447412;    0.452545;    0.458725;    0.464542;    0.468934;    0.472887;    0.475056;    0.480013;    0.484606;    0.489332;    0.493140;    0.496281;    0.500437;    0.503231;    0.506121;    0.507604;    0.509941;    0.507999;    0.506517;    0.506465;    0.504703;    0.501970;    0.498299;    0.497640;    0.494458;    0.487049;    0.480944;    0.471885;    0.465756;    0.454967;    0.449285;    0.441975;
100;   25.921210;    0.993908;    0.892643;    0.865338;    0.834102;    0.787484;    0.749349;    0.690083;    0.618750;    0.566455;    0.504853;    0.435542;    0.435568;    0.415941;    0.417283;    0.419890;    0.421714;    0.426928;    0.433453;    0.438207;    0.443980;    0.448519;    0.452258;    0.457383;    0.460992;    0.464556;    0.468301;    0.472409;    0.477838;    0.481958;    0.485151;    0.486254;    0.486555;    0.485847;    0.486722;    0.485960;    0.485964;    0.488191;    0.488487;    0.488006;    0.487289;    0.482093;    0.476836;    0.474631;    0.471943;    0.466425;    0.463957;    0.458483;    0.452791;    0.444367;    0.432069;
