Simulation;Time;PC0;PC1;PC2;PC3;PC4;PC5;PC6;PC7;PC8;PC9;
Nan;Nan;0;0;0;0;1;0;0;0;0;0;
0;    0.227815;    0.990337;    0.495323;    0.499740;    0.476441;    0.455046;    0.468451;    0.482716;    0.476072;    0.467020;    0.453975;
1;    0.228974;    1.015594;    0.508464;    0.513428;    0.491098;    0.469468;    0.485608;    0.489466;    0.496284;    0.490969;    0.476026;
2;    0.221318;    1.013382;    0.521584;    0.527683;    0.500826;    0.476891;    0.495371;    0.502342;    0.505806;    0.500084;    0.487633;
3;    0.221418;    0.979045;    0.509427;    0.523847;    0.492653;    0.467231;    0.484005;    0.491746;    0.498597;    0.499723;    0.482023;
4;    0.270134;    1.024689;    0.522384;    0.532900;    0.502502;    0.484428;    0.502972;    0.499667;    0.502518;    0.505897;    0.492037;
5;    0.225869;    1.003610;    0.500655;    0.505734;    0.484897;    0.466483;    0.480397;    0.494773;    0.496096;    0.486351;    0.472033;
6;    0.224528;    1.002218;    0.507241;    0.513543;    0.497013;    0.465513;    0.489084;    0.493879;    0.489669;    0.484551;    0.466184;
7;    0.226082;    1.019425;    0.513706;    0.521316;    0.500746;    0.473869;    0.485293;    0.496454;    0.494413;    0.490367;    0.471533;
8;    0.228141;    0.983607;    0.496781;    0.502792;    0.484019;    0.459452;    0.483507;    0.498641;    0.503138;    0.494102;    0.469124;
9;    0.220906;    0.998616;    0.513570;    0.519582;    0.501622;    0.476515;    0.496463;    0.504436;    0.517317;    0.504630;    0.486538;
10;    0.221931;    1.005504;    0.513972;    0.519253;    0.493596;    0.473417;    0.493124;    0.500795;    0.510361;    0.502600;    0.493025;
11;    0.224215;    0.977303;    0.502193;    0.506206;    0.492418;    0.467475;    0.488572;    0.498997;    0.506179;    0.498284;    0.484385;
12;    0.222895;    0.955487;    0.498794;    0.503249;    0.492213;    0.468492;    0.489512;    0.497606;    0.495036;    0.492152;    0.471999;
13;    0.219989;    1.016660;    0.496533;    0.506359;    0.485564;    0.465438;    0.477307;    0.488025;    0.488591;    0.476423;    0.468338;
14;    0.224354;    0.973423;    0.499695;    0.508007;    0.483771;    0.454005;    0.477137;    0.493540;    0.496797;    0.470881;    0.454674;
15;    0.218851;    1.036033;    0.492068;    0.500165;    0.470584;    0.451520;    0.464317;    0.474399;    0.481748;    0.470782;    0.452264;
16;    0.230352;    0.995260;    0.514611;    0.521558;    0.500669;    0.480272;    0.493122;    0.498874;    0.505032;    0.499936;    0.489091;
17;    0.228351;    0.970188;    0.498990;    0.512345;    0.483103;    0.455485;    0.471863;    0.482066;    0.488869;    0.479585;    0.466736;
18;    0.225272;    0.937925;    0.490193;    0.497417;    0.482963;    0.461093;    0.481120;    0.489923;    0.483181;    0.485867;    0.475359;
19;    0.225874;    0.992740;    0.490972;    0.496302;    0.482918;    0.464592;    0.473090;    0.490443;    0.492239;    0.484879;    0.471647;
20;    0.221148;    1.039753;    0.503743;    0.511059;    0.483430;    0.464461;    0.483067;    0.491543;    0.500410;    0.490793;    0.482757;
21;    0.220884;    1.026377;    0.498295;    0.504814;    0.482324;    0.464862;    0.477759;    0.485135;    0.484028;    0.486243;    0.464015;
22;    0.220818;    1.017232;    0.502075;    0.508081;    0.493247;    0.474060;    0.492719;    0.502435;    0.496298;    0.494426;    0.482764;
23;    0.223940;    0.987961;    0.495738;    0.499823;    0.494236;    0.471693;    0.491003;    0.505559;    0.506094;    0.491966;    0.473339;
24;    0.223544;    1.025079;    0.517174;    0.522942;    0.499285;    0.479368;    0.494037;    0.510322;    0.518252;    0.501793;    0.486572;
25;    0.228275;    0.976048;    0.502455;    0.508562;    0.488029;    0.461805;    0.484388;    0.486816;    0.487292;    0.483800;    0.466906;
26;    0.232046;    1.004734;    0.509373;    0.515478;    0.496097;    0.476626;    0.502746;    0.517009;    0.509451;    0.501496;    0.476036;
27;    0.245843;    1.023504;    0.497730;    0.505614;    0.482208;    0.462706;    0.474684;    0.498105;    0.505394;    0.501463;    0.471343;
28;    0.247843;    1.034945;    0.502108;    0.508107;    0.492389;    0.473450;    0.497551;    0.499508;    0.503417;    0.494009;    0.477503;
29;    0.444028;    1.067813;    0.505875;    0.511589;    0.493116;    0.480258;    0.498982;    0.510915;    0.502497;    0.500780;    0.484285;
30;    0.219017;    1.021365;    0.507930;    0.516234;    0.493249;    0.465723;    0.482219;    0.494414;    0.500079;    0.493321;    0.480213;
31;    0.225827;    1.014087;    0.505089;    0.509074;    0.493008;    0.465889;    0.482922;    0.494511;    0.496733;    0.500172;    0.482393;
32;    0.273323;    0.969775;    0.505581;    0.508921;    0.490157;    0.474725;    0.495380;    0.507581;    0.501038;    0.492265;    0.487654;
33;    0.263957;    1.033289;    0.498264;    0.503776;    0.486109;    0.462841;    0.485677;    0.489906;    0.490540;    0.490396;    0.472712;
34;    0.232472;    1.044614;    0.505912;    0.513481;    0.490304;    0.472926;    0.493255;    0.501572;    0.503191;    0.495699;    0.482983;
35;    0.221934;    0.993805;    0.502768;    0.509382;    0.489824;    0.467677;    0.488340;    0.490424;    0.493268;    0.492496;    0.482811;
36;    0.221976;    0.946001;    0.507543;    0.512357;    0.491398;    0.463505;    0.478953;    0.496815;    0.490744;    0.485207;    0.469722;
37;    0.230149;    0.984368;    0.506407;    0.513668;    0.485081;    0.461102;    0.476375;    0.489567;    0.486513;    0.481053;    0.464486;
38;    0.222905;    1.005042;    0.497065;    0.502369;    0.489802;    0.460754;    0.474811;    0.486193;    0.487300;    0.476089;    0.466749;
39;    0.220969;    0.944311;    0.486218;    0.490999;    0.471949;    0.453080;    0.471390;    0.474131;    0.472919;    0.467166;    0.451746;
40;    0.220340;    1.007819;    0.510755;    0.513639;    0.491871;    0.468792;    0.492396;    0.497382;    0.493810;    0.492196;    0.476697;
41;    0.272249;    1.000663;    0.501575;    0.505250;    0.493103;    0.463265;    0.474221;    0.483154;    0.484547;    0.479393;    0.473573;
42;    0.223070;    1.052642;    0.503240;    0.508877;    0.488998;    0.468930;    0.480962;    0.494965;    0.490865;    0.487161;    0.476897;
43;    0.226112;    1.027668;    0.503146;    0.508765;    0.489046;    0.469198;    0.487548;    0.499632;    0.499635;    0.495349;    0.486778;
44;    0.253977;    1.002396;    0.508811;    0.511976;    0.502133;    0.474685;    0.495727;    0.511969;    0.513198;    0.496573;    0.480810;
45;    0.309902;    0.984245;    0.490598;    0.497275;    0.481552;    0.456837;    0.474949;    0.482687;    0.490575;    0.480145;    0.464097;
46;    0.221282;    1.036048;    0.506683;    0.514730;    0.500101;    0.468683;    0.486252;    0.493285;    0.489748;    0.487191;    0.480163;
47;    0.229675;    1.036955;    0.506770;    0.514770;    0.495104;    0.469397;    0.481786;    0.498669;    0.508118;    0.489948;    0.474512;
48;    0.229580;    0.971141;    0.497841;    0.505997;    0.490165;    0.465613;    0.480473;    0.496415;    0.495337;    0.486625;    0.476578;
49;    0.242170;    0.979573;    0.495476;    0.505257;    0.489006;    0.459092;    0.472970;    0.476613;    0.484260;    0.481772;    0.471150;
50;    0.243192;    1.011733;    0.497802;    0.503492;    0.484164;    0.462225;    0.478423;    0.490906;    0.486161;    0.481695;    0.464013;
51;    0.242234;    1.041949;    0.519718;    0.529423;    0.508913;    0.480403;    0.495465;    0.504452;    0.513122;    0.503004;    0.490815;
52;    0.269554;    1.002986;    0.503843;    0.511035;    0.485452;    0.463141;    0.476200;    0.487171;    0.494483;    0.477590;    0.462094;
53;    0.494188;    0.945409;    0.514284;    0.518842;    0.502125;    0.475820;    0.491378;    0.503482;    0.514209;    0.500282;    0.489276;
54;    0.226312;    1.030625;    0.515693;    0.519332;    0.511154;    0.479350;    0.494654;    0.510785;    0.516920;    0.513907;    0.486475;
55;    0.230263;    0.994770;    0.485068;    0.491153;    0.478151;    0.452976;    0.475743;    0.484859;    0.483754;    0.479228;    0.460101;
56;    0.222849;    1.007997;    0.496760;    0.501814;    0.472502;    0.450382;    0.462854;    0.472438;    0.480082;    0.472684;    0.466502;
57;    0.234975;    1.021721;    0.516480;    0.520799;    0.495949;    0.474637;    0.485689;    0.496076;    0.500185;    0.489612;    0.481433;
58;    0.230039;    1.013173;    0.506529;    0.511455;    0.498069;    0.468064;    0.482856;    0.499597;    0.497649;    0.494744;    0.471380;
59;    0.234140;    0.985622;    0.509555;    0.522690;    0.486337;    0.460608;    0.476204;    0.493520;    0.486622;    0.483356;    0.470975;
60;    0.226200;    1.004403;    0.505800;    0.513389;    0.498269;    0.462932;    0.484845;    0.496467;    0.492783;    0.492644;    0.463728;
61;    0.284086;    0.986504;    0.492487;    0.495273;    0.488123;    0.467290;    0.482531;    0.496181;    0.498283;    0.490250;    0.471448;
62;    1.181277;    0.990136;    0.495354;    0.505566;    0.480422;    0.459009;    0.476248;    0.481625;    0.492236;    0.476736;    0.471215;
63;    0.260190;    1.029213;    0.495082;    0.497840;    0.483589;    0.464040;    0.477238;    0.478220;    0.483788;    0.477914;    0.466811;
64;    0.226868;    1.007113;    0.502921;    0.511645;    0.482321;    0.463992;    0.482687;    0.492441;    0.497591;    0.486618;    0.466436;
65;    0.232558;    0.962827;    0.493779;    0.498377;    0.479562;    0.454199;    0.468111;    0.473562;    0.479653;    0.481141;    0.454973;
66;    0.234537;    0.989709;    0.504117;    0.511225;    0.491706;    0.463880;    0.478877;    0.494233;    0.494116;    0.479717;    0.472157;
67;    0.312294;    0.963788;    0.489707;    0.494328;    0.482891;    0.468059;    0.479264;    0.491987;    0.495317;    0.487299;    0.468632;
68;    0.228357;    0.999219;    0.500099;    0.504553;    0.489829;    0.467992;    0.486290;    0.487950;    0.501571;    0.484645;    0.472106;
69;    0.224864;    0.959286;    0.498998;    0.503378;    0.482245;    0.467024;    0.482004;    0.486776;    0.497793;    0.493841;    0.474308;
70;    0.221680;    1.014946;    0.514466;    0.517113;    0.495940;    0.477660;    0.497437;    0.501005;    0.504259;    0.505825;    0.479778;
71;    0.223739;    1.005644;    0.497217;    0.502974;    0.487003;    0.469981;    0.481093;    0.492615;    0.490658;    0.492041;    0.472003;
72;    0.223315;    1.018156;    0.498640;    0.504857;    0.490780;    0.469425;    0.491808;    0.501214;    0.500101;    0.490430;    0.473805;
73;    0.269433;    1.044575;    0.515229;    0.523988;    0.500956;    0.476950;    0.500993;    0.504734;    0.504618;    0.496716;    0.477323;
74;    0.219135;    1.034916;    0.501620;    0.518620;    0.484068;    0.458923;    0.480149;    0.479986;    0.486348;    0.477450;    0.464090;
75;    0.225211;    1.004080;    0.502692;    0.506503;    0.482184;    0.466940;    0.483063;    0.498506;    0.497661;    0.482960;    0.475581;
76;    0.229072;    1.032971;    0.498585;    0.503440;    0.485367;    0.465785;    0.485027;    0.494300;    0.492614;    0.493591;    0.468609;
77;    0.220212;    0.966760;    0.484000;    0.488187;    0.471140;    0.454723;    0.471307;    0.481541;    0.485415;    0.476964;    0.458420;
78;    0.223198;    0.970143;    0.506031;    0.511071;    0.489847;    0.462552;    0.479543;    0.478447;    0.473941;    0.471127;    0.463188;
79;    0.220089;    1.007897;    0.507282;    0.510505;    0.492722;    0.470915;    0.486133;    0.493136;    0.495726;    0.491244;    0.477878;
80;    0.219256;    1.006785;    0.496389;    0.500346;    0.480033;    0.460379;    0.478427;    0.480405;    0.478033;    0.474420;    0.461935;
81;    0.224862;    0.984446;    0.493762;    0.501403;    0.478577;    0.454683;    0.473723;    0.483890;    0.492812;    0.487366;    0.464022;
82;    0.223264;    0.987876;    0.489122;    0.494261;    0.475041;    0.458020;    0.480434;    0.491169;    0.494440;    0.480751;    0.463369;
83;    0.222740;    0.942801;    0.482362;    0.485793;    0.471054;    0.459599;    0.474407;    0.484800;    0.488137;    0.479711;    0.464801;
84;    0.222232;    0.957413;    0.510926;    0.518932;    0.496846;    0.471036;    0.485647;    0.493232;    0.495336;    0.481548;    0.477338;
85;    0.220560;    0.978046;    0.506996;    0.513571;    0.498150;    0.475293;    0.492746;    0.514288;    0.522577;    0.500698;    0.485087;
86;    0.221410;    1.037772;    0.499462;    0.507155;    0.484962;    0.466160;    0.483189;    0.494513;    0.503457;    0.486439;    0.473872;
87;    0.222519;    1.011324;    0.493364;    0.498838;    0.486242;    0.470527;    0.478949;    0.481117;    0.480031;    0.485736;    0.471381;
88;    0.230043;    1.043767;    0.510788;    0.518062;    0.490875;    0.468451;    0.494417;    0.497339;    0.499562;    0.494679;    0.478169;
89;    0.235045;    1.017488;    0.514379;    0.521875;    0.491565;    0.467963;    0.484961;    0.490320;    0.497782;    0.491728;    0.468374;
90;    0.224637;    0.982402;    0.501189;    0.508542;    0.498379;    0.468573;    0.487619;    0.492393;    0.494395;    0.498206;    0.475304;
91;    0.231516;    1.023095;    0.508729;    0.513712;    0.493886;    0.471042;    0.485630;    0.496025;    0.500404;    0.494164;    0.488930;
92;    0.220185;    0.996331;    0.501714;    0.509131;    0.486331;    0.456303;    0.471914;    0.481894;    0.479460;    0.476458;    0.464152;
93;    0.228787;    0.997894;    0.507048;    0.515176;    0.494123;    0.468391;    0.484431;    0.492172;    0.498240;    0.493628;    0.474727;
94;    0.222061;    1.007547;    0.504406;    0.508430;    0.501057;    0.474046;    0.489958;    0.496387;    0.504277;    0.496703;    0.476099;
95;    0.219156;    1.027337;    0.508011;    0.513249;    0.495975;    0.468335;    0.485557;    0.500012;    0.493377;    0.498536;    0.474443;
96;    0.226672;    1.032045;    0.499287;    0.504993;    0.486754;    0.458589;    0.475084;    0.483226;    0.488671;    0.480148;    0.460877;
97;    0.233035;    0.995484;    0.520400;    0.526934;    0.506583;    0.483047;    0.495057;    0.501432;    0.502419;    0.504890;    0.489392;
98;    0.279747;    1.000836;    0.509256;    0.515402;    0.494587;    0.471022;    0.489948;    0.492488;    0.494743;    0.491358;    0.489282;
99;    0.231130;    1.018819;    0.489811;    0.496637;    0.475240;    0.453878;    0.477615;    0.480350;    0.483635;    0.483323;    0.456868;
100;    0.250109;    0.999732;    0.493241;    0.504392;    0.482737;    0.458092;    0.473115;    0.474420;    0.480834;    0.475293;    0.461925;
