Simulation;Time;PC0;PC1;PC2;PC3;PC4;PC5;PC6;PC7;PC8;PC9;
Nan;Nan;0;0;0;0;0;0;0;0;1;0;
0;    0.102228;    0.990532;    0.801372;    0.672834;    0.615004;    0.550973;    0.443004;    0.336562;    0.300110;    0.239333;    0.245160;
1;    0.101804;    1.017345;    0.823801;    0.679856;    0.626535;    0.543019;    0.447764;    0.346574;    0.305612;    0.246822;    0.251854;
2;    0.100594;    1.025658;    0.837826;    0.696867;    0.622289;    0.551513;    0.468875;    0.355341;    0.309507;    0.251517;    0.251544;
3;    0.101334;    0.996386;    0.819266;    0.707418;    0.638605;    0.576687;    0.469432;    0.354630;    0.311814;    0.243943;    0.246203;
4;    0.101737;    1.031546;    0.841996;    0.713040;    0.654662;    0.559671;    0.455725;    0.349761;    0.313377;    0.252914;    0.254550;
5;    0.099626;    0.998468;    0.806602;    0.679364;    0.632989;    0.555784;    0.452337;    0.346502;    0.300593;    0.246588;    0.246708;
6;    0.099795;    1.006756;    0.820498;    0.681825;    0.622439;    0.521531;    0.440974;    0.338485;    0.300187;    0.244749;    0.248121;
7;    0.101162;    1.017933;    0.825768;    0.696943;    0.616796;    0.559164;    0.452703;    0.354637;    0.309397;    0.250414;    0.252033;
8;    0.104690;    0.984130;    0.799503;    0.682894;    0.613736;    0.538560;    0.465153;    0.347535;    0.310135;    0.240906;    0.243497;
9;    0.127099;    1.013697;    0.829984;    0.701295;    0.644472;    0.570403;    0.474568;    0.353495;    0.309492;    0.249742;    0.251324;
10;    0.099162;    1.018933;    0.831306;    0.698261;    0.639568;    0.572273;    0.478339;    0.350150;    0.315503;    0.247952;    0.252035;
11;    0.100001;    0.995329;    0.816944;    0.683848;    0.634709;    0.534919;    0.449346;    0.340189;    0.296392;    0.244071;    0.248344;
12;    0.100322;    0.981891;    0.810579;    0.678196;    0.626825;    0.536184;    0.440132;    0.341761;    0.293459;    0.245056;    0.244237;
13;    0.104195;    1.003784;    0.804572;    0.681139;    0.629207;    0.561573;    0.456891;    0.346706;    0.297225;    0.244521;    0.247328;
14;    0.099472;    0.980443;    0.802220;    0.673492;    0.614678;    0.556012;    0.448007;    0.327400;    0.286956;    0.240976;    0.243485;
15;    0.100430;    0.998942;    0.788168;    0.667917;    0.593154;    0.529992;    0.446919;    0.345358;    0.292848;    0.241728;    0.244568;
16;    0.099124;    1.010745;    0.831362;    0.698534;    0.630616;    0.569940;    0.467253;    0.352220;    0.305844;    0.252118;    0.253414;
17;    0.103845;    0.979316;    0.803410;    0.684577;    0.610368;    0.527771;    0.433846;    0.340721;    0.297535;    0.239229;    0.243431;
18;    0.100008;    0.961819;    0.792221;    0.675826;    0.621094;    0.559042;    0.476537;    0.346421;    0.294356;    0.240341;    0.240416;
19;    0.105134;    0.989026;    0.795816;    0.668015;    0.609935;    0.524833;    0.428127;    0.343867;    0.304154;    0.244382;    0.246895;
20;    0.100132;    1.018774;    0.813236;    0.688074;    0.628743;    0.556009;    0.461027;    0.347571;    0.304749;    0.246124;    0.249183;
21;    0.098975;    1.008858;    0.806451;    0.683156;    0.623303;    0.541661;    0.457614;    0.340961;    0.296601;    0.246262;    0.248346;
22;    0.099711;    1.021694;    0.824719;    0.700648;    0.602167;    0.537162;    0.448152;    0.355179;    0.303444;    0.246041;    0.253899;
23;    0.100298;    0.996107;    0.807055;    0.678649;    0.617276;    0.525788;    0.437773;    0.347721;    0.302245;    0.246655;    0.250911;
24;    0.099789;    1.031886;    0.839489;    0.703951;    0.654861;    0.561703;    0.455426;    0.353529;    0.307948;    0.250271;    0.257297;
25;    0.100148;    0.983123;    0.805131;    0.678879;    0.623980;    0.529356;    0.452852;    0.342539;    0.292485;    0.242793;    0.241660;
26;    0.101065;    1.013037;    0.825388;    0.702435;    0.635046;    0.568688;    0.483342;    0.358421;    0.307076;    0.248102;    0.250508;
27;    0.109351;    1.013023;    0.810173;    0.688573;    0.633372;    0.545051;    0.456668;    0.351236;    0.302839;    0.244232;    0.249885;
28;    0.097744;    1.022200;    0.817016;    0.693123;    0.622741;    0.552861;    0.462387;    0.351654;    0.302607;    0.248211;    0.254917;
29;    0.182961;    1.038274;    0.820231;    0.694186;    0.637932;    0.554204;    0.449373;    0.357423;    0.312289;    0.254864;    0.256728;
30;    0.098845;    1.012852;    0.815885;    0.693481;    0.641904;    0.553808;    0.462686;    0.348463;    0.299335;    0.245528;    0.250763;
31;    0.100714;    1.010426;    0.815787;    0.677855;    0.627180;    0.563865;    0.471148;    0.343947;    0.297367;    0.247471;    0.254716;
32;    0.135145;    0.994484;    0.820349;    0.675186;    0.607091;    0.535467;    0.444574;    0.343587;    0.307183;    0.249829;    0.249191;
33;    0.114770;    1.008446;    0.799643;    0.669923;    0.609869;    0.547893;    0.465021;    0.349301;    0.307686;    0.246633;    0.248927;
34;    0.104049;    1.020329;    0.811902;    0.685769;    0.624495;    0.552956;    0.464963;    0.358769;    0.308644;    0.252066;    0.251475;
35;    0.099641;    1.009065;    0.822523;    0.693495;    0.626201;    0.551213;    0.448112;    0.344836;    0.304206;    0.243224;    0.248673;
36;    0.098722;    0.977230;    0.813138;    0.683267;    0.610838;    0.561210;    0.458742;    0.340058;    0.297987;    0.242236;    0.243039;
37;    0.102630;    0.988352;    0.809189;    0.679778;    0.592115;    0.514387;    0.417331;    0.339202;    0.297113;    0.241669;    0.243805;
38;    0.099193;    0.998608;    0.803837;    0.677380;    0.617084;    0.544206;    0.450222;    0.337645;    0.294758;    0.243842;    0.245479;
39;    0.097234;    0.958062;    0.785843;    0.662689;    0.615196;    0.520629;    0.438934;    0.328551;    0.287695;    0.237780;    0.238617;
40;    0.100491;    1.012276;    0.823875;    0.678727;    0.624531;    0.542553;    0.447371;    0.344431;    0.299784;    0.247215;    0.248559;
41;    0.128305;    1.000995;    0.813241;    0.680292;    0.607759;    0.511281;    0.435426;    0.341491;    0.290210;    0.241917;    0.246460;
42;    0.101552;    1.021218;    0.807546;    0.683439;    0.608375;    0.556094;    0.457931;    0.348376;    0.299113;    0.248287;    0.248555;
43;    0.100320;    1.015914;    0.814848;    0.689748;    0.622478;    0.543673;    0.459302;    0.355635;    0.309013;    0.247661;    0.250742;
44;    0.129105;    1.015063;    0.827475;    0.690500;    0.647123;    0.557360;    0.458031;    0.348142;    0.303509;    0.247745;    0.249899;
45;    0.169513;    0.980942;    0.791412;    0.670937;    0.616072;    0.546538;    0.449322;    0.337569;    0.293364;    0.241532;    0.241577;
46;    0.099080;    1.022414;    0.820749;    0.697106;    0.624612;    0.568891;    0.474351;    0.345778;    0.300729;    0.247097;    0.250911;
47;    0.097698;    1.016639;    0.813328;    0.699049;    0.656419;    0.564546;    0.468751;    0.363141;    0.310117;    0.247661;    0.255214;
48;    0.099438;    0.988312;    0.808911;    0.693094;    0.623435;    0.557396;    0.454253;    0.344881;    0.299924;    0.242863;    0.244900;
49;    0.099149;    0.991793;    0.805808;    0.688614;    0.625410;    0.539689;    0.448757;    0.345236;    0.291798;    0.239704;    0.246839;
50;    0.119348;    1.002615;    0.802893;    0.671369;    0.623061;    0.548861;    0.452968;    0.346698;    0.306595;    0.242990;    0.246183;
51;    0.192644;    1.035990;    0.834008;    0.712377;    0.665047;    0.580124;    0.459116;    0.360316;    0.309922;    0.252644;    0.255443;
52;    0.158761;    1.001077;    0.811508;    0.680931;    0.608082;    0.535393;    0.442767;    0.339813;    0.290344;    0.242318;    0.245442;
53;    0.118915;    0.988730;    0.828075;    0.683544;    0.630423;    0.547617;    0.451978;    0.344407;    0.297754;    0.246840;    0.246717;
54;    0.099781;    1.034503;    0.838242;    0.682493;    0.620988;    0.547985;    0.460816;    0.349537;    0.307792;    0.251798;    0.255703;
55;    0.097706;    0.979324;    0.781711;    0.661484;    0.603426;    0.538434;    0.435824;    0.338428;    0.303844;    0.240568;    0.242341;
56;    0.098776;    0.990951;    0.795136;    0.658632;    0.587393;    0.516876;    0.433758;    0.340078;    0.293264;    0.242190;    0.245868;
57;    0.099732;    1.020194;    0.827887;    0.689531;    0.621041;    0.547809;    0.453329;    0.348019;    0.302615;    0.250892;    0.249560;
58;    0.099415;    1.014674;    0.819148;    0.685634;    0.634352;    0.530890;    0.453755;    0.348765;    0.308287;    0.245987;    0.248556;
59;    0.101826;    0.995950;    0.816713;    0.690889;    0.615426;    0.521531;    0.439549;    0.335983;    0.292758;    0.243732;    0.246915;
60;    0.105006;    1.009103;    0.820219;    0.697177;    0.615700;    0.534194;    0.445135;    0.348014;    0.304253;    0.241065;    0.245105;
61;    0.124497;    0.987922;    0.798735;    0.670165;    0.618415;    0.538855;    0.454030;    0.346360;    0.297260;    0.245643;    0.248250;
62;    0.099482;    0.987462;    0.798266;    0.677269;    0.626567;    0.559382;    0.435273;    0.338496;    0.294559;    0.240892;    0.242060;
63;    0.152364;    1.011448;    0.804231;    0.662166;    0.599201;    0.539218;    0.456529;    0.338316;    0.295118;    0.244721;    0.247459;
64;    0.100041;    1.000287;    0.807203;    0.686647;    0.604352;    0.549888;    0.459636;    0.353387;    0.303108;    0.244073;    0.244788;
65;    0.102307;    0.980867;    0.803071;    0.673601;    0.627435;    0.526456;    0.457269;    0.334403;    0.289543;    0.236231;    0.240103;
66;    0.101919;    1.000951;    0.817460;    0.693846;    0.622610;    0.542874;    0.467687;    0.345014;    0.296052;    0.243063;    0.246903;
67;    0.108102;    0.981246;    0.800825;    0.680168;    0.623114;    0.521028;    0.448639;    0.355162;    0.304076;    0.243563;    0.242275;
68;    0.098856;    1.005720;    0.816087;    0.689400;    0.621478;    0.555458;    0.443655;    0.339998;    0.298221;    0.243358;    0.246569;
69;    0.098431;    0.978096;    0.804458;    0.678262;    0.603312;    0.542595;    0.443125;    0.346365;    0.298790;    0.242189;    0.242679;
70;    0.098149;    1.021984;    0.832282;    0.685126;    0.615845;    0.535766;    0.452030;    0.347729;    0.302869;    0.253090;    0.254638;
71;    0.097772;    0.998045;    0.802173;    0.678856;    0.618967;    0.553095;    0.471834;    0.355037;    0.301379;    0.244895;    0.248703;
72;    0.098419;    1.007807;    0.808015;    0.690106;    0.642752;    0.554805;    0.458942;    0.352611;    0.303346;    0.246792;    0.249708;
73;    0.098221;    1.038685;    0.836594;    0.709348;    0.648834;    0.569254;    0.490945;    0.354077;    0.306538;    0.249695;    0.252260;
74;    0.098316;    1.008993;    0.804625;    0.686675;    0.610138;    0.546833;    0.439184;    0.341893;    0.296259;    0.243204;    0.246629;
75;    0.097818;    1.007590;    0.816997;    0.673101;    0.616307;    0.545591;    0.434917;    0.340785;    0.295003;    0.243424;    0.249403;
76;    0.098324;    1.013689;    0.808436;    0.679611;    0.623811;    0.556095;    0.448966;    0.347499;    0.299193;    0.248031;    0.256640;
77;    0.118515;    0.969845;    0.786295;    0.654839;    0.592017;    0.510757;    0.438319;    0.333282;    0.287313;    0.240096;    0.242654;
78;    0.097619;    0.991714;    0.815680;    0.678446;    0.616958;    0.545864;    0.452972;    0.335286;    0.292549;    0.241164;    0.245734;
79;    0.097975;    1.010810;    0.819180;    0.688108;    0.627060;    0.544609;    0.458062;    0.346425;    0.303580;    0.249278;    0.252265;
80;    0.098065;    0.994376;    0.798307;    0.666468;    0.614982;    0.522313;    0.438662;    0.336405;    0.290306;    0.243352;    0.245622;
81;    0.097628;    0.985752;    0.800232;    0.679089;    0.601804;    0.537022;    0.447751;    0.340520;    0.297058;    0.239233;    0.241618;
82;    0.097379;    0.983178;    0.793815;    0.669539;    0.593468;    0.527472;    0.447313;    0.341152;    0.301872;    0.239852;    0.248104;
83;    0.103182;    0.958600;    0.782770;    0.659993;    0.608901;    0.521056;    0.429609;    0.339886;    0.295656;    0.239246;    0.239557;
84;    0.099357;    0.981746;    0.814409;    0.686441;    0.612947;    0.524954;    0.463892;    0.350491;    0.302936;    0.246656;    0.244918;
85;    0.097146;    1.000931;    0.823024;    0.692844;    0.616524;    0.559126;    0.467375;    0.347130;    0.301175;    0.248256;    0.251040;
86;    0.096825;    1.018206;    0.810121;    0.671569;    0.603064;    0.546037;    0.440384;    0.340332;    0.294959;    0.245511;    0.249142;
87;    0.098695;    0.999735;    0.800152;    0.670051;    0.608048;    0.535469;    0.445946;    0.344943;    0.293879;    0.245982;    0.245096;
88;    0.101992;    1.029487;    0.824092;    0.685826;    0.629252;    0.549251;    0.469038;    0.342706;    0.300646;    0.248519;    0.253217;
89;    0.101174;    1.015991;    0.825658;    0.699781;    0.625172;    0.545820;    0.439988;    0.351552;    0.308699;    0.245106;    0.248212;
90;    0.101732;    0.987390;    0.803557;    0.672285;    0.610596;    0.533988;    0.456507;    0.348851;    0.298917;    0.246933;    0.246262;
91;    0.097246;    1.019766;    0.822513;    0.684270;    0.628663;    0.540051;    0.454049;    0.348300;    0.303003;    0.248817;    0.251860;
92;    0.096296;    0.993219;    0.805430;    0.680797;    0.624242;    0.534920;    0.445211;    0.334038;    0.288415;    0.240814;    0.243544;
93;    0.108521;    1.002616;    0.814944;    0.690407;    0.645669;    0.570696;    0.443249;    0.346594;    0.299650;    0.245770;    0.249143;
94;    0.100049;    1.009190;    0.817625;    0.680246;    0.617557;    0.542998;    0.450617;    0.345520;    0.302349;    0.248735;    0.249938;
95;    0.098524;    1.015915;    0.815331;    0.685232;    0.614271;    0.538069;    0.438670;    0.351317;    0.303466;    0.248607;    0.250793;
96;    0.101106;    1.017551;    0.813686;    0.679958;    0.643919;    0.560921;    0.476984;    0.336809;    0.299022;    0.241353;    0.248402;
97;    0.133055;    1.022993;    0.845079;    0.713920;    0.654447;    0.579647;    0.469538;    0.355348;    0.302613;    0.249084;    0.254600;
98;    0.103288;    1.006048;    0.819953;    0.682920;    0.629257;    0.557983;    0.444478;    0.339762;    0.308890;    0.248512;    0.252051;
99;    0.115769;    0.989904;    0.784844;    0.662224;    0.596149;    0.525076;    0.439190;    0.341950;    0.295320;    0.241260;    0.245474;
100;    0.109612;    0.985685;    0.790787;    0.669674;    0.615066;    0.530452;    0.446186;    0.342508;    0.299493;    0.242638;    0.243274;
