Simulation;Time;PC 0;PC 1;PC 2;PC 3;PC 4;PC 5;PC 6;PC 7;PC 8;PC 9;PC10;PC11;PC12;PC13;PC14;PC15;PC16;PC17;PC18;PC19;PC20;PC21;PC22;PC23;PC24;PC25;PC26;
Nan;Nan;0;0;0;0;0;0;0;0;0;0;0;0;1;0;0;0;0;0;0;0;0;0;0;0;0;0;0;
0;   31.098583;    0.985757;    0.869826;    0.816280;    0.757647;    0.686507;    0.581466;    0.470057;    0.543432;    0.726985;    1.064058;    1.859764;    3.529841;    9.641858;   10.818727;   11.439139;   12.306575;   14.620368;   16.542390;   19.224150;   22.207688;   24.216574;   29.574190;   35.889253;   44.790749;   52.809036;   73.656496;  109.719151;
1;   32.471950;    1.011132;    0.891568;    0.821491;    0.758203;    0.694668;    0.591148;    0.484570;    0.551961;    0.630082;    0.816929;    2.067626;    3.845272;    8.339765;    9.456440;    9.869406;   11.761248;   12.712931;   13.810414;   15.430372;   18.119243;   21.436926;   24.667111;   30.142284;   39.259645;   55.034657;   81.814734;  119.486055;
2;   32.735690;    1.012933;    0.897280;    0.838311;    0.766828;    0.681899;    0.596381;    0.478294;    0.541191;    0.667880;    1.154465;    2.104518;    3.411069;    9.323200;   10.020295;   11.650469;   12.809289;   14.073460;   16.570786;   18.448478;   22.151397;   24.498017;   28.429642;   34.064371;   42.082316;   52.138720;   77.176724;  109.535546;
3;   37.182191;    1.005382;    0.896390;    0.839068;    0.789819;    0.699852;    0.599967;    0.487203;    0.540108;    0.658185;    0.884008;    3.839861;    6.216955;   13.347574;   13.773082;   15.449833;   17.364270;   19.212403;   21.707701;   25.649823;   28.281084;   31.874547;   37.867986;   52.515896;   61.159682;   83.773415;   87.827295;  121.984456;
4;   29.534484;    1.031694;    0.914847;    0.870402;    0.784563;    0.707533;    0.588075;    0.485534;    0.537246;    0.746495;    1.140107;    2.043374;    8.391539;   10.250756;   11.041044;   12.269993;   13.810734;   14.934040;   15.759970;   17.711555;   19.296572;   20.749532;   24.980430;   32.304559;   37.010942;   47.830551;   73.427597;  128.738790;
5;   31.575395;    1.006007;    0.887624;    0.846799;    0.794689;    0.702076;    0.595185;    0.490285;    0.549627;    0.619534;    0.742360;    1.136075;    3.132085;    9.299345;   10.075129;   10.687848;   11.864319;   13.794673;   16.343667;   18.950958;   24.326493;   27.816105;   37.563303;   44.654499;   50.318653;   60.750864;   68.301853;   87.479742;
6;   34.137757;    1.001644;    0.886888;    0.832144;    0.778585;    0.670607;    0.587457;    0.473628;    0.559538;    0.727247;    1.005040;    1.749575;    4.903227;   14.385612;   15.713544;   18.091000;   19.619470;   23.762174;   25.876766;   30.185243;   35.446413;   36.265023;   40.910592;   47.905406;   53.519628;   59.358841;   66.907201;  110.357418;
7;   36.985618;    1.014534;    0.893792;    0.839830;    0.764078;    0.678493;    0.590428;    0.485359;    0.526178;    0.621443;    1.027336;    2.787435;    7.331297;   14.701080;   16.356211;   18.070062;   20.277614;   21.989564;   26.687467;   28.870008;   34.389076;   37.925212;   46.119933;   51.954011;   63.405091;   72.996158;   82.195757;  109.529717;
8;   30.164629;    0.984277;    0.869523;    0.818018;    0.749232;    0.681543;    0.593493;    0.477709;    0.536218;    0.620714;    0.794423;    1.463233;    3.710545;    9.387813;    9.985180;   11.277859;   12.733051;   14.053290;   16.705510;   19.786663;   24.306689;   28.863137;   32.392377;   39.435118;   44.730876;   48.503641;   75.957209;   98.969364;
9;   29.865084;    1.010700;    0.897209;    0.846116;    0.790442;    0.710261;    0.607386;    0.481926;    0.552849;    0.638443;    0.774148;    1.980777;    4.449874;   11.140226;   11.989211;   13.208002;   14.652022;   16.033403;   16.875639;   19.039521;   21.154106;   24.009749;   27.084257;   30.450949;   43.928150;   53.694651;   57.561747;   93.905423;
10;   29.014102;    1.013933;    0.898593;    0.853434;    0.776800;    0.708389;    0.617631;    0.480784;    0.547677;    0.624989;    0.769490;    1.324668;    2.974279;   10.370908;   11.256542;   13.193934;   15.150437;   16.697615;   17.935626;   20.881475;   23.587788;   25.782622;   30.211665;   35.108232;   40.333272;   49.306112;   64.504024;  104.562736;
11;   32.666201;    1.001265;    0.892001;    0.840241;    0.768921;    0.689282;    0.591955;    0.482670;    0.549762;    0.668377;    0.936965;    1.474021;    4.474417;   10.395702;   10.918530;   12.742714;   14.224280;   15.685291;   17.646847;   20.507469;   23.067350;   25.565258;   31.591420;   41.513572;   53.125849;   58.291868;   77.671157;   93.659485;
12;   28.183552;    0.990636;    0.886012;    0.831738;    0.786136;    0.681671;    0.584680;    0.483154;    0.546564;    0.619789;    0.720718;    1.765251;    5.214992;    8.885364;    9.827168;   10.344693;   11.228431;   13.032669;   14.621871;   17.143574;   20.599962;   24.654621;   29.290894;   32.784268;   38.979146;   42.694526;   58.946051;   99.143474;
13;   33.240868;    1.005615;    0.881519;    0.825717;    0.761147;    0.688116;    0.613586;    0.484086;    0.532149;    0.632931;    1.880265;    3.105922;    4.509249;   10.295156;   10.627601;   11.283604;   12.030621;   15.554373;   18.518383;   20.981384;   23.973267;   27.872829;   30.276466;   34.349927;   40.900670;   60.529440;   77.499506;   99.244553;
14;   24.459677;    0.988030;    0.878984;    0.828707;    0.768134;    0.681970;    0.585915;    0.471503;    0.539578;    0.617144;    0.761497;    1.864197;    2.999905;    8.126418;    8.652361;    8.901109;    9.786302;   10.774126;   12.814910;   14.219271;   16.043852;   17.615552;   19.890583;   22.700849;   28.380189;   39.863309;   54.348512;   79.927661;
15;   29.969368;    0.993614;    0.860583;    0.808691;    0.757819;    0.675323;    0.575802;    0.475715;    0.531819;    0.594701;    0.694756;    1.199026;    2.847546;    9.614908;   10.833129;   11.767323;   12.814956;   13.268322;   14.394769;   15.698550;   16.962817;   18.925850;   21.825359;   27.776699;   35.128264;   51.832282;   73.707034;   96.847224;
16;   27.495454;    1.016655;    0.906283;    0.842999;    0.771548;    0.696131;    0.607876;    0.490936;    0.553513;    0.626324;    0.782582;    1.202680;    3.440530;    9.327031;   10.244080;   11.872030;   12.869269;   13.498131;   14.883287;   16.460473;   17.801708;   20.325651;   24.241220;   29.394265;   38.266538;   45.724112;   63.187267;   90.393050;
17;   27.387034;    0.988643;    0.879179;    0.815113;    0.740228;    0.661486;    0.578823;    0.478224;    0.560095;    0.656426;    1.044656;    1.825820;    4.252411;    7.659089;    8.085377;    8.584327;    9.651003;   10.615900;   11.875984;   13.004996;   14.832809;   16.456330;   18.518310;   23.122718;   32.410835;   42.381294;   56.235802;  103.513412;
18;   30.952972;    0.973905;    0.871244;    0.816521;    0.757260;    0.699389;    0.594898;    0.484041;    0.545638;    0.657781;    0.935101;    1.372978;    3.369609;   10.101555;   10.973176;   12.177598;   13.070252;   14.189378;   16.570291;   18.282599;   20.545615;   23.404821;   26.606381;   32.780309;   43.403214;   59.481372;   84.506499;  105.193682;
19;   32.734039;    0.990160;    0.870866;    0.810962;    0.752955;    0.667809;    0.576226;    0.480633;    0.535769;    0.627268;    1.205404;    2.608057;    6.982599;   12.063056;   13.913174;   15.161841;   18.030123;   20.327970;   22.705143;   27.063268;   30.066709;   38.112644;   45.257211;   52.025587;   57.643589;   60.505602;   68.719727;   81.504789;
20;   30.313141;    1.015703;    0.887455;    0.845521;    0.776944;    0.694280;    0.606907;    0.481698;    0.534455;    0.658190;    0.799581;    1.263482;    5.434090;   11.973267;   12.475566;   13.942572;   16.419815;   17.890993;   19.505471;   22.483689;   26.225002;   28.678834;   35.995289;   40.857761;   50.172139;   54.820563;   75.001078;  122.326840;
21;   27.783579;    1.013065;    0.885815;    0.840426;    0.772458;    0.698384;    0.603524;    0.482407;    0.541817;    0.647255;    0.859394;    1.278386;    2.265376;    7.974898;    8.737898;    9.535031;   10.485824;   11.411702;   12.656200;   14.988134;   16.358818;   18.698212;   21.076240;   25.342723;   29.694658;   35.156988;   60.108658;   99.504852;
22;   29.938230;    1.015476;    0.893714;    0.830247;    0.760369;    0.685970;    0.595366;    0.482965;    0.551375;    0.870330;    1.005156;    1.275147;    4.395259;    8.984630;   10.040941;   10.812836;   11.699793;   12.843761;   15.270080;   16.966194;   19.037953;   22.935722;   28.107276;   37.357727;   43.674942;   53.257680;   70.991269;   94.178656;
23;   30.464152;    1.003599;    0.888063;    0.846151;    0.772733;    0.711394;    0.597650;    0.492422;    0.568938;    0.724564;    0.941319;    1.331867;    2.303420;    8.451458;   10.275309;   11.054459;   12.487661;   14.270768;   15.993998;   18.041979;   20.148049;   23.766717;   28.037198;   34.332228;   42.043810;   53.892366;   77.065552;  109.035446;
24;   35.270825;    1.024892;    0.905147;    0.844272;    0.768473;    0.700300;    0.600000;    0.480508;    0.561463;    0.668568;    1.546399;    3.866846;    8.153847;   13.172618;   14.838270;   16.750718;   17.426553;   18.464942;   19.722706;   21.461219;   23.853260;   31.914154;   35.173439;   45.400560;   48.499577;   53.275429;   61.815927;   89.037938;
25;   30.643559;    0.989279;    0.878970;    0.829286;    0.778870;    0.675787;    0.594442;    0.480318;    0.537797;    0.631213;    0.849726;    1.315693;    3.564233;    8.335929;    9.171558;    9.962725;   10.997267;   12.240927;   13.506696;   18.006001;   20.145471;   23.432021;   28.459774;   31.817759;   36.411787;   46.225702;   69.955238;   97.697711;
26;   30.745269;    1.014082;    0.897532;    0.842313;    0.791044;    0.698976;    0.604159;    0.488765;    0.539938;    0.631569;    0.936406;    1.879899;    5.394739;   10.264809;   11.487209;   12.761895;   14.200990;   16.419383;   19.393536;   22.501821;   24.840191;   28.438977;   30.386030;   36.740187;   40.299325;   54.192147;   74.812248;  115.469684;
27;   30.128525;    1.012187;    0.885209;    0.826389;    0.763830;    0.685919;    0.594169;    0.482119;    0.561435;    0.802040;    1.349721;    2.604352;    7.477921;    9.846927;   10.153155;   10.726695;   11.377929;   12.499898;   13.336698;   14.162897;   16.554270;   21.590023;   24.732719;   31.258573;   37.983748;   45.186216;   60.687363;  114.652509;
28;   34.205651;    1.016103;    0.887683;    0.826739;    0.758551;    0.688973;    0.592682;    0.479223;    0.528773;    0.608682;    0.856926;    1.916259;    5.303701;    9.739288;   11.422727;   12.567869;   13.578994;   14.758674;   17.138567;   18.911403;   21.437658;   23.569099;   28.010822;   36.039391;   45.759586;   54.787587;   63.988014;   88.854807;
29;   44.703870;    1.025330;    0.887829;    0.832576;    0.774538;    0.687141;    0.599133;    0.479154;    0.547706;    0.739377;    1.544162;    2.758716;    5.633301;   10.773832;   11.371468;   12.166930;   13.269684;   14.451673;   16.635441;   19.440729;   22.923055;   25.243970;   29.755474;   35.219936;   44.572611;   57.698351;   68.531628;  100.281338;
30;   34.709280;    1.011843;    0.889434;    0.849055;    0.783546;    0.698682;    0.609742;    0.481470;    0.526901;    0.638967;    0.796003;    1.496815;    2.821012;    8.203716;    8.823841;    9.884409;   11.281563;   12.445377;   15.965933;   19.564178;   23.216811;   25.977208;   31.374678;   37.018008;   43.313783;   58.152850;   76.200152;   97.920943;
31;   41.045647;    1.009468;    0.889873;    0.839222;    0.768996;    0.700228;    0.612204;    0.483665;    0.548983;    0.614926;    0.926283;    1.640428;    4.694179;    9.542132;   10.391591;   11.212081;   12.466947;   14.475775;   16.539496;   19.401862;   21.273354;   27.902469;   34.083946;   40.490085;   47.230641;   58.051464;   65.759747;   77.643502;
32;   46.511731;    0.991617;    0.884315;    0.823447;    0.750689;    0.680105;    0.578541;    0.478481;    0.545132;    0.680820;    0.927157;    1.891045;    3.745462;   10.598084;   11.418795;   12.151767;   13.294185;   14.733138;   16.187613;   17.090731;   17.886502;   19.723194;   22.286993;   24.694266;   28.911654;   46.624855;   69.447849;  116.718279;
33;   37.155545;    0.998512;    0.867731;    0.811993;    0.743051;    0.687663;    0.597085;    0.476932;    0.530320;    0.697063;    1.105946;    1.819383;    4.434417;   10.080103;   10.537959;   11.302964;   11.861471;   12.930168;   14.092431;   16.332636;   18.779790;   21.445771;   25.561162;   29.523097;   37.137519;   46.203512;   50.999397;   73.494742;
34;   36.310666;    1.016543;    0.885879;    0.834370;    0.783099;    0.693118;    0.601549;    0.491006;    0.573954;    0.706037;    0.950778;    3.219060;    5.876372;   11.398660;   12.423939;   13.309495;   14.259915;   15.364256;   17.741147;   19.606881;   22.100594;   23.358981;   28.314719;   35.753000;   43.363176;   53.668407;   73.334298;  121.708512;
35;   30.703287;    1.006455;    0.892335;    0.834780;    0.760972;    0.677775;    0.586061;    0.479405;    0.549062;    0.670743;    1.015224;    1.748850;    4.244414;   10.169348;   11.580552;   12.677232;   13.558194;   14.398924;   15.609239;   17.146089;   18.270813;   23.410041;   29.058735;   39.918072;   42.660829;   50.323165;   58.512170;   90.084105;
36;   28.845853;    0.979689;    0.879184;    0.822141;    0.764562;    0.705193;    0.587849;    0.473231;    0.540625;    0.657611;    0.902034;    1.337341;    3.412694;    9.045112;    9.775254;   10.424007;   11.266334;   12.359053;   13.619709;   16.610446;   19.927677;   22.984886;   26.439849;   29.527589;   36.168164;   45.981937;   55.839515;  100.401100;
37;   29.476689;    0.992089;    0.880457;    0.821081;    0.769278;    0.674415;    0.580595;    0.479412;    0.545155;    0.621343;    0.725528;    1.574730;    3.943548;    9.301280;    9.880346;   10.599094;   11.675306;   12.930376;   14.144237;   15.783732;   17.567134;   19.005636;   21.854166;   25.127582;   36.874677;   49.104097;   61.416542;  116.792554;
38;   32.512328;    1.000584;    0.879584;    0.825100;    0.761887;    0.691295;    0.585346;    0.477926;    0.551593;    0.635026;    0.974214;    1.434216;    4.501545;    9.492248;    9.836650;   10.688012;   12.080361;   14.567970;   16.979690;   19.087845;   21.768466;   24.248933;   29.131100;   34.393173;   44.926793;   57.310417;   60.378374;   88.221376;
39;   29.900790;    0.972566;    0.867364;    0.827972;    0.749684;    0.672094;    0.583759;    0.476802;    0.547097;    0.694157;    0.867151;    1.223689;    1.785490;    9.237122;   10.107286;   10.871036;   11.761611;   13.107837;   14.555293;   16.657062;   18.062421;   20.904539;   25.617390;   34.797515;   35.511821;   41.374173;   56.190209;   77.522891;
40;   33.178108;    1.005289;    0.888280;    0.830210;    0.773963;    0.679068;    0.583634;    0.478435;    0.545009;    0.652833;    1.252308;    2.045107;    3.794083;    9.126532;   11.118010;   12.210907;   13.948968;   15.014101;   16.728493;   19.198559;   22.336938;   32.319560;   39.834147;   49.685883;   52.869570;   63.071405;   75.046450;  106.250934;
41;   27.645160;    0.996789;    0.880782;    0.830784;    0.778112;    0.680989;    0.592362;    0.478556;    0.536292;    0.645023;    0.944342;    1.585729;    3.138758;    9.694926;   10.475060;   11.534242;   12.925306;   13.655921;   14.569522;   15.670844;   16.979808;   18.999054;   22.743963;   27.628750;   34.620837;   44.952032;   53.334043;   90.232510;
42;   30.055759;    1.016037;    0.881100;    0.836156;    0.772343;    0.685475;    0.599567;    0.480563;    0.600388;    0.975941;    1.899820;    2.694779;    4.707582;    8.896207;   10.556255;   11.233095;   11.923501;   13.041379;   14.423899;   16.137027;   17.428973;   19.475897;   25.772946;   31.433084;   42.399212;   54.151149;   66.388242;   98.052524;
43;   28.226222;    1.008517;    0.883116;    0.829867;    0.769820;    0.682064;    0.587085;    0.480936;    0.543856;    0.665824;    0.900126;    2.317515;    6.863376;    8.594390;    9.221993;   10.033512;   11.406488;   12.511961;   13.768875;   14.984370;   16.535219;   19.141351;   24.074514;   27.851317;   34.510422;   50.598036;   65.331000;  101.655573;
44;   30.195821;    1.009189;    0.893863;    0.838445;    0.781449;    0.689547;    0.610968;    0.483435;    0.569440;    0.730546;    0.924251;    1.367086;    5.492019;    9.390565;   10.560696;   11.323495;   12.779867;   13.629163;   15.557666;   18.037086;   19.732526;   21.446298;   24.345204;   29.548646;   40.527475;   48.866751;   55.770778;   96.048163;
45;   28.446384;    0.987889;    0.869565;    0.811407;    0.753960;    0.698569;    0.587396;    0.478098;    0.568933;    0.812193;    1.013440;    1.582737;    4.337277;   10.520647;   11.460427;   12.254324;   13.846326;   14.993716;   16.400190;   17.936310;   19.763580;   22.869686;   25.394423;   28.071830;   32.518843;   44.489382;   62.346228;   93.116628;
46;   29.161127;    1.013770;    0.887619;    0.826941;    0.773850;    0.697584;    0.612064;    0.472552;    0.531726;    0.635460;    0.806579;    1.160085;    3.774442;    8.194143;    8.561090;    9.217418;    9.881021;   10.684183;   13.294232;   15.478533;   16.386508;   17.985008;   21.616963;   26.781363;   35.696954;   45.181517;   54.317359;  123.689981;
47;   31.766711;    1.014193;    0.885952;    0.854158;    0.786512;    0.687852;    0.596057;    0.487806;    0.536410;    0.620376;    0.862918;    1.736196;    5.230099;   10.390495;   10.968598;   12.460016;   13.632760;   14.933042;   16.504808;   18.054122;   20.368790;   24.404260;   27.369126;   35.183536;   44.646024;   60.083295;   74.116024;   90.174884;
48;   26.028433;    1.000526;    0.890937;    0.828198;    0.780096;    0.693177;    0.606120;    0.486679;    0.570748;    0.719377;    0.971074;    1.869966;    3.593863;    9.817279;   10.519503;   11.317674;   12.199358;   13.266207;   14.065138;   14.947555;   16.147561;   17.451824;   18.847922;   20.840177;   32.546031;   40.915982;   52.506612;   91.110348;
49;   29.318967;    0.999164;    0.883199;    0.822668;    0.761882;    0.679658;    0.603596;    0.481551;    0.561024;    0.648757;    0.931155;    1.998341;    5.033109;    8.619480;   10.121198;   11.253247;   12.039173;   13.343649;   14.959510;   17.412989;   20.499575;   22.343187;   25.082999;   29.558641;   33.771162;   48.184280;   66.515118;   97.636892;
50;   29.699628;    1.001219;    0.876896;    0.826116;    0.764302;    0.693921;    0.597140;    0.485797;    0.550576;    0.639546;    0.881876;    1.247876;    7.090857;   10.646377;   11.524203;   12.132904;   12.848708;   13.903279;   15.496314;   17.725876;   21.252964;   24.491963;   28.162100;   32.885963;   42.037599;   49.763468;   73.649395;  100.238106;
51;   39.763362;    1.028990;    0.902776;    0.851891;    0.787167;    0.694213;    0.623667;    0.484969;    0.562026;    1.053467;    1.267496;    2.497842;    5.387076;    9.653303;   10.880293;   11.787479;   12.651911;   13.636244;   17.123337;   19.600207;   23.532851;   31.193984;   33.877559;   37.259238;   44.979975;   54.681321;   71.052891;   88.500019;
52;   36.887292;    0.998900;    0.881004;    0.834126;    0.770352;    0.677364;    0.575317;    0.477583;    0.525954;    0.594279;    0.831951;    2.062528;    4.466237;    9.641732;   10.263020;   11.216529;   12.610778;   13.811647;   15.447070;   16.688961;   19.340116;   23.091617;   28.445373;   36.819050;   48.952588;   64.369414;   72.542897;   87.709742;
53;   36.638674;    0.987200;    0.890291;    0.833476;    0.761633;    0.677632;    0.588468;    0.476378;    0.525140;    0.733258;    1.300563;    3.182466;    5.308745;    9.690721;   11.861470;   12.691380;   13.841753;   15.417181;   16.801743;   19.169681;   21.104919;   26.866291;   31.275919;   36.266644;   42.507980;   53.421695;   65.218241;  100.152980;
54;   27.707315;    1.014691;    0.893928;    0.829454;    0.759786;    0.679196;    0.588894;    0.477404;    0.550973;    0.689644;    1.791316;    2.750056;    4.684223;    7.763737;    8.462697;    9.163188;   10.060891;   11.432569;   12.249955;   13.124390;   14.431518;   16.697339;   19.041128;   22.035802;   30.897173;   43.730492;   59.018734;  101.574380;
55;   27.676328;    0.984278;    0.861110;    0.808104;    0.751293;    0.670501;    0.594743;    0.478312;    0.536081;    0.676737;    1.519716;    2.547257;    5.220730;    9.451263;    9.817362;   10.987732;   11.567659;   13.035518;   14.398420;   16.115302;   18.540448;   21.189607;   23.304287;   26.498827;   39.513667;   41.783465;   51.280387;   82.325442;
56;   33.352042;    0.989875;    0.868197;    0.812995;    0.738631;    0.666957;    0.581908;    0.482363;    0.528457;    0.646795;    0.888223;    1.391211;    3.219226;    9.229131;   10.406842;   11.170494;   11.645660;   13.439677;   15.235549;   16.792194;   21.059273;   25.326577;   30.967247;   36.846040;   49.955164;   65.602171;   84.000075;   94.174141;
57;   42.789100;    1.016698;    0.896296;    0.842783;    0.770910;    0.691085;    0.601673;    0.483203;    0.570627;    0.647587;    1.045423;    2.577788;    6.878897;   10.831905;   11.742259;   12.592097;   14.117610;   14.837806;   15.581482;   16.989641;   19.430132;   22.544331;   26.731824;   37.184835;   44.774471;   51.827146;   67.238351;  115.914916;
58;   32.009496;    1.009614;    0.888531;    0.835447;    0.780359;    0.697638;    0.603382;    0.485167;    0.545273;    0.626985;    0.739422;    1.011764;    4.341225;   10.010632;   10.457328;   11.460633;   12.240177;   14.029513;   16.175578;   17.466136;   20.507732;   25.016922;   28.694954;   37.294985;   45.337058;   63.667822;   85.714009;  115.991423;
59;   29.923723;    1.001465;    0.890404;    0.827161;    0.756410;    0.666915;    0.601013;    0.473796;    0.521752;    0.612652;    0.767857;    1.362265;    3.803647;    9.188881;    9.575670;   10.505740;   11.979709;   13.549923;   14.977639;   17.079230;   19.047582;   20.910932;   23.437102;   30.734733;   37.259029;   50.186798;   61.213062;   96.891253;
60;   31.917388;    1.004964;    0.887368;    0.837755;    0.777935;    0.711660;    0.591619;    0.476281;    0.531822;    0.618533;    0.871506;    1.451331;    3.645210;    9.966584;   10.995235;   12.131887;   13.474847;   14.182785;   15.148543;   16.997712;   18.552497;   20.773568;   24.229659;   29.407610;   39.423177;   54.538806;   76.500289;  105.650373;
61;   33.362095;    0.991239;    0.874991;    0.819903;    0.771618;    0.692430;    0.605600;    0.487652;    0.548938;    0.625711;    0.775710;    1.131146;    2.983808;    9.715873;   10.836943;   12.173286;   13.431662;   14.378326;   16.147106;   18.261527;   20.499907;   22.411628;   25.321096;   30.300362;   35.525387;   43.822939;   65.798390;  120.133220;
62;   26.489042;    0.991015;    0.873029;    0.825195;    0.766902;    0.667566;    0.580763;    0.474190;    0.549316;    0.741830;    1.065071;    2.207172;    3.982108;    7.424885;    8.170231;    8.716528;    9.562523;   10.156194;   11.568463;   12.374213;   13.626062;   15.518319;   18.511484;   20.932740;   27.731347;   37.819533;   54.339096;   99.717224;
63;   34.031617;    1.004369;    0.876600;    0.813626;    0.744373;    0.681578;    0.597399;    0.475257;    0.535593;    0.653268;    0.945756;    1.390307;    3.769060;    8.487703;    9.182154;   10.008319;   10.628378;   11.631285;   12.303971;   13.552989;   15.683850;   18.559281;   20.863801;   25.631824;   31.774425;   42.615402;   63.756951;  102.295041;
64;   34.804783;    1.000529;    0.880537;    0.826029;    0.771322;    0.705313;    0.601681;    0.485767;    0.600272;    1.064092;    1.399134;    2.415557;    3.820187;   11.179794;   12.108597;   13.414851;   15.083921;   17.310500;   19.592737;   23.260913;   27.186660;   32.131649;   40.569077;   44.266990;   54.716201;   67.489917;   91.665750;  123.383864;
65;   26.497547;    0.982247;    0.874491;    0.836896;    0.759381;    0.685623;    0.605196;    0.473104;    0.568955;    0.693131;    1.379431;    1.887557;    3.669231;    8.200842;    8.804359;    9.262291;   10.041380;   10.957387;   11.494965;   13.199670;   18.078337;   21.167487;   26.168072;   32.554626;   40.515225;   46.355959;   66.726674;   89.201015;
66;   33.078875;    1.004899;    0.891707;    0.838523;    0.775255;    0.712531;    0.609021;    0.481068;    0.545149;    0.612848;    0.831610;    1.097457;    2.677485;    6.690398;    7.303743;    8.096469;    8.696297;    9.112189;    9.437145;   10.777934;   12.289209;   14.342964;   18.492655;   29.028810;   34.427167;   50.361687;   71.910243;  106.020131;
67;   29.651142;    0.985798;    0.875384;    0.827978;    0.751220;    0.669738;    0.587598;    0.489186;    0.538288;    0.615047;    0.779989;    1.901418;    4.748012;    9.862185;   10.884778;   11.700692;   12.737323;   14.794680;   16.957482;   19.175255;   20.690631;   23.325608;   26.864964;   30.822787;   38.384586;   48.253302;   58.411367;  100.104192;
68;   26.610307;    1.008524;    0.891133;    0.832633;    0.777610;    0.695201;    0.593561;    0.478895;    0.524819;    0.647238;    1.016412;    1.927696;    3.991046;    8.517005;    8.867050;    9.615675;   11.128915;   12.008190;   13.249119;   14.287604;   15.726290;   18.098865;   19.621361;   21.341419;   30.141747;   44.697754;   52.950202;  102.328875;
69;   26.798064;    0.988713;    0.883150;    0.833740;    0.783274;    0.695000;    0.597538;    0.489917;    0.558912;    0.732275;    1.031533;    2.312390;    4.994895;   10.262416;   10.670573;   11.468839;   12.161926;   12.836229;   14.187473;   15.302265;   16.987340;   19.385172;   24.667330;   28.076746;   34.074331;   40.762048;   57.071177;  104.961696;
70;   33.202110;    1.013592;    0.896395;    0.836308;    0.762204;    0.689534;    0.593782;    0.483094;    0.549301;    0.649051;    1.146635;    1.593128;    4.130048;   10.333200;   11.634550;   14.255579;   16.403105;   17.982952;   19.553170;   21.092475;   25.008751;   31.643646;   38.876483;   47.952809;   55.726393;   67.424039;   83.015891;  131.967150;
71;   32.803679;    0.995296;    0.873100;    0.828215;    0.776478;    0.703757;    0.617839;    0.485395;    0.549698;    0.924061;    1.191460;    2.317310;    3.644745;   11.029774;   11.568165;   12.661636;   14.062429;   16.276688;   17.782530;   20.172102;   22.043806;   26.044459;   30.447201;   37.292214;   48.107940;   67.330321;   83.840029;  104.775851;
72;   32.336908;    1.007451;    0.883616;    0.836531;    0.772124;    0.707953;    0.594525;    0.483488;    0.548204;    0.642936;    0.792714;    1.128491;    3.614161;   13.190595;   14.627214;   16.051864;   17.912953;   19.313391;   20.561310;   21.652998;   24.841326;   26.358057;   30.100649;   34.795957;   43.354998;   51.950493;   72.265475;   81.531824;
73;   28.131923;    1.037573;    0.912265;    0.857133;    0.801728;    0.710400;    0.609818;    0.491613;    0.548252;    0.629321;    1.070759;    2.214579;    4.891573;   11.076514;   11.909060;   13.687713;   14.968078;   16.412659;   18.211666;   19.678075;   22.563629;   28.075132;   32.002676;   36.891920;   45.043995;   51.195290;   58.248728;   80.490321;
74;   29.064319;    1.010405;    0.881615;    0.824634;    0.754363;    0.669245;    0.589474;    0.478503;    0.576810;    0.797458;    1.032714;    1.930184;    4.607324;    9.207570;    9.609850;   10.125106;   10.492875;   11.762180;   13.522217;   14.832198;   16.185381;   18.749284;   23.806772;   32.263667;   42.811898;   55.375953;   80.525369;  122.118035;
75;   26.521623;    0.994963;    0.876691;    0.822348;    0.753549;    0.679737;    0.580778;    0.469259;    0.535551;    0.603434;    0.779863;    1.147808;    3.525342;    8.771555;    9.379749;   10.455122;   11.680297;   12.699883;   14.128907;   16.823118;   19.390210;   22.337688;   25.003971;   28.969471;   33.732096;   45.154044;   59.398486;   90.188501;
76;   31.475151;    1.009610;    0.881644;    0.837022;    0.759949;    0.681592;    0.590791;    0.481973;    0.528702;    0.611123;    0.758172;    1.218127;    4.438821;    9.651634;   10.159975;   11.072847;   12.673837;   13.806662;   15.592060;   18.037011;   19.877291;   24.515169;   29.337749;   32.285372;   37.967323;   52.581383;   72.901622;  105.415526;
77;   27.939320;    0.973901;    0.860491;    0.800224;    0.754205;    0.664212;    0.585957;    0.473271;    0.547545;    0.680662;    0.999586;    1.750733;    4.858392;    9.781129;   10.425597;   11.383141;   12.053043;   13.295667;   14.544606;   15.810017;   17.862011;   20.663787;   25.912104;   29.740830;   39.966770;   47.527805;   63.076813;   96.580460;
78;   28.750810;    0.994073;    0.886526;    0.835204;    0.763751;    0.687545;    0.597099;    0.477757;    0.546622;    0.672052;    0.865986;    2.233920;    6.831292;   12.298220;   13.745417;   14.994401;   16.259153;   18.318778;   19.371324;   21.380445;   23.734619;   27.775684;   31.402324;   36.130290;   43.089401;   52.397053;   69.422958;  119.165478;
79;   34.738301;    1.006614;    0.888964;    0.834554;    0.774595;    0.680899;    0.596308;    0.479051;    0.535425;    0.641309;    0.786053;    2.266149;    4.991674;   10.997244;   11.948279;   12.989979;   15.656119;   17.228453;   19.539865;   22.019685;   28.206192;   33.917166;   40.444599;   49.002762;   63.287056;   70.545928;   73.932976;   65.633928;
80;   26.464869;    0.989227;    0.867791;    0.821644;    0.765380;    0.660092;    0.583933;    0.467677;    0.518894;    0.612388;    0.826862;    1.141134;    4.020384;    9.748565;   10.399966;   11.295800;   11.701805;   12.776595;   13.775289;   14.709913;   16.613220;   19.467799;   23.468305;   28.962255;   37.548683;   45.818035;   56.611758;  111.743432;
81;   27.912703;    0.988232;    0.872845;    0.819688;    0.756223;    0.681119;    0.603326;    0.474497;    0.518982;    0.611377;    0.839863;    1.660560;    4.732674;    7.988117;    8.666104;   10.268968;   11.357038;   12.724650;   13.835067;   15.802482;   17.715020;   19.505277;   21.513717;   24.367865;   34.797944;   49.851650;   72.544684;  101.064756;
82;   26.781495;    0.981822;    0.864469;    0.824103;    0.755618;    0.683200;    0.584582;    0.472441;    0.534293;    0.635127;    1.184780;    2.733926;    4.623986;    9.173626;   10.164448;   11.091990;   11.938213;   14.045541;   15.643916;   17.583407;   20.708023;   23.031523;   26.726532;   31.014858;   35.794239;   51.019094;   70.763482;   77.700827;
83;   30.239924;    0.968464;    0.860076;    0.816632;    0.774036;    0.678717;    0.583577;    0.479652;    0.566352;    0.652141;    0.803349;    1.205244;    3.530167;   12.417956;   13.892704;   14.856942;   15.638425;   16.812755;   17.380394;   19.659773;   21.627700;   23.130311;   27.943588;   36.358462;   49.327973;   60.944569;   72.662034;  113.131683;
84;   29.524278;    0.984821;    0.881947;    0.834777;    0.759334;    0.684255;    0.602192;    0.482642;    0.584771;    0.788961;    1.092544;    1.650482;    4.991363;    8.628982;    9.314274;   10.078973;   11.897427;   14.674014;   16.662603;   18.740641;   21.628466;   24.659251;   29.648391;   33.625043;   44.071136;   52.881412;   68.073572;   89.256905;
85;   28.756318;    1.003756;    0.894483;    0.836988;    0.786854;    0.698029;    0.606573;    0.481538;    0.529752;    0.654827;    0.895846;    1.701651;    4.073021;    8.966260;    9.493534;   11.061099;   11.727250;   13.110856;   14.755835;   16.787097;   20.386376;   24.485612;   29.073906;   31.566576;   37.627045;   43.850538;   63.335574;   81.749971;
86;   27.830371;    1.009214;    0.879557;    0.820351;    0.759037;    0.695257;    0.580229;    0.475706;    0.527924;    0.583578;    0.705164;    1.279576;    3.719522;    9.290440;    9.924371;   10.849233;   11.732249;   13.400867;   15.393257;   16.071232;   18.368428;   20.865929;   25.644110;   35.977855;   38.624783;   43.361240;   59.315475;  104.565486;
87;   29.801769;    0.999250;    0.875112;    0.824950;    0.762132;    0.683492;    0.583855;    0.480181;    0.533012;    0.603377;    0.725779;    1.680557;    3.141597;   10.189917;   11.059650;   11.683231;   12.352983;   13.395566;   14.814082;   16.062234;   17.729737;   20.411892;   23.787181;   29.463258;   39.418903;   54.514239;   66.328666;  106.753182;
88;   32.401088;    1.022058;    0.894465;    0.838264;    0.774262;    0.715106;    0.624219;    0.475745;    0.563573;    0.700402;    1.001167;    2.037262;    4.826980;   11.583339;   12.118071;   13.114058;   15.060587;   18.115300;   19.000906;   21.736014;   24.159083;   27.048537;   31.149737;   35.816165;   44.274708;   47.348499;   65.564866;   91.701966;
89;   26.806274;    1.009573;    0.891100;    0.835770;    0.768254;    0.701016;    0.577755;    0.480879;    0.542250;    0.698521;    1.209777;    2.421641;    5.621598;    9.079742;    9.492151;   10.016376;   10.666645;   11.398073;   12.568008;   13.553008;   14.934966;   17.499248;   20.126010;   23.781376;   27.299935;   36.754384;   62.034751;  106.387046;
90;   28.184194;    0.992347;    0.878959;    0.831847;    0.768195;    0.685498;    0.606665;    0.488723;    0.546192;    0.661595;    0.813506;    1.356102;    3.368027;    7.708612;    8.217847;    8.946186;    9.728051;   10.794469;   11.992932;   13.359387;   14.709192;   16.337327;   19.655627;   23.190176;   27.870428;   34.410999;   61.457819;  100.248717;
91;   31.154133;    1.009398;    0.887659;    0.841557;    0.762827;    0.680628;    0.583768;    0.478817;    0.557229;    0.672436;    0.856888;    1.472022;    2.296627;    9.902376;   10.811921;   11.544251;   12.234035;   12.716222;   13.349834;   14.370104;   15.950735;   19.027195;   23.820038;   28.170120;   34.430992;   51.411989;   66.129724;   82.119403;
92;   30.925205;    0.999155;    0.883465;    0.828973;    0.767451;    0.688999;    0.588725;    0.477222;    0.558582;    0.687251;    0.818187;    1.548920;    4.436676;    8.829668;    9.446187;   10.053747;   11.377987;   12.905004;   15.594716;   17.373911;   20.196188;   21.797089;   27.143741;   37.856205;   47.890630;   54.413422;   61.807800;  100.305458;
93;   31.112108;    1.003072;    0.887890;    0.839873;    0.797167;    0.717980;    0.596734;    0.480138;    0.540805;    0.631322;    0.800563;    1.561582;    5.100496;    9.623399;   10.576200;   11.708046;   13.017465;   13.995496;   15.063641;   16.598751;   19.002107;   21.252974;   25.316134;   27.463191;   33.766066;   39.980653;   69.144124;  112.456802;
94;   29.085150;    1.003237;    0.885255;    0.824812;    0.753420;    0.681516;    0.592881;    0.479333;    0.537656;    0.612235;    0.724281;    1.148346;    4.711604;    9.601239;   10.215365;   11.220888;   12.021937;   12.622908;   13.305480;   15.420995;   17.298118;   20.956101;   22.870878;   30.604007;   36.857121;   45.902800;   65.832150;   93.371703;
95;   25.605587;    1.011784;    0.887578;    0.838548;    0.766262;    0.687894;    0.586483;    0.483211;    0.536259;    0.796887;    0.984147;    1.299542;    3.117334;    7.968518;    8.663827;    9.604111;   10.278455;   10.898753;   11.576852;   13.530085;   16.077205;   18.104673;   21.047381;   24.739213;   28.102332;   35.638455;   56.294141;   99.997905;
96;   29.662659;    1.008231;    0.881394;    0.835903;    0.788124;    0.712903;    0.612730;    0.470630;    0.529772;    0.606388;    0.880356;    1.348961;    2.621664;    9.640803;   10.367134;   11.162610;   12.487632;   14.149172;   15.442232;   17.400363;   19.572083;   23.274225;   27.635745;   33.948448;   40.709086;   52.817596;   66.554097;  107.691162;
97;   30.813726;    1.018591;    0.908797;    0.858554;    0.781534;    0.709902;    0.605650;    0.484019;    0.535744;    0.631482;    0.844199;    1.092301;    2.047866;    8.328463;    9.456928;   10.272565;   11.053707;   13.008497;   14.634105;   16.794761;   19.205835;   21.402266;   25.672887;   29.010240;   37.705178;   51.101254;   68.992763;  105.856807;
98;   27.506065;    1.005078;    0.890730;    0.853678;    0.783573;    0.694043;    0.596923;    0.479367;    0.565008;    0.653002;    0.798708;    1.304560;    5.159480;   10.990845;   11.712393;   12.478460;   13.460097;   14.174348;   15.590981;   16.763514;   18.102306;   20.944143;   23.868573;   25.918699;   31.842237;   40.875906;   62.825555;  104.806468;
99;   26.216223;    0.991155;    0.862559;    0.813119;    0.759848;    0.681682;    0.596189;    0.484569;    0.550427;    0.762748;    1.002687;    2.003273;    3.990812;    7.252948;    7.541091;    7.941168;    8.562512;    9.390267;   10.927528;   13.489052;   15.712119;   17.775413;   22.014539;   29.231085;   34.572170;   48.084749;   69.149402;   97.317409;
100;   39.458526;    0.990450;    0.868735;    0.818919;    0.754239;    0.675130;    0.609841;    0.480818;    0.539648;    0.613823;    1.042217;    1.464399;    5.394409;   12.601953;   12.895448;   13.388721;   13.811865;   15.274379;   16.675153;   20.186281;   23.396532;   27.465625;   33.407953;   41.450269;   53.201667;   70.877645;   75.934958;  108.224143;
