Simulation;Time;PC 0;PC 1;PC 2;PC 3;PC 4;PC 5;PC 6;PC 7;PC 8;PC 9;PC10;PC11;PC12;PC13;PC14;PC15;PC16;PC17;PC18;PC19;PC20;PC21;PC22;PC23;PC24;PC25;PC26;PC27;PC28;PC29;PC30;PC31;PC32;PC33;PC34;PC35;PC36;PC37;PC38;PC39;PC40;PC41;PC42;PC43;PC44;PC45;PC46;PC47;PC48;PC49;
Nan;Nan;0;0;0;0;0;0;0;0;0;0;0;0;0;0;0;1;0;0;0;0;0;0;0;0;0;0;0;0;0;0;0;0;0;0;0;0;0;0;0;0;0;0;0;0;0;0;0;0;0;0;
0;    0.024315;    1.000000;    0.899131;    0.853675;    0.809634;    0.762460;    0.710944;    0.658641;    0.605163;    0.547465;    0.488496;    0.431747;    0.435369;    0.431185;    0.674678;    0.771057;    0.959583;    0.979654;    0.995419;    1.006197;    1.056106;    1.067555;    1.107295;    1.169647;    1.234217;    1.280765;    1.351945;    1.377110;    1.456742;    1.521202;    1.581107;    1.625662;    1.689818;    1.776676;    1.883025;    2.076176;    2.238819;    2.668454;    2.864836;    3.089710;    3.495091;    3.619277;    4.231246;    4.460759;    5.434677;    7.036756;    9.155391;   25.179824;   34.091289;  616.240994;1788635.630066;
1;    0.027078;    1.000000;    0.898665;    0.851501;    0.806239;    0.757974;    0.708456;    0.656558;    0.603393;    0.547017;    0.489479;    0.428673;    0.429453;    0.422667;    0.654354;    0.837505;    1.111690;    1.132562;    1.154873;    1.178220;    1.191049;    1.205383;    1.236244;    1.285009;    1.351817;    1.385370;    1.510698;    1.605973;    1.673642;    1.711911;    1.762417;    1.797774;    1.903057;    1.977412;    2.090681;    2.265489;    2.541654;    2.705088;    3.214373;    3.381504;    3.906615;    4.267753;    4.708346;    5.370482;    5.644199;    9.361031;   10.399698;   12.804697;   18.490435;   57.949357; 1054.214039;
2;    0.022376;    1.000000;    0.903591;    0.859519;    0.814833;    0.766128;    0.713513;    0.662372;    0.605824;    0.549207;    0.488955;    0.423938;    0.425270;    0.420487;    0.786986;    0.868655;    1.100495;    1.118749;    1.174005;    1.192519;    1.209764;    1.240559;    1.389363;    1.406419;    1.474048;    1.512390;    1.583104;    1.726114;    1.761858;    1.800839;    1.908695;    2.066497;    2.184569;    2.449681;    2.531335;    2.622138;    2.672039;    2.786019;    2.925748;    3.194673;    3.789729;    4.134940;    4.555999;    4.739299;    7.088485;    8.494467;    9.090392;   11.607222;   16.026104;   29.930859;  845.196725;
3;    0.022767;    1.000000;    0.906992;    0.862236;    0.816923;    0.768632;    0.719536;    0.666627;    0.611869;    0.552861;    0.490531;    0.426325;    0.431749;    0.422210;    0.725762;    0.801704;    1.045659;    1.117376;    1.136103;    1.188816;    1.210735;    1.251360;    1.268788;    1.285700;    1.310142;    1.351626;    1.373958;    1.420762;    1.465151;    1.488596;    1.543597;    1.573301;    1.606627;    1.676024;    1.722656;    1.801665;    1.877327;    1.946408;    2.181763;    2.291073;    2.575562;    2.788613;    3.177342;    3.538497;    3.836937;    4.473564;    4.963923;    6.770554;    9.962577;   15.852760; 4419.540236;
4;    0.023846;    1.000000;    0.902504;    0.857355;    0.810083;    0.759576;    0.707968;    0.657886;    0.603616;    0.545020;    0.485719;    0.423411;    0.426867;    0.420466;    0.708041;    0.767523;    1.001059;    1.031619;    1.044421;    1.077526;    1.092050;    1.145836;    1.159034;    1.226742;    1.273807;    1.298941;    1.333879;    1.373114;    1.458218;    1.513710;    1.557189;    1.586416;    1.628073;    1.748715;    1.946633;    2.014795;    2.201881;    2.481740;    2.787774;    2.908338;    3.096062;    3.474932;    5.015415;    5.939032;    6.960130;    7.801256;    8.556839;    9.680638;   19.930030;   25.594005; 1461.560018;
5;    0.024304;    1.000000;    0.899429;    0.855432;    0.810314;    0.763653;    0.713729;    0.661885;    0.607379;    0.550182;    0.490072;    0.428065;    0.423807;    0.422190;    0.668811;    0.770638;    1.015083;    1.032697;    1.060480;    1.092649;    1.118903;    1.139199;    1.165487;    1.225787;    1.242601;    1.273685;    1.309274;    1.330694;    1.353176;    1.437112;    1.497487;    1.535298;    1.577809;    1.973757;    2.094353;    2.191619;    2.255931;    2.520219;    2.693151;    2.872606;    2.962879;    3.142408;    4.079090;    4.659557;    5.170319;    6.243650;    7.624605;   14.955490;   21.578397;   46.828385;  193.147736;
6;    0.028750;    1.000000;    0.900561;    0.855382;    0.808240;    0.761677;    0.711404;    0.659662;    0.605739;    0.546373;    0.487563;    0.426245;    0.430624;    0.423911;    0.658192;    0.852760;    1.041099;    1.064022;    1.073675;    1.085010;    1.117975;    1.157854;    1.199675;    1.225446;    1.281482;    1.294189;    1.344876;    1.395821;    1.474114;    1.551549;    1.765806;    1.838525;    1.940456;    1.989630;    2.123419;    2.171432;    2.301656;    2.487769;    2.581345;    2.714351;    2.985364;    3.254364;    3.796880;    4.382700;    4.860382;    6.194189;    7.326877;    9.709598;   11.063857;   31.105578; 1171.472491;
7;    0.020984;    1.000000;    0.900303;    0.852716;    0.806739;    0.759013;    0.707695;    0.654238;    0.599618;    0.542859;    0.484484;    0.423647;    0.423779;    0.417067;    0.777905;    0.896574;    1.023859;    1.061384;    1.086685;    1.107432;    1.152406;    1.185095;    1.200752;    1.319536;    1.381092;    1.400656;    1.455741;    1.530540;    1.563643;    1.594264;    1.657302;    1.688733;    1.777435;    1.829254;    1.920237;    2.019335;    2.383549;    2.508056;    2.571758;    2.669571;    3.158005;    3.422221;    3.628493;    3.803744;    5.128342;    5.512770;    6.488224;    8.156434;   11.611541;   20.534920;  478.014945;
8;    0.026417;    1.000000;    0.901954;    0.858357;    0.814095;    0.765253;    0.715978;    0.662978;    0.607998;    0.551351;    0.491015;    0.429381;    0.431144;    0.429243;    0.757731;    0.851761;    1.092652;    1.157996;    1.178875;    1.198237;    1.229521;    1.239468;    1.276129;    1.320454;    1.354960;    1.464552;    1.516305;    1.557113;    1.663889;    1.709114;    1.765957;    1.848822;    1.900578;    2.138645;    2.361252;    2.453630;    2.514648;    2.602436;    2.833667;    2.983212;    3.095560;    3.422488;    4.079093;    4.520293;    5.306496;    6.515110;    9.134596;   19.115095;   30.245946;   41.174214;  298.471199;
9;    0.023056;    1.000000;    0.904347;    0.859806;    0.812846;    0.764205;    0.715231;    0.661299;    0.606921;    0.549108;    0.487188;    0.422310;    0.420457;    0.420005;    0.626114;    0.803108;    1.039867;    1.062244;    1.076287;    1.102971;    1.131861;    1.149986;    1.197384;    1.228738;    1.309948;    1.382797;    1.414922;    1.445629;    1.542142;    1.656569;    1.699974;    1.742061;    1.797309;    1.882486;    1.960497;    2.097799;    2.285607;    2.778388;    3.052240;    3.321365;    3.583379;    3.928583;    4.788121;    6.464128;    6.863210;    8.236151;    9.649993;   19.829630;   25.346631;   48.112142;  363.704178;
10;    0.022847;    1.000000;    0.901835;    0.858050;    0.812432;    0.766226;    0.718183;    0.666603;    0.610233;    0.550836;    0.488168;    0.422567;    0.420454;    0.419063;    0.817005;    0.897507;    1.191732;    1.218198;    1.244258;    1.254580;    1.282527;    1.348955;    1.372291;    1.438863;    1.482437;    1.520428;    1.672219;    1.705813;    1.768980;    1.862982;    1.895851;    1.932632;    2.001046;    2.146171;    2.285656;    2.469803;    2.610736;    2.690200;    2.867943;    2.987981;    3.242075;    3.478722;    3.761569;    4.274932;    5.574844;    8.050348;    8.871557;   14.418999;   50.065525;  127.785521;79767.449222;
11;    0.023666;    1.000000;    0.904681;    0.862078;    0.817530;    0.768741;    0.719396;    0.666105;    0.609748;    0.553345;    0.490436;    0.429791;    0.435067;    0.424327;    0.807177;    0.867992;    1.226503;    1.255889;    1.275403;    1.297907;    1.343200;    1.391021;    1.411164;    1.459373;    1.481418;    1.516605;    1.584959;    1.728952;    1.860191;    1.933958;    2.118165;    2.165412;    2.274554;    2.317495;    2.413316;    2.821095;    2.933277;    3.024320;    3.121026;    3.394901;    3.722251;    3.855644;    4.103796;    4.390940;    4.789544;    5.297127;    6.549828;    9.053107;   18.393129;   44.979873;11369.111481;
12;    0.022834;    1.000000;    0.908199;    0.865289;    0.818841;    0.767571;    0.715642;    0.662573;    0.605945;    0.547006;    0.489709;    0.428452;    0.429936;    0.418313;    0.708192;    0.798667;    0.932187;    0.968575;    0.984674;    1.064413;    1.085600;    1.103725;    1.120039;    1.152124;    1.198073;    1.218647;    1.243137;    1.285855;    1.330445;    1.377652;    1.452356;    1.511754;    1.639308;    1.707847;    1.785752;    1.833552;    1.987977;    2.061205;    2.146169;    2.264370;    2.601226;    3.305158;    3.708097;    4.937082;    5.692201;    6.214323;    8.280319;   17.752137;   21.230290;   40.813237;  237.955275;
13;    0.021852;    1.000000;    0.895281;    0.850740;    0.806203;    0.757218;    0.707477;    0.655542;    0.601517;    0.545801;    0.486457;    0.428629;    0.428479;    0.421318;    0.722290;    0.771030;    1.069466;    1.086150;    1.125099;    1.164889;    1.192895;    1.279492;    1.307167;    1.326905;    1.368518;    1.386344;    1.405245;    1.465247;    1.572895;    1.746767;    1.808473;    1.844064;    1.899143;    1.978721;    2.057499;    2.374830;    2.448880;    2.634751;    2.917515;    3.037136;    3.269991;    3.669620;    4.607053;    5.899957;    6.744974;    7.244886;    9.388301;   10.906714;   13.310703;   49.600531; 8810.748640;
14;    0.023867;    1.000000;    0.904030;    0.861472;    0.815165;    0.768488;    0.719319;    0.667128;    0.609509;    0.551264;    0.493994;    0.435395;    0.433621;    0.432930;    0.671783;    0.814788;    0.941375;    0.966471;    0.985700;    0.999564;    1.092189;    1.108730;    1.161575;    1.183051;    1.261111;    1.280731;    1.359083;    1.437277;    1.476545;    1.603539;    1.695438;    1.743839;    1.789624;    1.885481;    1.939724;    1.991740;    2.080240;    2.188980;    2.321702;    2.558961;    2.800489;    2.995863;    3.966985;    4.547197;    5.922784;    6.518348;    8.204875;   10.935489;   14.085977;   25.092645;  250.096382;
15;    0.028866;    1.000000;    0.888966;    0.843015;    0.796171;    0.750220;    0.701532;    0.651057;    0.597890;    0.542484;    0.485355;    0.426806;    0.422908;    0.422825;    0.765413;    0.824702;    1.096529;    1.115177;    1.132326;    1.165326;    1.182031;    1.223445;    1.247248;    1.302992;    1.325537;    1.354317;    1.412662;    1.470948;    1.513536;    1.561791;    1.592657;    1.654703;    1.732125;    1.884106;    1.950943;    2.132403;    2.292495;    2.597954;    2.696027;    2.984861;    3.791885;    4.234843;    4.662352;    6.421792;    7.162409;    9.820576;   12.062626;   17.199105;   23.363298;   42.553916;  304.608660;
16;    0.023058;    1.000000;    0.906461;    0.858123;    0.811212;    0.763016;    0.710517;    0.660250;    0.604520;    0.545946;    0.486737;    0.425460;    0.424979;    0.423221;    0.771181;    1.004732;    1.149553;    1.168003;    1.185019;    1.226945;    1.254844;    1.285372;    1.323140;    1.377472;    1.425629;    1.527159;    1.652501;    1.743950;    1.771121;    1.819917;    1.877364;    1.944617;    2.091437;    2.189858;    2.382024;    2.528816;    2.875380;    3.013919;    3.100815;    3.360061;    3.491713;    3.752273;    4.023654;    4.579849;    4.932715;    5.432775;    5.927557;    7.009264;    9.117219;   29.439829; 4529.160030;
17;    0.022394;    1.000000;    0.904017;    0.858161;    0.811191;    0.762752;    0.712917;    0.658761;    0.604521;    0.549680;    0.490905;    0.430518;    0.431063;    0.419299;    0.704626;    0.894618;    1.011168;    1.028366;    1.038361;    1.062737;    1.088420;    1.121892;    1.162198;    1.176622;    1.199983;    1.228444;    1.254838;    1.282472;    1.382257;    1.426416;    1.520368;    1.579683;    1.799932;    1.891132;    2.014451;    2.083034;    2.344005;    2.409077;    2.578541;    2.792909;    3.190966;    3.332415;    3.627713;    3.945644;    4.943182;    5.825706;    6.718838;    9.623463;   13.978002;   60.371083; 1944.976082;
18;    0.023128;    1.000000;    0.909980;    0.864611;    0.819422;    0.769521;    0.719451;    0.666200;    0.611000;    0.555981;    0.497753;    0.434563;    0.439012;    0.429292;    0.685888;    0.769678;    0.992232;    1.055935;    1.095272;    1.121425;    1.200952;    1.322740;    1.409637;    1.424940;    1.471939;    1.550427;    1.604321;    1.687308;    1.715172;    1.749667;    1.799898;    1.983990;    2.093765;    2.162962;    2.342302;    2.439869;    2.659862;    2.760316;    2.841497;    2.933569;    3.088760;    3.477091;    4.035661;    4.227844;    6.141102;    7.983974;   11.784841;   90.964419;  113.875429;  215.326392; 1324.996928;
19;    0.025452;    1.000000;    0.898589;    0.854032;    0.810375;    0.764487;    0.716271;    0.665189;    0.612148;    0.554587;    0.493032;    0.432504;    0.432149;    0.429097;    0.675009;    0.871972;    1.198505;    1.276308;    1.302123;    1.389679;    1.467733;    1.491661;    1.515132;    1.596550;    1.659762;    1.764844;    1.794940;    1.857014;    1.937392;    2.007269;    2.057607;    2.160652;    2.211834;    2.261793;    2.469888;    2.592514;    2.680630;    2.809397;    3.212060;    3.296842;    3.760412;    4.026649;    4.848371;    7.340869;    8.152213;    8.904957;   10.530999;   12.674068;   18.600159;   31.683932;  293.614583;
20;    0.023194;    1.000000;    0.892429;    0.850843;    0.805992;    0.758039;    0.710015;    0.660099;    0.607109;    0.548602;    0.488044;    0.423258;    0.420838;    0.416429;    0.811769;    0.864475;    1.086245;    1.105611;    1.127084;    1.161895;    1.201324;    1.231635;    1.307999;    1.348338;    1.387972;    1.408786;    1.517614;    1.579414;    1.609713;    1.684867;    1.749658;    1.878792;    1.922378;    2.014225;    2.063751;    2.175105;    2.397711;    2.462012;    2.823564;    3.214912;    3.832989;    4.011627;    4.257794;    4.592017;    5.264907;    6.323907;    9.959829;   53.986723;   60.011110;   81.061462;170225.934787;
21;    0.031316;    1.000000;    0.893020;    0.851182;    0.806814;    0.757571;    0.708533;    0.657171;    0.602588;    0.546568;    0.486293;    0.424711;    0.427840;    0.420119;    0.689952;    0.877102;    1.052685;    1.075702;    1.127034;    1.143580;    1.164601;    1.204052;    1.226819;    1.253406;    1.282438;    1.352253;    1.371275;    1.440079;    1.495278;    1.565282;    1.606034;    1.641243;    1.688270;    1.756286;    1.804620;    1.903328;    1.963996;    2.107077;    2.242794;    2.361506;    2.604299;    2.709823;    2.914370;    3.301872;    3.647297;    4.449676;    5.439400;    8.334148;   14.948207;   33.229374; 2313.477791;
22;    0.022512;    1.000000;    0.898101;    0.853029;    0.805803;    0.754907;    0.705723;    0.653704;    0.602957;    0.547641;    0.486858;    0.423458;    0.422897;    0.418311;    0.616228;    0.751369;    0.879216;    0.908972;    0.922330;    0.939533;    0.983824;    0.995794;    1.065587;    1.090066;    1.143160;    1.177503;    1.201811;    1.267045;    1.316781;    1.381724;    1.516630;    1.563807;    1.621784;    1.672667;    1.949843;    2.398412;    2.768990;    2.941802;    3.516810;    3.707463;    3.959947;    4.675342;    5.495574;    5.956735;    7.282200;    8.026590;    9.248019;   10.638500;   28.563996;  619.284524; 7704.688399;
23;    0.024783;    1.000000;    0.901722;    0.860234;    0.815986;    0.768862;    0.717964;    0.662759;    0.607960;    0.549662;    0.488108;    0.429277;    0.431302;    0.424753;    0.787603;    0.859575;    1.194926;    1.248427;    1.276733;    1.318509;    1.358382;    1.387999;    1.420438;    1.515453;    1.639910;    1.682519;    1.782240;    1.893040;    1.974525;    2.079660;    2.181694;    2.314514;    2.442095;    2.502005;    2.566964;    2.777369;    2.846525;    2.955803;    3.176379;    3.692181;    3.989833;    4.354651;    4.713519;    5.102116;    6.106451;   10.651041;   12.249196;   17.339747;   21.711670;   29.821348; 2759.504801;
24;    0.022625;    1.000000;    0.899129;    0.854937;    0.807219;    0.758952;    0.707566;    0.655061;    0.599220;    0.540378;    0.480723;    0.418671;    0.414120;    0.410282;    0.587111;    0.640460;    0.890077;    0.920195;    0.953582;    0.975201;    0.996281;    1.011033;    1.074443;    1.089181;    1.119198;    1.137650;    1.166267;    1.186704;    1.225548;    1.300205;    1.353024;    1.398020;    1.449103;    1.523442;    1.559929;    1.643360;    1.725420;    1.884992;    2.225927;    2.504413;    2.678685;    2.820918;    3.002352;    3.677179;    4.359024;    5.495256;    7.131057;   21.078097;   28.518981;   76.590076; 1282.570788;
25;    0.022670;    1.000000;    0.904497;    0.860878;    0.814631;    0.765448;    0.715020;    0.662348;    0.607284;    0.547685;    0.488789;    0.429352;    0.428286;    0.425193;    0.761766;    0.922263;    1.315152;    1.344748;    1.353846;    1.403592;    1.429962;    1.477092;    1.541621;    1.682777;    1.740831;    1.953221;    1.988796;    2.184376;    2.251748;    2.293307;    2.460357;    2.668577;    2.959080;    2.997501;    3.148165;    3.386886;    3.542331;    3.785572;    3.950778;    4.148141;    4.334641;    4.559377;    4.713000;    5.092769;    5.498129;    8.843051;    9.800595;   12.295710;   17.952127;   46.972368; 3362.616230;
26;    0.022709;    1.000000;    0.902766;    0.858895;    0.814191;    0.767071;    0.717830;    0.665616;    0.610422;    0.549963;    0.490190;    0.425369;    0.427100;    0.421442;    0.650225;    0.725114;    0.995094;    1.063799;    1.092544;    1.137704;    1.187971;    1.295563;    1.320433;    1.354843;    1.377613;    1.435121;    1.478333;    1.647680;    1.682447;    1.730079;    1.767426;    1.831806;    1.920861;    1.998068;    2.135538;    2.483046;    2.700402;    2.756153;    3.174103;    3.249571;    3.746656;    3.933524;    4.146263;    6.725712;    7.397910;    8.544788;    9.483908;   14.435417;   71.378415;  175.342101; 1405.105334;
27;    0.020904;    1.000000;    0.894028;    0.847432;    0.803230;    0.757513;    0.709949;    0.658938;    0.604182;    0.546134;    0.486021;    0.423788;    0.427795;    0.416149;    0.721788;    0.951693;    1.172107;    1.188014;    1.209676;    1.226720;    1.248942;    1.309025;    1.337184;    1.384989;    1.428709;    1.469894;    1.504482;    1.581803;    1.636554;    1.707823;    1.794113;    1.908135;    2.044305;    2.164528;    2.285339;    2.775654;    3.347370;    3.447544;    3.703049;    3.802872;    4.044807;    4.261682;    4.945498;    7.317101;    7.551598;    8.212178;    9.967659;   13.939584;   19.109341;   26.489682;  335.830294;
28;    0.038204;    1.000000;    0.893621;    0.848989;    0.802537;    0.753757;    0.705811;    0.655112;    0.600523;    0.543390;    0.481887;    0.421097;    0.425359;    0.417598;    0.594205;    0.676161;    1.011887;    1.027299;    1.094927;    1.114355;    1.125366;    1.145267;    1.221891;    1.241186;    1.258780;    1.293108;    1.335296;    1.380601;    1.411597;    1.491234;    1.517527;    1.548631;    1.606171;    1.702406;    1.813113;    1.886974;    1.992328;    2.423287;    2.526994;    2.633191;    3.536201;    4.247222;    4.937760;    5.369229;    7.097759;    7.671961;   10.113515;   11.664291;   24.682549;   78.706367; 4145.373721;
29;    0.040657;    1.000000;    0.888942;    0.846470;    0.801744;    0.754071;    0.705101;    0.653426;    0.597695;    0.537912;    0.477736;    0.417505;    0.418353;    0.415825;    0.610629;    0.894829;    1.053785;    1.087255;    1.145964;    1.235353;    1.245082;    1.301350;    1.392703;    1.430780;    1.454281;    1.587383;    1.684274;    1.784052;    2.036159;    2.071421;    2.187801;    2.272529;    2.343902;    2.487551;    2.590055;    2.674920;    2.796068;    2.978190;    3.062316;    3.333245;    3.788036;    3.982801;    5.127692;    5.475930;    5.977502;    6.529082;    7.743669;   10.662578;   14.100114;   38.407599; 3256.676365;
30;    0.020606;    1.000000;    0.897644;    0.855741;    0.811204;    0.765202;    0.716204;    0.666551;    0.611305;    0.553600;    0.493952;    0.429261;    0.429628;    0.424504;    0.688615;    0.768050;    1.116442;    1.127523;    1.164417;    1.248377;    1.281877;    1.340618;    1.353345;    1.381261;    1.407316;    1.430494;    1.473284;    1.537403;    1.625053;    1.657393;    1.709833;    1.774693;    1.819350;    1.882482;    2.023540;    2.135850;    2.292596;    2.417043;    2.621589;    2.736863;    2.871027;    3.331500;    3.712274;    4.137516;    5.279653;    6.917449;    7.580016;   10.470625;   21.118995;   39.796975;  828.383832;
31;    0.040484;    1.000000;    0.897368;    0.853378;    0.808592;    0.760679;    0.712908;    0.661161;    0.606870;    0.548622;    0.488499;    0.426178;    0.430924;    0.421565;    0.719680;    0.769518;    0.989826;    1.033996;    1.087777;    1.143642;    1.166958;    1.185001;    1.214005;    1.287517;    1.337811;    1.369578;    1.409729;    1.436405;    1.496189;    1.534174;    1.579755;    1.700635;    1.760798;    1.904340;    2.101202;    2.158710;    2.257440;    2.438462;    2.674105;    2.895058;    3.258882;    3.619929;    3.757810;    3.931444;    4.578921;    5.155824;    6.343440;   12.239123;   17.858608;   35.127983; 1497.385273;
32;    0.032643;    1.000000;    0.907862;    0.862333;    0.816036;    0.767387;    0.714609;    0.662512;    0.606601;    0.547291;    0.486130;    0.426959;    0.431938;    0.423429;    0.747381;    0.852359;    1.105654;    1.146560;    1.167599;    1.177579;    1.220485;    1.240421;    1.272205;    1.304132;    1.343288;    1.382629;    1.532567;    1.569958;    1.619021;    1.669739;    1.752096;    1.868207;    2.085099;    2.128495;    2.174203;    2.322370;    2.398097;    2.456566;    2.639563;    2.712818;    2.981336;    3.169563;    4.522704;    4.877791;    5.460762;    7.621744;    8.720078;    9.943732;   12.492096;   54.018982; 1206.121729;
33;    0.022652;    1.000000;    0.891740;    0.848494;    0.803673;    0.755887;    0.705543;    0.655387;    0.600851;    0.545746;    0.486920;    0.423643;    0.420622;    0.420637;    0.686331;    0.809227;    0.997636;    1.017214;    1.055567;    1.113412;    1.136140;    1.162143;    1.201066;    1.226944;    1.265785;    1.340249;    1.395899;    1.496118;    1.578958;    1.615723;    1.665879;    1.834955;    2.041443;    2.087727;    2.156733;    2.243048;    2.489191;    2.853994;    2.955720;    3.132598;    3.770245;    4.617792;    5.117715;    5.347329;    6.550982;    8.065092;   11.199555;   24.429875;   35.539670;  109.219826;  697.625790;
34;    0.028155;    1.000000;    0.892978;    0.850028;    0.803816;    0.754037;    0.703330;    0.652884;    0.599052;    0.541305;    0.483268;    0.421343;    0.425315;    0.418943;    0.592084;    0.715156;    0.965528;    1.002693;    1.038980;    1.052478;    1.065912;    1.214042;    1.231667;    1.285900;    1.305517;    1.322651;    1.341521;    1.377689;    1.430225;    1.471799;    1.504896;    1.653541;    1.852132;    1.906754;    1.950686;    2.190142;    2.389202;    2.469230;    2.556541;    2.836069;    2.923265;    3.294595;    3.582585;    4.717597;    5.758175;    6.278375;    8.610769;   10.836931;   41.374776;   68.829121;  625.723980;
35;    0.021918;    1.000000;    0.901664;    0.857573;    0.809076;    0.759057;    0.709064;    0.657463;    0.605745;    0.549373;    0.489358;    0.427057;    0.425269;    0.426507;    0.757364;    0.833304;    1.119497;    1.137192;    1.167178;    1.214866;    1.260375;    1.292970;    1.306789;    1.355108;    1.393655;    1.410199;    1.505494;    1.586306;    1.624382;    1.703919;    1.739329;    1.876622;    2.003459;    2.048237;    2.138693;    2.229558;    2.311260;    2.652169;    2.770010;    3.103070;    3.267124;    3.653317;    4.005266;    4.593121;    4.985396;    6.168375;    8.609072;   10.975846;   33.412232;   77.814547;  146.055422;
36;    0.021954;    1.000000;    0.911351;    0.868147;    0.821689;    0.772956;    0.722664;    0.669167;    0.612382;    0.553510;    0.494219;    0.430300;    0.429726;    0.431068;    0.712117;    0.919302;    1.082202;    1.095802;    1.125042;    1.161052;    1.188067;    1.205823;    1.252160;    1.294410;    1.381399;    1.427000;    1.462380;    1.507877;    1.537614;    1.598205;    1.696929;    1.739685;    1.815215;    1.925183;    1.996845;    2.052132;    2.169011;    2.303239;    2.674548;    2.896574;    3.035463;    3.165471;    3.879741;    4.154595;    7.253237;   10.724547;   11.733986;   14.209374;   16.365887;   68.354783;  363.642964;
37;    0.022839;    1.000000;    0.903675;    0.859297;    0.812668;    0.763756;    0.714350;    0.662708;    0.607099;    0.549357;    0.489598;    0.428890;    0.430599;    0.425010;    0.727171;    0.782310;    1.123706;    1.197902;    1.225377;    1.252304;    1.291984;    1.343054;    1.367770;    1.420679;    1.465129;    1.505203;    1.551932;    1.580919;    1.644283;    1.687979;    1.771582;    1.815083;    2.002483;    2.113951;    2.259426;    2.566633;    2.834379;    3.004851;    3.673707;    3.822728;    3.932019;    4.235187;    4.613318;    7.107993;   10.433046;   10.821996;   15.538169;   21.131174;   26.041191;   54.991170; 1120.876790;
38;    0.022583;    1.000000;    0.897586;    0.853219;    0.806774;    0.759935;    0.710734;    0.658035;    0.604480;    0.547577;    0.488612;    0.430702;    0.436277;    0.429468;    0.603518;    0.761858;    1.001447;    1.022525;    1.069921;    1.099021;    1.111618;    1.124941;    1.215926;    1.244759;    1.341609;    1.387837;    1.403281;    1.427150;    1.451778;    1.493502;    1.568539;    1.695014;    1.747247;    2.115172;    2.251147;    2.460769;    2.755954;    2.917034;    3.126037;    3.408874;    3.771811;    4.145933;    4.370493;    5.025046;    5.553396;    6.569394;    8.616154;    9.584925;   15.771106;  751.311137;11449.807385;
39;    0.025452;    1.000000;    0.906229;    0.861568;    0.815466;    0.766802;    0.715985;    0.663228;    0.608641;    0.552487;    0.496205;    0.437798;    0.441125;    0.433170;    0.645808;    0.754187;    0.976015;    1.000190;    1.018501;    1.056914;    1.098328;    1.114912;    1.134602;    1.165120;    1.203487;    1.223221;    1.289600;    1.313184;    1.350613;    1.421909;    1.446512;    1.504255;    1.570634;    1.651752;    1.704337;    1.816654;    1.953581;    2.104811;    2.260079;    2.375994;    2.741644;    3.063298;    3.282559;    3.737498;    4.353777;    4.740348;    6.343663;   14.558564;   28.479598;   49.948366;78295.456127;
40;    0.023022;    1.000000;    0.899406;    0.853743;    0.808477;    0.759513;    0.707963;    0.654490;    0.597692;    0.541990;    0.481365;    0.422265;    0.425927;    0.415789;    0.648793;    0.709599;    0.981449;    1.014387;    1.045662;    1.073997;    1.095134;    1.117179;    1.160332;    1.174651;    1.241043;    1.315510;    1.363107;    1.429083;    1.505350;    1.610160;    1.651291;    1.788846;    1.842449;    1.892739;    2.102081;    2.194612;    2.279602;    2.434198;    2.588872;    3.400695;    3.798369;    4.195261;    5.180996;    5.892708;    6.691589;    8.835228;   17.381445;   23.002254;   41.131783;  191.626938;11948.942868;
41;    0.021260;    1.000000;    0.899212;    0.856054;    0.809058;    0.763513;    0.713372;    0.659881;    0.604387;    0.546024;    0.488931;    0.429358;    0.436261;    0.430742;    0.738607;    0.811352;    1.137969;    1.154438;    1.186868;    1.207456;    1.222892;    1.238585;    1.274431;    1.323773;    1.369045;    1.396837;    1.415138;    1.447119;    1.542608;    1.579419;    1.651918;    1.762996;    1.808283;    1.886420;    1.926290;    1.964956;    2.034904;    2.143534;    2.365304;    2.529159;    2.648664;    3.273102;    3.595836;    4.028876;    4.726842;    5.390283;    6.446224;    9.225718;   20.927198;   37.165692;2843862.893577;
42;    0.021330;    1.000000;    0.889539;    0.846197;    0.802715;    0.756865;    0.707885;    0.653395;    0.599304;    0.542201;    0.484125;    0.423339;    0.422448;    0.421422;    0.673088;    0.881129;    1.051601;    1.072195;    1.101878;    1.117253;    1.179879;    1.194354;    1.225183;    1.253369;    1.312191;    1.370536;    1.472671;    1.541238;    1.603956;    1.654512;    1.716980;    1.785907;    1.872755;    1.944692;    2.007515;    2.055929;    2.175278;    2.363937;    2.506652;    2.689705;    2.828785;    3.268130;    3.795892;    4.495612;    5.937936;    6.773727;   12.209689;   17.235356;   31.460606;   57.359565;  872.823062;
43;    0.022147;    1.000000;    0.895525;    0.850459;    0.806153;    0.759767;    0.709930;    0.659154;    0.603606;    0.546624;    0.485610;    0.422294;    0.424170;    0.418256;    0.759006;    0.890451;    1.191645;    1.274436;    1.294903;    1.348750;    1.417222;    1.430895;    1.473000;    1.539444;    1.615765;    1.643297;    1.669568;    1.754313;    1.937535;    1.972291;    2.065862;    2.199041;    2.254904;    2.499081;    2.589504;    2.915065;    3.064044;    3.144843;    3.625611;    3.709941;    3.927325;    4.673147;    5.274901;    5.668722;    6.353829;    6.829530;    7.662625;   10.481665;   20.023733;   42.385475; 3385.494102;
44;    0.022102;    1.000000;    0.901501;    0.860004;    0.816910;    0.769561;    0.719343;    0.665745;    0.608779;    0.549730;    0.485801;    0.427051;    0.433652;    0.429816;    0.653351;    0.809388;    1.023520;    1.035257;    1.053607;    1.078811;    1.131036;    1.161141;    1.211542;    1.307481;    1.337833;    1.402582;    1.422373;    1.452851;    1.552513;    1.592366;    1.684868;    1.730980;    1.782365;    1.904551;    2.087255;    2.161164;    2.206174;    2.378738;    2.716405;    2.971436;    3.177895;    3.728973;    4.652393;    4.897879;    5.582805;    6.148204;    6.984228;   12.457635;   14.510121;   34.329027;10641.338268;
45;    0.021074;    1.000000;    0.899470;    0.853998;    0.808878;    0.762813;    0.715430;    0.665131;    0.611350;    0.553245;    0.495508;    0.434871;    0.438670;    0.431748;    0.619216;    0.679320;    1.046111;    1.067938;    1.079487;    1.090171;    1.105533;    1.158910;    1.188983;    1.255302;    1.295655;    1.351108;    1.370525;    1.429948;    1.476807;    1.502360;    1.592468;    1.627625;    1.713511;    1.788465;    1.962349;    2.004853;    2.099401;    2.175611;    2.389002;    2.612674;    3.108349;    3.403631;    3.655398;    4.551295;    4.863318;    5.369679;    6.625624;    8.801490;   16.933512;  124.622055;188123.570569;
46;    0.022394;    1.000000;    0.893990;    0.847454;    0.803048;    0.756524;    0.706183;    0.655726;    0.601101;    0.543184;    0.483309;    0.421254;    0.425156;    0.419889;    0.600139;    0.672409;    0.950953;    0.980494;    0.991880;    1.026752;    1.065557;    1.084269;    1.115649;    1.137511;    1.153454;    1.207688;    1.248426;    1.268654;    1.319141;    1.350232;    1.490403;    1.588477;    1.730130;    1.953984;    2.079229;    2.232163;    2.419803;    2.600499;    2.827643;    3.467815;    3.847570;    4.216292;    4.835087;    7.473165;    9.230122;   10.066186;   17.099412;   26.980397;   42.037066;   62.732253;  162.413129;
47;    0.024676;    1.000000;    0.894593;    0.848274;    0.805056;    0.759391;    0.708894;    0.656234;    0.601851;    0.544062;    0.483721;    0.421064;    0.423781;    0.420030;    0.673013;    0.801994;    1.163022;    1.212755;    1.292347;    1.315342;    1.367197;    1.477545;    1.512635;    1.551361;    1.585662;    1.626625;    1.670809;    1.769043;    1.810282;    2.060191;    2.124746;    2.316706;    2.446225;    2.593831;    2.646361;    2.789457;    3.029465;    3.175917;    3.383624;    3.594875;    3.834641;    4.215649;    4.495695;    4.816995;    5.510791;    6.429775;    7.271854;    9.165401;   11.149588;   22.471690;  495.358132;
48;    0.023159;    1.000000;    0.905050;    0.859548;    0.812499;    0.764695;    0.714617;    0.662422;    0.605431;    0.548068;    0.488901;    0.428607;    0.427244;    0.424412;    0.637801;    0.784991;    0.890389;    0.946446;    0.960782;    0.983635;    1.006706;    1.043117;    1.058785;    1.151715;    1.183796;    1.231408;    1.260145;    1.286950;    1.313566;    1.350847;    1.405298;    1.446202;    1.525827;    1.563819;    1.635743;    1.703391;    1.805635;    1.890792;    2.010293;    2.284471;    2.539426;    2.826766;    3.150329;    3.409341;    3.858294;    4.516340;    5.543294;    6.501030;   52.526749;  120.107870; 7460.479425;
49;    0.020862;    1.000000;    0.902022;    0.856941;    0.810305;    0.758797;    0.710048;    0.661521;    0.608245;    0.551399;    0.491857;    0.430440;    0.427403;    0.425376;    0.833502;    1.084289;    1.446916;    1.561322;    1.573152;    1.632307;    1.678820;    1.806420;    1.836621;    1.865057;    1.952831;    1.995631;    2.069181;    2.121507;    2.198791;    2.377526;    2.505304;    2.594487;    2.944406;    3.058588;    3.195753;    3.408932;    4.103170;    4.320618;    5.572397;    6.197194;    6.794823;    7.021175;    9.615600;   10.206774;   10.672256;   12.399567;   14.809799;   26.365990;   41.400795;   84.802439;30040.843004;
50;    0.057755;    1.000000;    0.895371;    0.851278;    0.806094;    0.758691;    0.708933;    0.658311;    0.603789;    0.547201;    0.491414;    0.431159;    0.426287;    0.422307;    0.591616;    0.645565;    0.884965;    0.975756;    0.996478;    1.087895;    1.118591;    1.131776;    1.191609;    1.240691;    1.279147;    1.293789;    1.329669;    1.352616;    1.407162;    1.444402;    1.496216;    1.579259;    1.665759;    1.850102;    1.937943;    2.058668;    2.159633;    2.279496;    2.617706;    2.881749;    3.210966;    3.552197;    3.984480;    4.311853;    5.956133;    6.620373;    7.904556;   11.170930;   17.806239;   63.730968;19578.986550;
51;    0.023945;    1.000000;    0.896627;    0.852028;    0.804641;    0.758340;    0.710019;    0.658142;    0.603011;    0.543358;    0.483632;    0.419560;    0.414987;    0.414367;    0.578216;    0.790926;    1.032846;    1.067131;    1.111725;    1.141945;    1.182506;    1.196428;    1.235742;    1.272843;    1.298275;    1.360187;    1.387957;    1.407426;    1.450100;    1.482500;    1.555679;    1.621295;    1.688489;    1.812986;    1.986684;    2.202670;    2.331330;    2.553943;    2.825911;    2.938972;    3.432471;    4.356640;    4.697529;    5.066744;    6.684793;    7.801178;    9.025624;   20.064668;   23.374126;   44.605452;  307.023430;
52;    0.025504;    1.000000;    0.898978;    0.854578;    0.807703;    0.761830;    0.711438;    0.658626;    0.602192;    0.545146;    0.485440;    0.429539;    0.433401;    0.428570;    0.616967;    0.758251;    0.948545;    0.998928;    1.030349;    1.067946;    1.082516;    1.127996;    1.148042;    1.205159;    1.244936;    1.270800;    1.299723;    1.391003;    1.450653;    1.526626;    1.589131;    1.648906;    2.142818;    2.247372;    2.297145;    2.682639;    2.788084;    2.930444;    3.109411;    3.247252;    3.348808;    3.722841;    3.871114;    4.253645;    4.872663;    5.521614;    6.322859;    7.513068;   11.991515;   21.385639;10185.075100;
53;    0.021585;    1.000000;    0.913910;    0.868885;    0.824606;    0.776390;    0.725512;    0.672385;    0.616244;    0.556359;    0.495382;    0.428804;    0.431375;    0.424372;    0.649782;    0.710932;    0.931586;    0.944303;    0.971248;    0.988450;    1.037669;    1.066139;    1.089804;    1.126564;    1.146368;    1.191585;    1.226788;    1.304430;    1.327916;    1.365719;    1.389451;    1.508615;    1.598918;    1.637916;    1.719127;    1.864206;    1.963568;    2.018848;    2.116498;    2.316371;    2.507904;    2.791936;    3.775502;    4.433237;    4.654756;    5.387959;    7.108164;    8.550973;   11.516284;   19.616149; 1911.132380;
54;    0.023084;    1.000000;    0.897637;    0.849554;    0.805558;    0.757547;    0.709420;    0.658297;    0.602627;    0.543231;    0.482700;    0.423374;    0.424091;    0.418944;    0.642793;    0.701682;    0.865065;    0.893110;    0.918190;    0.934922;    0.945827;    0.968254;    0.985372;    1.005188;    1.028899;    1.047470;    1.082694;    1.106685;    1.151508;    1.177406;    1.231395;    1.279307;    1.321560;    1.555704;    1.671722;    1.787145;    2.003314;    2.104509;    2.232338;    2.354124;    2.611230;    2.830444;    3.339007;    4.131651;    4.669406;    5.650346;    6.429065;    8.993595;   15.131298;   32.016832;  679.726561;
55;    0.022913;    1.000000;    0.895271;    0.854787;    0.812017;    0.766439;    0.716764;    0.666104;    0.612930;    0.554922;    0.494694;    0.433346;    0.438440;    0.425811;    0.631058;    0.678090;    0.897890;    0.919416;    0.934629;    0.958698;    0.975617;    1.029247;    1.051876;    1.091064;    1.177255;    1.260069;    1.278876;    1.337901;    1.463949;    1.581590;    1.631586;    1.655241;    1.769197;    1.913149;    1.976985;    2.073124;    2.131454;    2.312595;    2.435303;    2.760985;    3.051564;    3.432056;    3.672345;    4.112139;    4.499313;    6.929296;   16.399872;   46.457541;   63.570510;  103.406212; 4140.416948;
56;    0.025454;    1.000000;    0.895570;    0.850496;    0.802407;    0.753892;    0.703056;    0.650857;    0.598550;    0.545202;    0.488306;    0.430781;    0.427620;    0.425280;    0.834717;    0.904170;    1.194346;    1.260113;    1.286076;    1.317288;    1.334758;    1.349400;    1.373029;    1.399208;    1.449206;    1.471167;    1.501210;    1.580890;    1.609493;    1.638127;    1.723272;    1.756272;    1.873097;    2.247677;    2.310494;    2.387592;    2.523083;    2.626518;    3.140417;    3.216010;    3.563841;    4.238714;    5.037572;    5.290977;    8.442551;   10.346225;   14.160507;   15.843558;   20.213081;   34.889256; 1568.532953;
57;    0.024971;    1.000000;    0.899980;    0.856179;    0.809630;    0.761886;    0.711098;    0.657911;    0.603730;    0.545625;    0.488745;    0.426494;    0.430917;    0.423803;    0.625272;    0.863752;    1.106384;    1.122765;    1.131612;    1.153714;    1.189650;    1.222286;    1.254987;    1.301754;    1.378960;    1.483540;    1.512903;    1.575582;    1.738954;    1.777146;    1.863192;    1.938063;    2.025120;    2.145607;    2.244967;    2.330383;    2.426315;    2.511936;    2.634671;    2.946795;    3.093916;    3.439394;    4.719328;    5.153736;    6.172422;    6.841505;    7.868365;   11.095644;   13.277885;   62.317261; 1134.777254;
58;    0.030603;    1.000000;    0.898325;    0.852743;    0.807379;    0.760397;    0.710707;    0.659879;    0.605686;    0.549913;    0.489923;    0.426132;    0.427734;    0.425988;    0.697958;    0.856117;    1.210003;    1.234164;    1.247275;    1.298394;    1.325568;    1.360003;    1.375270;    1.391020;    1.421491;    1.452352;    1.559436;    1.615669;    1.673540;    1.735699;    1.831891;    1.868487;    1.948025;    2.029132;    2.211565;    2.321209;    2.404098;    2.503215;    2.664915;    2.761302;    2.915272;    3.088403;    3.283805;    3.802449;    4.166269;    4.635248;    5.658421;    8.667239;   10.702176;   20.997979;  156.558779;
59;    0.030670;    1.000000;    0.903985;    0.857117;    0.808815;    0.762315;    0.711676;    0.657507;    0.602691;    0.547669;    0.490209;    0.428101;    0.423933;    0.422757;    0.592260;    0.653808;    0.988454;    1.002174;    1.039452;    1.062336;    1.085011;    1.135693;    1.168264;    1.191301;    1.226884;    1.265560;    1.335647;    1.372805;    1.459527;    1.514656;    1.582661;    1.760299;    1.793402;    1.875187;    2.049563;    2.173936;    2.430968;    2.495269;    2.650596;    2.892982;    3.131754;    3.646893;    4.043211;    4.834945;    7.412060;   19.463105;   23.125495;   30.847550;   38.005062;  169.199887; 7373.044320;
60;    0.024338;    1.000000;    0.899937;    0.857309;    0.811353;    0.763086;    0.713039;    0.660587;    0.604339;    0.545879;    0.486715;    0.428226;    0.432748;    0.425652;    0.680403;    0.820757;    1.035106;    1.071082;    1.084263;    1.104397;    1.126835;    1.149272;    1.164266;    1.227876;    1.249819;    1.272710;    1.327277;    1.388646;    1.454076;    1.503987;    1.542992;    1.613095;    1.680824;    1.738450;    1.770457;    1.872953;    1.966423;    2.152353;    2.213256;    2.532557;    2.954185;    3.429894;    3.760663;    4.447510;    4.837543;    5.478669;    6.996996;    9.782077;   12.892606;   26.424307; 1377.796013;
61;    0.022971;    1.000000;    0.900611;    0.855904;    0.813036;    0.767132;    0.715996;    0.666024;    0.610785;    0.554182;    0.493075;    0.430590;    0.430297;    0.431407;    0.683175;    0.759337;    1.091593;    1.139902;    1.216633;    1.256419;    1.303748;    1.366857;    1.379049;    1.395617;    1.430592;    1.484861;    1.550448;    1.624410;    1.736509;    1.783843;    1.880267;    2.078735;    2.168564;    2.227225;    2.550700;    2.836001;    2.943491;    3.097934;    3.379252;    3.497617;    3.674455;    4.043390;    4.217554;    4.500191;    4.920799;    7.096411;    9.121257;   14.733907;   46.431928;   91.084546;329624.533589;
62;    0.030713;    1.000000;    0.898852;    0.855391;    0.809804;    0.760855;    0.710381;    0.660005;    0.605119;    0.547041;    0.488133;    0.428833;    0.427817;    0.425178;    0.766829;    0.875150;    1.127728;    1.146285;    1.164326;    1.190576;    1.225447;    1.241017;    1.264461;    1.279288;    1.309085;    1.322615;    1.446284;    1.488762;    1.597732;    1.658516;    1.723106;    1.794893;    1.933395;    2.182577;    2.294089;    2.423192;    2.526994;    2.640576;    2.866226;    3.064797;    3.287276;    3.993974;    4.261807;    4.921776;    5.934475;    7.909674;    9.593198;   11.993394;   29.416466;   41.469496;  561.473908;
63;    0.024648;    1.000000;    0.891328;    0.845614;    0.799128;    0.753920;    0.704874;    0.657135;    0.605459;    0.549998;    0.491199;    0.428457;    0.430306;    0.422735;    0.706579;    0.891756;    1.092094;    1.119641;    1.149760;    1.208634;    1.234251;    1.263943;    1.293641;    1.371494;    1.412116;    1.430732;    1.460192;    1.536073;    1.592287;    1.849769;    1.900244;    1.946348;    2.028985;    2.075991;    2.163003;    2.221149;    2.439742;    2.541434;    2.622135;    2.689535;    2.885044;    3.073418;    3.329314;    3.942769;    4.430842;    5.402906;    6.196209;    7.401014;   40.631891;  117.564417;  201.683722;
64;    0.025441;    1.000000;    0.898494;    0.855779;    0.809108;    0.763253;    0.713751;    0.663743;    0.608407;    0.549391;    0.489438;    0.426628;    0.431592;    0.425580;    0.829578;    0.966159;    1.141271;    1.538117;    1.577951;    1.602788;    1.625278;    1.649755;    1.663684;    1.684817;    1.710190;    1.746144;    1.780328;    1.803504;    1.841859;    1.895846;    1.966732;    2.019507;    2.102889;    2.241430;    2.279255;    2.490065;    2.622084;    2.955105;    3.013137;    3.363480;    3.525675;    4.214766;    5.667760;    5.857716;    6.057684;    7.356370;    9.643878;   12.564333;   19.887456;   67.695328; 6382.661708;
65;    0.020484;    1.000000;    0.904817;    0.859507;    0.814376;    0.766707;    0.718521;    0.665896;    0.610559;    0.553611;    0.496163;    0.436993;    0.435349;    0.433187;    0.897239;    0.955765;    1.225601;    1.248575;    1.305691;    1.320851;    1.339480;    1.359636;    1.406289;    1.436000;    1.489846;    1.520585;    1.539726;    1.585545;    1.605525;    1.680060;    1.713563;    1.807992;    1.900143;    2.047821;    2.084973;    2.202738;    2.382281;    2.482214;    2.606006;    2.899878;    3.216805;    3.993215;    4.615825;    5.382153;    6.728065;    7.636268;   12.404375;   14.246115;   18.240968;   37.322163;  103.625862;
66;    0.021842;    1.000000;    0.902834;    0.859064;    0.813593;    0.766631;    0.717084;    0.665403;    0.609322;    0.549458;    0.490780;    0.426624;    0.428975;    0.420896;    0.688951;    0.823714;    1.011604;    1.032777;    1.041410;    1.120749;    1.171530;    1.198699;    1.283718;    1.366788;    1.392588;    1.440332;    1.478644;    1.513370;    1.539816;    1.702092;    1.739474;    1.799707;    1.876619;    2.143336;    2.278344;    2.347327;    2.451663;    3.135420;    3.510367;    3.587935;    3.788638;    4.031816;    4.406762;    5.184992;    6.065910;   12.206389;   13.199049;   16.092355;   22.032470;  107.798304;145342.000817;
67;    0.028310;    1.000000;    0.904481;    0.856349;    0.810711;    0.762713;    0.711267;    0.655058;    0.602649;    0.547499;    0.489285;    0.430853;    0.433131;    0.432511;    0.659001;    0.757215;    1.178880;    1.239696;    1.267911;    1.279495;    1.305079;    1.339251;    1.405747;    1.432667;    1.457797;    1.483077;    1.516960;    1.542931;    1.571437;    1.691451;    1.796885;    1.874232;    2.094105;    2.234680;    2.314191;    2.432979;    2.549849;    2.706264;    3.083648;    3.398991;    3.865902;    4.124970;    4.448822;    6.701243;    7.039668;    7.651084;   28.881318;   42.262824;   84.928803;  449.355576; 1013.816891;
68;    0.021382;    1.000000;    0.899903;    0.854473;    0.806199;    0.759044;    0.710566;    0.660719;    0.605229;    0.549653;    0.489467;    0.427678;    0.428272;    0.423699;    0.777830;    0.853853;    1.116818;    1.154424;    1.169218;    1.212551;    1.291346;    1.328301;    1.349695;    1.399877;    1.477750;    1.494440;    1.519572;    1.547398;    1.612467;    1.697346;    1.803177;    1.952540;    2.119472;    2.345630;    2.485527;    2.767394;    2.865906;    2.991491;    3.070392;    3.323306;    3.808350;    3.935590;    4.548441;    5.351884;    5.922258;    7.147124;   10.591857;   13.653236;   18.810687;   54.806342;57724.219125;
69;    0.022149;    1.000000;    0.908003;    0.864263;    0.821005;    0.775546;    0.727469;    0.675418;    0.620418;    0.560641;    0.497993;    0.434774;    0.433901;    0.432972;    0.785196;    0.846348;    1.162593;    1.189306;    1.200472;    1.249302;    1.325351;    1.354527;    1.379646;    1.445076;    1.502633;    1.528562;    1.567091;    1.634786;    1.665141;    1.713923;    1.769981;    1.803959;    2.021357;    2.108728;    2.286093;    2.418216;    2.633396;    2.756309;    2.911457;    3.395037;    3.893257;    4.199400;    4.996319;    5.644414;   10.037828;   24.573069;   29.202741;   49.841388;  130.466372;  153.655739;43872.892405;
70;    0.026421;    1.000000;    0.901286;    0.855386;    0.809859;    0.760696;    0.709065;    0.655571;    0.600879;    0.541625;    0.483080;    0.425246;    0.426265;    0.427568;    0.630318;    0.690254;    1.064908;    1.085629;    1.126027;    1.150890;    1.236648;    1.252321;    1.279257;    1.329599;    1.448761;    1.491354;    1.510027;    1.540662;    1.588070;    1.679162;    1.802650;    1.929559;    2.000832;    2.057056;    2.111932;    2.297159;    2.427520;    2.617518;    2.742366;    2.996783;    3.233734;    3.620256;    4.714695;    5.922238;    6.727788;    7.567566;   10.389315;   13.446446;   29.806183;   92.031224; 2733.352975;
71;    0.022579;    1.000000;    0.898096;    0.853628;    0.806080;    0.760599;    0.711073;    0.659192;    0.604873;    0.546112;    0.483905;    0.426440;    0.429408;    0.425488;    0.715464;    0.806568;    1.214878;    1.256531;    1.313254;    1.333339;    1.355683;    1.456189;    1.471842;    1.495221;    1.521209;    1.610585;    1.658611;    1.690804;    1.712185;    1.761604;    1.809475;    1.965064;    2.067098;    2.152507;    2.292556;    2.435824;    2.541163;    2.621208;    2.749898;    2.838893;    3.024113;    3.940709;    4.325107;    5.421037;    6.156989;    6.958399;    9.658640;   13.761558;   21.028925;   37.960003; 1279.436738;
72;    0.024018;    1.000000;    0.896633;    0.854875;    0.810726;    0.761837;    0.713795;    0.661940;    0.607023;    0.547035;    0.488943;    0.426012;    0.431213;    0.425708;    0.714610;    0.780798;    1.017121;    1.030598;    1.065467;    1.086272;    1.097131;    1.106812;    1.151630;    1.194555;    1.250211;    1.278927;    1.301893;    1.333275;    1.386810;    1.449470;    1.518585;    1.598008;    1.632538;    1.764210;    1.897275;    1.978144;    2.039955;    2.146472;    2.289084;    2.395636;    2.581566;    2.876177;    3.186886;    3.384671;    3.914399;    6.048911;    8.218745;   13.804655;   30.122638;  642.291195; 1316.198736;
73;    0.022754;    1.000000;    0.896001;    0.853545;    0.807335;    0.760680;    0.712074;    0.660465;    0.604886;    0.546660;    0.484424;    0.425025;    0.422229;    0.417545;    0.743002;    0.926233;    1.115301;    1.147708;    1.159179;    1.208688;    1.240515;    1.269567;    1.293933;    1.317932;    1.352329;    1.413077;    1.459542;    1.500827;    1.520972;    1.577854;    1.731781;    1.845333;    1.904391;    2.039228;    2.154810;    2.246778;    2.356300;    2.457780;    2.574405;    2.851920;    3.004816;    3.207756;    3.506178;    3.896027;    4.653823;    5.300754;    7.145613;    8.764777;   11.605406;   21.771521;55004.369924;
74;    0.022565;    1.000000;    0.891669;    0.846786;    0.803862;    0.757030;    0.707373;    0.655768;    0.602319;    0.545458;    0.487747;    0.429148;    0.433352;    0.427877;    0.747368;    0.810274;    1.248033;    1.403974;    1.471342;    1.499385;    1.622691;    1.672758;    1.776288;    1.838567;    1.931715;    2.010182;    2.166010;    2.295963;    2.348697;    2.730153;    2.830674;    2.992705;    3.258347;    3.602556;    3.936077;    4.269549;    4.540439;    4.855444;    5.085700;    5.203202;    6.914447;    8.278453;   10.803186;   11.715620;   13.073366;   18.698397;   20.833678;   22.134766;   44.541118;   75.826473;  800.714434;
75;    0.022060;    1.000000;    0.898065;    0.853215;    0.809647;    0.763365;    0.715325;    0.662778;    0.607270;    0.551038;    0.490488;    0.429395;    0.431811;    0.424848;    0.647430;    0.748328;    0.897487;    0.921274;    0.947210;    0.974277;    1.011995;    1.044277;    1.101696;    1.250857;    1.282674;    1.321776;    1.345586;    1.371389;    1.422271;    1.476095;    1.621673;    1.720971;    1.758532;    1.804683;    1.905037;    2.095904;    2.292720;    2.367643;    2.452672;    2.572621;    2.808198;    3.358888;    3.692932;    4.003430;    4.691945;    5.059365;    7.471685;   11.239945;   21.122049;   72.551574;  213.647546;
76;    0.022134;    1.000000;    0.893343;    0.850761;    0.804254;    0.757623;    0.707164;    0.656336;    0.601330;    0.548000;    0.490118;    0.429040;    0.429653;    0.428175;    0.704146;    0.788199;    1.015327;    1.026772;    1.039850;    1.075806;    1.133161;    1.160048;    1.200150;    1.241570;    1.277340;    1.314740;    1.354391;    1.407701;    1.495833;    1.579719;    1.639966;    1.736330;    1.786790;    1.874410;    1.927400;    1.993649;    2.104871;    2.298712;    2.422067;    2.499563;    2.650583;    2.903602;    3.113031;    3.879660;    4.436509;    4.999310;    5.983095;    7.390664;   14.955294;   68.587645; 7441.458636;
77;    0.022905;    1.000000;    0.900255;    0.854553;    0.809877;    0.763969;    0.714088;    0.662222;    0.607297;    0.551755;    0.491480;    0.432066;    0.436548;    0.428476;    0.645983;    0.799875;    1.038540;    1.060299;    1.078977;    1.088154;    1.102991;    1.116625;    1.130309;    1.164228;    1.223640;    1.240929;    1.334983;    1.414181;    1.492975;    1.536561;    1.586644;    1.633180;    1.714628;    1.748266;    1.842074;    2.023046;    2.075692;    2.280453;    2.384588;    2.611797;    2.844842;    2.979006;    3.223574;    3.500256;    3.916946;    6.286608;    8.870541;   11.274609;   19.702680;   71.603859;20748.092367;
78;    0.020997;    1.000000;    0.906072;    0.859090;    0.812880;    0.764656;    0.713148;    0.660458;    0.605199;    0.547261;    0.490951;    0.430394;    0.435851;    0.428253;    0.726411;    0.845723;    1.051531;    1.071402;    1.123397;    1.151593;    1.231683;    1.250810;    1.301299;    1.322779;    1.357541;    1.386024;    1.438433;    1.473197;    1.498086;    1.595183;    1.694503;    1.797028;    1.837879;    1.884124;    1.982986;    2.068500;    2.300072;    2.478191;    2.875468;    3.006829;    3.201294;    3.770475;    4.082221;    4.553484;    5.076230;    7.078949;    7.936245;   11.884912;   19.257614;   31.642230;  337.785905;
79;    0.023452;    1.000000;    0.900302;    0.851748;    0.805193;    0.758439;    0.707699;    0.655062;    0.601587;    0.543345;    0.481168;    0.422349;    0.427467;    0.421973;    0.572133;    0.758244;    1.017095;    1.031022;    1.044201;    1.063872;    1.092375;    1.143848;    1.199249;    1.233033;    1.260664;    1.284508;    1.380847;    1.482093;    1.527851;    1.643532;    1.704650;    1.866623;    1.949204;    2.164893;    2.280743;    2.418502;    2.593856;    2.742637;    2.993299;    3.195721;    3.444885;    4.154188;    4.423771;    5.231003;    6.238733;    7.956420;    8.785605;   10.621994;   18.054736;   25.186720; 2543.184938;
80;    0.022113;    1.000000;    0.895849;    0.854572;    0.810617;    0.762800;    0.712782;    0.659077;    0.605210;    0.547619;    0.487565;    0.428475;    0.432150;    0.424806;    0.640898;    0.769953;    0.932361;    0.950553;    0.978745;    1.007855;    1.044252;    1.063443;    1.146671;    1.189757;    1.237365;    1.276624;    1.314321;    1.461591;    1.529999;    1.614762;    1.728328;    1.785935;    1.869391;    1.969563;    2.015613;    2.124267;    2.648128;    2.700963;    3.247193;    3.451689;    3.635346;    4.249096;    4.486931;    4.953106;    5.466396;    8.413048;    9.452688;   11.612263;   26.728587;  120.448055;  404.976467;
81;    0.023585;    1.000000;    0.900428;    0.855968;    0.809801;    0.762635;    0.714446;    0.664698;    0.610081;    0.552745;    0.492615;    0.431418;    0.429356;    0.429441;    0.687841;    0.879372;    1.116563;    1.126190;    1.167512;    1.192751;    1.220876;    1.253939;    1.280131;    1.318833;    1.395842;    1.486239;    1.523264;    1.577919;    1.639982;    1.754835;    1.841897;    1.893520;    1.940722;    2.121219;    2.159729;    2.248323;    2.293059;    2.449123;    2.757798;    3.111347;    3.271221;    3.503042;    4.022143;    4.432810;    5.328103;    5.761068;    8.459704;   10.701916;   16.744385;   38.897348;26906.291066;
82;    0.023184;    1.000000;    0.898780;    0.857446;    0.813204;    0.767060;    0.719632;    0.668468;    0.612297;    0.553964;    0.492680;    0.430504;    0.433312;    0.427354;    0.745384;    0.862603;    1.087856;    1.142449;    1.176050;    1.211753;    1.268145;    1.304172;    1.327235;    1.343523;    1.367611;    1.431540;    1.464148;    1.551734;    1.580747;    1.630819;    1.738493;    1.927074;    2.012363;    2.050307;    2.240598;    2.363158;    2.441946;    2.595313;    2.695860;    3.138972;    3.448988;    3.872473;    4.371307;    5.315452;    6.098320;    6.623416;    7.838939;    9.381731;   12.599720;   41.829885; 6668.337507;
83;    0.023103;    1.000000;    0.906092;    0.861302;    0.816221;    0.771187;    0.723332;    0.672446;    0.618744;    0.560357;    0.500321;    0.437107;    0.435418;    0.435946;    0.966520;    1.038557;    1.382803;    1.400134;    1.441230;    1.470216;    1.554865;    1.580989;    1.607465;    1.719317;    1.778350;    1.867779;    1.954679;    2.027743;    2.087176;    2.305150;    2.376677;    2.474294;    2.615215;    2.725752;    3.136143;    3.280058;    3.561092;    3.919490;    4.170824;    4.448448;    4.578934;    4.749805;    5.310587;    5.725805;    6.698722;    7.068464;   11.852815;   21.406072;   25.908033;   52.252279;  928.034813;
84;    0.023163;    1.000000;    0.911487;    0.866475;    0.820332;    0.771299;    0.719842;    0.666507;    0.610753;    0.551128;    0.491770;    0.429568;    0.434052;    0.430231;    0.843402;    0.904374;    1.321230;    1.337479;    1.383674;    1.413032;    1.471082;    1.525676;    1.539815;    1.558115;    1.590873;    1.651690;    1.678093;    1.719231;    1.774775;    2.044211;    2.119871;    2.282001;    2.362715;    2.494555;    2.579355;    2.724686;    2.825068;    3.496896;    4.223114;    4.774758;    5.585041;    7.787746;    8.865278;    9.454776;   11.435045;   13.975988;   33.060755;   41.363417;  102.962601;  155.530420; 4371.933281;
85;    0.022826;    1.000000;    0.906259;    0.861823;    0.815707;    0.767842;    0.717006;    0.664295;    0.610273;    0.550861;    0.489100;    0.425350;    0.427221;    0.421873;    0.695714;    0.864237;    1.143777;    1.158451;    1.168744;    1.220636;    1.248055;    1.274626;    1.327088;    1.351615;    1.415457;    1.654014;    1.687762;    1.710612;    1.805002;    1.905005;    1.930386;    1.999885;    2.121963;    2.161886;    2.273060;    2.534152;    2.614201;    3.102543;    3.267717;    3.818136;    3.945968;    4.730991;    4.926549;    5.250607;    5.911466;    9.704663;   10.827880;   13.112151;   38.432729;   63.040831;12844.800847;
86;    0.022813;    1.000000;    0.890818;    0.846748;    0.802232;    0.754781;    0.705364;    0.655279;    0.601430;    0.546825;    0.489631;    0.427507;    0.431969;    0.422887;    0.709411;    0.769492;    1.050361;    1.072403;    1.112467;    1.151123;    1.210397;    1.234852;    1.260997;    1.285093;    1.301934;    1.341762;    1.415799;    1.483885;    1.585941;    1.638072;    1.689205;    1.804013;    1.857094;    1.958844;    2.049254;    2.103549;    2.236833;    2.458380;    2.519599;    2.614562;    2.872751;    3.242806;    3.887075;    4.793450;    5.172257;    6.091366;    7.912747;    9.576970;   16.311238;  119.727308;18523.651629;
87;    0.023153;    1.000000;    0.895509;    0.849335;    0.802565;    0.756869;    0.707311;    0.655823;    0.600719;    0.545998;    0.488188;    0.427653;    0.429027;    0.421153;    0.744226;    0.987429;    1.111153;    1.125968;    1.151836;    1.201845;    1.229847;    1.275505;    1.291588;    1.334062;    1.415145;    1.471469;    1.504081;    1.550786;    1.590832;    1.613190;    1.751524;    1.824012;    1.906629;    2.039337;    2.341930;    2.441962;    2.609532;    2.934387;    3.282048;    3.409975;    3.676726;    3.934502;    4.849755;    5.216857;    5.817622;    6.527002;    8.566958;   11.088482;   15.899757;   46.722298;  270.280797;
88;    0.032432;    1.000000;    0.893519;    0.848709;    0.805956;    0.761420;    0.714092;    0.662641;    0.607758;    0.548476;    0.484658;    0.423599;    0.419653;    0.416803;    0.694318;    0.747341;    0.955760;    0.996174;    1.005279;    1.095839;    1.154574;    1.196733;    1.269769;    1.321001;    1.334157;    1.385480;    1.403546;    1.496383;    1.551754;    1.650894;    1.747822;    1.869950;    1.900536;    2.068727;    2.165727;    2.244578;    2.361000;    2.839815;    3.243554;    3.371259;    3.788168;    4.546667;    5.042889;    6.410763;    7.862558;    8.704836;    9.671656;   10.926840;   14.075600;   39.785703; 2230.895341;
89;    0.022375;    1.000000;    0.899847;    0.856347;    0.810377;    0.762486;    0.709636;    0.654844;    0.599097;    0.538879;    0.482381;    0.424940;    0.430371;    0.425127;    0.659977;    0.853806;    1.157506;    1.181529;    1.197434;    1.211644;    1.246183;    1.273978;    1.289608;    1.306700;    1.354094;    1.376749;    1.415806;    1.436717;    1.468453;    1.529457;    1.642459;    1.803527;    1.877875;    1.990237;    2.164907;    2.205617;    2.294603;    2.554716;    2.666109;    2.798965;    3.289918;    5.371682;    5.582534;    6.597920;    7.008316;   10.460423;   15.812198;   18.517320;   22.757242;  272.885884; 6303.713818;
90;    0.023052;    1.000000;    0.903034;    0.858112;    0.812735;    0.766517;    0.715380;    0.664505;    0.608095;    0.551498;    0.491823;    0.429675;    0.434982;    0.424129;    0.720768;    0.866779;    1.168311;    1.201793;    1.212278;    1.225581;    1.259386;    1.275017;    1.325767;    1.359632;    1.387472;    1.446611;    1.466342;    1.498583;    1.538392;    1.573552;    1.622989;    1.684720;    1.818904;    1.908552;    1.985781;    2.061607;    2.248920;    2.421457;    2.525135;    2.704702;    2.955979;    3.255720;    3.960180;    5.135076;    6.357386;    7.310620;    9.342699;   11.414872;   15.235294;   28.300128;  322.693297;
91;    0.024083;    1.000000;    0.897271;    0.854781;    0.808835;    0.760037;    0.711890;    0.659579;    0.605804;    0.548132;    0.488766;    0.427095;    0.430829;    0.423368;    0.602420;    0.657816;    0.898656;    0.919869;    0.946059;    0.982210;    1.007629;    1.057535;    1.097134;    1.113142;    1.130969;    1.170900;    1.189620;    1.212904;    1.256196;    1.355057;    1.455984;    1.489172;    1.547775;    1.601755;    1.678682;    1.725995;    1.808127;    1.919654;    2.172624;    2.403374;    2.485489;    3.217604;    4.039063;    5.377307;    7.983082;    9.775619;   13.306240;   15.763661;   23.012093;   48.502111; 1608.296024;
92;    0.024926;    1.000000;    0.899541;    0.855556;    0.811574;    0.763105;    0.711800;    0.659593;    0.606106;    0.550239;    0.489256;    0.428749;    0.433909;    0.427050;    0.691077;    0.794149;    1.094011;    1.133704;    1.253610;    1.317761;    1.332805;    1.354560;    1.392288;    1.410042;    1.424887;    1.473003;    1.505248;    1.548107;    1.575805;    1.601506;    1.638208;    1.767569;    1.862697;    2.043804;    2.150409;    2.232087;    2.312735;    2.430767;    2.499897;    2.653862;    2.761006;    2.996079;    3.375182;    3.795085;    4.633896;    5.283381;    7.590626;   11.049847;   17.218401;   30.468011; 2521.190446;
93;    0.026107;    1.000000;    0.901780;    0.860231;    0.815313;    0.769129;    0.720741;    0.668913;    0.613185;    0.553672;    0.492214;    0.428586;    0.428885;    0.426103;    0.633532;    0.714867;    1.072905;    1.100497;    1.140953;    1.158263;    1.197459;    1.238528;    1.258296;    1.279416;    1.328135;    1.386681;    1.424742;    1.491588;    1.651524;    1.753660;    1.870112;    1.916054;    2.103310;    2.226337;    2.294902;    2.403925;    2.506459;    2.625022;    3.008791;    3.579147;    3.881892;    4.256739;    4.847420;    5.489196;    6.233111;    8.077119;   11.826725;   15.017047;   40.737676;  134.330587;311159.769017;
94;    0.022422;    1.000000;    0.900018;    0.856073;    0.808968;    0.760775;    0.710798;    0.658601;    0.602799;    0.548155;    0.489235;    0.428190;    0.425214;    0.423727;    0.707174;    0.758170;    0.928274;    0.937465;    0.971806;    0.984700;    1.014234;    1.031724;    1.049758;    1.073061;    1.106518;    1.187927;    1.218689;    1.242147;    1.286785;    1.338035;    1.378071;    1.417064;    1.460500;    1.531482;    1.589008;    1.643410;    2.070366;    2.141398;    2.271992;    2.343835;    2.495798;    2.766208;    3.088373;    3.476242;    3.667807;    4.150144;    4.993650;    9.721851;   18.853306;   41.900812; 2005.489912;
95;    0.026504;    1.000000;    0.896578;    0.852677;    0.807963;    0.761240;    0.712905;    0.659956;    0.605299;    0.548262;    0.486902;    0.425303;    0.426374;    0.422240;    0.701330;    0.854413;    1.192831;    1.202168;    1.228170;    1.246093;    1.285284;    1.322463;    1.373330;    1.406041;    1.429405;    1.550052;    1.624397;    1.675441;    1.707665;    1.735590;    1.850372;    1.916034;    1.994105;    2.052074;    2.252662;    2.367228;    3.100429;    3.565194;    3.869343;    4.088919;    5.233385;    6.135834;    6.422705;    7.114705;    8.097432;    9.106173;   13.634604;   19.775421;   30.485426;   73.853204;  626.104215;
96;    0.034352;    1.000000;    0.891350;    0.850311;    0.807267;    0.761598;    0.714391;    0.662196;    0.606522;    0.549805;    0.489358;    0.427234;    0.424470;    0.422565;    0.791414;    0.918638;    1.105296;    1.122686;    1.175058;    1.239062;    1.267396;    1.323611;    1.361776;    1.391145;    1.407701;    1.510396;    1.731850;    1.751866;    1.813307;    1.871558;    1.900346;    1.951477;    2.084489;    2.119437;    2.261051;    2.358403;    2.566183;    2.905111;    3.099554;    3.407517;    3.524407;    3.634058;    4.729607;    5.118072;    5.844240;    7.369351;    9.544408;   11.433265;   21.567609;   39.121712;28101.248041;
97;    0.022889;    1.000000;    0.905774;    0.855831;    0.809140;    0.757378;    0.708141;    0.655733;    0.599590;    0.542207;    0.481401;    0.418516;    0.420249;    0.417142;    0.681093;    0.801731;    1.025765;    1.065772;    1.121826;    1.133011;    1.162191;    1.186552;    1.237564;    1.265780;    1.314530;    1.334979;    1.375042;    1.395577;    1.472370;    1.509257;    1.561092;    1.609592;    1.763432;    1.862053;    1.896039;    1.990995;    2.084367;    2.252911;    2.363985;    2.618146;    2.891730;    2.999985;    3.339294;    3.817739;    4.207431;    4.784475;    5.526921;    7.923202;   12.050282;   24.200642; 4148.412963;
98;    0.033352;    1.000000;    0.901821;    0.857878;    0.812490;    0.764502;    0.713529;    0.662757;    0.608447;    0.551276;    0.491405;    0.428756;    0.436053;    0.430763;    0.789221;    0.906476;    1.283195;    1.315324;    1.358778;    1.387282;    1.446192;    1.466556;    1.561277;    1.597138;    1.620185;    1.636112;    1.664699;    1.741669;    1.765436;    1.826197;    1.846234;    1.901974;    2.047178;    2.236866;    2.318982;    2.444593;    2.535012;    2.575722;    2.719600;    2.997198;    3.167512;    3.278893;    3.757152;    4.315528;    5.322970;    8.283090;   10.422744;   12.165600;   15.260437;   95.624873;29037.268459;
99;    0.026437;    1.000000;    0.892077;    0.850911;    0.807670;    0.762137;    0.712448;    0.662724;    0.609319;    0.552153;    0.494533;    0.433882;    0.436831;    0.431183;    0.661618;    0.818621;    1.071355;    1.097290;    1.146099;    1.210784;    1.232310;    1.254640;    1.290046;    1.334485;    1.374455;    1.390399;    1.436324;    1.479852;    1.500855;    1.577020;    1.613014;    1.834676;    1.902484;    2.018360;    2.144633;    2.311015;    2.363652;    2.551822;    2.672713;    2.830833;    3.083889;    3.293502;    3.537671;    3.991454;    4.374454;    4.927823;    6.772620;    7.828448;   13.333669;   22.527784; 5081.385482;
100;    0.026615;    1.000000;    0.895878;    0.854136;    0.810319;    0.762683;    0.714299;    0.659731;    0.603703;    0.548843;    0.490721;    0.429957;    0.435137;    0.422166;    0.654531;    0.709074;    0.944915;    0.958666;    0.983254;    1.008032;    1.031208;    1.070174;    1.103222;    1.138680;    1.155113;    1.191836;    1.230375;    1.248796;    1.410538;    1.446183;    1.528250;    1.641258;    1.699523;    1.742908;    1.802060;    1.923028;    2.000426;    2.598409;    2.657388;    2.800200;    3.489690;    3.709930;    3.906458;    4.775607;    5.085131;    6.245028;    8.917835;   10.343341;   17.796277;   43.631128; 3302.744392;
