Simulation;Time;PC0;PC1;PC2;PC3;PC4;PC5;PC6;PC7;PC8;PC9;
Nan;Nan;0;0;0;0;1;0;0;0;0;0;
0;    0.035046;    0.991655;    0.398409;    0.401285;    0.378583;    0.377925;    0.454265;    0.541528;    0.635355;    0.730684;    0.850038;
1;    0.034804;    1.017356;    0.410414;    0.410949;    0.388601;    0.389671;    0.464147;    0.550313;    0.650370;    0.762476;    0.878581;
2;    0.044225;    1.011415;    0.419970;    0.423194;    0.394481;    0.390534;    0.464072;    0.547497;    0.653274;    0.773168;    0.892017;
3;    0.034689;    0.973493;    0.405744;    0.412863;    0.385703;    0.378451;    0.447061;    0.532579;    0.626921;    0.741072;    0.853905;
4;    0.036144;    1.022861;    0.418824;    0.421600;    0.388146;    0.389174;    0.455748;    0.532154;    0.634959;    0.751995;    0.880287;
5;    0.042136;    1.003845;    0.399419;    0.402856;    0.387792;    0.381961;    0.449810;    0.547390;    0.644848;    0.751650;    0.863637;
6;    0.034076;    1.002786;    0.409207;    0.413834;    0.391191;    0.382142;    0.458619;    0.540726;    0.630169;    0.746533;    0.863036;
7;    0.034005;    1.018505;    0.410791;    0.410595;    0.393301;    0.390865;    0.457307;    0.553862;    0.650057;    0.761203;    0.889484;
8;    0.034558;    0.982128;    0.396778;    0.399377;    0.385278;    0.374425;    0.442520;    0.527128;    0.624035;    0.735743;    0.853896;
9;    0.034103;    0.994865;    0.411016;    0.413292;    0.397281;    0.391987;    0.471081;    0.550823;    0.659901;    0.769932;    0.876262;
10;    0.034378;    1.003877;    0.413025;    0.417703;    0.395907;    0.395162;    0.476327;    0.559106;    0.649269;    0.753527;    0.872185;
11;    0.035212;    0.974060;    0.403582;    0.406549;    0.380950;    0.379108;    0.446940;    0.534830;    0.625654;    0.726741;    0.851327;
12;    0.034514;    0.949115;    0.397855;    0.398294;    0.382665;    0.376058;    0.440775;    0.525656;    0.610567;    0.719445;    0.830139;
13;    0.033804;    1.019243;    0.397328;    0.402719;    0.382708;    0.384210;    0.462523;    0.546333;    0.635935;    0.745081;    0.881410;
14;    0.034419;    0.972168;    0.401445;    0.404830;    0.375909;    0.370078;    0.447772;    0.530146;    0.624275;    0.718946;    0.837267;
15;    0.034930;    1.043880;    0.394054;    0.398487;    0.378497;    0.386068;    0.478448;    0.562306;    0.663957;    0.775224;    0.904088;
16;    0.034761;    0.990434;    0.411121;    0.411480;    0.392202;    0.390319;    0.460191;    0.539756;    0.631691;    0.743602;    0.864123;
17;    0.034003;    0.966986;    0.401107;    0.399777;    0.373503;    0.370218;    0.438217;    0.529844;    0.633089;    0.737617;    0.853848;
18;    0.034560;    0.930461;    0.389122;    0.393389;    0.372854;    0.373093;    0.442811;    0.521900;    0.604448;    0.703537;    0.812923;
19;    0.034617;    0.993436;    0.391205;    0.393330;    0.389985;    0.379949;    0.451138;    0.545152;    0.641825;    0.752202;    0.871114;
20;    0.033268;    1.045247;    0.404404;    0.408689;    0.386958;    0.386926;    0.463475;    0.547979;    0.662042;    0.774479;    0.905874;
21;    0.036824;    1.030149;    0.399077;    0.401783;    0.382928;    0.383246;    0.457583;    0.535447;    0.647401;    0.764465;    0.883579;
22;    0.035592;    1.017365;    0.399942;    0.404830;    0.388472;    0.392935;    0.465374;    0.554806;    0.655334;    0.758486;    0.887817;
23;    0.033571;    0.986023;    0.394469;    0.396814;    0.382871;    0.384567;    0.450754;    0.534117;    0.628053;    0.735243;    0.859522;
24;    0.034152;    1.024615;    0.413519;    0.416506;    0.394057;    0.395770;    0.468355;    0.556492;    0.659564;    0.764314;    0.888179;
25;    0.033554;    0.973493;    0.403732;    0.408444;    0.385311;    0.379180;    0.450880;    0.520505;    0.605248;    0.716214;    0.838314;
26;    0.034799;    1.001971;    0.405737;    0.406962;    0.390381;    0.386402;    0.470063;    0.555507;    0.640715;    0.744257;    0.865837;
27;    0.034511;    1.026705;    0.397730;    0.401122;    0.386985;    0.389067;    0.460238;    0.557653;    0.655498;    0.768166;    0.887977;
28;    0.035789;    1.037990;    0.400504;    0.404725;    0.388269;    0.385721;    0.467028;    0.552870;    0.650946;    0.762281;    0.897702;
29;    0.044120;    1.073920;    0.403232;    0.405770;    0.388027;    0.394455;    0.478358;    0.576116;    0.675675;    0.802487;    0.928152;
30;    0.030885;    1.023369;    0.406925;    0.411213;    0.385868;    0.384507;    0.459516;    0.559472;    0.657566;    0.763746;    0.891503;
31;    0.033948;    1.016104;    0.405576;    0.407994;    0.390345;    0.388437;    0.457169;    0.545802;    0.645278;    0.765491;    0.886710;
32;    0.038877;    0.964062;    0.404923;    0.407641;    0.391269;    0.391436;    0.471592;    0.556345;    0.638939;    0.740266;    0.855987;
33;    0.045322;    1.039130;    0.398551;    0.401518;    0.390649;    0.383279;    0.458504;    0.548082;    0.659899;    0.768275;    0.898866;
34;    0.034992;    1.048560;    0.404624;    0.409613;    0.391445;    0.394803;    0.478062;    0.559411;    0.661779;    0.773913;    0.906932;
35;    0.035407;    0.992493;    0.401594;    0.404192;    0.382755;    0.384230;    0.465444;    0.552103;    0.641259;    0.752168;    0.873074;
36;    0.037717;    0.938329;    0.407398;    0.409823;    0.378108;    0.376247;    0.451240;    0.531671;    0.617978;    0.715272;    0.827296;
37;    0.034565;    0.982994;    0.408364;    0.410463;    0.378809;    0.374696;    0.438553;    0.522645;    0.623727;    0.729802;    0.847067;
38;    0.033325;    1.006829;    0.396902;    0.399834;    0.380296;    0.377035;    0.455906;    0.543019;    0.645825;    0.744079;    0.869289;
39;    0.035910;    0.940282;    0.388252;    0.389640;    0.365276;    0.364784;    0.448760;    0.515006;    0.601819;    0.702963;    0.815420;
40;    0.034674;    1.008208;    0.411939;    0.415761;    0.390331;    0.389087;    0.461396;    0.544589;    0.643120;    0.759849;    0.873718;
41;    0.037804;    1.001826;    0.403201;    0.405662;    0.394901;    0.380723;    0.442665;    0.525488;    0.626984;    0.733771;    0.869195;
42;    0.037940;    1.059382;    0.404601;    0.408601;    0.386586;    0.387116;    0.470168;    0.563905;    0.657942;    0.768840;    0.911906;
43;    0.034226;    1.030088;    0.401394;    0.404565;    0.383000;    0.390225;    0.468523;    0.564732;    0.663010;    0.770754;    0.895928;
44;    0.034702;    1.000835;    0.405745;    0.407467;    0.392177;    0.388905;    0.476812;    0.558386;    0.651791;    0.755774;    0.867641;
45;    0.044888;    0.984110;    0.392356;    0.393592;    0.378997;    0.373442;    0.442508;    0.525417;    0.633738;    0.739151;    0.860113;
46;    0.038374;    1.039646;    0.407596;    0.415249;    0.394589;    0.390334;    0.461988;    0.546339;    0.658445;    0.771629;    0.903416;
47;    0.035124;    1.039620;    0.404970;    0.409753;    0.389328;    0.388730;    0.460514;    0.555829;    0.670532;    0.768042;    0.895104;
48;    0.034623;    0.966500;    0.395992;    0.401958;    0.382228;    0.380628;    0.448998;    0.540344;    0.635023;    0.749610;    0.849979;
49;    0.034379;    0.977434;    0.396899;    0.401100;    0.379636;    0.375259;    0.452400;    0.537603;    0.633483;    0.733972;    0.845750;
50;    0.035508;    1.014842;    0.399720;    0.400500;    0.384778;    0.382338;    0.473576;    0.563209;    0.650966;    0.767343;    0.884745;
51;    0.041008;    1.042602;    0.414805;    0.418568;    0.396335;    0.389899;    0.465918;    0.570291;    0.675323;    0.781223;    0.908161;
52;    0.032894;    1.004296;    0.405451;    0.408361;    0.378185;    0.383919;    0.454468;    0.538054;    0.645073;    0.746922;    0.875893;
53;    0.259345;    0.936215;    0.414076;    0.415639;    0.392816;    0.385878;    0.455201;    0.526777;    0.613867;    0.703741;    0.820578;
54;    0.033646;    1.032735;    0.415896;    0.418385;    0.406395;    0.404328;    0.481593;    0.580696;    0.686462;    0.795728;    0.910727;
55;    0.031358;    0.997851;    0.390035;    0.394360;    0.375901;    0.381723;    0.454038;    0.535107;    0.628987;    0.747222;    0.861953;
56;    0.032319;    1.012165;    0.399947;    0.400913;    0.384663;    0.381005;    0.450116;    0.531077;    0.632062;    0.744632;    0.879048;
57;    0.032519;    1.022277;    0.415192;    0.415712;    0.396761;    0.390004;    0.475373;    0.569749;    0.655178;    0.769902;    0.888050;
58;    0.033007;    1.014194;    0.405964;    0.408561;    0.394036;    0.388159;    0.451396;    0.547891;    0.648285;    0.767242;    0.883308;
59;    0.033864;    0.983302;    0.409438;    0.415592;    0.385869;    0.379454;    0.453326;    0.538118;    0.627840;    0.738203;    0.850145;
60;    0.038961;    1.004374;    0.407155;    0.413489;    0.395784;    0.383729;    0.458888;    0.553620;    0.642991;    0.753992;    0.865928;
61;    0.037840;    0.985525;    0.394148;    0.396986;    0.381832;    0.378734;    0.438309;    0.532819;    0.633380;    0.747727;    0.860939;
62;    0.034100;    0.990327;    0.396238;    0.399396;    0.374594;    0.375725;    0.454197;    0.528145;    0.633579;    0.735512;    0.855042;
63;    0.034393;    1.036067;    0.398152;    0.400269;    0.384871;    0.385863;    0.459356;    0.555705;    0.659778;    0.761842;    0.894630;
64;    0.036118;    1.007853;    0.403184;    0.409510;    0.380878;    0.384483;    0.469677;    0.566661;    0.655352;    0.758710;    0.869022;
65;    0.034480;    0.961110;    0.396995;    0.400722;    0.386917;    0.377024;    0.450722;    0.529018;    0.616136;    0.723894;    0.836812;
66;    0.037234;    0.987391;    0.402513;    0.408410;    0.391918;    0.381779;    0.448559;    0.544635;    0.631537;    0.736016;    0.859253;
67;    0.031474;    0.958444;    0.386940;    0.389039;    0.374933;    0.378050;    0.440054;    0.525282;    0.613891;    0.714015;    0.829206;
68;    0.033357;    0.998953;    0.400041;    0.402833;    0.379603;    0.380012;    0.452205;    0.526542;    0.635762;    0.740629;    0.864005;
69;    0.034191;    0.954351;    0.399729;    0.400967;    0.374043;    0.373274;    0.435261;    0.520258;    0.611840;    0.720975;    0.831497;
70;    0.035856;    1.013992;    0.411494;    0.413071;    0.404361;    0.397796;    0.472849;    0.552323;    0.641798;    0.761964;    0.873327;
71;    0.038320;    1.006181;    0.396407;    0.400216;    0.387049;    0.388109;    0.475429;    0.551648;    0.654564;    0.763163;    0.882194;
72;    0.032406;    1.019599;    0.397027;    0.401380;    0.384747;    0.380469;    0.464693;    0.553232;    0.640238;    0.752917;    0.878908;
73;    0.032648;    1.046918;    0.411567;    0.416767;    0.398214;    0.393785;    0.470356;    0.558946;    0.661262;    0.784859;    0.897255;
74;    0.033255;    1.040636;    0.403886;    0.410812;    0.377797;    0.380572;    0.471615;    0.558946;    0.654631;    0.762118;    0.893397;
75;    0.033664;    1.006087;    0.404310;    0.404161;    0.382472;    0.386142;    0.469522;    0.555436;    0.652182;    0.752416;    0.869853;
76;    0.033280;    1.037240;    0.398441;    0.399977;    0.390621;    0.389737;    0.462942;    0.552335;    0.652885;    0.774982;    0.888791;
77;    0.033813;    0.966448;    0.387462;    0.389196;    0.372080;    0.375873;    0.451677;    0.532011;    0.629565;    0.727031;    0.836122;
78;    0.032567;    0.966899;    0.407103;    0.411189;    0.384176;    0.381035;    0.451001;    0.518593;    0.610308;    0.708408;    0.829557;
79;    0.037120;    1.007294;    0.405752;    0.408359;    0.399002;    0.392018;    0.467091;    0.538861;    0.644258;    0.750235;    0.870976;
80;    0.033829;    1.010528;    0.400240;    0.402313;    0.380299;    0.379735;    0.454811;    0.542999;    0.638953;    0.755586;    0.874180;
81;    0.033027;    0.984094;    0.394894;    0.398313;    0.373766;    0.373481;    0.451483;    0.528102;    0.623886;    0.730057;    0.847004;
82;    0.032265;    0.989011;    0.391666;    0.394925;    0.376192;    0.377914;    0.465808;    0.551784;    0.636670;    0.733323;    0.853327;
83;    0.033164;    0.938018;    0.383898;    0.384731;    0.368041;    0.370948;    0.435886;    0.508706;    0.598717;    0.707926;    0.828868;
84;    0.033053;    0.949794;    0.409151;    0.411016;    0.384610;    0.379577;    0.457442;    0.539756;    0.631898;    0.723625;    0.846420;
85;    0.032825;    0.972615;    0.404457;    0.409372;    0.389789;    0.385620;    0.451134;    0.544093;    0.640484;    0.732331;    0.844235;
86;    0.032094;    1.044437;    0.403273;    0.406742;    0.383646;    0.391373;    0.463582;    0.563079;    0.664194;    0.772543;    0.903317;
87;    0.033685;    1.014327;    0.395176;    0.398617;    0.383017;    0.386060;    0.457092;    0.543647;    0.649989;    0.757417;    0.870663;
88;    0.034516;    1.049202;    0.412533;    0.413642;    0.390256;    0.391269;    0.469475;    0.557901;    0.657634;    0.769550;    0.904543;
89;    0.033308;    1.017857;    0.414121;    0.418439;    0.391378;    0.384786;    0.462458;    0.539758;    0.637577;    0.745209;    0.872737;
90;    0.033698;    0.980092;    0.402178;    0.407631;    0.389447;    0.381978;    0.462514;    0.534595;    0.627650;    0.743007;    0.855217;
91;    0.033365;    1.025114;    0.409056;    0.412666;    0.390902;    0.393462;    0.480610;    0.562337;    0.648146;    0.757394;    0.889709;
92;    0.034029;    0.997477;    0.404419;    0.409982;    0.384122;    0.377186;    0.443642;    0.527178;    0.626229;    0.743557;    0.865133;
93;    0.033030;    0.996562;    0.406212;    0.411646;    0.390315;    0.382142;    0.450544;    0.544313;    0.649202;    0.750047;    0.870313;
94;    0.035140;    1.007541;    0.403945;    0.404688;    0.390132;    0.386285;    0.454653;    0.532317;    0.642616;    0.756176;    0.875741;
95;    0.033539;    1.030003;    0.407199;    0.409077;    0.394766;    0.386029;    0.457921;    0.550089;    0.649556;    0.764817;    0.886973;
96;    0.033389;    1.038493;    0.403320;    0.407741;    0.389474;    0.386040;    0.471928;    0.562248;    0.663728;    0.775576;    0.905096;
97;    0.044945;    0.989726;    0.416976;    0.420521;    0.394214;    0.393285;    0.452295;    0.529876;    0.633711;    0.745837;    0.864968;
98;    0.039492;    1.000139;    0.409079;    0.412670;    0.387695;    0.384519;    0.458814;    0.542222;    0.636033;    0.747837;    0.876218;
99;    0.034652;    1.024997;    0.393735;    0.398575;    0.378317;    0.377704;    0.457795;    0.546742;    0.647218;    0.754952;    0.878802;
100;    0.036795;    1.001552;    0.396006;    0.397841;    0.379778;    0.373641;    0.441807;    0.522362;    0.630641;    0.738397;    0.865327;
