Simulation;Time;PC 0;PC 1;PC 2;PC 3;PC 4;PC 5;PC 6;PC 7;PC 8;PC 9;PC10;PC11;PC12;PC13;PC14;PC15;PC16;PC17;PC18;PC19;PC20;PC21;PC22;PC23;PC24;PC25;PC26;
Nan;Nan;0;0;0;0;0;0;0;0;0;0;0;0;1;0;0;0;0;0;0;0;0;0;0;0;0;0;0;
0;    0.669012;    0.985757;    0.869826;    0.816280;    0.757647;    0.686508;    0.581467;    0.470057;    0.543436;    0.727048;    1.064296;    1.863145;    3.548394;    9.884159;   11.126002;   11.862877;   12.861809;   15.440592;   17.707088;   21.308104;   24.710283;   28.193486;   35.515691;   47.951002;   62.055395;  135.431986;  305.157217;12557316.466661;
1;    0.654469;    1.011132;    0.891568;    0.821491;    0.758203;    0.694668;    0.591149;    0.484571;    0.551964;    0.630090;    0.817001;    2.093184;    3.879523;    8.514724;    9.718634;   10.229326;   12.267202;   13.270704;   14.404522;   16.429885;   19.588443;   23.570585;   27.757541;   35.646610;   53.360441;  181.003606;  546.167167;2349960.528050;
2;    0.648153;    1.012933;    0.897280;    0.838311;    0.766828;    0.681899;    0.596381;    0.478294;    0.541194;    0.667917;    1.157387;    2.114571;    3.430711;    9.611839;   10.442484;   12.245577;   14.059021;   15.544418;   18.300587;   21.145138;   25.329447;   29.794881;   36.398308;   61.388431;   84.054057;  148.705147;  792.522508;397702.559180;
3;    0.682870;    1.005382;    0.896390;    0.839068;    0.789819;    0.699853;    0.599968;    0.487203;    0.540109;    0.658195;    0.884150;    3.868244;    6.287580;   14.280826;   14.613225;   16.888745;   19.095539;   22.596438;   24.975896;   28.830080;   34.811414;   41.354878;   55.285209;   90.485461;  129.280601;  277.354907;  978.076272;2617523.052531;
4;    0.676190;    1.031694;    0.914847;    0.870402;    0.784564;    0.707533;    0.588075;    0.485534;    0.537247;    0.746574;    1.140456;    2.048677;    8.536671;   10.571956;   11.424612;   12.863330;   14.397319;   15.939526;   16.918294;   18.629077;   21.389903;   24.401589;   29.753715;   39.582979;   62.108871;   85.038375;  303.208304;22992.565561;
5;    0.660900;    1.006007;    0.887624;    0.846799;    0.794689;    0.702076;    0.595185;    0.490286;    0.549629;    0.619539;    0.742376;    1.136279;    3.148192;    9.554717;   10.407866;   11.034071;   12.272006;   14.444139;   17.713043;   20.797700;   26.730395;   34.662929;   49.055582;   62.498557;  112.363082;  202.521935; 1361.725319;20297.805904;
6;    0.656613;    1.001644;    0.886888;    0.832144;    0.778585;    0.670607;    0.587457;    0.473628;    0.559542;    0.727288;    1.005233;    1.752444;    4.983285;   15.287781;   16.746093;   19.820913;   21.709871;   26.988378;   30.254295;   37.006590;   46.837881;   54.392968;   64.278160;   79.334362;   96.702887;  166.646408;  394.663806;52142.825708;
7;    0.680511;    1.014534;    0.893792;    0.839830;    0.764078;    0.678493;    0.590428;    0.485359;    0.526178;    0.621448;    1.028212;    2.809709;    7.511332;   15.720053;   17.771257;   19.933908;   22.783586;   24.751574;   29.896990;   34.612542;   41.731356;   54.176526;   65.795660;   89.865663;  136.278648;  298.585787; 1166.215626;17068.538324;
8;    0.661764;    0.984277;    0.869523;    0.818018;    0.749232;    0.681543;    0.593493;    0.477709;    0.536220;    0.620721;    0.794513;    1.464070;    3.741445;    9.605245;   10.223904;   11.637098;   13.232529;   14.771729;   17.864286;   21.859377;   28.115772;   34.843503;   39.899692;   53.275794;   63.870397;   76.529868;  184.369451;47103.904294;
9;    0.651334;    1.010700;    0.897209;    0.846116;    0.790442;    0.710261;    0.607387;    0.481926;    0.552853;    0.638450;    0.774166;    1.986162;    4.494503;   11.605784;   12.608168;   13.878189;   15.534646;   17.019173;   17.924786;   20.528481;   23.376667;   26.875795;   30.568021;   36.974831;  103.117934;  245.932901;  605.250660;1371594.083516;
10;    0.651166;    1.013933;    0.898593;    0.853434;    0.776800;    0.708390;    0.617632;    0.480784;    0.547679;    0.624997;    0.769520;    1.325429;    2.985511;   10.669933;   11.643836;   13.729954;   15.957453;   17.734967;   19.450834;   22.468121;   25.968417;   29.640603;   35.819042;   44.652731;   64.400576;   87.715246;  195.109234; 3576.835200;
11;    0.658333;    1.001265;    0.892001;    0.840241;    0.768921;    0.689282;    0.591955;    0.482670;    0.549764;    0.668389;    0.937036;    1.475394;    4.509540;   10.754017;   11.251225;   13.201597;   14.888325;   16.484301;   18.615731;   22.103970;   25.524197;   29.251801;   36.214331;   57.575715;   91.210562;  134.948290;  231.752577;50568.861428;
12;    0.664760;    0.990636;    0.886012;    0.831739;    0.786136;    0.681671;    0.584680;    0.483154;    0.546566;    0.619798;    0.720738;    1.774609;    5.273295;    9.130402;   10.088573;   10.626703;   11.649430;   13.821641;   15.615456;   18.413483;   22.794869;   27.998998;   35.716976;   44.778555;   52.277924;   67.146394;  103.098199; 5174.885242;
13;    0.687058;    1.005615;    0.881519;    0.825717;    0.761147;    0.688116;    0.613586;    0.484086;    0.532151;    0.632940;    1.893942;    3.144722;    4.573215;   10.666097;   11.013200;   11.786365;   12.638554;   16.883410;   20.215120;   23.754882;   27.637337;   32.958951;   37.903640;   44.124137;   54.205224;  134.708119;  667.526549;15021.979179;
14;    0.646406;    0.988030;    0.878984;    0.828707;    0.768134;    0.681970;    0.585915;    0.471504;    0.539580;    0.617149;    0.761537;    1.870462;    3.011802;    8.266647;    8.870469;    9.181684;   10.104072;   11.149149;   13.425954;   15.135587;   17.125495;   18.855903;   21.681493;   25.080734;   33.598551;   75.991595;  568.553353;1274109.390340;
15;    0.650305;    0.993614;    0.860583;    0.808691;    0.757820;    0.675323;    0.575803;    0.475716;    0.531820;    0.594704;    0.694767;    1.199319;    2.866103;    9.844064;   11.262919;   12.138047;   13.277218;   14.126275;   15.607087;   17.052939;   18.196548;   20.456568;   24.183100;   33.593316;   46.421124;   95.359068;  561.848546;164130176.893021;
16;    0.654471;    1.016655;    0.906283;    0.842999;    0.771548;    0.696131;    0.607876;    0.490936;    0.553514;    0.626327;    0.782612;    1.203974;    3.460589;    9.617827;   10.588944;   12.382202;   13.632340;   14.344445;   15.809948;   17.701536;   19.252000;   22.003571;   26.713441;   34.309802;   49.281804;   78.629130;  281.070809;92121.669619;
17;    0.651480;    0.988643;    0.879179;    0.815113;    0.740228;    0.661486;    0.578824;    0.478224;    0.560105;    0.656445;    1.044894;    1.828792;    4.310683;    7.786528;    8.232625;    8.776890;    9.898832;   10.962424;   12.372773;   13.604340;   15.649652;   17.498559;   19.730981;   25.348154;   37.828123;   57.766095;  287.178275;4236572425.037848;
18;    0.645684;    0.973905;    0.871244;    0.816522;    0.757260;    0.699389;    0.594898;    0.484042;    0.545641;    0.657796;    0.935603;    1.374334;    3.400539;   10.492377;   11.380137;   12.674346;   13.614365;   14.944386;   17.558056;   19.881203;   22.027175;   26.459506;   31.381904;   40.408001;   63.028543;  115.171251;  329.515000;836780.957180;
19;    0.655612;    0.990160;    0.870866;    0.810962;    0.752955;    0.667809;    0.576226;    0.480634;    0.535771;    0.627278;    1.207948;    2.623420;    7.151361;   12.522332;   14.795374;   16.169104;   19.734980;   22.267410;   25.774059;   33.627210;   39.129828;   50.952593;   70.586864;   96.362975;  130.669643;  236.647160;  377.562160; 5378.419735;
20;    0.650764;    1.015703;    0.887455;    0.845521;    0.776945;    0.694280;    0.606907;    0.481698;    0.534456;    0.658206;    0.799630;    1.264003;    5.554723;   12.370690;   12.930125;   14.609805;   17.370430;   19.263058;   21.273038;   24.631148;   29.929471;   35.605559;   48.389155;   62.669234;   77.073028;   97.842261;  202.691804;12188.511823;
21;    0.689484;    1.013065;    0.885815;    0.840426;    0.772458;    0.698384;    0.603525;    0.482407;    0.541820;    0.647273;    0.859476;    1.278940;    2.269631;    8.098291;    8.957024;    9.800210;   10.791540;   11.887843;   13.185458;   15.980260;   17.438808;   20.772095;   23.548094;   28.957921;   35.188684;   45.243486;  379.441253;28095.580549;
22;    0.650801;    1.015476;    0.893714;    0.830247;    0.760369;    0.685970;    0.595366;    0.482966;    0.551377;    0.870489;    1.005538;    1.275548;    4.431369;    9.197749;   10.372402;   11.216407;   12.154653;   13.498066;   16.221370;   18.427335;   20.654841;   26.042249;   37.798164;   63.657217;   84.241286;  141.431843;  252.118122;156825.314273;
23;    0.645658;    1.003599;    0.888063;    0.846151;    0.772733;    0.711395;    0.597650;    0.492422;    0.568941;    0.724608;    0.941579;    1.332274;    2.306247;    8.626550;   10.613085;   11.492118;   12.992855;   15.004373;   16.838025;   19.512253;   22.174266;   27.297892;   32.369642;   41.427874;   62.372718;   92.634926;  213.945527;509692.514707;
24;    0.647210;    1.024892;    0.905147;    0.844272;    0.768473;    0.700301;    0.600001;    0.480509;    0.561469;    0.668610;    1.562971;    3.920674;    8.307209;   13.884272;   15.666034;   17.812862;   18.879088;   19.868315;   21.626073;   24.124512;   27.259114;   40.379050;   60.486361;   88.117428;  139.937938;  303.828759; 1539.512572;23553.159913;
25;    0.671567;    0.989279;    0.878970;    0.829286;    0.778871;    0.675787;    0.594442;    0.480319;    0.537799;    0.631230;    0.849867;    1.316142;    3.608987;    8.549180;    9.489677;   10.357005;   11.440081;   12.794105;   14.233607;   20.033742;   22.637630;   26.689121;   34.422412;   39.857612;   48.672653;   78.588812;  453.809143;93323.422172;
26;    0.678440;    1.014082;    0.897532;    0.842314;    0.791045;    0.698976;    0.604159;    0.488766;    0.539938;    0.631576;    0.936582;    1.885225;    5.467117;   10.595804;   11.895813;   13.382441;   14.835573;   17.611295;   21.880172;   26.370382;   29.369727;   33.880507;   38.173855;   49.237161;   55.388585;   90.155081;  201.203695;19200.546990;
27;    0.723443;    1.012187;    0.885209;    0.826389;    0.763830;    0.685919;    0.594169;    0.482119;    0.561440;    0.802263;    1.350545;    2.614289;    7.604457;   10.091807;   10.471097;   11.110595;   11.753244;   13.006413;   13.838629;   14.967721;   17.778782;   23.868668;   28.657038;   40.610300;   63.225768;  142.777299;  262.420186;62368.394922;
28;    0.840966;    1.016103;    0.887683;    0.826739;    0.758552;    0.688973;    0.592683;    0.479223;    0.528774;    0.608686;    0.856992;    1.920286;    5.375819;    9.983971;   11.759057;   13.086149;   14.159378;   15.505987;   18.384006;   20.365221;   23.756166;   27.061028;   34.356475;   47.848037;   77.442205;  176.023503;  371.838644; 5753.289636;
29;    1.000560;    1.025330;    0.887829;    0.832576;    0.774539;    0.687141;    0.599133;    0.479154;    0.547708;    0.739397;    1.553630;    2.787425;    5.712771;   11.195416;   11.890543;   12.778463;   14.091096;   15.419160;   18.758257;   21.648525;   27.861780;   33.152195;   40.962682;   49.822952;   80.739376;  179.802404; 1998.061193;961282122.030308;
30;    0.663126;    1.011843;    0.889435;    0.849056;    0.783546;    0.698682;    0.609743;    0.481470;    0.526901;    0.638977;    0.796069;    1.499411;    2.831070;    8.423569;    9.146532;   10.161666;   11.887606;   13.077836;   18.070281;   21.774887;   27.048363;   31.633182;   40.956755;   55.340646;   93.336201;  148.688852;  505.059294;112720.327517;
31;    0.726891;    1.009468;    0.889873;    0.839222;    0.768996;    0.700228;    0.612204;    0.483665;    0.548988;    0.614930;    0.929529;    1.644668;    4.750644;    9.798644;   10.745127;   11.584895;   13.033198;   15.365533;   17.426691;   21.103870;   23.467175;   33.154348;   46.321020;   60.713874;  157.320962;  263.292634; 2798.034660;68000.759362;
32;    0.979271;    0.991617;    0.884315;    0.823447;    0.750689;    0.680105;    0.578541;    0.478481;    0.545135;    0.680843;    0.927252;    1.894623;    3.761682;   11.059297;   11.954446;   12.721135;   14.124411;   15.839951;   17.389664;   18.455689;   19.825770;   21.596851;   24.905289;   27.935434;   34.747221;  115.114681;  286.636371;63022.034421;
33;    0.876302;    0.998512;    0.867731;    0.811993;    0.743051;    0.687663;    0.597085;    0.476932;    0.530321;    0.697117;    1.106753;    1.832768;    4.499031;   10.409099;   10.954706;   11.724184;   12.373404;   13.524174;   14.679695;   17.293829;   20.118779;   24.107006;   29.579403;   35.544644;   45.252273;   91.119819;  863.449738;3444907.686420;
34;    0.684602;    1.016543;    0.885879;    0.834370;    0.783099;    0.693119;    0.601549;    0.491007;    0.573958;    0.706061;    0.950925;    3.242400;    6.064555;   11.899958;   13.045974;   14.069076;   15.000811;   16.406848;   19.312328;   21.314811;   24.238929;   26.671834;   34.897249;   49.027762;   75.444084;  111.496495;  259.272583;25566.725467;
35;    0.699367;    1.006455;    0.892335;    0.834780;    0.760972;    0.677775;    0.586061;    0.479406;    0.549066;    0.670758;    1.015384;    1.753112;    4.295692;   10.521156;   12.174503;   13.301478;   14.519973;   15.357942;   16.712046;   18.346632;   19.876981;   26.915606;   37.975626;   75.450724;  112.418198;  171.621250;  907.980245;446894.968212;
36;    0.788643;    0.979689;    0.879184;    0.822141;    0.764562;    0.705193;    0.587849;    0.473231;    0.540628;    0.657633;    0.902210;    1.338085;    3.439498;    9.274855;   10.126458;   10.783063;   11.809143;   12.848481;   14.084024;   17.546129;   21.839979;   25.567439;   29.756181;   36.893857;   48.452474;   67.329939;  107.491417;40683.414936;
37;    0.658679;    0.992089;    0.880457;    0.821081;    0.769278;    0.674415;    0.580596;    0.479412;    0.545158;    0.621352;    0.725543;    1.578267;    3.985831;    9.571442;   10.145629;   11.034338;   12.100763;   13.603881;   14.959793;   16.916507;   19.256428;   21.292436;   24.302588;   29.075668;   57.677892;  115.370702;  596.401019;20409.434039;
38;    0.667591;    1.000584;    0.879584;    0.825100;    0.761888;    0.691295;    0.585347;    0.477926;    0.551598;    0.635037;    0.974419;    1.434829;    4.608973;    9.767637;   10.249570;   11.078825;   12.906199;   15.843002;   19.502409;   22.207769;   26.429315;   30.949273;   38.844813;   49.313421;  106.720175;  336.444680;  878.763914;114849.218980;
39;    0.662988;    0.972566;    0.867364;    0.827972;    0.749684;    0.672094;    0.583759;    0.476802;    0.547102;    0.694192;    0.867268;    1.223998;    1.786548;    9.642753;   10.566218;   11.324130;   12.366518;   13.823709;   15.440808;   18.281062;   20.717472;   23.918599;   32.554033;   65.513295;  165.644292;  308.179713; 1362.965931;81445.032460;
40;    0.669363;    1.005289;    0.888280;    0.830210;    0.773963;    0.679068;    0.583634;    0.478435;    0.545012;    0.652843;    1.252820;    2.049019;    3.815665;    9.362860;   11.508042;   12.764604;   14.840153;   15.828883;   18.036401;   20.916105;   25.392408;   43.859637;   59.308579;   76.879470;  100.065235;  134.483596;  318.349751;1667463.647491;
41;    0.695401;    0.996789;    0.880782;    0.830784;    0.778112;    0.680989;    0.592362;    0.478556;    0.536294;    0.645034;    0.944608;    1.586616;    3.146675;   10.030861;   10.806664;   11.967997;   13.521182;   14.273291;   15.416814;   16.814089;   18.312679;   20.688578;   25.392651;   31.864699;   43.704194;  107.855591;  322.540938; 5690.355927;
42;    0.696698;    1.016037;    0.881100;    0.836156;    0.772343;    0.685475;    0.599567;    0.480564;    0.600410;    0.976408;    1.902361;    2.700619;    4.733291;    9.120498;   10.930011;   11.674859;   12.413537;   13.631873;   15.134047;   17.172136;   18.935363;   21.053206;   29.388330;   38.084226;   57.481869;  159.267634;  296.120537;345370.983900;
43;    0.666411;    1.008517;    0.883116;    0.829867;    0.769820;    0.682065;    0.587085;    0.480936;    0.543858;    0.665839;    0.900268;    2.325302;    6.913964;    8.836365;    9.458999;   10.327148;   11.761946;   13.001719;   14.438191;   15.795427;   17.580884;   20.592092;   27.154681;   31.912309;   42.332838;   66.932549;  223.380183;180841.623475;
44;    0.674119;    1.009189;    0.893863;    0.838445;    0.781449;    0.689548;    0.610968;    0.483435;    0.569447;    0.730593;    0.924423;    1.367877;    5.544938;    9.656922;   10.988781;   11.742528;   13.253700;   14.329012;   16.638992;   19.326556;   21.607593;   23.703419;   27.432702;   36.696964;   65.466439;  145.261026;  233.783060;13329.042377;
45;    0.657417;    0.987889;    0.869565;    0.811408;    0.753960;    0.698569;    0.587397;    0.478098;    0.568945;    0.812290;    1.013636;    1.584590;    4.375081;   10.830490;   11.826060;   12.666507;   14.386069;   16.265332;   17.488463;   19.432805;   21.400354;   25.551398;   28.816154;   33.143048;   38.702542;   57.878592;  151.831280;20119.999508;
46;    0.660233;    1.013770;    0.887619;    0.826941;    0.773850;    0.697584;    0.612064;    0.472552;    0.531728;    0.635468;    0.806634;    1.160444;    3.797034;    8.401553;    8.785656;    9.450339;   10.150339;   11.113033;   13.840382;   16.421774;   17.586444;   19.714332;   24.174321;   34.289878;   93.085728;  141.884236;  267.615881;3801164.974383;
47;    0.658835;    1.014193;    0.885952;    0.854159;    0.786512;    0.687852;    0.596057;    0.487806;    0.536411;    0.620380;    0.862968;    1.740491;    5.315592;   10.815504;   11.495129;   13.002365;   14.418169;   15.880449;   17.928793;   19.805003;   22.923120;   27.393525;   31.727733;   47.961581;   90.580706;  141.595854; 1325.552199;1471091.532184;
48;    0.651751;    1.000526;    0.890937;    0.828198;    0.780096;    0.693177;    0.606120;    0.486679;    0.570754;    0.719402;    0.971214;    1.878434;    3.632866;   10.132230;   10.820622;   11.723407;   12.597605;   13.851139;   14.669560;   15.747216;   17.043920;   18.690979;   20.005458;   22.346931;   44.211335;   68.120471;  228.111179;250955.830318;
49;    0.712547;    0.999164;    0.883199;    0.822668;    0.761882;    0.679659;    0.603596;    0.481551;    0.561028;    0.648769;    0.931264;    2.002152;    5.080678;    8.867523;   10.547109;   11.652605;   12.812368;   14.066172;   15.925573;   19.244697;   23.014140;   26.634734;   31.194668;   37.788442;   46.262427;   71.546531;  277.680622;23249.215026;
50;    0.645740;    1.001219;    0.876896;    0.826116;    0.764302;    0.693921;    0.597141;    0.485798;    0.550578;    0.639552;    0.881996;    1.248107;    7.203352;   11.062286;   11.950889;   12.592695;   13.410636;   14.586748;   16.448768;   19.385552;   23.292418;   28.406289;   37.459338;   49.139475;   68.999776;   95.844391;  311.968888;53984.347979;
51;    0.677177;    1.028990;    0.902776;    0.851891;    0.787168;    0.694214;    0.623667;    0.484969;    0.562029;    1.053921;    1.268678;    2.504939;    5.484714;   10.023395;   11.327946;   12.358524;   13.310971;   14.652800;   19.031280;   21.882084;   27.637210;   42.988450;   55.230322;   70.520958;   82.394851;  189.004487;  638.425124;41096.054252;
52;    0.781471;    0.998900;    0.881004;    0.834126;    0.770352;    0.677364;    0.575317;    0.477583;    0.525955;    0.594282;    0.832014;    2.077282;    4.519553;    9.939030;   10.594767;   11.544576;   13.200765;   14.529613;   16.486702;   18.201064;   21.015969;   25.671318;   33.421637;   46.860271;  101.602657;  312.658213; 1425.975502;217109.296640;
53;    0.730371;    0.987200;    0.890291;    0.833476;    0.761633;    0.677632;    0.588469;    0.476378;    0.525141;    0.733372;    1.301803;    3.210409;    5.397321;    9.973525;   12.324486;   13.292786;   14.736448;   16.547147;   18.258854;   20.986893;   23.396516;   31.834910;   39.519534;   48.706024;   65.697165;  179.606351;  299.145333; 7006.704871;
54;    0.652587;    1.014691;    0.893928;    0.829454;    0.759786;    0.679196;    0.588894;    0.477404;    0.550976;    0.689673;    1.801191;    2.761295;    4.742320;    7.898559;    8.684909;    9.443206;   10.370684;   11.837317;   12.770511;   13.808845;   15.226139;   17.883623;   20.492735;   23.575815;   38.709962;   63.197284;  200.884336; 3783.580357;
55;    0.656706;    0.984278;    0.861110;    0.808104;    0.751294;    0.670501;    0.594744;    0.478312;    0.536082;    0.676764;    1.522665;    2.563641;    5.276111;    9.742738;   10.103793;   11.398303;   12.090010;   13.651226;   15.136017;   17.251087;   19.995330;   23.003934;   27.094073;   32.310985;   79.611512;  272.349028;  611.716374;260672.939192;
56;    0.642937;    0.989875;    0.868197;    0.812995;    0.738631;    0.666957;    0.581909;    0.482363;    0.528458;    0.646826;    0.888338;    1.392888;    3.235222;    9.474735;   10.671052;   11.616414;   12.116024;   13.971450;   16.269379;   18.155084;   24.709156;   29.869209;   37.229543;   49.268140;   72.405422;  159.603143;  686.919935;69176.688881;
57;    0.894699;    1.016698;    0.896296;    0.842783;    0.770911;    0.691086;    0.601673;    0.483203;    0.570632;    0.647597;    1.045618;    2.604952;    7.002409;   11.183462;   12.197619;   13.134696;   14.947456;   15.775934;   16.595961;   18.020852;   20.839479;   24.778927;   30.268895;   46.651695;   92.743297;  236.031726;  831.798074;489320.877583;
58;    0.647470;    1.009614;    0.888531;    0.835447;    0.780359;    0.697638;    0.603383;    0.485167;    0.545275;    0.626990;    0.739441;    1.011879;    4.381375;   10.377900;   10.898222;   11.963772;   12.790110;   15.007347;   17.253815;   18.836769;   23.138155;   28.918720;   35.494708;   49.853416;   74.739579;  127.457000;  911.367226;587112.196974;
59;    0.654901;    1.001465;    0.890404;    0.827161;    0.756410;    0.666915;    0.601014;    0.473797;    0.521753;    0.612658;    0.767887;    1.362695;    3.869916;    9.523191;    9.937120;   10.871029;   12.727502;   14.502580;   16.130834;   18.682723;   21.096236;   24.260620;   31.007444;   42.890381;   80.563028;  152.233363;  494.891985;334706.031777;
60;    0.666591;    1.004964;    0.887368;    0.837755;    0.777936;    0.711660;    0.591620;    0.476281;    0.531823;    0.618540;    0.871633;    1.452782;    3.664724;   10.238828;   11.371993;   12.637474;   14.131592;   14.990163;   15.961493;   17.929980;   19.919614;   22.919518;   26.491257;   35.420478;   53.646086;  174.262876;  482.243120; 9484.623134;
61;    0.743346;    0.991239;    0.874991;    0.819903;    0.771618;    0.692430;    0.605600;    0.487653;    0.548940;    0.625719;    0.775740;    1.131481;    2.994604;   10.023606;   11.208395;   12.903613;   14.016227;   15.182151;   17.428321;   20.117779;   23.073972;   25.468451;   29.432670;   36.237855;   48.448003;   67.235503;  197.520358; 4954.189190;
62;    0.874016;    0.991015;    0.873029;    0.825195;    0.766902;    0.667567;    0.580764;    0.474190;    0.549319;    0.741936;    1.065476;    2.218118;    4.018064;    7.560466;    8.327184;    8.893358;    9.803438;   10.477406;   11.992371;   12.977938;   14.448678;   16.435586;   20.057086;   23.846179;   33.261066;   51.478293;   91.803753;98034.894658;
63;    1.023828;    1.004369;    0.876600;    0.813627;    0.744373;    0.681579;    0.597399;    0.475258;    0.535596;    0.653281;    0.945886;    1.391090;    3.793907;    8.769781;    9.421591;   10.322810;   11.070497;   12.167548;   12.936797;   14.482030;   16.939305;   20.787691;   23.735177;   30.719455;   40.344895;   89.305517;  206.004681; 9959.599336;
64;    0.671909;    1.000529;    0.880537;    0.826029;    0.771322;    0.705313;    0.601681;    0.485768;    0.600333;    1.064832;    1.400294;    2.425339;    3.877498;   11.582153;   12.564067;   14.180393;   16.146012;   18.355182;   21.148587;   26.061401;   32.278107;   40.127685;   51.112948;   74.696544;  104.612916;  196.822284;  445.666561;21184.213027;
65;    0.668456;    0.982247;    0.874491;    0.836897;    0.759381;    0.685623;    0.605196;    0.473104;    0.568964;    0.693180;    1.381517;    1.892837;    3.692450;    8.398109;    9.031477;    9.496382;   10.300119;   11.300716;   12.024412;   13.938040;   20.043228;   24.843469;   37.949487;   51.405097;   73.462250;   88.416685;52311.344212;910516.714831;
66;    1.005032;    1.004899;    0.891707;    0.838523;    0.775255;    0.712531;    0.609021;    0.481069;    0.545151;    0.612855;    0.831710;    1.097677;    2.683453;    6.803951;    7.434314;    8.267968;    8.875645;    9.355729;    9.702486;   11.090559;   12.746458;   14.940457;   21.176534;   35.229259;   56.220338;   89.106871;  200.272852;74725.678150;
67;    0.671037;    0.985798;    0.875384;    0.827978;    0.751221;    0.669738;    0.587598;    0.489186;    0.538289;    0.615052;    0.780017;    1.928066;    4.834334;   10.115293;   11.310413;   12.216727;   13.315914;   15.512258;   18.223454;   20.834955;   22.566624;   25.947682;   30.912478;   38.362585;   48.576481;  106.762932;  225.106799;29725.546800;
68;    0.662806;    1.008524;    0.891133;    0.832633;    0.777611;    0.695201;    0.593561;    0.478895;    0.524819;    0.647261;    1.017341;    1.933564;    4.029024;    8.706420;    9.114846;    9.916061;   11.545949;   12.497358;   13.907772;   15.071770;   16.669064;   19.195600;   21.136668;   23.395181;   37.469404;   70.420961;  393.780895;59035.754661;
69;    0.652694;    0.988713;    0.883150;    0.833740;    0.783274;    0.695000;    0.597538;    0.489917;    0.558917;    0.732298;    1.032268;    2.320414;    5.036968;   10.780875;   11.201077;   11.990674;   12.758614;   13.581889;   15.060609;   16.434520;   18.300424;   21.630386;   27.733077;   33.442795;   41.770593;   51.410793;   97.560857;14296.936796;
70;    0.639205;    1.013592;    0.896395;    0.836308;    0.762204;    0.689534;    0.593783;    0.483094;    0.549303;    0.649060;    1.147562;    1.597129;    4.172965;   10.715674;   12.310454;   14.993993;   17.834167;   19.528620;   21.063765;   23.022635;   28.000202;   38.005594;   48.304420;   70.260493;   93.449809;  157.035263;  258.770087;44869.744859;
71;    0.642198;    0.995296;    0.873100;    0.828215;    0.776478;    0.703757;    0.617840;    0.485395;    0.549700;    0.924430;    1.192214;    2.324961;    3.686846;   11.540679;   12.021097;   13.279900;   14.873146;   17.184805;   19.359415;   22.012521;   24.547276;   29.381601;   35.537148;   47.317850;   73.152577;  231.463772; 1439.669907;108749.400080;
72;    0.644555;    1.007451;    0.883617;    0.836531;    0.772124;    0.707954;    0.594525;    0.483488;    0.548205;    0.642946;    0.792761;    1.128757;    3.663940;   13.981160;   16.142677;   17.255685;   19.943166;   22.389612;   23.369239;   25.166529;   27.751215;   31.649186;   35.551394;   42.235342;   57.970139;   94.294405;  350.745193;137581.709242;
73;    0.642255;    1.037573;    0.912265;    0.857134;    0.801728;    0.710400;    0.609818;    0.491613;    0.548253;    0.629328;    1.071049;    2.250493;    4.943084;   11.474415;   12.361355;   14.351012;   15.958225;   17.754472;   19.951019;   21.427118;   24.590139;   32.794748;   43.276648;   60.600341;   80.207904;  124.365531;  291.366920;41977.297752;
74;    0.647301;    1.010405;    0.881615;    0.824634;    0.754363;    0.669245;    0.589474;    0.478503;    0.576817;    0.797553;    1.033288;    1.933619;    4.661947;    9.435651;    9.866016;   10.456430;   10.777576;   12.099619;   14.096019;   15.690290;   17.231382;   20.248542;   27.478275;   38.934264;   62.010746;  144.291475;  614.096564;11450.823576;
75;    0.639665;    0.994963;    0.876691;    0.822349;    0.753549;    0.679737;    0.580778;    0.469259;    0.535553;    0.603440;    0.779928;    1.148088;    3.544961;    8.987087;    9.655198;   10.755017;   12.118196;   13.299940;   15.050488;   18.289071;   20.903956;   24.131128;   28.411784;   34.210584;   44.807045;   66.249161;  117.972227; 4084.805856;
76;    0.640290;    1.009610;    0.881644;    0.837022;    0.759949;    0.681592;    0.590792;    0.481973;    0.528703;    0.611128;    0.758190;    1.219159;    4.488729;    9.929451;   10.510357;   11.589561;   13.228587;   14.650777;   16.660609;   19.558549;   21.952160;   28.578874;   33.877543;   43.076493;   52.184026;  108.374553;  365.441380;29223.183636;
77;    0.662012;    0.973901;    0.860491;    0.800224;    0.754205;    0.664212;    0.585958;    0.473271;    0.547549;    0.680736;    0.999795;    1.752717;    4.935553;   10.101965;   10.701276;   11.822006;   12.565426;   13.905556;   15.344951;   16.981040;   19.260792;   22.570201;   29.398784;   34.310437;   61.228032;   83.128953;  327.113696; 4953.530638;
78;    0.640547;    0.994073;    0.886526;    0.835204;    0.763751;    0.687546;    0.597100;    0.477758;    0.546625;    0.672063;    0.866042;    2.237695;    6.913682;   12.711190;   14.658923;   16.294006;   17.832635;   20.238622;   22.317075;   24.492910;   26.920177;   34.355700;   41.319933;   48.413299;   62.132913;   98.592180;  485.162824;173728.892482;
79;    0.639850;    1.006614;    0.888965;    0.834554;    0.774596;    0.680899;    0.596308;    0.479051;    0.535426;    0.641319;    0.786092;    2.274352;    5.074967;   11.341182;   12.423714;   13.600319;   16.443963;   18.466269;   21.251670;   25.189158;   33.169325;   41.262840;   60.232836;   92.995354;  380.607068; 2117.691141; 3537.912258;451969.570408;
80;    0.645023;    0.989227;    0.867791;    0.821644;    0.765380;    0.660092;    0.583933;    0.467677;    0.518896;    0.612399;    0.826926;    1.141429;    4.058660;   10.264811;   10.982133;   11.811820;   12.433790;   13.616092;   14.808762;   15.869560;   17.925850;   21.291919;   27.062322;   34.331638;   46.485858;   67.926900;   90.437544;19752.228433;
81;    0.639753;    0.988232;    0.872845;    0.819688;    0.756223;    0.681119;    0.603327;    0.474498;    0.518983;    0.611381;    0.839921;    1.663842;    4.787389;    8.136857;    8.868387;   10.596939;   11.757663;   13.311330;   14.863354;   17.052703;   19.166581;   21.647635;   24.545234;   28.246790;   43.046620;   67.935925;  384.464236;28471.921921;
82;    0.639796;    0.981822;    0.864469;    0.824103;    0.755618;    0.683200;    0.584583;    0.472441;    0.534295;    0.635141;    1.186049;    2.745394;    4.680319;    9.366490;   10.459878;   11.512484;   12.486956;   15.003087;   17.172389;   19.598815;   22.795644;   26.341130;   32.054937;   37.693251;   48.107363;  132.000928;  372.828071;89493.546947;
83;    0.663930;    0.968464;    0.860076;    0.816632;    0.774036;    0.678717;    0.583577;    0.479652;    0.566360;    0.652159;    0.803399;    1.205589;    3.562613;   12.968538;   14.707731;   15.830197;   16.795975;   18.091901;   19.037292;   21.422134;   23.960824;   26.443628;   31.597034;   44.843169;   82.402922;  135.430940;  573.510909;985853.115626;
84;    0.640416;    0.984821;    0.881947;    0.834777;    0.759334;    0.684255;    0.602192;    0.482642;    0.584784;    0.789109;    1.092744;    1.651408;    5.059338;    8.862154;    9.585557;   10.438116;   12.396451;   15.478784;   17.951714;   20.532179;   24.017220;   28.374550;   36.987789;   46.826674;   67.911763;  105.012966;  544.495937;122967.319240;
85;    0.642562;    1.003756;    0.894483;    0.836989;    0.786854;    0.698029;    0.606573;    0.481538;    0.529752;    0.654845;    0.895957;    1.706665;    4.096890;    9.224274;    9.723163;   11.497156;   12.247148;   13.818087;   15.504009;   17.784503;   21.915930;   27.363188;   32.832979;   37.439826;   48.442893;   75.110288;  211.654527;172200.834903;
86;    0.693704;    1.009214;    0.879557;    0.820352;    0.759037;    0.695257;    0.580230;    0.475706;    0.527925;    0.583581;    0.705176;    1.280418;    3.756100;    9.513391;   10.217162;   11.306888;   12.251820;   13.954983;   16.260808;   17.072662;   19.598537;   23.473871;   30.697658;   45.938675;   56.321020;   69.462403;  220.021118;273794.989514;
87;    0.648426;    0.999250;    0.875112;    0.824950;    0.762132;    0.683492;    0.583856;    0.480181;    0.533013;    0.603382;    0.725799;    1.682040;    3.158372;   10.482660;   11.452896;   12.069855;   12.839341;   13.970521;   15.519352;   17.018556;   19.044082;   21.916904;   26.222512;   34.550628;   50.256031;  110.326633;  359.206529;1913350.471919;
88;    0.644023;    1.022058;    0.894465;    0.838264;    0.774262;    0.715107;    0.624219;    0.475745;    0.563584;    0.700446;    1.001368;    2.048061;    4.861545;   12.485278;   13.399096;   14.251699;   16.315796;   20.269380;   23.618744;   26.661882;   31.267169;   36.553190;   47.083153;   66.895376;  104.389738;  174.601225;  416.259236;50168.530803;
89;    0.642502;    1.009573;    0.891100;    0.835771;    0.768254;    0.701016;    0.577755;    0.480879;    0.542252;    0.698551;    1.211008;    2.429021;    5.704495;    9.349986;    9.756345;   10.422282;   11.118780;   11.845736;   13.108925;   14.167013;   15.923829;   18.765882;   23.724677;   28.390279;   34.569010;   55.431468;  808.648551;1469414.971986;
90;    0.646231;    0.992347;    0.878959;    0.831847;    0.768195;    0.685498;    0.606665;    0.488724;    0.546193;    0.661604;    0.813536;    1.358409;    3.390205;    7.861521;    8.407601;    9.183384;   10.016402;   11.203370;   12.470377;   14.007611;   15.579681;   17.374765;   21.882222;   25.915863;   32.954765;   41.823955;  167.562221; 7953.508953;
91;    0.642357;    1.009398;    0.887659;    0.841557;    0.762827;    0.680628;    0.583768;    0.478817;    0.557234;    0.672458;    0.856980;    1.473123;    2.300783;   10.172611;   11.190138;   12.035931;   12.880173;   13.501066;   14.244182;   15.337909;   17.079233;   20.919122;   27.823568;   33.147567;   42.279081;  193.474242; 1193.387271;140573.559291;
92;    0.666767;    0.999155;    0.883465;    0.828973;    0.767451;    0.688999;    0.588725;    0.477222;    0.558587;    0.687279;    0.818281;    1.551992;    4.471699;    9.076097;    9.698707;   10.383825;   11.859698;   13.511832;   16.643019;   19.347611;   23.313828;   25.960872;   34.521424;   58.440722;  231.561558;  435.435836; 1536.107642;380270.250155;
93;    0.721026;    1.003072;    0.887890;    0.839873;    0.797167;    0.717981;    0.596734;    0.480138;    0.540808;    0.631330;    0.800739;    1.566856;    5.173064;    9.903335;   10.951748;   12.304220;   13.604040;   14.903648;   16.201216;   17.809322;   20.483597;   23.774519;   29.009470;   38.193972;   51.795531;   69.927080;  566.843066;30688.736452;
94;    0.658329;    1.003237;    0.885255;    0.824812;    0.753420;    0.681516;    0.592881;    0.479334;    0.537658;    0.612239;    0.724295;    1.148643;    4.770612;    9.887025;   10.525557;   11.696300;   12.488066;   13.074855;   13.927118;   16.232873;   18.750406;   24.105609;   27.217141;   37.072637;   48.119011;   98.821766;  445.913404; 9730.651130;
95;    0.642576;    1.011784;    0.887578;    0.838549;    0.766262;    0.687894;    0.586483;    0.483211;    0.536260;    0.797095;    0.984472;    1.300179;    3.134013;    8.138667;    8.877470;    9.945136;   10.626782;   11.382482;   12.129309;   14.326270;   17.198893;   19.826283;   23.427674;   28.390523;   33.368958;   46.723030;  271.567947;24362.305011;
96;    0.659851;    1.008231;    0.881394;    0.835903;    0.788124;    0.712903;    0.612731;    0.470630;    0.529773;    0.606393;    0.880678;    1.349988;    2.635422;    9.954630;   10.706961;   11.713377;   13.040533;   14.997757;   16.408256;   18.774787;   21.601382;   26.504978;   31.797539;   43.045257;   53.449917;   92.521034;  345.754874;30287.593479;
97;    0.651774;    1.018591;    0.908797;    0.858554;    0.781534;    0.709902;    0.605650;    0.484020;    0.535746;    0.631488;    0.844278;    1.092499;    2.049598;    8.489140;    9.779992;   10.613973;   11.482437;   13.548484;   15.436324;   17.906050;   20.742856;   23.745685;   30.082594;   37.025635;   50.524085;  113.077224;  248.349836;57507406.583378;
98;    0.711494;    1.005078;    0.890730;    0.853678;    0.783573;    0.694043;    0.596923;    0.479367;    0.565015;    0.653016;    0.798741;    1.305823;    5.260853;   11.292339;   12.183941;   13.076740;   14.280226;   15.042994;   16.619578;   18.092370;   19.779535;   23.711864;   26.639612;   29.564668;   37.464441;   52.669896;  156.368818;814616.802318;
99;    0.662311;    0.991155;    0.862559;    0.813119;    0.759848;    0.681682;    0.596189;    0.484570;    0.550428;    0.762984;    1.003405;    2.006549;    4.013084;    7.355408;    7.698883;    8.078238;    8.780556;    9.620750;   11.381231;   14.155203;   16.791838;   19.534005;   24.254333;   35.051084;   47.911000;   78.942819;  226.577023;190931.662545;
100;    0.691835;    0.990450;    0.868735;    0.818919;    0.754239;    0.675131;    0.609841;    0.480818;    0.539650;    0.613833;    1.043812;    1.468210;    5.485925;   13.070130;   13.573944;   14.136003;   14.585403;   16.242751;   17.933463;   22.215054;   26.014254;   32.309505;   44.226971;   62.519177;  102.235761;  233.101890; 1107.969207;1141188.851751;
