Simulation;Time;PC 0;PC 1;PC 2;PC 3;PC 4;PC 5;PC 6;PC 7;PC 8;PC 9;PC10;PC11;PC12;PC13;PC14;PC15;PC16;PC17;PC18;PC19;PC20;PC21;PC22;PC23;PC24;PC25;PC26;PC27;PC28;PC29;PC30;PC31;PC32;PC33;PC34;PC35;PC36;PC37;PC38;PC39;PC40;PC41;PC42;PC43;PC44;PC45;PC46;PC47;PC48;PC49;
Nan;Nan;0;0;0;0;0;0;0;0;0;0;0;0;0;0;0;1;0;0;0;0;0;0;0;0;0;0;0;0;0;0;0;0;0;0;0;0;0;0;0;0;0;0;0;0;0;0;0;0;0;0;
0;    1.659677;    0.983521;    0.876616;    0.832365;    0.797385;    0.756129;    0.699608;    0.628993;    0.578650;    0.504424;    0.439482;    0.379151;    0.372242;    0.356749;    0.356239;    0.365489;    0.376181;    0.386242;    0.395856;    0.406502;    0.418002;    0.430220;    0.442378;    0.455494;    0.466527;    0.479204;    0.491830;    0.504594;    0.520422;    0.536296;    0.552340;    0.568093;    0.584713;    0.601538;    0.618915;    0.636419;    0.654936;    0.673372;    0.692486;    0.711793;    0.730868;    0.751978;    0.772841;    0.794341;    0.816675;    0.838898;    0.861343;    0.884492;    0.909875;    0.932325;    0.957290;
1;    1.664275;    1.008479;    0.898688;    0.851292;    0.818390;    0.755968;    0.698949;    0.646990;    0.590808;    0.523032;    0.463070;    0.389956;    0.379546;    0.361633;    0.360838;    0.374337;    0.386358;    0.396478;    0.406646;    0.417078;    0.428980;    0.442077;    0.454634;    0.467770;    0.479694;    0.492953;    0.506852;    0.521197;    0.536527;    0.551967;    0.567261;    0.584442;    0.601533;    0.619100;    0.636139;    0.652409;    0.671563;    0.691269;    0.713100;    0.732638;    0.752714;    0.774852;    0.797206;    0.818221;    0.839980;    0.861034;    0.883816;    0.907950;    0.932268;    0.958704;    0.984411;
2;    1.671111;    1.015089;    0.908680;    0.864978;    0.832761;    0.779888;    0.707942;    0.661042;    0.589106;    0.532422;    0.463552;    0.383871;    0.375731;    0.359893;    0.359359;    0.369168;    0.381619;    0.391953;    0.402685;    0.412312;    0.423742;    0.436328;    0.450110;    0.463215;    0.477289;    0.491911;    0.506821;    0.521980;    0.537713;    0.552665;    0.567516;    0.584877;    0.601416;    0.618808;    0.636723;    0.655619;    0.674980;    0.695155;    0.715420;    0.733558;    0.753088;    0.773623;    0.796305;    0.818245;    0.839288;    0.861471;    0.886898;    0.912023;    0.937092;    0.963721;    0.987707;
3;    1.676164;    1.008304;    0.907873;    0.863683;    0.823692;    0.766334;    0.722001;    0.669383;    0.600671;    0.537237;    0.459911;    0.387689;    0.383230;    0.362028;    0.361031;    0.372179;    0.385136;    0.394743;    0.406395;    0.418434;    0.429570;    0.441488;    0.453943;    0.466519;    0.479730;    0.494405;    0.509614;    0.523932;    0.538338;    0.554746;    0.570768;    0.585838;    0.602344;    0.619032;    0.636942;    0.654884;    0.673916;    0.693393;    0.712696;    0.731259;    0.751903;    0.770594;    0.793511;    0.815911;    0.839828;    0.864669;    0.888239;    0.912699;    0.935581;    0.957273;    0.982358;
4;    1.655694;    1.025568;    0.917781;    0.876390;    0.832574;    0.766627;    0.706162;    0.664035;    0.602983;    0.526069;    0.461465;    0.387481;    0.381489;    0.363414;    0.362592;    0.374488;    0.384622;    0.395721;    0.407136;    0.419417;    0.430453;    0.441347;    0.453958;    0.467155;    0.482132;    0.497387;    0.511941;    0.526293;    0.541273;    0.555964;    0.574347;    0.591967;    0.609171;    0.625555;    0.643876;    0.663134;    0.683042;    0.703406;    0.722401;    0.744521;    0.765817;    0.787261;    0.809502;    0.830642;    0.852038;    0.875786;    0.899346;    0.925377;    0.949222;    0.974472;    1.000186;
5;    1.664200;    1.004354;    0.896129;    0.852406;    0.809282;    0.762846;    0.707830;    0.655338;    0.592861;    0.529472;    0.462839;    0.387476;    0.371914;    0.359247;    0.359091;    0.372515;    0.383762;    0.394488;    0.404576;    0.416164;    0.429386;    0.441742;    0.453146;    0.465400;    0.477438;    0.492362;    0.506659;    0.520827;    0.534589;    0.549645;    0.563374;    0.580510;    0.596650;    0.613703;    0.629557;    0.648597;    0.668886;    0.688025;    0.706257;    0.727071;    0.747247;    0.769606;    0.791081;    0.813703;    0.836305;    0.857610;    0.879424;    0.901219;    0.926525;    0.951843;    0.977228;
6;    1.660203;    0.999294;    0.893648;    0.853739;    0.801206;    0.752606;    0.699498;    0.649969;    0.593843;    0.518313;    0.454852;    0.384873;    0.379142;    0.360347;    0.358705;    0.370062;    0.381678;    0.391239;    0.401680;    0.412744;    0.424180;    0.435962;    0.448444;    0.461755;    0.474331;    0.486817;    0.501221;    0.514586;    0.529588;    0.544898;    0.561768;    0.579341;    0.596031;    0.613500;    0.630210;    0.648918;    0.667119;    0.684977;    0.704823;    0.724977;    0.746315;    0.768301;    0.789353;    0.809866;    0.830023;    0.853971;    0.878062;    0.900620;    0.923940;    0.948694;    0.972594;
7;    1.652917;    1.017034;    0.907440;    0.860118;    0.818134;    0.770932;    0.711930;    0.656292;    0.582742;    0.518727;    0.451189;    0.385169;    0.375062;    0.358837;    0.358347;    0.371180;    0.381840;    0.392599;    0.403103;    0.414075;    0.425234;    0.438224;    0.451660;    0.464930;    0.477720;    0.490231;    0.505884;    0.522411;    0.538803;    0.554932;    0.571910;    0.588532;    0.605506;    0.622928;    0.640280;    0.658288;    0.675614;    0.694401;    0.714959;    0.736527;    0.757431;    0.777281;    0.797175;    0.818479;    0.841597;    0.867081;    0.891197;    0.914087;    0.940513;    0.966563;    0.992474;
8;    1.662274;    0.989455;    0.884899;    0.845618;    0.807047;    0.749392;    0.706556;    0.642422;    0.579275;    0.521606;    0.448775;    0.379189;    0.371314;    0.356923;    0.356259;    0.365519;    0.377441;    0.387846;    0.397574;    0.408623;    0.419056;    0.429298;    0.442605;    0.455931;    0.469455;    0.482702;    0.495526;    0.509261;    0.524110;    0.539460;    0.554778;    0.570950;    0.586896;    0.604247;    0.622094;    0.639639;    0.656570;    0.677901;    0.698234;    0.718405;    0.738692;    0.759733;    0.780512;    0.802722;    0.826542;    0.849285;    0.871739;    0.894839;    0.916621;    0.940775;    0.965515;
9;    1.658623;    1.012798;    0.908313;    0.871563;    0.818222;    0.766647;    0.723462;    0.654720;    0.597601;    0.545049;    0.468212;    0.384953;    0.379277;    0.360401;    0.359594;    0.371043;    0.382112;    0.393042;    0.403711;    0.414946;    0.426066;    0.438985;    0.450301;    0.463798;    0.477717;    0.491847;    0.505619;    0.520899;    0.537767;    0.554021;    0.568927;    0.586127;    0.604083;    0.621923;    0.638882;    0.656984;    0.674297;    0.694040;    0.715873;    0.736982;    0.757726;    0.779581;    0.801663;    0.822723;    0.844965;    0.866108;    0.890664;    0.915095;    0.940194;    0.963011;    0.988828;
10;    1.660986;    1.009971;    0.903810;    0.866320;    0.821470;    0.777861;    0.725747;    0.681072;    0.614566;    0.548706;    0.461374;    0.384587;    0.373357;    0.359832;    0.358769;    0.372026;    0.381907;    0.392783;    0.404026;    0.415528;    0.427747;    0.440307;    0.452274;    0.465766;    0.480343;    0.494811;    0.510225;    0.525472;    0.540335;    0.555813;    0.571798;    0.588817;    0.606079;    0.623281;    0.640643;    0.658352;    0.676170;    0.694268;    0.712628;    0.732758;    0.752313;    0.774818;    0.797201;    0.818611;    0.843039;    0.866081;    0.888081;    0.907791;    0.933358;    0.957502;    0.982806;
11;    1.666021;    0.996019;    0.894290;    0.859810;    0.820217;    0.761193;    0.714940;    0.659553;    0.588814;    0.533952;    0.453019;    0.386035;    0.381316;    0.358490;    0.358445;    0.369578;    0.383311;    0.392365;    0.402807;    0.413651;    0.423920;    0.437118;    0.449398;    0.461387;    0.472486;    0.487839;    0.502747;    0.518335;    0.533430;    0.548097;    0.562485;    0.578564;    0.595758;    0.612709;    0.630369;    0.648540;    0.666767;    0.686522;    0.706030;    0.724861;    0.743959;    0.764237;    0.785556;    0.807383;    0.828966;    0.850666;    0.874044;    0.900067;    0.925330;    0.949244;    0.973639;
12;    1.651919;    0.990778;    0.893242;    0.863606;    0.820250;    0.757820;    0.702526;    0.647730;    0.577131;    0.512391;    0.456398;    0.383611;    0.375509;    0.353726;    0.353254;    0.366131;    0.378916;    0.388518;    0.399544;    0.408390;    0.421299;    0.433065;    0.445469;    0.459391;    0.473448;    0.487247;    0.501913;    0.516253;    0.531245;    0.545809;    0.560345;    0.575225;    0.590691;    0.605341;    0.623188;    0.640214;    0.658493;    0.678292;    0.698965;    0.719946;    0.739319;    0.760364;    0.781466;    0.803156;    0.824000;    0.846741;    0.868978;    0.889905;    0.914793;    0.938750;    0.964765;
13;    1.658864;    1.005294;    0.892182;    0.850965;    0.813722;    0.754581;    0.702912;    0.647173;    0.583684;    0.522024;    0.450621;    0.386997;    0.377000;    0.359357;    0.358926;    0.370845;    0.384045;    0.393098;    0.404424;    0.414674;    0.425815;    0.439129;    0.451678;    0.464755;    0.477115;    0.489834;    0.504134;    0.519352;    0.534479;    0.551018;    0.567006;    0.582739;    0.599453;    0.617232;    0.635262;    0.653249;    0.670802;    0.689715;    0.708048;    0.728283;    0.748028;    0.769237;    0.791004;    0.813393;    0.835190;    0.858754;    0.883937;    0.907271;    0.930725;    0.956186;    0.979469;
14;    1.661754;    0.984588;    0.883045;    0.849234;    0.796913;    0.758687;    0.706101;    0.652645;    0.584300;    0.511461;    0.446070;    0.384656;    0.376327;    0.360673;    0.359380;    0.369989;    0.381072;    0.391124;    0.400185;    0.410564;    0.423111;    0.434693;    0.447070;    0.460542;    0.474983;    0.489111;    0.503011;    0.517242;    0.531318;    0.545927;    0.560463;    0.576102;    0.592356;    0.608346;    0.627109;    0.645769;    0.663616;    0.682074;    0.699915;    0.720136;    0.739610;    0.760471;    0.780424;    0.803416;    0.825252;    0.847142;    0.867986;    0.891575;    0.915836;    0.938468;    0.960399;
15;    1.660876;    0.995548;    0.876721;    0.834592;    0.783058;    0.740133;    0.686390;    0.634206;    0.575824;    0.507633;    0.443602;    0.380195;    0.366604;    0.355101;    0.354769;    0.364415;    0.377778;    0.387619;    0.398868;    0.409876;    0.421018;    0.432750;    0.445831;    0.458065;    0.471199;    0.484779;    0.499305;    0.513323;    0.526235;    0.542612;    0.558168;    0.574606;    0.590357;    0.608917;    0.626821;    0.644746;    0.663449;    0.682459;    0.702526;    0.721208;    0.742528;    0.763969;    0.784725;    0.806528;    0.829449;    0.852542;    0.874532;    0.895718;    0.920275;    0.943776;    0.970309;
16;    1.668291;    1.020242;    0.918543;    0.867479;    0.821665;    0.773336;    0.712307;    0.666661;    0.601621;    0.532413;    0.465853;    0.391861;    0.382397;    0.366145;    0.365673;    0.377946;    0.388599;    0.398276;    0.410261;    0.421088;    0.433876;    0.446121;    0.459366;    0.471819;    0.485844;    0.499972;    0.515026;    0.530227;    0.545989;    0.560848;    0.576525;    0.592850;    0.609940;    0.627696;    0.645414;    0.664869;    0.684180;    0.704594;    0.723696;    0.743901;    0.763906;    0.784090;    0.805993;    0.827939;    0.850054;    0.873879;    0.895713;    0.917959;    0.943377;    0.968677;    0.995237;
17;    1.678554;    0.988957;    0.887429;    0.843908;    0.797009;    0.750496;    0.694701;    0.631360;    0.572852;    0.513495;    0.452294;    0.383338;    0.374883;    0.353695;    0.353299;    0.367050;    0.379677;    0.390290;    0.400219;    0.410239;    0.420239;    0.431751;    0.444637;    0.457114;    0.470206;    0.482438;    0.497179;    0.511528;    0.527677;    0.543723;    0.559946;    0.576514;    0.593750;    0.610492;    0.627215;    0.643907;    0.663405;    0.681741;    0.700882;    0.719240;    0.738643;    0.759555;    0.780879;    0.802595;    0.824796;    0.846351;    0.867974;    0.890283;    0.914916;    0.938992;    0.963192;
18;    1.656106;    0.982549;    0.887586;    0.845460;    0.808262;    0.752530;    0.705360;    0.640186;    0.575246;    0.528412;    0.466844;    0.384119;    0.379190;    0.357591;    0.357204;    0.369363;    0.381215;    0.391852;    0.401388;    0.412504;    0.423804;    0.436950;    0.449513;    0.461923;    0.474251;    0.485319;    0.499321;    0.512953;    0.527651;    0.542936;    0.558680;    0.574070;    0.590507;    0.606831;    0.624128;    0.641613;    0.659396;    0.677513;    0.697606;    0.715862;    0.736222;    0.756120;    0.778282;    0.800311;    0.822196;    0.843947;    0.866178;    0.890123;    0.912899;    0.934760;    0.957978;
19;    1.656060;    0.994777;    0.886219;    0.843080;    0.810881;    0.765142;    0.719258;    0.653450;    0.598560;    0.528134;    0.453145;    0.386866;    0.375980;    0.361741;    0.360955;    0.373550;    0.384982;    0.395709;    0.405685;    0.414406;    0.426403;    0.438729;    0.451176;    0.463491;    0.476514;    0.489815;    0.503450;    0.518779;    0.534433;    0.550096;    0.565876;    0.581897;    0.598799;    0.616439;    0.634511;    0.653235;    0.671706;    0.690257;    0.707015;    0.727414;    0.747285;    0.767111;    0.786793;    0.808327;    0.831170;    0.853148;    0.873331;    0.895470;    0.920000;    0.943898;    0.969793;
20;    1.666092;    1.011311;    0.895280;    0.864891;    0.812545;    0.764330;    0.718782;    0.671391;    0.616345;    0.542888;    0.466954;    0.386068;    0.375484;    0.358941;    0.358337;    0.369897;    0.382429;    0.392665;    0.401936;    0.413487;    0.424961;    0.437893;    0.450615;    0.463972;    0.478016;    0.492598;    0.507740;    0.523087;    0.538696;    0.553916;    0.569322;    0.585371;    0.602896;    0.620394;    0.638637;    0.656276;    0.674099;    0.694514;    0.715269;    0.735908;    0.756380;    0.777390;    0.800117;    0.822595;    0.844390;    0.865497;    0.889287;    0.913065;    0.936573;    0.960949;    0.986241;
21;    1.653335;    1.007702;    0.891622;    0.854075;    0.809142;    0.767353;    0.709273;    0.647996;    0.585664;    0.520557;    0.458119;    0.385565;    0.378597;    0.358849;    0.358453;    0.370103;    0.381972;    0.392169;    0.402020;    0.414368;    0.426872;    0.438787;    0.450901;    0.463270;    0.477058;    0.491158;    0.506036;    0.521607;    0.536638;    0.551651;    0.566497;    0.584191;    0.601234;    0.617786;    0.633130;    0.650953;    0.670929;    0.690455;    0.709305;    0.729828;    0.750856;    0.772326;    0.794054;    0.816148;    0.839463;    0.862905;    0.886098;    0.909448;    0.931132;    0.955691;    0.982422;
22;    1.657766;    1.014655;    0.903034;    0.861023;    0.813712;    0.753296;    0.704559;    0.643168;    0.594277;    0.541749;    0.462483;    0.387154;    0.375734;    0.360096;    0.359288;    0.370904;    0.382244;    0.392007;    0.402898;    0.414061;    0.425866;    0.437409;    0.449121;    0.462456;    0.476713;    0.491087;    0.504495;    0.518679;    0.533443;    0.549921;    0.566903;    0.583240;    0.601127;    0.619914;    0.636812;    0.653243;    0.671706;    0.692609;    0.713345;    0.734363;    0.755166;    0.777907;    0.800593;    0.822931;    0.846279;    0.869698;    0.894007;    0.916968;    0.940392;    0.962495;    0.987742;
23;    1.662600;    1.003270;    0.897774;    0.868755;    0.832273;    0.784073;    0.725560;    0.651392;    0.596895;    0.527823;    0.453815;    0.389241;    0.380809;    0.361941;    0.361390;    0.373062;    0.386437;    0.395370;    0.406429;    0.417396;    0.429467;    0.441553;    0.454165;    0.466875;    0.480531;    0.494266;    0.507579;    0.522251;    0.537212;    0.552930;    0.569270;    0.584979;    0.601564;    0.618198;    0.635836;    0.651808;    0.670350;    0.690606;    0.710801;    0.730035;    0.750589;    0.772593;    0.794300;    0.815240;    0.836940;    0.861038;    0.884757;    0.906375;    0.927931;    0.951775;    0.977362;
24;    1.660355;    1.019431;    0.908703;    0.872900;    0.818738;    0.767405;    0.711259;    0.651942;    0.592303;    0.523184;    0.458862;    0.384102;    0.373010;    0.355281;    0.354600;    0.365432;    0.380233;    0.389856;    0.401319;    0.413272;    0.426097;    0.437691;    0.449356;    0.462055;    0.475210;    0.489906;    0.503955;    0.517671;    0.531623;    0.547425;    0.563799;    0.581733;    0.599017;    0.617009;    0.636701;    0.657497;    0.677101;    0.696011;    0.716384;    0.736079;    0.755847;    0.776802;    0.797958;    0.820416;    0.844994;    0.867462;    0.890644;    0.914850;    0.940345;    0.964677;    0.992594;
25;    2.104833;    0.992072;    0.890290;    0.855487;    0.814643;    0.751289;    0.705442;    0.648679;    0.594534;    0.514703;    0.450260;    0.384643;    0.373681;    0.357836;    0.357483;    0.367676;    0.381649;    0.390844;    0.401130;    0.411418;    0.423818;    0.436483;    0.447535;    0.458830;    0.472114;    0.486375;    0.500695;    0.515044;    0.530372;    0.546185;    0.562012;    0.577230;    0.593089;    0.611363;    0.628739;    0.645673;    0.663817;    0.683195;    0.702150;    0.720513;    0.740477;    0.761796;    0.783655;    0.805685;    0.826545;    0.849910;    0.873011;    0.896042;    0.919322;    0.942422;    0.965604;
26;    1.706803;    1.017105;    0.910525;    0.870391;    0.825455;    0.779768;    0.732249;    0.677594;    0.612083;    0.531060;    0.473322;    0.388898;    0.380026;    0.361997;    0.361798;    0.373175;    0.385805;    0.395889;    0.407682;    0.418846;    0.430548;    0.440564;    0.454563;    0.467916;    0.482023;    0.494843;    0.508654;    0.522377;    0.536810;    0.551466;    0.565542;    0.581165;    0.600261;    0.619781;    0.639223;    0.657887;    0.676187;    0.694784;    0.715799;    0.738148;    0.759708;    0.780078;    0.803528;    0.826520;    0.848077;    0.871459;    0.894976;    0.918549;    0.943885;    0.967925;    0.991891;
27;    1.704125;    1.008511;    0.893886;    0.846760;    0.804708;    0.763170;    0.721657;    0.662357;    0.599805;    0.526789;    0.460611;    0.386468;    0.381270;    0.357753;    0.357390;    0.370438;    0.383689;    0.393636;    0.405076;    0.414989;    0.426999;    0.438291;    0.450793;    0.463401;    0.477531;    0.490983;    0.506221;    0.521476;    0.536754;    0.553444;    0.570331;    0.586393;    0.602690;    0.618620;    0.634819;    0.652782;    0.671584;    0.691788;    0.710632;    0.730523;    0.751445;    0.771778;    0.791577;    0.813864;    0.837552;    0.861410;    0.884522;    0.910248;    0.934420;    0.957658;    0.983626;
28;    2.550026;    1.012236;    0.895972;    0.861631;    0.808786;    0.751977;    0.706927;    0.646868;    0.596763;    0.531552;    0.452289;    0.381218;    0.376060;    0.356078;    0.355645;    0.366787;    0.378850;    0.389485;    0.400737;    0.411957;    0.421918;    0.433190;    0.444427;    0.456758;    0.471669;    0.485678;    0.499347;    0.513815;    0.529190;    0.545158;    0.562342;    0.579440;    0.597541;    0.615508;    0.634787;    0.653835;    0.672309;    0.691314;    0.711128;    0.732581;    0.752975;    0.773077;    0.794754;    0.816663;    0.839918;    0.863527;    0.886265;    0.910887;    0.936035;    0.959427;    0.985791;
29;    2.540153;    1.023748;    0.900698;    0.861601;    0.822244;    0.768499;    0.722407;    0.659540;    0.593518;    0.515796;    0.446494;    0.379914;    0.371071;    0.356807;    0.356512;    0.367386;    0.378466;    0.389217;    0.401075;    0.412690;    0.424496;    0.436812;    0.448336;    0.460149;    0.473656;    0.487387;    0.502268;    0.516714;    0.533648;    0.550204;    0.565835;    0.583377;    0.600678;    0.618954;    0.635974;    0.656417;    0.676058;    0.696178;    0.717741;    0.737464;    0.758322;    0.781128;    0.802206;    0.824536;    0.847563;    0.869851;    0.896043;    0.921871;    0.946322;    0.971610;    0.998340;
30;    1.724113;    1.011091;    0.899651;    0.867426;    0.819485;    0.773537;    0.715915;    0.672079;    0.608973;    0.533691;    0.470503;    0.388669;    0.378798;    0.362418;    0.362117;    0.374810;    0.386499;    0.396689;    0.407509;    0.419502;    0.431411;    0.442390;    0.454559;    0.466901;    0.478424;    0.492214;    0.507180;    0.521659;    0.536483;    0.551904;    0.567550;    0.585001;    0.603061;    0.620519;    0.638678;    0.658036;    0.677024;    0.696882;    0.715327;    0.736635;    0.757202;    0.777709;    0.801016;    0.824100;    0.845740;    0.866653;    0.887890;    0.912682;    0.936659;    0.959406;    0.983929;
31;    2.769203;    1.005471;    0.895397;    0.854277;    0.812928;    0.762332;    0.722492;    0.661686;    0.597107;    0.533076;    0.461044;    0.387274;    0.382230;    0.360060;    0.359572;    0.370027;    0.382681;    0.393235;    0.402494;    0.414050;    0.425941;    0.437912;    0.450314;    0.463576;    0.476592;    0.490216;    0.502808;    0.516949;    0.531623;    0.548418;    0.565544;    0.582167;    0.598171;    0.613479;    0.631368;    0.650857;    0.668827;    0.687187;    0.705819;    0.721834;    0.742974;    0.764089;    0.786595;    0.810729;    0.833936;    0.857421;    0.880326;    0.903165;    0.930017;    0.955911;    0.980823;
32;    2.185453;    0.997985;    0.899297;    0.853577;    0.814915;    0.769339;    0.697297;    0.652596;    0.594261;    0.517855;    0.447939;    0.383359;    0.382231;    0.359025;    0.357754;    0.368815;    0.380702;    0.391318;    0.401881;    0.413699;    0.425149;    0.436524;    0.449139;    0.461794;    0.475095;    0.489675;    0.503601;    0.518080;    0.531962;    0.547050;    0.562344;    0.577901;    0.594388;    0.612240;    0.629451;    0.646868;    0.664092;    0.683297;    0.702712;    0.724537;    0.744785;    0.765488;    0.786610;    0.806589;    0.827605;    0.852698;    0.875821;    0.899203;    0.923641;    0.948304;    0.973323;
33;    1.945017;    0.998367;    0.881151;    0.840352;    0.799786;    0.754694;    0.689563;    0.645012;    0.584940;    0.527712;    0.462611;    0.378315;    0.366782;    0.353557;    0.353320;    0.363039;    0.375130;    0.385099;    0.396372;    0.407195;    0.419207;    0.431054;    0.443652;    0.455046;    0.467945;    0.481531;    0.495012;    0.509557;    0.524664;    0.541466;    0.557541;    0.574463;    0.592172;    0.610026;    0.628710;    0.645943;    0.664265;    0.682254;    0.703247;    0.723918;    0.744037;    0.763994;    0.784253;    0.806188;    0.826484;    0.850337;    0.872868;    0.897455;    0.919897;    0.946303;    0.972834;
34;    2.037962;    1.020195;    0.902483;    0.867047;    0.826913;    0.763672;    0.703717;    0.655840;    0.599280;    0.527695;    0.458333;    0.386158;    0.380386;    0.360877;    0.359930;    0.372194;    0.382310;    0.392567;    0.402234;    0.413466;    0.425375;    0.437160;    0.449289;    0.463659;    0.478025;    0.492408;    0.507010;    0.521696;    0.536265;    0.552897;    0.569251;    0.585611;    0.602989;    0.619599;    0.637806;    0.655265;    0.675021;    0.695010;    0.716365;    0.737075;    0.758006;    0.778555;    0.800976;    0.822832;    0.845241;    0.869049;    0.890968;    0.916124;    0.941778;    0.966266;    0.992030;
35;    1.669895;    1.000446;    0.894997;    0.863386;    0.808315;    0.749936;    0.695252;    0.637996;    0.594120;    0.532858;    0.464320;    0.384294;    0.373070;    0.360717;    0.359971;    0.370621;    0.381191;    0.390662;    0.402794;    0.414186;    0.424638;    0.436585;    0.448092;    0.461479;    0.474437;    0.489341;    0.503380;    0.517543;    0.531118;    0.546883;    0.562700;    0.580082;    0.596945;    0.614395;    0.632167;    0.651041;    0.671136;    0.689878;    0.708572;    0.726830;    0.746295;    0.767591;    0.789801;    0.810627;    0.830868;    0.854003;    0.876413;    0.901484;    0.925883;    0.949219;    0.975155;
36;    1.679234;    0.982409;    0.888699;    0.855032;    0.801377;    0.753564;    0.708010;    0.652658;    0.578532;    0.512449;    0.459768;    0.378531;    0.368791;    0.356373;    0.355783;    0.365112;    0.375998;    0.386455;    0.396433;    0.407764;    0.418810;    0.429759;    0.441643;    0.454186;    0.467415;    0.479786;    0.491853;    0.505526;    0.521199;    0.537484;    0.553267;    0.568924;    0.584243;    0.601652;    0.618576;    0.636736;    0.654961;    0.673993;    0.693441;    0.712062;    0.731883;    0.751064;    0.773374;    0.796043;    0.818559;    0.840574;    0.863587;    0.885152;    0.906055;    0.930506;    0.957315;
37;    1.678804;    0.993048;    0.890502;    0.854728;    0.807019;    0.749353;    0.698724;    0.649236;    0.585245;    0.518895;    0.450697;    0.384589;    0.375697;    0.358748;    0.358037;    0.368869;    0.381601;    0.391337;    0.402084;    0.412057;    0.423886;    0.435762;    0.447613;    0.460781;    0.474309;    0.488198;    0.502100;    0.517936;    0.532887;    0.549817;    0.565790;    0.581884;    0.598984;    0.616840;    0.635642;    0.654017;    0.671301;    0.689008;    0.705107;    0.724371;    0.745620;    0.765332;    0.784356;    0.805612;    0.827206;    0.851057;    0.873487;    0.894231;    0.919612;    0.944461;    0.967574;
38;    2.117762;    0.997108;    0.887005;    0.846656;    0.797789;    0.753151;    0.701390;    0.639751;    0.587228;    0.516057;    0.445533;    0.384161;    0.379974;    0.360409;    0.359280;    0.371121;    0.381927;    0.391515;    0.401790;    0.412623;    0.423534;    0.434745;    0.446942;    0.458509;    0.471887;    0.484710;    0.496691;    0.512107;    0.527429;    0.543520;    0.559565;    0.575851;    0.592848;    0.609613;    0.626697;    0.644549;    0.663928;    0.683281;    0.704459;    0.724134;    0.743912;    0.764211;    0.786152;    0.808574;    0.830486;    0.853276;    0.878211;    0.901369;    0.924396;    0.947595;    0.973864;
39;    1.681646;    0.975420;    0.877693;    0.842255;    0.794336;    0.745976;    0.686391;    0.629272;    0.570406;    0.507627;    0.451290;    0.385438;    0.380462;    0.358968;    0.358160;    0.369548;    0.381551;    0.391776;    0.400957;    0.412039;    0.423179;    0.435014;    0.446541;    0.458032;    0.470204;    0.484222;    0.497442;    0.513441;    0.529180;    0.543760;    0.558254;    0.573541;    0.590240;    0.606154;    0.622310;    0.639771;    0.658379;    0.676992;    0.694787;    0.714333;    0.733373;    0.754773;    0.775584;    0.796522;    0.818043;    0.840012;    0.862532;    0.885338;    0.909900;    0.933056;    0.955023;
40;    1.679802;    1.002390;    0.894748;    0.850436;    0.813448;    0.764390;    0.711993;    0.642951;    0.574619;    0.520832;    0.446430;    0.381654;    0.376034;    0.355120;    0.354128;    0.365219;    0.378053;    0.388424;    0.399191;    0.409160;    0.421117;    0.433040;    0.445485;    0.458232;    0.471862;    0.485466;    0.499372;    0.513365;    0.529170;    0.545582;    0.561570;    0.577375;    0.593694;    0.609972;    0.627689;    0.645694;    0.664075;    0.681922;    0.702739;    0.723571;    0.743685;    0.765687;    0.788605;    0.811233;    0.834171;    0.858720;    0.882470;    0.906029;    0.928648;    0.950556;    0.976042;
41;    1.702791;    0.993214;    0.886064;    0.851398;    0.796724;    0.759092;    0.700402;    0.636770;    0.583104;    0.513116;    0.451212;    0.380842;    0.377829;    0.358748;    0.358605;    0.367950;    0.378394;    0.387652;    0.399184;    0.410721;    0.421807;    0.433868;    0.445723;    0.458092;    0.470736;    0.483041;    0.497683;    0.512130;    0.526199;    0.541315;    0.555759;    0.572868;    0.590194;    0.606502;    0.624256;    0.642376;    0.660052;    0.678505;    0.698777;    0.720400;    0.741307;    0.762323;    0.783475;    0.805802;    0.827188;    0.849530;    0.871488;    0.893584;    0.919778;    0.944439;    0.969008;
42;    1.686188;    1.015335;    0.893993;    0.851887;    0.814350;    0.769961;    0.716986;    0.644810;    0.590209;    0.520177;    0.456440;    0.385292;    0.375798;    0.361305;    0.360579;    0.370266;    0.382687;    0.392742;    0.403597;    0.415631;    0.427960;    0.439573;    0.453508;    0.466509;    0.479309;    0.492456;    0.506122;    0.521719;    0.537242;    0.553500;    0.567963;    0.585421;    0.603161;    0.620441;    0.637852;    0.657006;    0.677818;    0.698650;    0.718394;    0.737858;    0.757656;    0.776184;    0.796808;    0.820473;    0.842490;    0.867122;    0.891078;    0.914761;    0.941991;    0.967824;    0.992466;
43;    1.696703;    1.008310;    0.895301;    0.850824;    0.817729;    0.760230;    0.709507;    0.661888;    0.597795;    0.528195;    0.454046;    0.380309;    0.372926;    0.355147;    0.354959;    0.365632;    0.379047;    0.389768;    0.399291;    0.410184;    0.422205;    0.434861;    0.446976;    0.458554;    0.472160;    0.485843;    0.499119;    0.514259;    0.529387;    0.545749;    0.561313;    0.578688;    0.595197;    0.611256;    0.630834;    0.650876;    0.670546;    0.689801;    0.709400;    0.729912;    0.750103;    0.770731;    0.793076;    0.815600;    0.836206;    0.859127;    0.883153;    0.906335;    0.932420;    0.956037;    0.983418;
44;    1.689570;    1.006954;    0.900512;    0.861465;    0.833964;    0.782502;    0.718985;    0.662749;    0.601286;    0.526600;    0.448678;    0.384669;    0.381004;    0.363372;    0.362736;    0.372892;    0.382244;    0.392972;    0.404872;    0.417243;    0.428728;    0.440830;    0.453711;    0.465386;    0.478849;    0.493187;    0.507407;    0.521736;    0.535690;    0.549788;    0.565716;    0.582483;    0.600320;    0.617715;    0.636042;    0.654957;    0.673841;    0.692564;    0.711251;    0.728376;    0.750312;    0.771124;    0.791508;    0.812104;    0.835923;    0.857846;    0.881191;    0.905075;    0.930591;    0.956017;    0.981202;
45;    2.003193;    0.990896;    0.883493;    0.838244;    0.790448;    0.747705;    0.706320;    0.656087;    0.592722;    0.518229;    0.459225;    0.385960;    0.380488;    0.361395;    0.360535;    0.372494;    0.383979;    0.394797;    0.405751;    0.416605;    0.428046;    0.440130;    0.452889;    0.466079;    0.478826;    0.492818;    0.506558;    0.520329;    0.534234;    0.549750;    0.565201;    0.581825;    0.599032;    0.615960;    0.632011;    0.649774;    0.668203;    0.687211;    0.707101;    0.726130;    0.747147;    0.768080;    0.788432;    0.808046;    0.828026;    0.849379;    0.871787;    0.894215;    0.916405;    0.941361;    0.964475;
46;    1.664382;    1.008368;    0.893446;    0.843583;    0.806525;    0.766427;    0.703898;    0.652080;    0.591526;    0.514518;    0.447578;    0.378125;    0.372048;    0.355319;    0.354949;    0.364774;    0.376187;    0.386488;    0.396227;    0.407866;    0.419381;    0.431282;    0.444164;    0.457557;    0.470111;    0.483849;    0.499439;    0.515265;    0.530550;    0.546531;    0.562578;    0.579276;    0.597362;    0.613616;    0.631481;    0.650596;    0.669784;    0.688839;    0.706384;    0.727823;    0.750113;    0.771152;    0.792388;    0.813787;    0.836263;    0.860302;    0.882653;    0.905804;    0.930564;    0.954612;    0.981411;
47;    1.696800;    1.019992;    0.904830;    0.857659;    0.824365;    0.784363;    0.729002;    0.658536;    0.601406;    0.529045;    0.465255;    0.386370;    0.379365;    0.362083;    0.361515;    0.372908;    0.384291;    0.392903;    0.404306;    0.414107;    0.426968;    0.439776;    0.452285;    0.465788;    0.478776;    0.491616;    0.506495;    0.520788;    0.536203;    0.551937;    0.568500;    0.585774;    0.603717;    0.622243;    0.639542;    0.656946;    0.677266;    0.697334;    0.716546;    0.737562;    0.758728;    0.780107;    0.801702;    0.824790;    0.846974;    0.871719;    0.896092;    0.919749;    0.944251;    0.966941;    0.994271;
48;    1.792460;    0.997968;    0.896237;    0.855013;    0.803744;    0.760478;    0.702786;    0.652736;    0.582637;    0.520164;    0.457282;    0.386314;    0.380770;    0.359280;    0.358679;    0.371328;    0.381345;    0.391596;    0.403895;    0.415398;    0.427330;    0.437203;    0.449335;    0.462337;    0.475292;    0.489712;    0.503362;    0.516712;    0.532176;    0.547750;    0.563477;    0.580207;    0.596235;    0.611716;    0.630173;    0.647001;    0.665195;    0.683173;    0.703819;    0.725374;    0.746357;    0.767280;    0.787209;    0.806606;    0.829180;    0.852809;    0.875291;    0.898292;    0.921588;    0.948305;    0.973330;
49;    1.878105;    0.997253;    0.892059;    0.850906;    0.807676;    0.741747;    0.695469;    0.653906;    0.591477;    0.538201;    0.463036;    0.388838;    0.376304;    0.361214;    0.360903;    0.373922;    0.386247;    0.396877;    0.406453;    0.418239;    0.429900;    0.441413;    0.452786;    0.463555;    0.476637;    0.489705;    0.505698;    0.522185;    0.537632;    0.552962;    0.568541;    0.584301;    0.600854;    0.616950;    0.634143;    0.649787;    0.664301;    0.683233;    0.703293;    0.723327;    0.743050;    0.764877;    0.785581;    0.805868;    0.828945;    0.852227;    0.876964;    0.900300;    0.925438;    0.950498;    0.974392;
50;    2.149479;    1.000818;    0.888631;    0.850974;    0.805024;    0.763468;    0.699089;    0.654849;    0.594234;    0.517217;    0.464555;    0.390031;    0.375277;    0.359930;    0.359145;    0.371280;    0.385586;    0.396549;    0.405814;    0.417357;    0.428219;    0.441029;    0.451928;    0.464931;    0.477533;    0.490318;    0.505477;    0.520558;    0.535972;    0.552115;    0.569657;    0.586005;    0.601278;    0.617071;    0.634510;    0.653655;    0.671965;    0.691032;    0.710187;    0.728611;    0.749938;    0.771053;    0.791818;    0.814263;    0.836220;    0.858196;    0.881087;    0.903921;    0.929281;    0.952651;    0.974691;
51;    1.759394;    1.028410;    0.913738;    0.875461;    0.816804;    0.774769;    0.718643;    0.669720;    0.610369;    0.532254;    0.464942;    0.385735;    0.373194;    0.360074;    0.359127;    0.370959;    0.383628;    0.393612;    0.406678;    0.419343;    0.431740;    0.444425;    0.456546;    0.468891;    0.483207;    0.497768;    0.512614;    0.529334;    0.544711;    0.560039;    0.576230;    0.593041;    0.611189;    0.629632;    0.648998;    0.668588;    0.687013;    0.706711;    0.726788;    0.746895;    0.767246;    0.787948;    0.810421;    0.833010;    0.856526;    0.879635;    0.904968;    0.928372;    0.950855;    0.976876;    1.002750;
52;    1.848222;    0.995714;    0.887838;    0.850909;    0.797980;    0.760761;    0.702315;    0.640584;    0.573111;    0.510718;    0.441971;    0.382962;    0.376751;    0.359380;    0.358608;    0.371077;    0.379795;    0.389717;    0.400682;    0.410934;    0.422591;    0.433842;    0.447199;    0.459956;    0.473501;    0.486608;    0.499588;    0.514428;    0.528705;    0.544677;    0.559848;    0.577558;    0.595423;    0.612349;    0.628604;    0.643799;    0.663059;    0.682181;    0.700947;    0.721295;    0.741353;    0.760694;    0.783648;    0.805475;    0.827014;    0.850819;    0.874323;    0.897498;    0.921951;    0.945325;    0.969633;
53;    1.782057;    0.990427;    0.899123;    0.853228;    0.821726;    0.767427;    0.708602;    0.657373;    0.599529;    0.525532;    0.464990;    0.381591;    0.376026;    0.356603;    0.355844;    0.366130;    0.378715;    0.389104;    0.400540;    0.411238;    0.421579;    0.433171;    0.445819;    0.458210;    0.471107;    0.483272;    0.498571;    0.513207;    0.528589;    0.545679;    0.561962;    0.577626;    0.594871;    0.610686;    0.628156;    0.645151;    0.662963;    0.682014;    0.700173;    0.717115;    0.739489;    0.761444;    0.782270;    0.802149;    0.822375;    0.844412;    0.869085;    0.893811;    0.917686;    0.941512;    0.966614;
54;    1.769957;    1.010086;    0.898860;    0.848203;    0.808649;    0.761902;    0.717875;    0.666476;    0.601049;    0.519791;    0.446805;    0.380723;    0.371904;    0.356304;    0.355957;    0.365858;    0.377447;    0.388010;    0.399080;    0.410248;    0.423632;    0.436149;    0.447866;    0.462327;    0.476916;    0.491517;    0.505461;    0.519833;    0.533843;    0.549756;    0.566705;    0.583655;    0.601157;    0.619487;    0.637558;    0.655529;    0.673479;    0.691045;    0.711000;    0.730959;    0.752990;    0.774667;    0.796115;    0.818466;    0.841314;    0.864086;    0.888863;    0.912531;    0.935090;    0.956604;    0.983573;
55;    1.780393;    0.986830;    0.875606;    0.842770;    0.806012;    0.757016;    0.698083;    0.645889;    0.597408;    0.532321;    0.456836;    0.386136;    0.381433;    0.358427;    0.357420;    0.368033;    0.381871;    0.391871;    0.401974;    0.414383;    0.426472;    0.438122;    0.450176;    0.462739;    0.474569;    0.488228;    0.502439;    0.516188;    0.529926;    0.545518;    0.562584;    0.579387;    0.594801;    0.612059;    0.628943;    0.646020;    0.662970;    0.681781;    0.701077;    0.719011;    0.739055;    0.759516;    0.780256;    0.801379;    0.823235;    0.846379;    0.869066;    0.891137;    0.912467;    0.937294;    0.961313;
56;    2.102560;    0.993357;    0.883134;    0.841311;    0.789893;    0.739467;    0.683999;    0.630842;    0.568802;    0.513523;    0.450429;    0.387748;    0.374808;    0.359461;    0.358865;    0.370810;    0.383448;    0.393179;    0.403870;    0.414029;    0.425800;    0.437366;    0.449826;    0.462297;    0.476043;    0.488953;    0.503476;    0.518283;    0.532794;    0.547167;    0.562628;    0.579459;    0.595769;    0.611897;    0.629294;    0.646845;    0.665103;    0.684283;    0.704570;    0.724154;    0.744568;    0.764414;    0.785297;    0.805509;    0.827727;    0.850979;    0.872797;    0.894111;    0.917508;    0.942805;    0.968338;
57;    1.788643;    1.015603;    0.906341;    0.867032;    0.816335;    0.772828;    0.709183;    0.652211;    0.591590;    0.523522;    0.462257;    0.387762;    0.382421;    0.362676;    0.362142;    0.375667;    0.385470;    0.395839;    0.404722;    0.414807;    0.426984;    0.437956;    0.451442;    0.463854;    0.477501;    0.490582;    0.505121;    0.518501;    0.532098;    0.547811;    0.564358;    0.581370;    0.598659;    0.617647;    0.635800;    0.654091;    0.673362;    0.694947;    0.715230;    0.735364;    0.754888;    0.774755;    0.798897;    0.823056;    0.846052;    0.871302;    0.895112;    0.917254;    0.938762;    0.962747;    0.990225;
58;    1.880723;    1.006289;    0.896253;    0.852259;    0.804294;    0.762189;    0.703595;    0.657236;    0.592979;    0.527677;    0.461850;    0.385393;    0.378545;    0.361794;    0.361329;    0.373655;    0.383457;    0.393022;    0.404357;    0.414282;    0.425890;    0.437489;    0.450569;    0.463131;    0.476964;    0.490643;    0.504584;    0.518495;    0.533783;    0.548153;    0.562525;    0.580794;    0.596248;    0.615542;    0.633715;    0.651572;    0.670074;    0.688232;    0.708224;    0.729067;    0.750206;    0.770197;    0.791412;    0.812929;    0.835952;    0.859022;    0.883096;    0.908419;    0.932382;    0.955740;    0.980039;
59;    1.932875;    0.995903;    0.893294;    0.847039;    0.796919;    0.757836;    0.708041;    0.637902;    0.576679;    0.521699;    0.465977;    0.383512;    0.369310;    0.356410;    0.355597;    0.366518;    0.380272;    0.389990;    0.401320;    0.412403;    0.423494;    0.435218;    0.446681;    0.460273;    0.474010;    0.487734;    0.501319;    0.515881;    0.531610;    0.546717;    0.561479;    0.577274;    0.591706;    0.610261;    0.629370;    0.647567;    0.666809;    0.685769;    0.705851;    0.726649;    0.747057;    0.767863;    0.787933;    0.809262;    0.830857;    0.854060;    0.876355;    0.899661;    0.922495;    0.946609;    0.972473;
60;    1.830192;    1.004482;    0.896693;    0.858669;    0.815390;    0.764785;    0.718219;    0.661728;    0.587867;    0.515551;    0.450919;    0.386490;    0.381323;    0.361780;    0.360765;    0.371377;    0.382942;    0.394092;    0.404927;    0.416190;    0.427575;    0.439618;    0.452120;    0.466116;    0.479029;    0.491864;    0.506719;    0.520546;    0.536064;    0.552589;    0.568644;    0.585130;    0.602186;    0.620300;    0.638385;    0.655652;    0.673995;    0.692270;    0.711565;    0.732306;    0.753433;    0.773925;    0.793816;    0.816358;    0.839231;    0.861724;    0.882583;    0.906810;    0.930953;    0.955334;    0.979822;
61;    1.750543;    0.995851;    0.889566;    0.848487;    0.812656;    0.768521;    0.705047;    0.657228;    0.597659;    0.533301;    0.459247;    0.386802;    0.375582;    0.362843;    0.362128;    0.372420;    0.383104;    0.393094;    0.404664;    0.416168;    0.426790;    0.436890;    0.449891;    0.462805;    0.475197;    0.488447;    0.502298;    0.517624;    0.532397;    0.546895;    0.562317;    0.577946;    0.593388;    0.610385;    0.627664;    0.646764;    0.666251;    0.685447;    0.704109;    0.721759;    0.742447;    0.761864;    0.783050;    0.804850;    0.826116;    0.848270;    0.872288;    0.895792;    0.920860;    0.946045;    0.970750;
62;    2.521208;    0.992157;    0.883726;    0.846555;    0.801924;    0.745320;    0.688803;    0.643796;    0.577250;    0.510069;    0.449237;    0.382918;    0.382137;    0.357579;    0.357156;    0.367905;    0.379684;    0.389900;    0.400205;    0.410525;    0.420952;    0.434300;    0.446523;    0.459295;    0.471755;    0.484619;    0.497736;    0.511288;    0.525561;    0.541570;    0.557230;    0.573874;    0.591303;    0.608716;    0.626360;    0.644277;    0.663360;    0.683566;    0.703437;    0.723969;    0.743475;    0.764582;    0.785769;    0.807306;    0.829047;    0.849921;    0.871243;    0.893421;    0.916461;    0.942841;    0.967263;
63;    1.766345;    1.000257;    0.884175;    0.843646;    0.790921;    0.747219;    0.690541;    0.649563;    0.596203;    0.540300;    0.468219;    0.388107;    0.382003;    0.360023;    0.359436;    0.370589;    0.384128;    0.395288;    0.405688;    0.414221;    0.425656;    0.438393;    0.450373;    0.461617;    0.475128;    0.488636;    0.503031;    0.518078;    0.532964;    0.550006;    0.566181;    0.581626;    0.597989;    0.616131;    0.633981;    0.651451;    0.668633;    0.686666;    0.707358;    0.728131;    0.748963;    0.771120;    0.792847;    0.815421;    0.837457;    0.859377;    0.879703;    0.899509;    0.923307;    0.950015;    0.975774;
64;    1.739703;    1.004983;    0.895799;    0.864514;    0.811436;    0.769219;    0.717971;    0.668159;    0.604974;    0.536368;    0.460124;    0.387405;    0.382114;    0.362388;    0.361779;    0.372122;    0.383019;    0.393666;    0.404277;    0.415226;    0.426936;    0.438423;    0.450552;    0.464648;    0.478908;    0.493263;    0.507128;    0.522520;    0.538777;    0.554692;    0.569764;    0.587604;    0.605895;    0.624230;    0.642629;    0.660783;    0.679673;    0.699319;    0.718231;    0.736317;    0.756998;    0.777591;    0.799442;    0.820562;    0.842445;    0.862898;    0.886127;    0.908713;    0.930083;    0.953083;    0.980755;
65;    1.754030;    0.978385;    0.878595;    0.836124;    0.800563;    0.751475;    0.705436;    0.634871;    0.574916;    0.515144;    0.446308;    0.383996;    0.372435;    0.358241;    0.358195;    0.368944;    0.380871;    0.390056;    0.399022;    0.410560;    0.421551;    0.433174;    0.446229;    0.458605;    0.471548;    0.485649;    0.499322;    0.513022;    0.527002;    0.541081;    0.555930;    0.570973;    0.587912;    0.605265;    0.622646;    0.640741;    0.659216;    0.677961;    0.696497;    0.715451;    0.735859;    0.756232;    0.776837;    0.798266;    0.819084;    0.842998;    0.865487;    0.887568;    0.909005;    0.932362;    0.954811;
66;    1.918354;    1.002223;    0.897708;    0.861815;    0.818269;    0.766314;    0.711755;    0.665625;    0.597579;    0.522362;    0.462945;    0.385941;    0.382541;    0.359644;    0.358341;    0.369343;    0.381816;    0.391761;    0.401510;    0.412106;    0.423971;    0.436422;    0.448825;    0.462194;    0.475982;    0.490695;    0.504020;    0.517016;    0.530957;    0.546528;    0.563246;    0.580721;    0.598837;    0.616991;    0.635607;    0.654322;    0.672185;    0.692537;    0.711899;    0.732187;    0.751342;    0.772604;    0.791654;    0.813614;    0.833722;    0.855284;    0.879893;    0.902091;    0.928410;    0.952269;    0.977433;
67;    1.770750;    0.994641;    0.892693;    0.843296;    0.804778;    0.758988;    0.702134;    0.628016;    0.576838;    0.514533;    0.456230;    0.385084;    0.377816;    0.362615;    0.361660;    0.371519;    0.383055;    0.393363;    0.403035;    0.414023;    0.425561;    0.435963;    0.447328;    0.459532;    0.473616;    0.486930;    0.500806;    0.515480;    0.530221;    0.544469;    0.560795;    0.577410;    0.594157;    0.610932;    0.626645;    0.644714;    0.663292;    0.682930;    0.702056;    0.719908;    0.742322;    0.763811;    0.784179;    0.804686;    0.825642;    0.849257;    0.871328;    0.893777;    0.917980;    0.944460;    0.969326;
68;    1.767135;    1.001912;    0.894356;    0.854147;    0.799062;    0.755739;    0.704938;    0.661880;    0.586275;    0.531120;    0.456000;    0.385835;    0.376115;    0.360092;    0.359452;    0.371500;    0.382643;    0.393380;    0.402635;    0.413918;    0.425622;    0.436298;    0.449132;    0.460941;    0.474492;    0.489739;    0.504328;    0.519107;    0.534462;    0.549535;    0.563904;    0.579045;    0.597443;    0.616053;    0.635306;    0.655236;    0.674379;    0.693662;    0.712744;    0.732730;    0.752119;    0.773172;    0.796682;    0.819050;    0.841768;    0.861975;    0.883887;    0.906692;    0.927742;    0.953071;    0.977076;
69;    1.749481;    0.993320;    0.895602;    0.853567;    0.816064;    0.771797;    0.732548;    0.679630;    0.615551;    0.540029;    0.461229;    0.390692;    0.386127;    0.365587;    0.364228;    0.375094;    0.387409;    0.396859;    0.408412;    0.418870;    0.430098;    0.441443;    0.454193;    0.466633;    0.478303;    0.492098;    0.506018;    0.520749;    0.534826;    0.550282;    0.566594;    0.581498;    0.596827;    0.614352;    0.630980;    0.648888;    0.665375;    0.685159;    0.705119;    0.725243;    0.744757;    0.765546;    0.785743;    0.806544;    0.830040;    0.851822;    0.875398;    0.899668;    0.924800;    0.948075;    0.970261;
70;    1.664443;    1.013777;    0.905784;    0.858998;    0.823752;    0.768943;    0.707832;    0.644414;    0.590837;    0.514909;    0.448428;    0.384639;    0.374745;    0.363126;    0.362224;    0.372005;    0.382557;    0.393103;    0.403985;    0.414847;    0.426769;    0.438863;    0.451036;    0.464807;    0.478108;    0.490954;    0.505612;    0.522179;    0.537672;    0.553698;    0.569438;    0.584739;    0.600446;    0.619751;    0.638620;    0.657156;    0.676105;    0.694528;    0.713445;    0.731823;    0.753086;    0.772918;    0.795968;    0.819786;    0.843999;    0.868576;    0.892877;    0.917123;    0.941777;    0.965962;    0.988648;
71;    1.673047;    1.003455;    0.893458;    0.849822;    0.802869;    0.760726;    0.707473;    0.650492;    0.599324;    0.522685;    0.447150;    0.384529;    0.376816;    0.360759;    0.360058;    0.369836;    0.382362;    0.393109;    0.403578;    0.414586;    0.426635;    0.438729;    0.450895;    0.465166;    0.478966;    0.493470;    0.508305;    0.522607;    0.536783;    0.553077;    0.569959;    0.586492;    0.601889;    0.618376;    0.634288;    0.649807;    0.667949;    0.687994;    0.708031;    0.728872;    0.749914;    0.770393;    0.792548;    0.814799;    0.838162;    0.861305;    0.884772;    0.907480;    0.929344;    0.954036;    0.979314;
72;    1.663778;    1.008069;    0.895879;    0.863730;    0.822636;    0.769828;    0.718397;    0.657020;    0.599191;    0.521644;    0.465944;    0.383825;    0.378841;    0.360454;    0.360037;    0.369911;    0.380703;    0.390456;    0.400462;    0.412149;    0.424422;    0.436164;    0.448160;    0.460466;    0.474036;    0.488075;    0.501881;    0.517579;    0.533442;    0.548641;    0.565917;    0.582807;    0.599252;    0.615860;    0.633492;    0.650926;    0.670515;    0.690466;    0.710238;    0.731726;    0.752303;    0.772485;    0.793206;    0.813955;    0.837343;    0.860533;    0.884269;    0.907897;    0.930980;    0.957190;    0.981936;
73;    1.663855;    1.032295;    0.917142;    0.883207;    0.827234;    0.782275;    0.743036;    0.683636;    0.605010;    0.541565;    0.460883;    0.395387;    0.386572;    0.366458;    0.366055;    0.380673;    0.392223;    0.401973;    0.412855;    0.425653;    0.437745;    0.449181;    0.461334;    0.473665;    0.486751;    0.500747;    0.514616;    0.531170;    0.547085;    0.563421;    0.580321;    0.599197;    0.616886;    0.634941;    0.652859;    0.670773;    0.688574;    0.707216;    0.727799;    0.747770;    0.770253;    0.793539;    0.816589;    0.839004;    0.860030;    0.882876;    0.905778;    0.930394;    0.957483;    0.982519;    1.005518;
74;    1.670405;    1.007887;    0.890261;    0.845698;    0.813564;    0.764043;    0.704059;    0.647855;    0.590549;    0.521109;    0.453763;    0.388334;    0.383031;    0.364215;    0.363731;    0.373998;    0.386009;    0.396353;    0.407421;    0.419255;    0.431820;    0.443395;    0.454775;    0.467940;    0.481009;    0.495273;    0.508674;    0.524617;    0.539998;    0.555611;    0.572344;    0.588627;    0.606386;    0.624890;    0.643550;    0.662177;    0.681075;    0.700076;    0.719659;    0.739306;    0.759290;    0.778426;    0.800513;    0.822544;    0.843208;    0.865771;    0.887190;    0.911825;    0.935319;    0.958185;    0.982625;
75;    1.692978;    0.990340;    0.881961;    0.839112;    0.799214;    0.756895;    0.711100;    0.645673;    0.576586;    0.513329;    0.448202;    0.379009;    0.373015;    0.354350;    0.354100;    0.365677;    0.376047;    0.385743;    0.396319;    0.408010;    0.419699;    0.431586;    0.444947;    0.457727;    0.471003;    0.484806;    0.498664;    0.513650;    0.528831;    0.543375;    0.558038;    0.571986;    0.589039;    0.607283;    0.625474;    0.643037;    0.661186;    0.679506;    0.696561;    0.715681;    0.736907;    0.757062;    0.779966;    0.803699;    0.826211;    0.848527;    0.871045;    0.893628;    0.917851;    0.941558;    0.966370;
76;    1.663439;    1.009979;    0.894339;    0.861463;    0.805814;    0.763889;    0.697504;    0.651263;    0.581281;    0.531177;    0.460887;    0.386273;    0.376859;    0.363130;    0.362799;    0.371945;    0.383800;    0.393637;    0.403810;    0.415066;    0.425545;    0.438397;    0.450509;    0.463812;    0.477034;    0.491344;    0.505798;    0.521187;    0.536644;    0.554005;    0.570808;    0.586642;    0.603526;    0.620448;    0.638696;    0.657942;    0.677345;    0.696958;    0.717430;    0.737912;    0.756628;    0.777743;    0.797895;    0.817059;    0.839727;    0.863624;    0.887847;    0.913196;    0.937553;    0.960561;    0.984192;
77;    1.676115;    0.972888;    0.868549;    0.823882;    0.787014;    0.741889;    0.693949;    0.634570;    0.569968;    0.516489;    0.443381;    0.378367;    0.374369;    0.352936;    0.352303;    0.362024;    0.375035;    0.384740;    0.395410;    0.405760;    0.417553;    0.428346;    0.440851;    0.453527;    0.466856;    0.480371;    0.493860;    0.508159;    0.521319;    0.537322;    0.553627;    0.569621;    0.585985;    0.603849;    0.620099;    0.636749;    0.655754;    0.673713;    0.691990;    0.710250;    0.729428;    0.750114;    0.769940;    0.790115;    0.812366;    0.835003;    0.857579;    0.879116;    0.902598;    0.926678;    0.949533;
78;    1.685372;    0.989426;    0.889819;    0.843771;    0.802343;    0.752163;    0.700936;    0.636887;    0.571874;    0.507964;    0.454401;    0.384581;    0.380060;    0.358725;    0.358294;    0.369382;    0.380183;    0.390099;    0.400996;    0.411943;    0.424237;    0.435403;    0.447453;    0.459607;    0.471094;    0.486227;    0.501344;    0.516409;    0.531163;    0.546497;    0.562354;    0.577252;    0.593270;    0.609058;    0.626557;    0.644246;    0.663907;    0.683589;    0.702996;    0.722376;    0.739890;    0.761282;    0.782053;    0.802804;    0.825785;    0.847917;    0.872084;    0.893961;    0.917398;    0.942616;    0.966946;
79;    1.675584;    1.003999;    0.896383;    0.846220;    0.802663;    0.762883;    0.695230;    0.638466;    0.592400;    0.527951;    0.443563;    0.379472;    0.374677;    0.355963;    0.355200;    0.366506;    0.377106;    0.387821;    0.398466;    0.408127;    0.420164;    0.432503;    0.444306;    0.457100;    0.470945;    0.484120;    0.499070;    0.514393;    0.529547;    0.544648;    0.560206;    0.575938;    0.593527;    0.612460;    0.630588;    0.647645;    0.665920;    0.683404;    0.703322;    0.724832;    0.746160;    0.766171;    0.786523;    0.808076;    0.829241;    0.851511;    0.876822;    0.900209;    0.926119;    0.952795;    0.978715;
80;    1.667818;    0.984478;    0.873479;    0.845174;    0.801197;    0.750040;    0.692470;    0.629488;    0.579903;    0.512718;    0.443963;    0.376036;    0.370339;    0.351967;    0.351494;    0.361192;    0.373249;    0.382542;    0.392576;    0.404983;    0.416939;    0.428477;    0.439835;    0.451763;    0.464669;    0.479100;    0.493508;    0.507897;    0.522852;    0.537636;    0.551907;    0.567829;    0.583832;    0.601975;    0.619808;    0.637741;    0.656381;    0.674740;    0.695516;    0.715897;    0.736655;    0.756110;    0.775197;    0.798100;    0.819705;    0.842439;    0.864029;    0.888748;    0.912107;    0.936111;    0.959113;
81;    1.676696;    0.988688;    0.882773;    0.843226;    0.793474;    0.747359;    0.699401;    0.655111;    0.599524;    0.531947;    0.452188;    0.382329;    0.370798;    0.358541;    0.357761;    0.369110;    0.380155;    0.389965;    0.398149;    0.408928;    0.420439;    0.433090;    0.445506;    0.457428;    0.469705;    0.483944;    0.496993;    0.510674;    0.524753;    0.539089;    0.555680;    0.572439;    0.589613;    0.606099;    0.623163;    0.642284;    0.661004;    0.679429;    0.698601;    0.717731;    0.738756;    0.759483;    0.779872;    0.801674;    0.824794;    0.847759;    0.869577;    0.890656;    0.913819;    0.938172;    0.961143;
82;    1.676365;    0.983663;    0.876527;    0.845954;    0.802068;    0.759150;    0.712591;    0.662288;    0.596650;    0.522863;    0.450637;    0.379394;    0.373831;    0.354756;    0.354535;    0.366539;    0.376320;    0.386809;    0.397645;    0.408447;    0.418352;    0.429502;    0.440593;    0.452720;    0.464685;    0.477051;    0.492037;    0.506621;    0.521817;    0.537034;    0.553432;    0.568611;    0.583767;    0.598990;    0.617447;    0.635820;    0.654169;    0.673199;    0.692659;    0.714428;    0.735305;    0.757531;    0.777573;    0.797254;    0.818541;    0.841235;    0.864321;    0.885544;    0.909170;    0.934331;    0.959035;
83;    1.673404;    0.976734;    0.877972;    0.833517;    0.790296;    0.751810;    0.708154;    0.655193;    0.600648;    0.528388;    0.458378;    0.384320;    0.372673;    0.359834;    0.359600;    0.369276;    0.381680;    0.390709;    0.400520;    0.410498;    0.422280;    0.434370;    0.445771;    0.457777;    0.470945;    0.483566;    0.498297;    0.512223;    0.525731;    0.541276;    0.556423;    0.571785;    0.588470;    0.606797;    0.623924;    0.640944;    0.657832;    0.676414;    0.695168;    0.715020;    0.735523;    0.756400;    0.777375;    0.797651;    0.816706;    0.839397;    0.862173;    0.884094;    0.907470;    0.930074;    0.951791;
84;    1.670294;    0.995730;    0.901187;    0.861367;    0.815351;    0.762818;    0.705655;    0.657665;    0.598288;    0.518053;    0.456374;    0.384758;    0.378573;    0.361736;    0.361192;    0.371046;    0.382273;    0.392005;    0.402843;    0.415179;    0.426076;    0.436672;    0.449393;    0.461500;    0.474657;    0.488166;    0.501571;    0.514550;    0.529464;    0.546008;    0.561982;    0.578717;    0.595746;    0.612327;    0.629089;    0.647015;    0.664383;    0.685600;    0.705577;    0.725590;    0.744823;    0.765946;    0.786523;    0.807547;    0.829687;    0.852262;    0.875322;    0.898980;    0.921743;    0.946304;    0.971094;
85;    1.668680;    1.005057;    0.904059;    0.868697;    0.822909;    0.772019;    0.718968;    0.660712;    0.607244;    0.536042;    0.468210;    0.385856;    0.377437;    0.359893;    0.359493;    0.373214;    0.383190;    0.393139;    0.403467;    0.413650;    0.425999;    0.438865;    0.450797;    0.464056;    0.476283;    0.488612;    0.502410;    0.516666;    0.532112;    0.547538;    0.563464;    0.579788;    0.596283;    0.613757;    0.631079;    0.649022;    0.668498;    0.687954;    0.708155;    0.728420;    0.748904;    0.770606;    0.791998;    0.812378;    0.836540;    0.859829;    0.882636;    0.907941;    0.931882;    0.956550;    0.980475;
86;    1.668767;    1.004451;    0.886513;    0.842874;    0.800110;    0.748630;    0.698135;    0.645900;    0.584697;    0.528823;    0.462373;    0.385455;    0.381238;    0.360473;    0.359268;    0.369921;    0.382776;    0.392656;    0.403859;    0.415661;    0.427150;    0.439700;    0.451417;    0.463131;    0.477341;    0.491920;    0.506655;    0.520958;    0.535176;    0.550474;    0.567048;    0.584060;    0.601015;    0.618757;    0.636277;    0.655612;    0.675316;    0.695033;    0.714574;    0.732697;    0.752217;    0.772108;    0.794676;    0.814718;    0.838244;    0.863072;    0.885391;    0.908377;    0.933336;    0.957817;    0.981310;
87;    1.727283;    1.000316;    0.888382;    0.852354;    0.796724;    0.749552;    0.693553;    0.648533;    0.575005;    0.515790;    0.460635;    0.386247;    0.377547;    0.358829;    0.358221;    0.371202;    0.382883;    0.392467;    0.402148;    0.413831;    0.425573;    0.436674;    0.447000;    0.460773;    0.474320;    0.487534;    0.500840;    0.515527;    0.530386;    0.546402;    0.562182;    0.577868;    0.593808;    0.611827;    0.630943;    0.650048;    0.668498;    0.685412;    0.701570;    0.720772;    0.741610;    0.763346;    0.784457;    0.806895;    0.829484;    0.853421;    0.876387;    0.899012;    0.923266;    0.948384;    0.973155;
88;    1.679544;    1.011394;    0.895407;    0.855086;    0.819662;    0.765262;    0.728026;    0.678603;    0.614542;    0.542438;    0.453813;    0.384195;    0.375423;    0.356823;    0.356725;    0.367390;    0.380721;    0.390338;    0.401118;    0.412681;    0.424462;    0.435977;    0.448949;    0.462639;    0.475146;    0.488640;    0.502777;    0.517922;    0.531916;    0.548290;    0.564277;    0.579494;    0.594610;    0.612758;    0.632085;    0.650051;    0.669536;    0.688462;    0.708065;    0.728345;    0.749414;    0.768494;    0.790173;    0.812465;    0.836393;    0.858359;    0.882339;    0.905223;    0.930411;    0.958728;    0.983059;
89;    1.689279;    1.009476;    0.900778;    0.867194;    0.814306;    0.773503;    0.713217;    0.645711;    0.589746;    0.507162;    0.451784;    0.383179;    0.378138;    0.360157;    0.359821;    0.372987;    0.381701;    0.391585;    0.401397;    0.412942;    0.424319;    0.435951;    0.447752;    0.461755;    0.474689;    0.488848;    0.503525;    0.518291;    0.532101;    0.549254;    0.565395;    0.580678;    0.596294;    0.612569;    0.631226;    0.651181;    0.670844;    0.690711;    0.711256;    0.732689;    0.754000;    0.775625;    0.798273;    0.818872;    0.839162;    0.861582;    0.883057;    0.907244;    0.934018;    0.959556;    0.985435;
90;    1.680976;    0.998132;    0.894589;    0.851558;    0.805469;    0.769378;    0.711400;    0.669561;    0.596566;    0.532557;    0.464381;    0.387176;    0.382264;    0.359726;    0.359461;    0.371715;    0.384304;    0.394756;    0.404045;    0.415315;    0.426350;    0.438345;    0.449643;    0.463555;    0.477516;    0.490591;    0.504061;    0.519450;    0.534060;    0.548818;    0.565213;    0.581649;    0.598757;    0.616389;    0.633503;    0.652476;    0.670676;    0.690032;    0.709598;    0.728061;    0.746977;    0.766920;    0.787961;    0.809455;    0.830096;    0.852893;    0.876760;    0.900765;    0.925187;    0.948679;    0.974880;
91;    1.658302;    1.007941;    0.895542;    0.866479;    0.815132;    0.756254;    0.711941;    0.649683;    0.591393;    0.520857;    0.457711;    0.383802;    0.379431;    0.359547;    0.358666;    0.369911;    0.381289;    0.391928;    0.402059;    0.412826;    0.424147;    0.435901;    0.447591;    0.459247;    0.473540;    0.487510;    0.501814;    0.517869;    0.533195;    0.548329;    0.564205;    0.581311;    0.598288;    0.615514;    0.633725;    0.652507;    0.671201;    0.691624;    0.711857;    0.730931;    0.749762;    0.771642;    0.794791;    0.819246;    0.841976;    0.865420;    0.889505;    0.913672;    0.937274;    0.959909;    0.983033;
92;    1.750559;    0.991664;    0.884619;    0.840173;    0.803888;    0.756324;    0.694309;    0.639826;    0.578952;    0.525597;    0.452991;    0.382834;    0.377660;    0.357898;    0.357398;    0.367833;    0.379531;    0.391216;    0.402192;    0.413192;    0.424435;    0.435127;    0.444955;    0.458415;    0.470719;    0.483819;    0.497257;    0.512653;    0.528664;    0.544244;    0.559887;    0.575167;    0.592698;    0.611089;    0.628318;    0.645971;    0.662611;    0.682557;    0.701952;    0.722462;    0.742342;    0.762009;    0.783866;    0.805998;    0.827627;    0.848224;    0.872207;    0.895811;    0.919494;    0.940622;    0.966254;
93;    2.626563;    1.005509;    0.899393;    0.864304;    0.818326;    0.774132;    0.730352;    0.665884;    0.601999;    0.532334;    0.460969;    0.387449;    0.378608;    0.363167;    0.361802;    0.372988;    0.385500;    0.394761;    0.405831;    0.416385;    0.429078;    0.440845;    0.452434;    0.466006;    0.479316;    0.493396;    0.507472;    0.522813;    0.537581;    0.553798;    0.569224;    0.584721;    0.601704;    0.619339;    0.636436;    0.655917;    0.674085;    0.693107;    0.711433;    0.731382;    0.751813;    0.772077;    0.794782;    0.815697;    0.838138;    0.859835;    0.884072;    0.907884;    0.931782;    0.956687;    0.982169;
94;    1.767102;    1.004096;    0.896010;    0.860016;    0.802341;    0.753317;    0.704118;    0.638365;    0.574424;    0.528865;    0.452372;    0.383559;    0.370756;    0.358815;    0.358184;    0.368565;    0.379849;    0.388916;    0.400105;    0.410980;    0.422458;    0.434854;    0.447875;    0.461020;    0.474858;    0.489054;    0.503285;    0.517798;    0.532717;    0.547524;    0.563660;    0.579756;    0.595692;    0.614532;    0.633289;    0.650851;    0.671407;    0.690401;    0.708693;    0.727786;    0.748914;    0.770009;    0.791158;    0.812359;    0.833200;    0.856424;    0.880011;    0.903477;    0.927125;    0.953002;    0.978107;
95;    1.900011;    1.012087;    0.899369;    0.858334;    0.819411;    0.768530;    0.724631;    0.661456;    0.598138;    0.540260;    0.456879;    0.386735;    0.378674;    0.361775;    0.361126;    0.374026;    0.384662;    0.395375;    0.405220;    0.416148;    0.427231;    0.439774;    0.453148;    0.466961;    0.480340;    0.492525;    0.508835;    0.524254;    0.539124;    0.554829;    0.571473;    0.587478;    0.604599;    0.622661;    0.639555;    0.657859;    0.676902;    0.696639;    0.716511;    0.735232;    0.752974;    0.775347;    0.797622;    0.821485;    0.845752;    0.868411;    0.890769;    0.914762;    0.938112;    0.961299;    0.987733;
96;    1.699626;    0.998148;    0.881860;    0.843012;    0.810942;    0.760130;    0.716825;    0.654022;    0.586008;    0.530180;    0.451030;    0.381964;    0.373461;    0.357333;    0.356431;    0.367780;    0.379489;    0.390376;    0.400506;    0.411027;    0.423668;    0.436690;    0.449329;    0.461622;    0.475032;    0.489050;    0.503569;    0.517938;    0.531298;    0.547103;    0.563016;    0.578226;    0.595495;    0.612162;    0.628806;    0.645510;    0.665727;    0.685328;    0.704097;    0.724426;    0.745503;    0.765553;    0.784251;    0.804590;    0.828240;    0.854089;    0.879187;    0.903217;    0.926714;    0.949232;    0.973731;
97;    1.861691;    1.016249;    0.913115;    0.861369;    0.817362;    0.757944;    0.714284;    0.661081;    0.587260;    0.524795;    0.456838;    0.382604;    0.378536;    0.358553;    0.357879;    0.367792;    0.379829;    0.390485;    0.402121;    0.413802;    0.424980;    0.437071;    0.449712;    0.462407;    0.475456;    0.491042;    0.506477;    0.520835;    0.535866;    0.550971;    0.567297;    0.583874;    0.601422;    0.618343;    0.637028;    0.656372;    0.676416;    0.696712;    0.717560;    0.737543;    0.757780;    0.780584;    0.801933;    0.824415;    0.845870;    0.869093;    0.891013;    0.914791;    0.940481;    0.966179;    0.989571;
98;    1.736021;    1.002181;    0.896177;    0.854053;    0.816483;    0.766218;    0.704284;    0.658190;    0.597364;    0.533562;    0.459086;    0.384416;    0.381614;    0.362695;    0.362262;    0.375203;    0.383263;    0.392885;    0.404196;    0.414721;    0.427250;    0.438591;    0.451419;    0.464783;    0.477780;    0.490849;    0.506276;    0.520659;    0.534737;    0.549507;    0.565178;    0.581487;    0.599453;    0.616435;    0.635427;    0.654363;    0.673362;    0.693051;    0.711540;    0.729688;    0.750905;    0.771726;    0.793153;    0.815631;    0.839031;    0.861559;    0.884129;    0.907518;    0.930389;    0.955493;    0.976891;
99;    2.323749;    0.993981;    0.878302;    0.852455;    0.808330;    0.767437;    0.702315;    0.652070;    0.591559;    0.527203;    0.457642;    0.387805;    0.381010;    0.362942;    0.362182;    0.374197;    0.384841;    0.395142;    0.404695;    0.416689;    0.428871;    0.442237;    0.455376;    0.468311;    0.481203;    0.493293;    0.507370;    0.522222;    0.537634;    0.553343;    0.569273;    0.586456;    0.603285;    0.620979;    0.638651;    0.657361;    0.674246;    0.692220;    0.711446;    0.730999;    0.750351;    0.769989;    0.791638;    0.812826;    0.832255;    0.853717;    0.874381;    0.897966;    0.920104;    0.945266;    0.970109;
100;    1.834221;    0.993814;    0.882421;    0.850366;    0.812092;    0.759148;    0.715160;    0.650105;    0.573447;    0.517919;    0.453924;    0.384698;    0.379403;    0.356643;    0.356084;    0.366893;    0.381144;    0.390730;    0.401662;    0.411990;    0.423864;    0.435255;    0.446992;    0.459679;    0.472267;    0.485434;    0.499673;    0.514858;    0.530605;    0.546728;    0.562991;    0.578365;    0.593942;    0.609070;    0.626377;    0.643548;    0.661700;    0.681859;    0.702331;    0.722891;    0.743453;    0.762650;    0.782546;    0.804503;    0.827385;    0.849468;    0.873883;    0.896963;    0.922050;    0.945823;    0.968377;
