Simulation;Time;PC 0;PC 1;PC 2;PC 3;PC 4;PC 5;PC 6;PC 7;PC 8;PC 9;PC10;PC11;PC12;PC13;PC14;PC15;PC16;PC17;PC18;PC19;PC20;PC21;PC22;PC23;PC24;PC25;PC26;PC27;PC28;PC29;PC30;PC31;PC32;PC33;PC34;PC35;PC36;PC37;PC38;PC39;PC40;PC41;PC42;PC43;PC44;PC45;PC46;PC47;PC48;PC49;
Nan;Nan;0;0;0;0;0;0;0;0;0;0;0;0;0;0;0;1;0;0;0;0;0;0;0;0;0;0;0;0;0;0;0;0;0;0;0;0;0;0;0;0;0;0;0;0;0;0;0;0;0;0;
0;    4.029706;    0.981150;    0.844559;    0.786868;    0.739220;    0.684066;    0.609329;    0.517402;    0.446762;    0.342492;    0.247002;    0.154647;    0.150991;    0.128932;    0.682253;    0.710048;    1.443985;    1.491936;    1.533399;    1.596850;    1.628282;    1.685735;    1.750334;    1.841015;    1.904654;    1.982971;    2.070228;    2.140006;    2.296800;    2.436629;    2.518444;    2.632191;    2.800273;    2.994485;    3.174560;    3.553531;    3.926129;    4.350016;    4.791698;    5.339764;    5.892336;    6.327326;    7.131224;    8.034824;   10.106245;   13.055883;   17.731363;   31.362675;  146.618481;  685.018346;34107.597976;
1;    3.990000;    1.008406;    0.868268;    0.805702;    0.761679;    0.682601;    0.605895;    0.535142;    0.455731;    0.360913;    0.272314;    0.163411;    0.155424;    0.130291;    1.003545;    1.202930;    1.749437;    1.786774;    1.839642;    1.858596;    1.912346;    1.999239;    2.084064;    2.175535;    2.249248;    2.350758;    2.508568;    2.636407;    2.730217;    2.905849;    2.989524;    3.120290;    3.315710;    3.507827;    3.761485;    4.012258;    4.433771;    4.947626;    5.606139;    6.142827;    6.951613;    7.630355;    8.371823;    9.921481;   12.033872;   15.426137;   18.173789;   27.074400;   43.029547;  174.568244; 3300.847734;
2;    3.993011;    1.016682;    0.880759;    0.822589;    0.779758;    0.710453;    0.616977;    0.553183;    0.456924;    0.374624;    0.275398;    0.156719;    0.149276;    0.128790;    1.405292;    1.508290;    1.861656;    1.908748;    1.968521;    2.003768;    2.086614;    2.204810;    2.292210;    2.382538;    2.493741;    2.605183;    2.755009;    2.850914;    3.023121;    3.140571;    3.271573;    3.480372;    3.806348;    4.011987;    4.199837;    4.410018;    4.626375;    4.879594;    5.474897;    6.049516;    6.642059;    7.312508;    8.806913;   10.319380;   12.532410;   15.111460;   17.018975;   25.066794;   31.745810;   98.535808;30772.713261;
3;    4.017421;    1.008795;    0.880148;    0.823083;    0.770351;    0.695279;    0.636024;    0.564067;    0.470831;    0.382338;    0.271568;    0.162392;    0.162779;    0.131783;    1.257181;    1.290829;    1.605330;    1.676350;    1.707961;    1.776651;    1.816142;    1.872198;    1.906060;    1.921194;    1.962885;    2.025636;    2.078525;    2.130745;    2.206296;    2.276755;    2.345347;    2.410388;    2.482446;    2.577246;    2.672516;    2.836114;    3.027758;    3.233272;    3.481372;    3.730326;    4.116822;    4.517975;    5.057871;    5.799087;    6.737278;    8.079660;    9.831572;   12.614959;   19.109186;   51.629704;77886.541656;
4;    3.997116;    1.027493;    0.889577;    0.835375;    0.777409;    0.693235;    0.613198;    0.553790;    0.468603;    0.361707;    0.268891;    0.158096;    0.156471;    0.130211;    1.146530;    1.222970;    1.498994;    1.550951;    1.584466;    1.623680;    1.676221;    1.742399;    1.793034;    1.898558;    2.002012;    2.088404;    2.172347;    2.229335;    2.343110;    2.388556;    2.505089;    2.636041;    2.779690;    2.982417;    3.185238;    3.546463;    4.047240;    4.382222;    4.920827;    5.660904;    6.540732;    8.208814;    9.280144;   11.890194;   14.019690;   15.910910;   19.076763;   23.668279;   37.168165;  154.686359;10579.495640;
5;    4.019620;    1.004494;    0.866124;    0.809055;    0.752326;    0.690965;    0.618112;    0.546474;    0.461804;    0.371627;    0.273962;    0.161699;    0.143624;    0.128310;    0.895612;    1.141656;    1.504568;    1.555331;    1.591676;    1.645035;    1.708462;    1.751267;    1.814271;    1.866053;    1.896852;    1.936023;    2.023647;    2.099358;    2.176107;    2.282686;    2.387293;    2.667361;    2.854727;    3.151718;    3.301217;    3.424176;    3.803122;    4.045959;    4.347402;    4.662949;    5.095734;    5.725317;    6.668142;    7.702824;    8.594779;   10.028874;   12.093641;   17.616721;   26.175683;   45.902448; 1088.784037;
6;    4.000380;    0.999939;    0.864769;    0.813049;    0.745150;    0.681889;    0.609773;    0.542418;    0.465208;    0.360156;    0.266251;    0.161119;    0.159217;    0.132303;    0.911114;    1.209002;    1.549949;    1.569252;    1.582204;    1.638231;    1.687793;    1.747203;    1.809130;    1.874322;    1.931125;    1.979342;    2.063269;    2.146509;    2.284387;    2.452909;    2.685109;    2.831962;    3.000444;    3.118688;    3.228701;    3.388838;    3.606142;    3.762481;    4.061374;    4.394534;    4.907489;    5.554740;    6.421830;    7.178837;    8.663226;   10.214281;   12.067614;   14.464772;   17.421608;  152.301465; 3241.419624;
7;    4.016509;    1.019116;    0.879467;    0.817627;    0.761134;    0.699551;    0.621978;    0.547715;    0.446578;    0.355779;    0.257209;    0.157609;    0.149022;    0.126221;    1.071771;    1.432686;    1.522766;    1.594430;    1.638114;    1.700032;    1.761479;    1.842022;    1.952604;    1.985629;    2.053219;    2.080543;    2.207041;    2.289136;    2.363098;    2.461309;    2.537715;    2.623622;    2.724102;    2.875685;    3.126407;    3.412431;    3.721653;    3.900281;    4.219536;    4.678887;    4.966458;    5.330732;    5.656966;    6.200887;    8.108418;    9.280337;   11.342542;   12.714959;   19.398559;   69.936471;405734.610086;
8;    4.003297;    0.988095;    0.854350;    0.802647;    0.751409;    0.676111;    0.619026;    0.533257;    0.447008;    0.364872;    0.259522;    0.154468;    0.148816;    0.128662;    0.888102;    0.928483;    1.638979;    1.699624;    1.736531;    1.793519;    1.836217;    1.870690;    1.985971;    2.104453;    2.185433;    2.247849;    2.370064;    2.428363;    2.569901;    2.689385;    2.784893;    2.946054;    3.117942;    3.384619;    3.554731;    3.756409;    3.960106;    4.273336;    4.586492;    4.864131;    5.319076;    5.951525;    6.788124;    8.002950;    9.692433;   11.457542;   14.565157;   30.335161;   38.954945;   74.262360;261020.305146;
9;    4.004566;    1.015013;    0.881476;    0.833417;    0.763422;    0.697128;    0.639431;    0.548412;    0.469962;    0.393227;    0.281845;    0.159422;    0.154089;    0.131292;    0.612167;    1.282857;    1.598240;    1.638556;    1.669964;    1.705915;    1.761395;    1.816221;    1.866126;    2.019175;    2.100555;    2.158045;    2.221553;    2.336932;    2.458736;    2.594560;    2.698312;    2.845875;    3.005126;    3.172869;    3.419956;    3.703119;    4.134885;    4.717997;    5.284873;    6.015037;    6.866290;    7.822933;    9.296884;   10.683644;   12.245372;   14.612894;   18.391387;   29.930780;   61.312149;  199.570939;37339.344441;
10;    3.990573;    1.012651;    0.877060;    0.828699;    0.770126;    0.711747;    0.641387;    0.579142;    0.488386;    0.396553;    0.274077;    0.160766;    0.147646;    0.131506;    1.537543;    1.799453;    1.842744;    1.905716;    1.933620;    1.968363;    2.043936;    2.131791;    2.176910;    2.251024;    2.396175;    2.516968;    2.637534;    2.817954;    2.963525;    3.068917;    3.200410;    3.345431;    3.562577;    3.753428;    4.005337;    4.258849;    4.437258;    4.671093;    4.867374;    5.082761;    5.403855;    6.099044;    7.118757;    8.983149;   11.468780;   18.831742;   37.670514;   47.791960;  125.885139;  569.464290;54077.192405;
11;    4.004135;    0.995138;    0.864451;    0.818677;    0.766320;    0.690811;    0.628186;    0.554338;    0.457590;    0.378591;    0.262239;    0.161233;    0.162013;    0.128696;    1.401530;    1.430237;    1.850303;    1.896006;    1.934798;    1.973711;    2.032079;    2.076943;    2.180907;    2.239631;    2.342131;    2.461571;    2.621401;    2.794863;    2.985780;    3.066553;    3.251072;    3.394338;    3.549664;    3.684081;    3.989710;    4.260993;    4.488292;    4.731477;    5.048016;    5.404602;    5.735209;    6.096339;    6.428929;    6.945935;    7.564442;    8.612427;   11.534435;   17.975418;   38.599036;  128.372453;12142.721566;
12;    4.017428;    0.990420;    0.865352;    0.825022;    0.768772;    0.687394;    0.614414;    0.540263;    0.445085;    0.354182;    0.269473;    0.161800;    0.158049;    0.125536;    0.996962;    1.145706;    1.379759;    1.456256;    1.521681;    1.556193;    1.596363;    1.629798;    1.656792;    1.723091;    1.775438;    1.817039;    1.880450;    1.948506;    2.017208;    2.137825;    2.229960;    2.333294;    2.418994;    2.541872;    2.650503;    2.755067;    2.963108;    3.214307;    3.480673;    3.791115;    4.608278;    5.810918;    7.331086;    8.437988;    9.960205;   12.887606;   16.675260;   27.735450;   39.367674;  104.409498; 2772.635741;
13;    4.007048;    1.005553;    0.861557;    0.807653;    0.757757;    0.681945;    0.612922;    0.536721;    0.449589;    0.360062;    0.257613;    0.160793;    0.152914;    0.127954;    0.806716;    0.811146;    1.707551;    1.733590;    1.797743;    1.851157;    1.897966;    1.977184;    2.027500;    2.094090;    2.157755;    2.235381;    2.328662;    2.457454;    2.609726;    2.714355;    2.903093;    3.052016;    3.220528;    3.440172;    3.714287;    3.949100;    4.273061;    4.591546;    5.015725;    5.465872;    6.078843;    7.345380;    8.628249;   10.137263;   11.775673;   14.286339;   17.391753;   22.313175;   31.206918;   88.034754; 1046.247773;
14;    4.255124;    0.980243;    0.850055;    0.805294;    0.738089;    0.687267;    0.617424;    0.543967;    0.451126;    0.348562;    0.252231;    0.158509;    0.149934;    0.130743;    0.917611;    1.313087;    1.394277;    1.449800;    1.482194;    1.527562;    1.656696;    1.715342;    1.771489;    1.844080;    1.951043;    2.076465;    2.141768;    2.235358;    2.337603;    2.504067;    2.568853;    2.648049;    2.734041;    2.862207;    3.032574;    3.183152;    3.396683;    3.624007;    4.037156;    4.533599;    5.177777;    6.497153;    7.196065;    8.594582;   10.035169;   11.485277;   13.448667;   17.127081;   23.587045; 1406.664610; 6061.796447;
15;    4.012768;    0.996226;    0.845315;    0.790681;    0.723067;    0.664910;    0.594560;    0.523299;    0.442528;    0.347184;    0.253316;    0.156079;    0.139977;    0.126616;    0.870387;    0.824860;    1.613018;    1.636969;    1.677254;    1.723069;    1.785757;    1.833791;    1.910091;    1.961678;    1.989961;    2.057358;    2.143208;    2.279186;    2.348359;    2.442974;    2.581586;    2.711285;    2.906176;    3.144476;    3.446134;    3.893061;    4.317395;    4.672850;    4.932734;    5.827057;    7.332901;    8.558687;   10.427778;   12.379034;   15.006385;   18.921709;   23.227285;   32.749364;   43.645720;   67.927341;520440.716296;
16;    4.062900;    1.020774;    0.890423;    0.824448;    0.765026;    0.702293;    0.620271;    0.556925;    0.468391;    0.370062;    0.273626;    0.163805;    0.153604;    0.134454;    1.448035;    1.686768;    1.714267;    1.756662;    1.805512;    1.845688;    1.927450;    2.008055;    2.104015;    2.171291;    2.288535;    2.411933;    2.495532;    2.578547;    2.700875;    2.826140;    2.942171;    3.082278;    3.312294;    3.486728;    3.761119;    4.024260;    4.270311;    4.492767;    4.747807;    4.925336;    5.256561;    5.664381;    6.032248;    6.502065;    6.961472;    7.315516;    7.938193;    9.122911;   12.489328;   21.277965; 9408.945734;
17;    4.009193;    0.988103;    0.857982;    0.800749;    0.740390;    0.677835;    0.604210;    0.518650;    0.438206;    0.353413;    0.263697;    0.160609;    0.156331;    0.124471;    1.138347;    1.165713;    1.576241;    1.591021;    1.630658;    1.653516;    1.701069;    1.755818;    1.832361;    1.863522;    1.916366;    1.962656;    2.047214;    2.194130;    2.351213;    2.555085;    2.764802;    2.886367;    3.066461;    3.240033;    3.430985;    3.605559;    3.893497;    4.265507;    4.569627;    5.126508;    5.416778;    5.886934;    6.528186;    7.501434;    9.062654;   10.192412;   12.258728;   15.435574;   27.903205;  120.938123; 2274.753457;
18;    3.997771;    0.978767;    0.856463;    0.801981;    0.753331;    0.681236;    0.617969;    0.530927;    0.440756;    0.371270;    0.280341;    0.159650;    0.159201;    0.128262;    0.911612;    1.004200;    1.570995;    1.688774;    1.740631;    1.804127;    1.944365;    2.103527;    2.227336;    2.309562;    2.346745;    2.410119;    2.530056;    2.632604;    2.739471;    2.826736;    2.997153;    3.187558;    3.306797;    3.521076;    3.702270;    3.890047;    4.077602;    4.309862;    4.612261;    4.869434;    5.345440;    6.003442;    7.054148;    8.862888;   13.149684;   18.924767;   38.464875;   59.410218;   81.659118;  220.358450;768494.498762;
19;    4.022833;    0.992196;    0.853652;    0.796710;    0.752566;    0.691217;    0.629878;    0.542880;    0.466243;    0.367123;    0.261484;    0.160178;    0.149421;    0.130882;    0.874967;    1.173779;    1.977177;    2.110887;    2.195858;    2.269578;    2.353526;    2.423943;    2.502569;    2.579769;    2.692627;    2.771629;    2.874198;    2.953017;    3.069308;    3.186575;    3.282457;    3.382167;    3.497594;    3.730745;    3.967894;    4.244864;    4.493690;    4.943461;    5.205837;    5.776498;    6.471477;    7.083702;    8.948663;   12.612011;   13.792807;   16.664572;   18.587708;   23.101072;   31.196670;   48.413143;12916.513497;
20;    4.004413;    1.014367;    0.866758;    0.825527;    0.758271;    0.695217;    0.632691;    0.565269;    0.489611;    0.388680;    0.280529;    0.161900;    0.150135;    0.129464;    1.432266;    1.545891;    1.662254;    1.713139;    1.747915;    1.790294;    1.870996;    1.952410;    2.006778;    2.080486;    2.191251;    2.327265;    2.501757;    2.575466;    2.676700;    2.793033;    2.858604;    2.982119;    3.103992;    3.235662;    3.534836;    3.761922;    4.066019;    4.383811;    4.796208;    5.438307;    6.210575;    6.611508;    7.270469;    7.955841;    9.925105;   11.612568;   18.598389;   38.143773;  113.979483;  409.442941;16895.198112;
21;    4.011261;    1.009498;    0.861988;    0.812142;    0.752685;    0.698450;    0.622175;    0.538991;    0.453228;    0.361096;    0.269389;    0.160824;    0.155533;    0.129765;    0.946277;    1.635731;    1.490199;    1.532769;    1.596333;    1.648792;    1.685568;    1.705210;    1.754026;    1.808206;    1.863138;    1.890319;    1.949367;    2.049815;    2.151358;    2.218441;    2.317633;    2.376332;    2.460156;    2.566705;    2.629883;    2.748136;    2.886340;    3.097626;    3.271870;    3.568926;    3.958538;    4.237903;    4.518757;    5.025172;    5.859092;    7.800380;   10.337755;   13.031375;   19.604023;   46.775179; 5219.762395;
22;    4.019410;    1.016953;    0.874965;    0.819195;    0.756435;    0.679089;    0.611706;    0.530776;    0.462492;    0.386921;    0.273607;    0.161265;    0.149077;    0.129779;    0.841281;    1.134240;    1.309480;    1.345526;    1.379424;    1.433988;    1.481383;    1.559081;    1.650782;    1.720245;    1.827751;    1.893687;    1.951820;    2.066171;    2.177484;    2.315026;    2.516817;    2.706463;    3.182888;    3.481780;    4.054267;    4.450900;    5.129089;    5.972742;    6.495156;    7.053090;    7.827168;    8.949314;   10.056586;   11.567748;   13.358800;   15.938184;   18.967956;   36.539033;   50.640058;  108.080004; 3562.522897;
23;    3.989033;    1.002364;    0.867465;    0.827558;    0.779607;    0.715855;    0.638816;    0.541296;    0.464415;    0.368299;    0.261579;    0.163546;    0.158684;    0.131334;    0.963765;    0.946301;    1.938748;    2.008441;    2.070172;    2.138495;    2.217903;    2.297709;    2.393822;    2.565205;    2.677799;    2.792158;    2.915912;    3.079894;    3.274653;    3.403468;    3.579008;    3.770603;    3.930546;    4.101062;    4.318746;    4.537339;    4.792619;    5.059701;    5.670262;    6.293484;    7.011161;    7.877092;    8.810577;    9.818259;   11.685043;   16.200312;   20.589587;   30.627727;   43.522190;  111.666662;19599.595954;
24;    3.992578;    1.024608;    0.883579;    0.835861;    0.766354;    0.699666;    0.625328;    0.545755;    0.464021;    0.366884;    0.272583;    0.160318;    0.147098;    0.125997;    0.730864;    0.753775;    1.372886;    1.401749;    1.456286;    1.504838;    1.562455;    1.611678;    1.646942;    1.709917;    1.753633;    1.795023;    1.841373;    1.868986;    1.947540;    2.051622;    2.170845;    2.275194;    2.370353;    2.479908;    2.681250;    2.858651;    3.094257;    3.354993;    3.734513;    4.092151;    4.317262;    4.644372;    5.360949;    6.596141;    7.458515;    8.578826;   10.462384;   15.414119;   19.210374;   75.056100; 8535.391726;
25;    4.001606;    0.991108;    0.860885;    0.813676;    0.759644;    0.677527;    0.616462;    0.540903;    0.465036;    0.352996;    0.259574;    0.161218;    0.150809;    0.130403;    1.324108;    1.497520;    2.137469;    2.209400;    2.232670;    2.301918;    2.442379;    2.561010;    2.713244;    2.816840;    2.943407;    3.186620;    3.352497;    3.534749;    3.702928;    3.979257;    4.271833;    4.507679;    4.766202;    4.968955;    5.132170;    5.289945;    5.480636;    5.707227;    6.091447;    6.533882;    6.913308;    7.145113;    7.472768;    8.050620;    9.243965;   11.817958;   14.585475;   17.289143;   21.232820;   34.678415; 5672.164771;
26;    4.015325;    1.018129;    0.881937;    0.828401;    0.769436;    0.709679;    0.645599;    0.571823;    0.482176;    0.372237;    0.286142;    0.161692;    0.154215;    0.130084;    0.751202;    0.746942;    1.562884;    1.667394;    1.783915;    1.881313;    1.976487;    2.117156;    2.162655;    2.220937;    2.317930;    2.410876;    2.528239;    2.582727;    2.662300;    2.727183;    2.808487;    2.926587;    3.153214;    3.448854;    3.719042;    4.023202;    4.411527;    4.836110;    5.303647;    5.806233;    6.247363;    7.065239;    8.660283;   10.018300;   12.988904;   15.264054;   18.089836;   27.816584;   49.551873;  110.496452; 6469.640687;
27;    4.005002;    1.011419;    0.865542;    0.804471;    0.749015;    0.692477;    0.637038;    0.557041;    0.471888;    0.368765;    0.272418;    0.162845;    0.163512;    0.128912;    1.266381;    1.553198;    1.767326;    1.781979;    1.808556;    1.848703;    1.908307;    1.996501;    2.048445;    2.124578;    2.188840;    2.273290;    2.382458;    2.525270;    2.669359;    2.844380;    3.020683;    3.196825;    3.411731;    3.683377;    4.069155;    4.556860;    5.019729;    5.504037;    5.955508;    6.225782;    6.739813;    7.454175;    8.591569;   11.472601;   13.769549;   16.112410;   19.076650;   28.034093;   41.526097;  112.810829;18295.850635;
28;    4.263308;    1.015740;    0.867955;    0.821533;    0.753226;    0.679624;    0.619501;    0.538160;    0.467745;    0.376798;    0.263476;    0.155919;    0.155586;    0.126546;    0.723508;    0.903746;    1.519342;    1.557603;    1.634899;    1.667115;    1.695241;    1.737658;    1.814445;    1.860537;    1.943170;    2.038180;    2.088447;    2.198807;    2.273824;    2.382219;    2.459958;    2.551461;    2.805441;    3.056720;    3.269097;    3.611200;    3.890639;    4.399691;    5.031467;    5.675080;    6.654332;    7.471490;    8.688742;   10.510511;   13.060919;   15.455250;   18.255786;   22.030723;   62.217617;  298.700493;19645.869019;
29;    6.476127;    1.029346;    0.873306;    0.822236;    0.771244;    0.701212;    0.639164;    0.554368;    0.465008;    0.355647;    0.254054;    0.153487;    0.147038;    0.126690;    0.646070;    1.299443;    1.879333;    1.954020;    2.068083;    2.166494;    2.254788;    2.341809;    2.417019;    2.483743;    2.607157;    2.726443;    2.850681;    2.988719;    3.233149;    3.312400;    3.435541;    3.584440;    3.786190;    3.998054;    4.175270;    4.492716;    4.826557;    5.082360;    5.362941;    5.869176;    6.355303;    7.148387;    7.919995;    8.972275;   10.052346;   11.253625;   14.045878;   22.947973;   32.269943;  126.562232;18043.975133;
30;    5.186455;    1.010336;    0.868253;    0.824603;    0.762189;    0.702159;    0.627514;    0.567129;    0.477888;    0.375007;    0.282731;    0.160115;    0.152107;    0.128952;    0.798173;    0.912710;    1.782198;    1.825585;    1.892053;    1.977968;    2.021861;    2.050058;    2.096008;    2.140641;    2.162826;    2.209048;    2.298459;    2.417639;    2.494309;    2.585412;    2.680771;    2.789948;    2.890056;    3.084219;    3.305055;    3.494847;    3.751646;    4.054194;    4.359794;    4.659634;    5.138505;    5.746093;    6.833025;    7.845552;    9.352536;   11.452598;   13.755721;   23.203945;   39.265102;   88.687695;30664.006521;
31;    6.994425;    1.006382;    0.866032;    0.811948;    0.757068;    0.690686;    0.636809;    0.555559;    0.467699;    0.377154;    0.272419;    0.162614;    0.163138;    0.130785;    1.176954;    1.168241;    1.434481;    1.548890;    1.605059;    1.683717;    1.740444;    1.785406;    1.862921;    1.959799;    1.998903;    2.065240;    2.147581;    2.212351;    2.306998;    2.408181;    2.544904;    2.718008;    2.900858;    3.107793;    3.352446;    3.574829;    3.850202;    4.137610;    4.377998;    4.572435;    5.310280;    5.910301;    6.231119;    6.954509;    8.201779;    9.498695;   12.344666;   22.496548;   47.335160;  187.622851;48500.005814;
32;    8.984722;    0.997854;    0.871169;    0.812587;    0.761363;    0.701040;    0.607754;    0.545707;    0.464292;    0.356553;    0.255307;    0.159259;    0.162864;    0.130575;    1.299712;    1.191483;    1.731090;    1.804859;    1.832225;    1.888469;    1.937844;    1.983444;    2.065131;    2.130042;    2.226647;    2.293828;    2.388943;    2.464427;    2.503280;    2.621640;    2.784123;    2.989947;    3.164058;    3.345651;    3.476905;    3.652073;    3.883537;    4.082814;    4.284578;    4.862761;    5.380833;    6.136464;    7.007228;    8.554088;    9.790073;   13.191062;   16.053111;   20.192370;   31.255503;   70.572656; 2396.723746;
33;    5.689134;    1.000802;    0.851878;    0.798281;    0.744698;    0.684809;    0.599679;    0.537965;    0.455902;    0.373555;    0.278603;    0.155106;    0.141931;    0.126440;    0.957684;    1.100481;    1.505677;    1.554480;    1.628155;    1.681272;    1.742030;    1.785277;    1.852553;    1.938383;    2.025822;    2.135803;    2.265051;    2.498905;    2.619787;    2.731840;    2.938832;    3.174288;    3.339828;    3.603435;    3.914883;    4.155589;    4.695015;    5.133300;    5.639010;    6.280902;    7.318746;    8.515539;    9.738777;   10.804047;   12.530978;   16.543138;   21.672690;   52.277234;   81.352269;  261.783674;17793.924657;
34;    4.331738;    1.023266;    0.873680;    0.826275;    0.773969;    0.693147;    0.615118;    0.548320;    0.468078;    0.367914;    0.267962;    0.159565;    0.158633;    0.130621;    0.639346;    1.257669;    1.459722;    1.514444;    1.551584;    1.581255;    1.670004;    1.771244;    1.835794;    1.878202;    1.930130;    1.999675;    2.072724;    2.166565;    2.272298;    2.368345;    2.536017;    2.653149;    2.844846;    3.095696;    3.353521;    3.522478;    3.852997;    3.976457;    4.353824;    4.781168;    5.066681;    5.887910;    6.780642;    8.169019;    9.411232;   12.122023;   14.657711;   19.803062;   51.440166;  165.132076;35767.696777;
35;    4.300227;    1.000542;    0.865554;    0.822972;    0.752843;    0.678399;    0.605523;    0.527736;    0.464397;    0.377297;    0.277887;    0.159374;    0.146247;    0.132504;    1.390196;    1.449606;    1.662132;    1.697336;    1.837413;    1.886229;    1.934606;    2.001806;    2.061414;    2.135996;    2.199215;    2.339107;    2.390945;    2.468617;    2.550229;    2.661783;    2.771241;    2.984203;    3.112783;    3.265769;    3.519774;    3.682944;    3.998028;    4.342716;    4.542077;    5.071968;    5.528865;    6.185935;    7.113341;    7.932036;    8.779125;   11.939567;   14.843782;   23.973336;   54.069302;  191.319701; 4150.412074;
36;    4.255961;    0.980018;    0.859457;    0.814165;    0.745304;    0.682040;    0.621856;    0.547157;    0.445585;    0.352455;    0.273571;    0.154572;    0.143691;    0.129610;    1.079864;    1.754218;    1.514510;    1.540815;    1.582604;    1.647077;    1.690544;    1.749530;    1.813014;    1.860701;    1.945008;    1.995295;    2.051941;    2.161057;    2.210672;    2.364719;    2.445887;    2.555010;    2.677404;    2.823996;    2.905033;    3.115513;    3.258865;    3.564854;    3.973398;    4.229854;    4.387061;    4.716227;    5.718068;    7.597807;    9.782755;   12.075197;   14.738750;   18.905330;   22.190289;  139.638672; 2625.562724;
37;    4.079684;    0.992441;    0.861035;    0.811985;    0.751265;    0.676400;    0.608955;    0.541165;    0.455109;    0.361225;    0.262196;    0.161015;    0.154907;    0.130848;    1.221445;    1.264375;    1.740368;    1.829285;    1.874357;    1.911037;    2.002091;    2.092641;    2.180478;    2.241894;    2.341371;    2.408895;    2.495494;    2.633765;    2.722674;    2.885985;    3.050202;    3.263462;    3.541582;    3.827296;    4.194596;    4.658858;    4.972081;    5.627242;    5.965882;    6.324857;    6.871036;    7.323284;    7.909636;   12.097592;   15.842383;   20.649341;   26.355400;   34.563465;   71.424691;  128.933472;831275.073850;
38;    4.939289;    0.995271;    0.854807;    0.801632;    0.737168;    0.679111;    0.610075;    0.527378;    0.453817;    0.354168;    0.251356;    0.157223;    0.157591;    0.129939;    0.749044;    1.197718;    1.558170;    1.594591;    1.647612;    1.713582;    1.737215;    1.811943;    1.906479;    2.001880;    2.128491;    2.185680;    2.240549;    2.289680;    2.393784;    2.567683;    2.721199;    2.997076;    3.238120;    3.685217;    3.876865;    4.205011;    4.678376;    5.052746;    5.546192;    5.965296;    6.561682;    7.121897;    7.656331;    8.578866;    9.734269;   11.443973;   15.836248;   22.746924;   48.845381;  303.523083;82130383627.694519;
39;    4.109232;    0.970408;    0.844995;    0.798146;    0.736091;    0.672454;    0.593634;    0.516189;    0.433961;    0.345157;    0.261207;    0.161459;    0.161084;    0.130298;    0.785016;    1.002722;    1.408493;    1.447302;    1.468237;    1.529040;    1.566806;    1.611293;    1.653716;    1.678923;    1.737500;    1.781893;    1.866418;    1.944802;    2.021607;    2.091332;    2.168101;    2.246318;    2.391238;    2.512121;    2.640838;    2.806351;    3.093360;    3.343236;    3.625749;    4.149358;    4.508220;    5.143001;    5.894664;    6.667665;    7.757403;    9.856863;   13.554082;   24.475419;   55.832720;  271.008708; 4223.486009;
40;    4.072598;    1.005078;    0.867649;    0.811251;    0.762504;    0.698239;    0.628232;    0.535848;    0.442813;    0.364743;    0.258108;    0.159706;    0.158352;    0.128121;    1.010912;    0.728012;    1.552874;    1.612993;    1.671546;    1.709423;    1.776657;    1.843502;    1.921333;    2.012943;    2.096376;    2.155074;    2.286626;    2.372128;    2.532486;    2.708517;    2.851420;    2.951603;    3.171338;    3.369271;    3.574471;    3.841164;    4.107517;    4.479626;    5.126243;    5.866427;    6.733161;    7.741121;    9.312967;   11.201036;   14.657523;   19.118933;   29.506370;   45.463219;   98.861701;  369.262755; 6680.716674;
41;    4.081942;    0.991757;    0.855028;    0.808592;    0.738581;    0.687669;    0.610896;    0.526190;    0.450636;    0.352820;    0.261251;    0.155310;    0.156832;    0.130322;    1.002142;    1.107453;    1.534031;    1.566401;    1.606624;    1.637866;    1.678773;    1.708333;    1.766122;    1.815794;    1.880990;    1.920955;    1.963668;    2.072134;    2.119752;    2.213417;    2.322727;    2.458016;    2.552645;    2.659223;    2.729836;    2.844433;    2.951580;    3.117602;    3.475966;    3.783805;    4.341532;    5.341283;    5.892665;    6.692719;    8.050877;    9.878750;   12.247474;   16.213870;   26.937542;   94.479546;93997.125152;
42;    4.104244;    1.017820;    0.863852;    0.808541;    0.759171;    0.699025;    0.629319;    0.534098;    0.457708;    0.360109;    0.266546;    0.158945;    0.149961;    0.131208;    1.025416;    1.762522;    1.603897;    1.642926;    1.690702;    1.743086;    1.828555;    1.876801;    1.961661;    2.010268;    2.105358;    2.231013;    2.345375;    2.447604;    2.524254;    2.581852;    2.689259;    2.813907;    2.973414;    3.145959;    3.227947;    3.525587;    3.928588;    4.230459;    4.552379;    4.794513;    5.167382;    5.659891;    6.613178;    8.504926;   10.154972;   13.742209;   21.248271;   32.724396;   59.503618;  122.210596; 5230.412309;
43;    4.124781;    1.011285;    0.867302;    0.810282;    0.765531;    0.690778;    0.623234;    0.557607;    0.470393;    0.372220;    0.265945;    0.155487;    0.151167;    0.125793;    1.387464;    0.962335;    1.945976;    2.001745;    2.062022;    2.131997;    2.229747;    2.266586;    2.370873;    2.422393;    2.531107;    2.577655;    2.661456;    2.806790;    3.022640;    3.100734;    3.255910;    3.454426;    3.644010;    3.868600;    4.085530;    4.461200;    4.739068;    5.101461;    5.611971;    5.979263;    6.481878;    7.120667;    8.018921;    8.768279;    9.528920;   10.683478;   12.349425;   16.476527;   22.791261;   44.961302; 9933.599216;
44;    4.102545;    1.006499;    0.870410;    0.818979;    0.781531;    0.714034;    0.628871;    0.553798;    0.470348;    0.365527;    0.255300;    0.156931;    0.157338;    0.133197;    0.947502;    1.133429;    1.502856;    1.532108;    1.590825;    1.657130;    1.733078;    1.806390;    1.876560;    1.957414;    2.041525;    2.105530;    2.162616;    2.269433;    2.366768;    2.421992;    2.589512;    2.715726;    2.859276;    3.028467;    3.270830;    3.544301;    3.765630;    4.115777;    4.516789;    4.819055;    5.639200;    6.643531;    7.107569;    7.908446;    8.771206;   10.079860;   12.498781;   20.363303;   25.361701;   48.509736; 3511.955574;
45;    4.057257;    0.987364;    0.850289;    0.791398;    0.727732;    0.670545;    0.614286;    0.546409;    0.458659;    0.354961;    0.268911;    0.159353;    0.157724;    0.130192;    0.654762;    0.728699;    1.595918;    1.632406;    1.661082;    1.678038;    1.730262;    1.821938;    1.877992;    1.941123;    2.009049;    2.077257;    2.140334;    2.212986;    2.269367;    2.355892;    2.472026;    2.604803;    2.785272;    2.946941;    3.127035;    3.196164;    3.404066;    3.643657;    4.091467;    4.582860;    5.145903;    5.696271;    6.559425;    7.290836;    8.084843;    8.912260;   11.347741;   15.406918;   24.435124;   76.092303;31658.887503;
46;    4.085642;    1.011419;    0.865283;    0.801141;    0.751774;    0.697850;    0.616149;    0.545433;    0.463773;    0.356693;    0.258174;    0.153475;    0.151075;    0.127284;    0.842380;    0.650415;    1.403949;    1.447110;    1.473468;    1.543057;    1.600797;    1.626160;    1.677409;    1.743381;    1.787450;    1.933113;    2.009323;    2.130545;    2.223952;    2.439302;    2.633306;    2.900725;    3.180100;    3.450945;    3.649821;    3.997534;    4.390920;    4.797144;    5.182330;    6.753410;    7.793694;    8.886928;   10.948202;   13.304432;   17.597354;   26.456714;   42.866896;   51.364437;   68.269505;  156.287795; 1415.752689;
47;    4.241209;    1.023251;    0.876719;    0.816484;    0.771732;    0.719024;    0.646112;    0.553007;    0.473637;    0.371249;    0.278113;    0.160531;    0.157325;    0.132872;    1.050685;    1.335567;    1.880580;    1.938672;    2.051041;    2.075372;    2.177304;    2.269781;    2.334180;    2.430084;    2.485080;    2.589494;    2.677138;    2.803024;    3.007732;    3.179516;    3.400302;    3.576315;    3.797734;    3.956660;    4.164944;    4.462138;    4.650530;    4.933101;    5.193453;    5.489879;    5.915709;    6.475267;    6.951695;    7.637728;    8.315377;    9.787570;   11.470203;   14.211063;   17.441541;   32.652633; 3040.205653;
48;    4.042726;    0.997452;    0.867215;    0.814129;    0.746327;    0.689773;    0.614933;    0.546794;    0.450265;    0.360815;    0.268329;    0.161675;    0.159085;    0.130167;    0.885402;    1.296782;    1.238553;    1.315676;    1.375799;    1.405947;    1.451224;    1.522217;    1.581789;    1.616685;    1.675204;    1.718529;    1.754771;    1.789947;    1.848531;    1.889240;    1.952638;    2.030186;    2.136910;    2.197115;    2.315643;    2.435214;    2.548157;    2.689128;    3.019106;    3.428238;    3.903027;    4.241291;    4.639042;    5.136573;    5.918628;    7.134274;    8.959113;   13.491915;   68.126491;  200.658043;15578.783318;
49;    4.714215;    0.995789;    0.861172;    0.807797;    0.749756;    0.664488;    0.601404;    0.542980;    0.457715;    0.381615;    0.274548;    0.164101;    0.149303;    0.131646;    1.574329;    2.040930;    2.341141;    2.505373;    2.576226;    2.727744;    2.928540;    3.004017;    3.057768;    3.132946;    3.305389;    3.459126;    3.633700;    3.799769;    3.982856;    4.223051;    4.443049;    4.724351;    5.139080;    5.488060;    6.227328;    6.686339;    7.133523;    7.783524;    9.550916;   10.499584;   12.048794;   13.153625;   15.330153;   17.393508;   19.179215;   23.778301;   31.593317;   41.098421;   63.671146;  300.926333;714291.310126;
50;    4.225876;    1.000128;    0.857056;    0.808213;    0.747942;    0.691405;    0.606250;    0.544001;    0.460848;    0.353448;    0.274323;    0.163719;    0.146037;    0.128120;    0.767764;    0.638026;    1.615645;    1.753032;    1.809368;    1.901015;    1.947167;    2.008019;    2.049556;    2.107730;    2.188962;    2.236029;    2.294028;    2.382903;    2.489138;    2.616863;    2.810222;    3.062295;    3.174517;    3.417671;    3.579094;    3.803576;    4.044032;    4.334790;    4.991435;    5.464451;    6.118540;    6.846517;    7.679234;    8.976198;   11.373298;   13.096230;   16.004383;   20.877985;   58.286090;  319.094245;111804.407874;
51;    4.301651;    1.032993;    0.887030;    0.837048;    0.761386;    0.706280;    0.631271;    0.564053;    0.482498;    0.374168;    0.274570;    0.158451;    0.143349;    0.128137;    0.730304;    1.069955;    1.690630;    1.724054;    1.773450;    1.830364;    1.879161;    1.932506;    1.975318;    2.013990;    2.092927;    2.178989;    2.247560;    2.310556;    2.378118;    2.520305;    2.620547;    2.816178;    3.049782;    3.328365;    3.601755;    3.964807;    4.265244;    4.649501;    5.293157;    6.046968;    6.737479;    7.466387;    8.981875;   10.559695;   12.664667;   15.275072;   22.948812;   31.794386;   49.305658;  120.470922;41823.490526;
52;    6.327068;    0.994568;    0.856775;    0.808476;    0.740450;    0.689380;    0.612876;    0.529761;    0.436391;    0.352200;    0.248898;    0.157417;    0.154634;    0.130217;    0.598078;    0.941828;    1.416611;    1.479330;    1.538207;    1.575199;    1.655775;    1.709572;    1.763585;    1.835801;    1.910658;    1.970221;    2.062577;    2.231091;    2.361483;    2.493037;    2.692291;    2.869191;    3.167023;    3.594833;    3.870350;    4.098112;    4.317564;    4.527257;    4.757599;    4.970932;    5.272773;    5.714177;    6.162590;    6.706888;    7.461424;    8.338124;    9.694722;   12.547722;   20.305162;   66.627926; 3787.798425;
53;    4.753904;    0.989188;    0.871738;    0.811098;    0.767922;    0.697325;    0.619013;    0.550610;    0.471867;    0.370221;    0.280506;    0.158213;    0.154780;    0.128388;    0.975027;    1.059483;    1.353844;    1.377206;    1.430315;    1.463438;    1.508333;    1.542535;    1.625606;    1.678066;    1.717321;    1.772916;    1.871869;    1.927458;    2.003649;    2.098714;    2.203019;    2.296975;    2.442240;    2.542463;    2.699948;    2.885674;    3.035793;    3.194659;    3.503385;    3.778931;    4.551360;    5.245243;    6.132431;    7.033638;    7.785671;    9.061809;   12.929953;   17.175391;   22.657599;   42.936098; 2443.520049;
54;    4.428279;    1.012217;    0.870332;    0.805614;    0.754451;    0.692949;    0.632180;    0.562085;    0.472731;    0.360650;    0.255643;    0.154524;    0.148435;    0.125720;    0.856602;    0.922005;    1.179357;    1.224856;    1.254345;    1.284020;    1.323109;    1.339850;    1.360150;    1.405214;    1.446414;    1.517456;    1.574872;    1.615818;    1.664871;    1.723150;    1.819558;    1.945052;    2.129784;    2.344157;    2.533894;    2.772941;    2.988403;    3.234233;    3.418642;    3.732835;    4.059481;    4.653102;    5.325876;    5.994409;    6.886470;    9.114055;   12.092713;   17.263907;   26.512762;   69.706172;4797091.418312;
55;    4.270022;    0.984870;    0.843238;    0.798744;    0.749727;    0.685573;    0.608147;    0.537187;    0.468740;    0.376185;    0.268669;    0.161776;    0.161125;    0.128515;    0.792991;    0.700291;    1.425243;    1.461097;    1.498508;    1.557007;    1.669101;    1.760625;    1.825477;    1.947021;    2.059312;    2.196071;    2.305087;    2.447457;    2.623104;    2.768002;    2.905385;    2.982381;    3.069585;    3.246042;    3.426552;    3.557124;    3.739336;    4.066817;    4.561477;    4.980463;    5.673907;    6.370988;    7.124852;    8.416011;   10.810685;   18.672761;   38.879574;   73.813760;  154.880139;  308.255916;864670.298103;
56;    4.741536;    0.992420;    0.851802;    0.797040;    0.730572;    0.664842;    0.590620;    0.517912;    0.431659;    0.352580;    0.260407;    0.163841;    0.148414;    0.130959;    1.548059;    1.450477;    1.867627;    1.983957;    2.021950;    2.076797;    2.097944;    2.129153;    2.183132;    2.280766;    2.328553;    2.402271;    2.496486;    2.605084;    2.673092;    2.781056;    2.999849;    3.288307;    3.454948;    3.811263;    4.062402;    4.272387;    4.671511;    5.091281;    5.665618;    6.284995;    7.968562;    8.617745;   10.053886;   11.448980;   14.276339;   17.197333;   22.342142;   27.029524;   34.196279;  103.799949;529827.216395;
57;    5.492988;    1.015872;    0.876309;    0.824100;    0.757958;    0.700120;    0.617341;    0.540577;    0.457444;    0.359710;    0.270039;    0.159521;    0.158714;    0.130511;    0.729811;    1.077072;    1.726293;    1.756796;    1.771439;    1.817854;    1.884632;    1.942317;    2.023723;    2.160658;    2.295385;    2.379364;    2.444214;    2.545820;    2.639109;    2.702820;    2.850545;    2.975442;    3.155691;    3.367076;    3.551234;    3.722773;    3.939754;    4.240679;    4.572902;    4.802877;    5.116020;    5.837357;    7.405511;    8.631014;   10.347680;   13.445924;   16.207863;   20.693525;   26.300656;  125.969767;424253.466980;
58;    4.796794;    1.006938;    0.866539;    0.808947;    0.746022;    0.689168;    0.611221;    0.549145;    0.460669;    0.368367;    0.272395;    0.159224;    0.154063;    0.132686;    0.726125;    1.277714;    1.678888;    1.706816;    1.755172;    1.804058;    1.856180;    1.898333;    1.939424;    1.999480;    2.075511;    2.185071;    2.289201;    2.339079;    2.463516;    2.536360;    2.609562;    2.711155;    2.800240;    2.976225;    3.153541;    3.320477;    3.493103;    3.644143;    3.850677;    4.045752;    4.234678;    4.501607;    4.849080;    5.620215;    6.261052;    7.465810;    9.372191;   13.874017;   21.611321;   34.943319;  958.651996;
59;    4.482002;    0.995897;    0.864475;    0.803915;    0.739362;    0.685412;    0.618621;    0.526014;    0.440985;    0.362337;    0.279827;    0.159430;    0.142220;    0.127284;    0.767941;    0.703274;    1.500868;    1.533075;    1.581115;    1.625057;    1.680862;    1.777186;    1.840219;    1.889910;    2.002971;    2.106826;    2.203601;    2.323688;    2.405956;    2.577451;    2.689171;    2.874898;    2.973579;    3.175676;    3.404123;    3.701206;    3.996486;    4.277991;    4.662218;    5.215169;    5.959650;    6.853907;    8.186465;   10.432182;   13.791238;   27.800669;   35.164699;   50.653957;   79.121761;  429.759059;31024.721547;
60;    4.399951;    1.003854;    0.866104;    0.815800;    0.759015;    0.694870;    0.633021;    0.555760;    0.455054;    0.354121;    0.258005;    0.159707;    0.159370;    0.131088;    1.122388;    1.210507;    1.463785;    1.506975;    1.527353;    1.569619;    1.601956;    1.633747;    1.683320;    1.744272;    1.797511;    1.844169;    1.904496;    1.996092;    2.094509;    2.157680;    2.248408;    2.389708;    2.480939;    2.616816;    2.797700;    2.879440;    3.061378;    3.227170;    3.452471;    3.879816;    4.537862;    5.166508;    5.882736;    6.680544;    7.655649;    8.748447;   10.088763;   13.244797;   19.934814;   49.649855; 8024.242320;
61;    4.765674;    0.994008;    0.858197;    0.804050;    0.755219;    0.697569;    0.614791;    0.549413;    0.466867;    0.375761;    0.268401;    0.160937;    0.147888;    0.134189;    1.133420;    0.807584;    1.697117;    1.800671;    1.956385;    2.013239;    2.074408;    2.125252;    2.163952;    2.235179;    2.321380;    2.393462;    2.501930;    2.629043;    2.764582;    2.884957;    3.050195;    3.282401;    3.450304;    3.679413;    3.884583;    4.222078;    4.456397;    4.707386;    5.014006;    5.385184;    5.758560;    6.306973;    6.710525;    7.535750;    8.629221;   12.264596;   17.799286;   35.278505;   62.538080;  167.792410;11845.546459;
62;    6.135680;    0.991427;    0.853145;    0.803606;    0.745321;    0.672633;    0.597913;    0.535789;    0.444910;    0.349843;    0.259440;    0.159115;    0.161552;    0.130383;    1.399893;    1.353261;    1.605877;    1.644622;    1.684126;    1.724789;    1.764910;    1.811832;    1.850900;    1.911624;    1.960626;    2.089888;    2.184205;    2.330061;    2.504431;    2.608325;    2.737688;    2.899219;    3.091833;    3.417413;    3.649168;    3.912623;    4.144746;    4.345339;    4.760637;    5.358670;    6.005966;    6.838013;    7.746320;    9.267380;   11.256721;   13.979024;   16.591248;   18.875204;   77.984287;  404.983558;105275.244416;
63;    6.748525;    1.000351;    0.852744;    0.799407;    0.731152;    0.671326;    0.597205;    0.538876;    0.465065;    0.385063;    0.281713;    0.163781;    0.160300;    0.130558;    1.079304;    1.341845;    1.642309;    1.727937;    1.786334;    1.854175;    1.904744;    1.971003;    2.029115;    2.076851;    2.154733;    2.202630;    2.288468;    2.370090;    2.466207;    2.722492;    2.898530;    3.003915;    3.122446;    3.201544;    3.348647;    3.555856;    3.704716;    3.852319;    3.994651;    4.176702;    4.504726;    4.940812;    5.496588;    6.188422;    7.002472;    8.069102;    8.816672;   10.200911;   21.717307;   78.328815;146156.986553;
64;    4.315504;    1.004934;    0.865686;    0.823622;    0.754575;    0.699292;    0.629893;    0.563892;    0.476946;    0.380955;    0.269108;    0.161543;    0.160732;    0.133149;    1.642268;    2.242844;    1.686974;    2.187302;    2.292397;    2.353563;    2.377924;    2.404642;    2.443961;    2.518969;    2.583014;    2.664659;    2.720084;    2.784633;    2.927081;    3.063201;    3.180342;    3.331293;    3.630723;    3.936401;    4.249689;    4.608738;    4.996211;    5.303255;    5.922899;    6.384365;    7.560252;    8.963588;    9.998090;   11.446000;   12.649764;   14.840089;   17.210539;   22.161267;   36.668844;  161.172245; 9744.043774;
65;    4.233481;    0.973706;    0.845729;    0.790023;    0.742019;    0.677043;    0.615721;    0.522493;    0.439175;    0.354421;    0.253578;    0.158800;    0.145461;    0.128966;    1.473350;    1.595721;    1.808702;    1.854383;    1.890769;    1.921798;    1.959275;    1.994488;    2.076082;    2.125374;    2.177145;    2.220815;    2.276788;    2.337141;    2.427073;    2.520775;    2.632385;    2.750631;    3.019255;    3.174553;    3.315112;    3.576826;    3.748078;    4.138432;    4.366603;    4.913723;    6.023714;    7.119119;    8.116146;   10.191719;   12.251267;   16.648323;   23.551033;   28.607835;   51.837656;  247.147099;37259.676337;
66;    6.114312;    1.002691;    0.869053;    0.821472;    0.764692;    0.696556;    0.623974;    0.560399;    0.467507;    0.363084;    0.275897;    0.161653;    0.163060;    0.130639;    1.111525;    1.282392;    1.532347;    1.577904;    1.625951;    1.698319;    1.778106;    1.838932;    1.945040;    2.023797;    2.134104;    2.225970;    2.306735;    2.373528;    2.420549;    2.657387;    2.830203;    3.004945;    3.197817;    3.525450;    3.772341;    4.077771;    4.385294;    5.138586;    5.606885;    6.023643;    6.514611;    7.101909;    7.781462;   10.356814;   12.302445;   19.818492;   26.070998;   35.277606;   73.147763;  589.581507;67322.930254;
67;    4.293778;    0.992625;    0.862000;    0.799556;    0.748212;    0.686966;    0.613199;    0.513169;    0.440986;    0.351990;    0.266295;    0.159475;    0.153943;    0.133929;    0.980170;    1.141793;    1.772765;    1.849040;    1.904923;    1.930820;    1.981999;    2.039820;    2.102558;    2.144682;    2.218864;    2.277516;    2.344836;    2.419988;    2.597637;    2.704596;    2.930755;    3.084226;    3.307992;    3.505768;    3.617485;    3.766307;    4.127977;    4.602891;    5.083580;    5.439983;    6.225082;    7.400543;    8.290666;    9.948108;   12.907966;   21.181206;   35.232719;   65.469813;  107.775938;  763.985061;10972.514642;
68;    4.311125;    1.001920;    0.864437;    0.812151;    0.741624;    0.683064;    0.613586;    0.554237;    0.453729;    0.374820;    0.266206;    0.160464;    0.151358;    0.130440;    1.352793;    1.453057;    1.761296;    1.803848;    1.857642;    1.938911;    2.030136;    2.110767;    2.176440;    2.272251;    2.380975;    2.439868;    2.519678;    2.697975;    2.836028;    3.009239;    3.275565;    3.421690;    3.693511;    3.967590;    4.360151;    4.735777;    5.078836;    5.313272;    5.697331;    6.161556;    6.678076;    7.568068;    8.827573;    9.945102;   11.754548;   13.869423;   18.073262;   22.734830;   34.019074;  128.510840;33157.112839;
69;    4.493364;    0.989192;    0.863508;    0.808612;    0.758523;    0.700226;    0.647716;    0.576523;    0.488290;    0.382313;    0.269181;    0.163743;    0.162706;    0.134765;    1.190855;    1.195202;    1.785765;    1.840512;    1.939480;    1.980647;    2.093141;    2.144867;    2.205484;    2.269461;    2.399890;    2.486053;    2.575514;    2.686766;    2.772137;    2.868260;    2.986972;    3.164522;    3.386131;    3.669318;    3.910313;    4.131486;    4.324390;    4.713971;    5.081206;    5.700963;    6.263804;    7.024793;    8.160736;    9.602532;   13.958829;   27.450379;   37.171353;   50.245715;   94.913030;  189.292852; 3146.470626;
70;    4.029498;    1.014489;    0.876532;    0.817030;    0.769338;    0.698533;    0.616397;    0.531976;    0.456540;    0.350780;    0.255544;    0.156904;    0.146588;    0.132677;    0.717063;    0.761329;    1.651679;    1.689688;    1.752158;    1.809753;    1.911018;    1.970141;    2.045332;    2.146068;    2.246706;    2.322247;    2.377382;    2.503764;    2.623170;    2.769135;    2.958447;    3.079898;    3.221105;    3.477813;    3.710784;    3.852605;    4.088207;    4.393255;    4.732846;    4.981214;    5.575470;    6.440834;    8.591768;   10.384464;   12.116647;   15.752510;   19.600785;   45.881997;   66.424100;  229.439389;83506.773968;
71;    4.018567;    1.003452;    0.863241;    0.807241;    0.745416;    0.689216;    0.618066;    0.540238;    0.468090;    0.362348;    0.255024;    0.159087;    0.154054;    0.132011;    1.167857;    1.355435;    1.742078;    1.813257;    1.863556;    1.889795;    1.967017;    2.032310;    2.067825;    2.155929;    2.230096;    2.344543;    2.399763;    2.461015;    2.542101;    2.646301;    2.800761;    3.017811;    3.147693;    3.240055;    3.559411;    3.661647;    3.800285;    4.041312;    4.354146;    4.994868;    5.524903;    6.270775;    7.403770;    9.035043;   11.090055;   13.044450;   21.563132;   31.523492;   40.547764;  150.540893;144760.618377;
72;    4.020458;    1.008648;    0.865516;    0.822551;    0.768069;    0.699114;    0.632201;    0.549256;    0.467250;    0.360952;    0.278011;    0.157004;    0.155441;    0.130253;    1.028693;    1.080670;    1.373764;    1.402553;    1.445809;    1.480502;    1.505105;    1.532208;    1.613323;    1.663361;    1.716222;    1.795523;    1.843324;    1.910755;    2.018936;    2.139652;    2.267974;    2.389524;    2.519108;    2.603704;    2.726776;    2.855100;    2.935133;    3.191486;    3.429944;    3.693396;    4.093800;    4.357200;    4.998757;    5.731337;    7.671673;   10.255714;   15.949183;   32.788823;   98.350095;  211.049496; 9743.029465;
73;    4.021058;    1.034357;    0.887716;    0.842073;    0.770289;    0.710582;    0.657000;    0.578721;    0.472229;    0.380491;    0.264716;    0.165701;    0.156312;    0.130835;    1.262806;    1.710419;    1.806186;    1.850350;    1.879270;    1.954403;    2.028459;    2.056719;    2.114736;    2.164640;    2.243003;    2.319312;    2.388155;    2.479715;    2.542634;    2.674970;    2.859165;    3.000474;    3.236301;    3.434841;    3.556906;    3.687869;    3.836327;    4.158189;    4.453120;    4.712914;    5.106679;    5.528558;    6.273034;    7.155283;    8.242429;    9.825971;   13.362839;   16.747226;   32.835294;  120.427344;11566.770683;
74;    4.020212;    1.007019;    0.857598;    0.800309;    0.757095;    0.691059;    0.611020;    0.535553;    0.456772;    0.359262;    0.260682;    0.160154;    0.158950;    0.132232;    1.093557;    1.168714;    2.189095;    2.421894;    2.544632;    2.650653;    2.779280;    2.924570;    3.000209;    3.192843;    3.375661;    3.582763;    3.809452;    4.011805;    4.345702;    4.715783;    5.052673;    5.448066;    5.776458;    6.375959;    6.955715;    7.208900;    7.941858;    8.462193;    9.184684;   10.502377;   11.849273;   13.408450;   15.806867;   18.426422;   21.925482;   27.908419;   40.160108;   61.210916;  129.924571;  258.950759;33542.699118;
75;    4.009309;    0.989474;    0.851406;    0.794566;    0.741643;    0.684853;    0.623668;    0.537347;    0.442085;    0.353569;    0.258580;    0.154031;    0.152417;    0.125064;    0.846888;    0.982626;    1.372331;    1.408884;    1.465112;    1.551275;    1.633030;    1.696391;    1.843011;    1.935678;    1.978485;    2.054503;    2.132556;    2.273705;    2.401518;    2.484246;    2.614534;    2.705346;    2.829493;    3.023400;    3.189060;    3.376747;    3.574861;    3.745280;    3.910774;    4.212119;    4.878391;    5.311055;    5.743495;    6.461657;    7.484974;    8.811586;   12.181120;   19.873876;   40.239742;  120.251601;10232.599056;
76;    4.018907;    1.009379;    0.861884;    0.818336;    0.746524;    0.689926;    0.603033;    0.539488;    0.444922;    0.371508;    0.268548;    0.156930;    0.148093;    0.130467;    1.069419;    0.843091;    1.465481;    1.490029;    1.533873;    1.597850;    1.645905;    1.704531;    1.754461;    1.835351;    1.898861;    1.984379;    2.037144;    2.186983;    2.320873;    2.418395;    2.527301;    2.612467;    2.723776;    2.858364;    2.967672;    3.125004;    3.328620;    3.592136;    3.813789;    4.132649;    4.362443;    4.828570;    5.378548;    6.027444;    6.750599;    7.890953;   10.692249;   15.153704;   37.433565;  187.660763;163178.354345;
77;    4.003948;    0.971011;    0.837847;    0.779827;    0.729231;    0.668639;    0.603809;    0.526351;    0.438786;    0.361696;    0.256202;    0.157392;    0.158095;    0.127970;    0.828315;    1.201846;    1.491146;    1.518229;    1.541965;    1.565476;    1.593410;    1.632856;    1.683877;    1.767313;    1.859068;    2.005004;    2.083269;    2.161821;    2.237217;    2.368081;    2.477712;    2.582121;    2.726850;    2.850657;    3.040840;    3.237800;    3.437757;    3.636778;    3.821986;    4.167582;    4.400091;    4.714771;    5.047595;    5.646178;    7.252090;   10.907819;   13.699052;   19.242780;   45.908126;  143.773515; 5998.805708;
78;    4.007922;    0.987733;    0.859844;    0.801898;    0.747716;    0.680382;    0.609744;    0.525851;    0.436750;    0.346100;    0.265885;    0.160860;    0.161561;    0.131203;    1.289460;    1.115551;    1.495579;    1.537839;    1.613112;    1.669491;    1.740701;    1.810194;    1.850130;    1.917987;    1.988422;    2.073173;    2.117252;    2.225195;    2.294984;    2.416944;    2.603458;    2.714399;    2.832397;    3.018664;    3.190148;    3.519909;    3.879371;    4.255673;    4.614438;    5.014085;    5.361158;    6.187238;    6.848499;    7.822192;    9.270702;   12.763010;   15.413115;   22.393916;   28.245594;  136.545439;136831.781282;
79;    4.004716;    1.006147;    0.868761;    0.804180;    0.747749;    0.694821;    0.606746;    0.529146;    0.463796;    0.372018;    0.253800;    0.155651;    0.153228;    0.128668;    0.530609;    1.064410;    1.478661;    1.512194;    1.531549;    1.570492;    1.622570;    1.690547;    1.776172;    1.821421;    1.911015;    2.010329;    2.117150;    2.291821;    2.397389;    2.565899;    2.699171;    2.861609;    3.043517;    3.316529;    3.595460;    3.793328;    4.110017;    4.472142;    4.863808;    5.347775;    5.926506;    6.475370;    6.922991;    8.157188;    9.112899;   11.105907;   12.447830;   14.478070;   21.007281;   39.363127;31144.843286;
80;    4.016248;    0.984268;    0.842885;    0.804499;    0.746553;    0.680632;    0.604459;    0.519744;    0.450381;    0.356520;    0.255743;    0.153424;    0.151703;    0.125131;    0.891688;    1.070072;    1.445041;    1.478044;    1.536063;    1.624335;    1.702318;    1.799011;    1.865989;    1.948570;    2.027354;    2.139833;    2.226470;    2.385650;    2.601824;    2.776089;    2.920442;    3.092022;    3.201804;    3.460174;    3.625349;    4.029616;    4.507333;    4.901732;    5.630182;    6.155779;    6.748064;    7.546612;    8.304655;    9.602569;   11.219177;   14.809583;   25.124718;   39.246265;   82.576140;  175.595606;1608891.521183;
81;    4.010006;    0.986472;    0.851002;    0.799583;    0.735307;    0.674327;    0.610085;    0.549251;    0.471986;    0.377159;    0.263637;    0.157288;    0.144490;    0.129933;    1.097003;    1.329346;    1.648302;    1.681697;    1.712863;    1.760018;    1.809198;    1.859328;    1.937004;    2.013333;    2.081370;    2.180808;    2.318722;    2.403968;    2.474990;    2.647924;    2.774320;    2.890363;    2.967384;    3.146435;    3.241540;    3.392181;    3.570281;    3.841322;    4.347995;    4.724536;    5.033873;    5.480750;    6.128063;    7.174394;    8.360445;    9.804388;   12.968990;   16.717295;   24.325475;   61.804981;71082.041683;
82;    4.010803;    0.982170;    0.845326;    0.803676;    0.746888;    0.689548;    0.626803;    0.557867;    0.467825;    0.366535;    0.261743;    0.155931;    0.154095;    0.127447;    1.246536;    1.730016;    1.682834;    1.780580;    1.850655;    1.906014;    1.937434;    1.995347;    2.048203;    2.104662;    2.199938;    2.253118;    2.357957;    2.470925;    2.591536;    2.753166;    2.882968;    2.993432;    3.155736;    3.258367;    3.552909;    3.817218;    3.988627;    4.317491;    4.776420;    5.417188;    6.074176;    6.669169;    7.635115;    8.582186;    9.586392;   10.985205;   12.249830;   15.207030;   21.655168;   63.351240;75649.550232;
83;    4.039631;    0.971835;    0.845188;    0.787262;    0.729947;    0.678815;    0.618953;    0.546278;    0.471200;    0.370479;    0.269945;    0.160094;    0.146683;    0.131765;    1.425122;    1.309217;    2.174540;    2.199927;    2.246336;    2.302107;    2.422206;    2.487250;    2.623642;    2.740759;    2.896365;    3.019819;    3.193662;    3.319404;    3.430970;    3.660486;    3.857842;    4.060695;    4.448301;    4.837266;    5.161923;    5.559863;    5.864286;    6.223330;    6.569111;    7.056771;    7.551057;    8.100641;    8.866937;   10.043801;   11.913693;   14.251627;   24.101638;   45.633691;   58.973491;  300.117984;39058.569818;
84;    4.010143;    0.993669;    0.871897;    0.820279;    0.759876;    0.691312;    0.614983;    0.548740;    0.467005;    0.356966;    0.266085;    0.158846;    0.156540;    0.133165;    1.627491;    1.706883;    1.963124;    1.998386;    2.078888;    2.160425;    2.257845;    2.323382;    2.380732;    2.421131;    2.494060;    2.561523;    2.668942;    2.766438;    2.952167;    3.219041;    3.444008;    3.658064;    3.849958;    4.046011;    4.254003;    4.618557;    4.918530;    6.186449;    7.409346;    8.580905;    9.930551;   12.588406;   14.685386;   17.110901;   21.298839;   34.355245;   52.569956;   79.900574;  188.211986;  333.849887;13996.843844;
85;    4.019866;    1.005742;    0.876182;    0.829440;    0.769816;    0.703416;    0.633098;    0.554099;    0.479301;    0.379402;    0.281314;    0.161104;    0.154809;    0.130698;    1.205962;    1.490084;    1.772437;    1.798873;    1.831188;    1.934306;    1.995856;    2.087971;    2.176791;    2.308169;    2.459849;    2.568261;    2.677650;    2.757292;    2.893096;    3.040877;    3.120344;    3.240624;    3.424769;    3.642208;    3.876935;    4.178981;    4.488469;    5.182287;    5.715922;    6.224883;    6.960801;    7.680781;    8.344180;    9.337662;   11.173394;   14.011083;   18.354352;   30.935258;   66.525254;  224.062599; 1572.128932;
86;    4.011509;    1.004983;    0.855006;    0.799903;    0.744107;    0.676246;    0.607245;    0.534838;    0.451071;    0.370618;    0.272825;    0.159839;    0.159605;    0.129840;    1.202860;    0.954645;    1.608632;    1.651789;    1.712468;    1.781848;    1.838444;    1.914337;    1.961925;    2.008377;    2.072509;    2.170053;    2.301084;    2.393945;    2.479977;    2.576359;    2.719785;    2.884799;    2.984344;    3.118413;    3.243099;    3.425235;    3.604604;    3.803694;    4.039716;    4.387306;    4.836742;    5.738221;    6.778287;    7.846890;    9.048782;   10.541388;   12.978261;   19.076305;   34.765170;   67.844608; 3826.603920;
87;    4.036118;    1.000941;    0.858344;    0.809638;    0.738690;    0.677024;    0.602485;    0.539462;    0.439945;    0.355278;    0.272812;    0.162415;    0.154348;    0.129834;    1.310287;    2.227590;    1.718289;    1.748426;    1.786630;    1.857667;    1.917501;    1.955054;    2.040238;    2.141305;    2.248509;    2.304544;    2.370834;    2.470971;    2.564655;    2.763943;    2.894230;    3.031877;    3.166682;    3.405558;    3.653487;    3.991442;    4.354024;    4.671716;    5.077665;    5.416198;    5.899200;    6.425035;    7.385117;    8.077179;    9.195214;   11.563931;   14.927433;   18.181767;   24.358986;   44.802261; 5594.339999;
88;    4.098075;    1.013746;    0.866146;    0.812973;    0.766103;    0.695299;    0.643208;    0.575101;    0.486931;    0.387673;    0.263482;    0.158621;    0.149873;    0.126541;    1.077563;    1.102314;    1.495532;    1.562177;    1.615443;    1.733562;    1.835484;    1.918517;    1.961367;    2.081065;    2.136625;    2.241261;    2.329316;    2.444554;    2.506795;    2.633037;    2.765975;    2.918723;    3.107463;    3.335514;    3.580842;    3.871446;    4.256503;    4.765251;    5.221800;    5.834261;    6.760402;    7.261907;    8.134132;    9.532465;   10.865277;   12.958076;   14.463347;   17.738637;   23.469513;   50.170946;  610.881650;
89;    3.992853;    1.010275;    0.871443;    0.827148;    0.759302;    0.704343;    0.625107;    0.535809;    0.457109;    0.342870;    0.260229;    0.156170;    0.154558;    0.130009;    0.707591;    0.914345;    1.680898;    1.708569;    1.730727;    1.762663;    1.822262;    1.859622;    1.903459;    1.961904;    2.016240;    2.076754;    2.155681;    2.220562;    2.288667;    2.443379;    2.571129;    2.724698;    2.845158;    3.036168;    3.216867;    3.361386;    3.632511;    3.978820;    4.482700;    4.870068;    6.089461;    8.170351;    9.489589;   11.486278;   13.758055;   19.613174;   26.004120;   31.689592;   56.210265;  130.483277; 2107.352690;
90;    4.070526;    0.997290;    0.864873;    0.809030;    0.748261;    0.699225;    0.622633;    0.564059;    0.465383;    0.375642;    0.277576;    0.162560;    0.162831;    0.130414;    1.202780;    1.279117;    1.674072;    1.713953;    1.735322;    1.780432;    1.819550;    1.874042;    1.938203;    1.995934;    2.043040;    2.126931;    2.181797;    2.251018;    2.309859;    2.361093;    2.461712;    2.646673;    2.764569;    2.917291;    3.096911;    3.300427;    3.581107;    3.812772;    4.038247;    4.579818;    5.001259;    5.820568;    7.527572;    9.091974;   10.979933;   13.475122;   16.833933;   21.265836;   27.744962;   87.639787;4422451.836381;
91;    4.188949;    1.008230;    0.865165;    0.825452;    0.758754;    0.682053;    0.622262;    0.538952;    0.458121;    0.359732;    0.267135;    0.156163;    0.154751;    0.127785;    0.793198;    0.880851;    1.431819;    1.472539;    1.508863;    1.554260;    1.604232;    1.661855;    1.700180;    1.733489;    1.795523;    1.864771;    1.910755;    1.999309;    2.137196;    2.247405;    2.359010;    2.429301;    2.545194;    2.692305;    2.812802;    3.019723;    3.431307;    3.809468;    4.233350;    4.699592;    5.200301;    6.579237;    8.870833;   11.645237;   15.197385;   19.809941;   30.808669;   46.491711;  102.791929;  248.170934;20858.835050;
92;    4.258249;    0.990858;    0.854283;    0.795071;    0.746026;    0.683031;    0.601723;    0.526798;    0.444315;    0.368856;    0.264666;    0.159087;    0.157942;    0.130256;    1.062073;    1.277892;    1.539828;    1.630063;    1.747394;    1.822632;    1.854964;    1.893777;    1.933811;    1.986077;    2.028381;    2.103054;    2.163672;    2.227865;    2.290291;    2.358355;    2.493970;    2.671648;    2.872117;    3.048522;    3.138444;    3.270558;    3.395747;    3.601781;    3.753049;    4.092383;    4.463138;    4.828262;    5.711324;    6.386323;    7.452740;    8.619265;   12.489521;   19.390693;   25.568803;   59.467811; 8710.105590;
93;    5.576674;    1.005045;    0.869569;    0.822744;    0.763217;    0.703495;    0.644176;    0.557866;    0.470380;    0.373160;    0.271004;    0.160942;    0.152490;    0.132456;    0.747190;    0.806018;    1.750309;    1.795917;    1.850590;    1.907707;    1.965760;    2.025796;    2.091236;    2.179460;    2.283817;    2.395918;    2.516743;    2.686292;    2.819456;    2.978759;    3.135043;    3.397663;    3.594788;    3.796427;    3.978537;    4.291337;    4.718220;    5.241542;    5.709659;    6.424346;    7.038473;    7.697474;    9.064237;    9.927644;   11.919794;   15.781501;   22.937570;   31.556951;   51.305601;  198.965123;363013.522809;
94;    4.238462;    1.003903;    0.865710;    0.817612;    0.743710;    0.679363;    0.613232;    0.524964;    0.437600;    0.370453;    0.261336;    0.156702;    0.141798;    0.127307;    1.024008;    1.118854;    1.256976;    1.270930;    1.311438;    1.335950;    1.372499;    1.412350;    1.459233;    1.511854;    1.560561;    1.648661;    1.727705;    1.776297;    1.824798;    1.874286;    1.931786;    1.984447;    2.057904;    2.172060;    2.267296;    2.473207;    2.829353;    3.070818;    3.251653;    3.391216;    3.722199;    4.088288;    4.515986;    5.057151;    5.430591;    6.042979;    7.598605;   10.962974;   29.307706;   97.260362; 5987.749577;
95;    4.059597;    1.013349;    0.869775;    0.815377;    0.763298;    0.697662;    0.638150;    0.554117;    0.468023;    0.385268;    0.266715;    0.160324;    0.155323;    0.131236;    1.085917;    1.374546;    1.847160;    1.874286;    1.926627;    1.993406;    2.048420;    2.115930;    2.182348;    2.275299;    2.429561;    2.519671;    2.643262;    2.734412;    2.854513;    2.931600;    3.116728;    3.329680;    3.509394;    3.773963;    4.066787;    4.709352;    5.488727;    6.008863;    6.783493;    7.418472;    8.377508;    9.867573;   10.932320;   12.746597;   17.450596;   20.927394;   25.858205;   41.608082;   69.374106; 1047.261464;58691.680023;
96;    4.216543;    0.998480;    0.850659;    0.798273;    0.754722;    0.689223;    0.630455;    0.547028;    0.454165;    0.373254;    0.260314;    0.157155;    0.148578;    0.127645;    1.467635;    1.152201;    1.738779;    1.811242;    1.880593;    1.973124;    2.056414;    2.135909;    2.230177;    2.307186;    2.403329;    2.565040;    2.836489;    2.943358;    3.028650;    3.120881;    3.250339;    3.412372;    3.592122;    3.716913;    3.896216;    4.124858;    4.540917;    4.819132;    5.425323;    5.827491;    6.620363;    7.290047;    8.116004;    9.151078;   11.026711;   13.816546;   18.914077;   25.390446;   44.376575;   77.191429;22566.354689;
97;    4.195361;    1.020501;    0.888709;    0.823570;    0.765681;    0.687738;    0.630116;    0.556999;    0.456265;    0.370068;    0.270317;    0.159288;    0.155564;    0.131224;    1.129674;    1.391104;    1.503619;    1.571895;    1.648807;    1.678330;    1.717761;    1.755469;    1.816863;    1.840262;    1.921188;    1.962579;    2.059403;    2.123614;    2.221351;    2.299488;    2.459924;    2.639093;    2.829622;    2.968506;    3.045465;    3.177501;    3.420536;    3.701808;    4.018261;    4.246068;    4.588507;    5.121986;    5.682097;    6.342254;    6.972131;    8.130750;    9.902946;   13.441966;   18.792121;   70.074768; 6833.042466;
98;    4.195267;    1.000899;    0.865419;    0.809250;    0.759096;    0.693378;    0.612521;    0.550102;    0.467610;    0.377481;    0.270575;    0.157042;    0.159090;    0.132467;    1.154396;    1.253222;    1.932053;    1.980087;    2.057078;    2.092037;    2.183982;    2.259780;    2.342758;    2.413041;    2.456224;    2.512182;    2.594388;    2.652397;    2.714469;    2.786528;    2.887153;    2.985443;    3.372503;    3.538932;    3.667742;    3.914747;    4.113958;    4.396350;    4.646473;    4.993387;    5.410640;    5.845581;    6.552111;    7.844701;   10.320905;   14.335458;   16.862855;   25.168355;   40.342804;  487.862214;105205.363939;
99;    4.350790;    0.990918;    0.843587;    0.807273;    0.749505;    0.694371;    0.608878;    0.540332;    0.457182;    0.366871;    0.266218;    0.160254;    0.156129;    0.131929;    0.685790;    1.332816;    1.628809;    1.683528;    1.723145;    1.795685;    1.818331;    1.851874;    1.936709;    1.996280;    2.034305;    2.086470;    2.187473;    2.266856;    2.333803;    2.448374;    2.622178;    2.790669;    2.938381;    3.125010;    3.273460;    3.465647;    3.641641;    3.896698;    4.171760;    4.448516;    4.706007;    5.086800;    5.704858;    6.083642;    6.927128;    8.419973;    9.710116;   11.556780;   15.142612;   43.739827;22792.015160;
100;    4.704177;    0.993499;    0.851534;    0.808980;    0.757575;    0.688821;    0.628927;    0.542220;    0.438758;    0.358013;    0.264737;    0.160628;    0.160400;    0.126791;    0.730784;    0.796682;    1.425658;    1.461564;    1.516054;    1.562388;    1.604954;    1.636600;    1.686747;    1.725223;    1.806346;    1.927214;    2.085513;    2.230194;    2.463310;    2.587057;    2.691981;    2.761719;    2.905075;    3.002614;    3.124316;    3.366498;    3.652993;    4.141560;    4.518218;    4.972972;    5.659807;    6.142771;    7.026733;    8.215595;    9.817947;   13.098947;   16.988661;   22.425327;   50.051670;  144.393047; 5959.509948;
