Simulation;Time;PC 0;PC 1;PC 2;PC 3;PC 4;PC 5;PC 6;PC 7;PC 8;PC 9;PC10;PC11;PC12;PC13;PC14;PC15;PC16;PC17;PC18;PC19;PC20;PC21;PC22;PC23;PC24;PC25;PC26;PC27;PC28;PC29;PC30;PC31;PC32;PC33;PC34;PC35;PC36;PC37;PC38;PC39;PC40;PC41;PC42;PC43;PC44;PC45;PC46;PC47;PC48;PC49;
Nan;Nan;0;0;0;0;0;0;0;0;0;0;0;0;0;0;0;1;0;0;0;0;0;0;0;0;0;0;0;0;0;0;0;0;0;0;0;0;0;0;0;0;0;0;0;0;0;0;0;0;0;0;
0;    4.006074;    0.984233;    0.887306;    0.849089;    0.821006;    0.786351;    0.736504;    0.672962;    0.627736;    0.557914;    0.494519;    0.433838;    0.438971;    0.434939;    0.683533;    0.783055;    0.961691;    0.999303;    1.028689;    1.064906;    1.110699;    1.138776;    1.197592;    1.268878;    1.324173;    1.376243;    1.437212;    1.492350;    1.602983;    1.703449;    1.784746;    1.863503;    1.993296;    2.095579;    2.253915;    2.466524;    2.746279;    3.044864;    3.367075;    3.830940;    4.270049;    4.649195;    5.260257;    5.998262;    7.336795;    9.373431;   13.044113;   22.234052;   76.073984;  794.123297;66035.312161;
1;    4.015201;    1.008501;    0.908951;    0.867840;    0.841768;    0.787657;    0.736672;    0.690196;    0.639081;    0.575454;    0.517894;    0.444104;    0.445596;    0.438735;    0.661038;    0.863914;    1.131169;    1.159876;    1.204801;    1.225627;    1.257817;    1.311013;    1.372353;    1.443426;    1.517503;    1.601719;    1.703641;    1.802859;    1.878308;    1.998867;    2.085221;    2.184403;    2.334353;    2.458762;    2.644698;    2.811243;    3.126476;    3.430831;    3.992761;    4.409670;    5.067505;    5.604020;    6.190957;    7.296596;    8.370217;   11.271990;   13.522590;   22.875183;   39.203012;  144.321630;1154925.053670;
2;    4.040309;    1.014611;    0.918296;    0.881095;    0.855063;    0.808345;    0.743199;    0.703458;    0.636545;    0.583669;    0.517140;    0.437484;    0.440846;    0.435699;    0.812460;    0.899388;    1.118682;    1.155793;    1.201534;    1.234756;    1.277757;    1.362197;    1.446784;    1.524765;    1.594247;    1.689328;    1.797866;    1.886365;    1.996204;    2.100009;    2.214993;    2.357823;    2.598788;    2.749262;    2.907169;    3.060971;    3.245107;    3.458050;    3.867897;    4.328410;    4.780703;    5.328283;    6.233505;    7.402033;    9.257125;   11.690160;   13.256610;   18.797357;   26.639289;   58.932434; 5586.085699;
3;    4.038472;    1.008157;    0.917542;    0.879918;    0.846495;    0.796800;    0.758952;    0.712256;    0.649343;    0.589588;    0.514585;    0.441349;    0.449221;    0.439076;    0.755860;    0.852583;    1.099269;    1.189326;    1.218023;    1.270821;    1.318702;    1.370383;    1.407210;    1.426786;    1.470881;    1.526058;    1.577420;    1.633797;    1.696149;    1.761239;    1.835987;    1.903858;    1.971209;    2.072969;    2.173869;    2.288868;    2.430352;    2.615775;    2.858218;    3.075038;    3.398497;    3.730208;    4.214604;    4.757913;    5.519638;    6.640273;    8.092168;   10.622384;   16.273799;   39.629885; 1589.966432;
4;    3.997850;    1.024990;    0.927403;    0.892740;    0.855544;    0.796871;    0.743822;    0.707561;    0.651870;    0.577565;    0.515701;    0.441645;    0.446676;    0.440278;    0.726766;    0.841006;    1.029413;    1.074431;    1.105891;    1.139616;    1.176355;    1.230388;    1.270447;    1.349630;    1.422046;    1.482607;    1.552937;    1.597304;    1.674792;    1.721247;    1.828659;    1.931571;    2.043570;    2.176687;    2.336116;    2.554308;    2.952429;    3.222496;    3.560589;    4.005004;    4.593476;    5.511260;    6.418317;    8.100867;    9.384349;   11.135790;   13.243546;   17.390988;   28.412257;  123.036064;34612.451353;
5;    4.013374;    1.004313;    0.906027;    0.869366;    0.833447;    0.793639;    0.745639;    0.699071;    0.642617;    0.583138;    0.517523;    0.441461;    0.437002;    0.435877;    0.663902;    0.791790;    1.035461;    1.069703;    1.103072;    1.151606;    1.193350;    1.234307;    1.289463;    1.336238;    1.365985;    1.412347;    1.472858;    1.529669;    1.584710;    1.654974;    1.735070;    1.846404;    1.969288;    2.224918;    2.404341;    2.555796;    2.809798;    3.036373;    3.264006;    3.528845;    3.856811;    4.399517;    5.108794;    6.124626;    7.116507;    8.652893;   11.026722;   18.177583;   29.014698;   97.605920;970592.728033;
6;    3.998865;    0.999100;    0.903278;    0.869728;    0.823508;    0.783171;    0.735885;    0.692468;    0.641320;    0.569608;    0.508379;    0.438031;    0.444077;    0.437159;    0.692570;    0.897919;    1.085247;    1.114262;    1.132369;    1.174419;    1.211933;    1.254079;    1.315413;    1.370777;    1.427639;    1.472228;    1.541300;    1.604897;    1.702180;    1.813870;    2.024782;    2.174083;    2.317301;    2.430600;    2.538947;    2.687859;    2.872919;    3.034966;    3.280496;    3.600530;    3.982472;    4.514691;    5.150072;    5.861581;    7.217166;    8.999618;   11.129135;   13.838380;   18.379620;  124.306991;187963.706836;
7;    4.003171;    1.016409;    0.917255;    0.876111;    0.840199;    0.799600;    0.747787;    0.698106;    0.630729;    0.570503;    0.505134;    0.438766;    0.439683;    0.433375;    0.779940;    0.905941;    1.034428;    1.084343;    1.117405;    1.153331;    1.206728;    1.268817;    1.333502;    1.407649;    1.472249;    1.507775;    1.599024;    1.671399;    1.739737;    1.820012;    1.899009;    1.985030;    2.078645;    2.184233;    2.356355;    2.600919;    2.834755;    2.994086;    3.239013;    3.560331;    3.887547;    4.223312;    4.558449;    5.058468;    6.384298;    7.524443;    9.347775;   11.264819;   18.660096;   45.330436;19151.303568;
8;    3.996882;    0.989862;    0.895162;    0.862635;    0.830652;    0.779781;    0.744431;    0.685994;    0.627854;    0.574000;    0.503107;    0.433165;    0.436189;    0.434310;    0.767885;    0.857947;    1.091529;    1.155932;    1.200373;    1.246238;    1.276457;    1.303891;    1.367657;    1.436040;    1.517229;    1.578218;    1.671911;    1.724361;    1.842581;    1.948489;    2.033073;    2.161457;    2.290358;    2.496917;    2.669270;    2.827554;    2.999623;    3.230630;    3.492771;    3.722846;    4.081289;    4.592781;    5.298525;    6.136770;    7.585780;    9.257864;   12.251383;   23.854966;   34.314632;   60.550726;429676.568144;
9;    4.004073;    1.012133;    0.917588;    0.887459;    0.841892;    0.797753;    0.761667;    0.699181;    0.647457;    0.597924;    0.521949;    0.437730;    0.444016;    0.437266;    0.654773;    0.833107;    1.079567;    1.115623;    1.144607;    1.174851;    1.220888;    1.271727;    1.311249;    1.389220;    1.472837;    1.526880;    1.584259;    1.666881;    1.758355;    1.847300;    1.951439;    2.055674;    2.181692;    2.309589;    2.471747;    2.687510;    2.954235;    3.392835;    3.824129;    4.398330;    5.009482;    5.708340;    6.779874;    8.019338;    9.462675;   11.466704;   14.792416;   24.383214;   50.444123;  152.930454;33067.080739;
10;    3.993104;    1.009168;    0.912970;    0.881558;    0.843889;    0.807622;    0.762723;    0.724340;    0.662649;    0.601093;    0.515039;    0.437164;    0.437253;    0.435225;    0.886090;    1.028639;    1.272857;    1.325057;    1.350678;    1.387557;    1.442807;    1.520238;    1.557287;    1.611933;    1.696676;    1.789900;    1.882175;    2.030210;    2.122514;    2.208000;    2.299466;    2.406767;    2.577161;    2.748500;    2.941406;    3.148091;    3.321680;    3.534924;    3.727584;    3.963070;    4.258094;    4.771948;    5.517997;    6.789314;    8.437091;   12.516446;   18.817902;   34.480311;  113.346518;  379.514801;248643.086518;
11;    4.010302;    0.996283;    0.904081;    0.875893;    0.843530;    0.791789;    0.752126;    0.702787;    0.638314;    0.587348;    0.507452;    0.440192;    0.447898;    0.436017;    0.797395;    0.872533;    1.216831;    1.256811;    1.294804;    1.335584;    1.376707;    1.413502;    1.483809;    1.529227;    1.609771;    1.695740;    1.818594;    1.953469;    2.107354;    2.181174;    2.323776;    2.445356;    2.576941;    2.710797;    2.941438;    3.188397;    3.407032;    3.602399;    3.895315;    4.209227;    4.532894;    4.883810;    5.235960;    5.769691;    6.482307;    7.513054;   10.036661;   15.937455;   32.426972;  295.303407;536659.589938;
12;    4.024751;    0.990885;    0.902781;    0.879263;    0.842435;    0.786947;    0.738030;    0.690155;    0.625431;    0.563726;    0.510299;    0.436820;    0.440011;    0.427452;    0.711341;    0.813110;    0.951073;    1.004190;    1.063685;    1.115986;    1.153366;    1.182820;    1.215331;    1.273251;    1.322143;    1.367422;    1.421681;    1.485075;    1.547719;    1.653123;    1.730188;    1.805696;    1.898492;    1.997622;    2.097181;    2.202520;    2.359236;    2.548210;    2.733475;    3.021229;    3.528014;    4.157252;    5.159275;    6.312606;    7.523633;    9.703781;   12.714062;   19.986577;   27.547798;   97.501667; 3447.120142;
13;    4.022027;    1.005216;    0.902559;    0.867733;    0.837227;    0.784799;    0.738616;    0.689337;    0.630935;    0.574501;    0.504751;    0.441165;    0.442453;    0.434975;    0.741968;    0.799807;    1.089792;    1.114047;    1.165441;    1.209894;    1.255410;    1.329463;    1.382408;    1.433558;    1.481976;    1.534582;    1.601448;    1.693783;    1.807723;    1.907141;    2.033949;    2.131140;    2.250354;    2.409269;    2.613406;    2.802864;    3.020441;    3.298315;    3.586610;    3.912654;    4.308093;    5.073683;    6.136168;    7.339271;    8.471355;   10.326093;   13.180165;   17.030479;   24.734894;   80.558277; 9196.840683;
14;    4.025741;    0.985892;    0.894158;    0.866510;    0.820946;    0.788943;    0.743370;    0.696239;    0.631557;    0.562071;    0.500530;    0.439878;    0.443550;    0.438962;    0.687254;    0.833915;    0.962802;    1.002407;    1.024268;    1.051527;    1.138618;    1.184625;    1.245429;    1.303654;    1.372157;    1.439159;    1.517576;    1.604924;    1.685417;    1.841352;    1.904260;    1.986806;    2.069597;    2.156596;    2.292909;    2.416310;    2.589905;    2.740078;    2.966184;    3.273916;    3.610485;    4.378831;    5.032153;    6.118833;    7.387010;    8.833216;   11.092768;   15.472921;   24.339817;   69.931613;42741.259112;
15;    4.004007;    0.995345;    0.887265;    0.851259;    0.806628;    0.771070;    0.724370;    0.678489;    0.624592;    0.559964;    0.497596;    0.433745;    0.430790;    0.430966;    0.747644;    0.808536;    1.091398;    1.119076;    1.149238;    1.186101;    1.229358;    1.262950;    1.330575;    1.375521;    1.411482;    1.463971;    1.524251;    1.608205;    1.671323;    1.747208;    1.838982;    1.920441;    2.043441;    2.214567;    2.386604;    2.604750;    2.846495;    3.123862;    3.319374;    3.756099;    4.659913;    5.415996;    6.473128;    7.859590;    9.524996;   12.258072;   15.591363;   22.551165;   32.360526;   65.267417;106822.353736;
16;    4.031470;    1.020082;    0.928285;    0.884218;    0.845590;    0.803984;    0.748929;    0.709332;    0.649604;    0.584420;    0.519853;    0.445837;    0.449180;    0.444943;    0.815675;    1.054499;    1.215452;    1.249744;    1.291085;    1.328189;    1.395065;    1.457308;    1.530117;    1.602720;    1.696147;    1.815040;    1.900000;    1.975668;    2.078547;    2.187162;    2.294520;    2.413452;    2.609216;    2.788895;    3.029604;    3.327018;    3.581967;    3.802762;    4.035978;    4.270697;    4.614250;    5.033889;    5.479768;    6.066850;    6.801756;    7.507448;    8.623749;   10.368212;   15.572526;  308.083686;21996.987908;
17;    3.997221;    0.989213;    0.897251;    0.860666;    0.821431;    0.782061;    0.731431;    0.674784;    0.621385;    0.566484;    0.506551;    0.437204;    0.439519;    0.426846;    0.706965;    0.909858;    1.023638;    1.044164;    1.077446;    1.103321;    1.142493;    1.188579;    1.235969;    1.271119;    1.307302;    1.348766;    1.407132;    1.484857;    1.597464;    1.701245;    1.841382;    1.968610;    2.128545;    2.254482;    2.407630;    2.547575;    2.743688;    3.029933;    3.321695;    3.706998;    4.008911;    4.385352;    4.902050;    5.538420;    6.675498;    7.832001;    9.604125;   13.198812;   26.053712;  104.771837;13830880.856929;
18;    3.994905;    0.983683;    0.898025;    0.862239;    0.831723;    0.783153;    0.742932;    0.683734;    0.623163;    0.581160;    0.522942;    0.439006;    0.445227;    0.434960;    0.691498;    0.798685;    1.010959;    1.085277;    1.126197;    1.169403;    1.271369;    1.373701;    1.456424;    1.554940;    1.603679;    1.654851;    1.756335;    1.847103;    1.922786;    2.000440;    2.138473;    2.289263;    2.410279;    2.571325;    2.723358;    2.882568;    3.071133;    3.273544;    3.497291;    3.708826;    4.079987;    4.565977;    5.241442;    6.159067;    8.301750;   11.497064;   19.849133;   35.204609;   59.000067;  211.842048;193787.331013;
19;    4.443411;    0.995551;    0.897133;    0.859902;    0.833820;    0.794855;    0.756227;    0.697556;    0.648600;    0.582618;    0.509385;    0.441935;    0.442831;    0.439791;    0.697610;    0.903279;    1.219654;    1.307112;    1.388172;    1.461703;    1.539337;    1.591540;    1.658780;    1.732887;    1.823522;    1.907584;    2.009913;    2.086640;    2.186777;    2.294218;    2.402262;    2.491804;    2.596808;    2.771940;    2.957252;    3.190971;    3.405595;    3.698517;    4.018301;    4.498490;    5.067404;    5.603851;    6.931702;    8.908863;   10.899560;   13.448816;   15.380224;   20.848862;   30.483209;   51.012389;9363832.681696;
20;    4.013318;    1.010394;    0.905006;    0.880809;    0.835893;    0.794226;    0.754860;    0.714726;    0.664250;    0.594732;    0.520648;    0.438999;    0.439258;    0.433267;    0.858626;    0.937387;    1.152364;    1.194730;    1.225441;    1.268853;    1.322809;    1.389972;    1.431630;    1.490558;    1.559691;    1.641078;    1.736979;    1.830872;    1.910124;    2.031794;    2.109878;    2.237580;    2.339828;    2.456326;    2.628141;    2.843715;    3.097871;    3.345288;    3.673227;    4.168234;    4.755172;    5.131331;    5.712921;    6.378238;    7.983974;    9.505554;   14.595933;   31.014898;   73.041854;  251.375419;15441752.824609;
21;    4.025063;    1.007163;    0.901526;    0.871047;    0.832752;    0.796681;    0.745451;    0.691053;    0.634439;    0.572324;    0.511527;    0.438840;    0.444929;    0.435492;    0.682815;    0.880001;    1.063552;    1.101604;    1.162912;    1.204360;    1.244695;    1.267110;    1.318117;    1.364004;    1.421540;    1.458282;    1.521211;    1.613604;    1.695785;    1.754498;    1.845811;    1.917374;    1.992210;    2.091315;    2.162281;    2.281395;    2.430983;    2.627308;    2.815644;    3.083321;    3.343413;    3.658193;    4.015083;    4.521251;    5.308998;    6.768259;    9.085388;   13.086903;   21.477075;   73.220861;25511871.165607;
22;    3.997969;    1.013966;    0.912823;    0.877050;    0.836234;    0.783690;    0.741199;    0.685556;    0.642517;    0.594004;    0.516517;    0.440231;    0.441165;    0.436052;    0.639680;    0.784446;    0.920310;    0.951906;    0.979470;    1.012271;    1.050134;    1.097394;    1.166127;    1.202909;    1.269099;    1.329682;    1.371321;    1.455824;    1.539650;    1.645765;    1.781601;    1.885553;    2.016488;    2.307272;    2.602359;    2.931776;    3.352349;    3.908378;    4.360253;    4.806954;    5.439758;    6.254427;    7.108063;    8.178388;    9.719332;   11.830068;   14.528509;   24.980180;   39.247970;  104.348863;10833.526213;
23;    4.007112;    1.003541;    0.907925;    0.884767;    0.855477;    0.814952;    0.763043;    0.695676;    0.646114;    0.579925;    0.508090;    0.443591;    0.446861;    0.439961;    0.794852;    0.881947;    1.231194;    1.289998;    1.336224;    1.386737;    1.444131;    1.500953;    1.572501;    1.679941;    1.783749;    1.878796;    1.989690;    2.104521;    2.225738;    2.355423;    2.494031;    2.640529;    2.786792;    2.927651;    3.113158;    3.301695;    3.507151;    3.758538;    4.202765;    4.670699;    5.233871;    5.872962;    6.693323;    7.572132;    9.045018;   12.300611;   15.949546;   24.750754;   37.835939;   85.561811;25801.150011;
24;    4.025718;    1.017878;    0.917550;    0.887594;    0.840200;    0.795571;    0.746410;    0.694296;    0.639761;    0.573906;    0.510924;    0.435754;    0.434811;    0.428311;    0.604217;    0.661914;    0.913467;    0.958846;    0.995339;    1.044406;    1.087255;    1.124068;    1.166935;    1.213126;    1.255521;    1.291696;    1.339038;    1.370333;    1.427552;    1.510152;    1.588875;    1.678660;    1.754825;    1.850908;    1.999028;    2.140237;    2.312924;    2.523826;    2.835380;    3.158794;    3.406035;    3.708285;    4.185817;    5.122317;    6.178542;    7.531358;   10.788598;   17.664429;   31.298011; 2088.593329;11383.815068;
25;    3.993839;    0.992361;    0.900391;    0.871212;    0.837003;    0.780675;    0.741531;    0.690756;    0.642434;    0.566058;    0.503873;    0.438324;    0.438603;    0.434959;    0.780937;    0.942880;    1.330459;    1.384719;    1.411080;    1.470959;    1.533425;    1.619840;    1.739624;    1.854557;    1.963092;    2.150703;    2.290236;    2.413727;    2.544564;    2.729679;    2.971976;    3.174500;    3.399882;    3.601990;    3.749769;    3.935535;    4.133042;    4.373817;    4.695202;    5.041012;    5.436237;    5.723668;    6.116784;    6.802762;    7.907788;   10.232755;   12.776963;   16.341925;   29.157378;   85.402860; 8488.255526;
26;    4.238422;    1.016798;    0.920346;    0.886824;    0.849213;    0.811188;    0.770468;    0.721501;    0.661484;    0.584195;    0.528893;    0.443012;    0.445968;    0.439936;    0.650559;    0.739195;    1.015845;    1.086886;    1.151084;    1.205675;    1.308797;    1.399369;    1.449141;    1.498110;    1.583594;    1.644511;    1.758053;    1.809426;    1.875214;    1.948508;    2.014612;    2.108490;    2.272008;    2.479019;    2.676550;    2.904939;    3.134701;    3.496379;    3.869313;    4.266345;    4.656223;    5.307004;    6.443912;    7.529733;    9.562142;   11.304693;   13.505411;   21.576357;   36.878353;  106.194633;187246.484654;
27;    4.078655;    1.007638;    0.903543;    0.863083;    0.827032;    0.792380;    0.757371;    0.704700;    0.648142;    0.578591;    0.513880;    0.439289;    0.446463;    0.432632;    0.729153;    0.963970;    1.191621;    1.212245;    1.244793;    1.280695;    1.328435;    1.399129;    1.446767;    1.500482;    1.557334;    1.619004;    1.710268;    1.815772;    1.913018;    2.054520;    2.199614;    2.360032;    2.520349;    2.700566;    2.946074;    3.374727;    3.753709;    4.063625;    4.438096;    4.672459;    5.038897;    5.577290;    6.377823;    8.167984;    9.786505;   11.823490;   14.148778;   20.607019;   30.925631;   64.845221;14603.270518;
28;    6.573636;    1.011184;    0.905543;    0.876584;    0.830977;    0.781287;    0.742942;    0.689509;    0.643832;    0.582807;    0.504788;    0.433841;    0.440190;    0.431417;    0.598763;    0.688817;    0.995436;    1.025289;    1.093852;    1.130786;    1.154619;    1.191836;    1.258141;    1.294721;    1.351211;    1.416217;    1.456316;    1.525498;    1.584802;    1.673740;    1.735132;    1.800830;    1.912603;    2.029405;    2.190622;    2.409240;    2.593289;    2.834343;    3.123081;    3.649152;    4.345073;    5.157952;    5.979563;    7.186289;    8.965606;   10.713512;   12.907300;   16.754464;   48.247278;  250.580632;155978.591903;
29;    8.185180;    1.022069;    0.910006;    0.877555;    0.845328;    0.798428;    0.759431;    0.703158;    0.641981;    0.566548;    0.499248;    0.432297;    0.433566;    0.432119;    0.622556;    0.867324;    1.048133;    1.098615;    1.176260;    1.256094;    1.301402;    1.387847;    1.443314;    1.500558;    1.576494;    1.694676;    1.815318;    1.940766;    2.160548;    2.244038;    2.331917;    2.451630;    2.595141;    2.762507;    2.909329;    3.145488;    3.379143;    3.585294;    3.842719;    4.218127;    4.625136;    5.250699;    5.892211;    6.758437;    7.597784;    8.794746;   11.201693;   17.920469;   26.859976; 1012.197069; 9017.641251;
30;    4.110292;    1.011318;    0.910115;    0.883911;    0.842875;    0.804596;    0.754687;    0.716580;    0.659401;    0.587930;    0.526555;    0.443789;    0.445047;    0.439815;    0.692164;    0.783635;    1.125970;    1.161163;    1.223638;    1.306674;    1.360336;    1.403744;    1.443141;    1.483172;    1.514338;    1.557539;    1.629243;    1.718045;    1.785269;    1.868911;    1.950562;    2.045474;    2.131596;    2.263005;    2.444228;    2.594255;    2.799369;    3.029301;    3.266479;    3.563262;    3.943458;    4.440004;    5.278038;    6.169557;    7.560614;    9.059660;   11.255330;   17.580390;   30.477585;   79.143062; 6243.739436;
31;    5.115611;    1.005198;    0.905268;    0.871390;    0.836275;    0.792586;    0.759702;    0.704889;    0.645628;    0.584949;    0.514861;    0.440685;    0.447902;    0.437133;    0.723778;    0.787724;    1.012710;    1.080861;    1.138470;    1.195187;    1.237581;    1.271390;    1.331133;    1.424863;    1.482605;    1.536626;    1.590781;    1.635955;    1.715873;    1.799087;    1.900597;    2.028961;    2.153870;    2.313694;    2.528961;    2.720848;    2.935536;    3.183585;    3.410797;    3.619357;    4.164240;    4.672949;    4.990261;    5.553062;    6.527540;    7.515677;    9.784929;   17.039563;   29.763268;  128.582600; 2441.181250;
32;    5.217590;    0.998025;    0.908836;    0.870630;    0.838454;    0.800175;    0.736021;    0.696191;    0.642542;    0.569023;    0.501256;    0.436526;    0.448299;    0.434623;    0.798463;    0.917484;    1.158890;    1.223325;    1.255848;    1.296232;    1.338354;    1.385456;    1.450827;    1.508653;    1.580383;    1.654179;    1.745993;    1.829038;    1.858870;    1.940265;    2.057447;    2.179015;    2.329485;    2.479919;    2.607739;    2.771244;    2.966334;    3.142396;    3.324022;    3.642806;    4.104039;    4.648890;    5.368328;    6.584137;    7.485204;    9.919226;   12.373168;   15.757061;   24.318525;   71.151143;1115023.163609;
33;    4.539692;    0.997637;    0.891106;    0.857003;    0.822965;    0.783603;    0.725482;    0.687040;    0.632177;    0.579429;    0.516379;    0.430973;    0.430142;    0.429495;    0.670728;    0.793817;    0.991857;    1.022399;    1.083111;    1.125709;    1.171489;    1.206035;    1.259824;    1.309677;    1.375557;    1.448711;    1.517617;    1.656599;    1.751515;    1.839470;    1.960400;    2.143014;    2.254425;    2.396130;    2.604929;    2.770352;    3.146172;    3.444844;    3.790458;    4.188219;    4.845718;    5.505716;    6.476547;    7.492948;    8.964484;   11.849141;   15.086657;   38.840245;   69.256849;  178.348725;409249.587473;
34;    5.251628;    1.019274;    0.912288;    0.883256;    0.849418;    0.793142;    0.739605;    0.697625;    0.646585;    0.578618;    0.511878;    0.439158;    0.444673;    0.438141;    0.605798;    0.761889;    0.987827;    1.045391;    1.074874;    1.101934;    1.166226;    1.237980;    1.307404;    1.358748;    1.409020;    1.457941;    1.506518;    1.569883;    1.644237;    1.722299;    1.845964;    1.966971;    2.102034;    2.254544;    2.440607;    2.608993;    2.847460;    3.001917;    3.290204;    3.594205;    3.881357;    4.505564;    5.208468;    6.281816;    7.370122;    9.201060;   11.553795;   15.272662;   35.386562;  131.217444;53845.287122;
35;    4.089105;    1.000417;    0.904820;    0.878970;    0.831580;    0.782074;    0.733661;    0.682255;    0.643549;    0.586045;    0.518842;    0.437817;    0.438323;    0.439302;    0.780561;    0.874700;    1.162176;    1.188255;    1.257539;    1.316020;    1.363072;    1.414041;    1.453137;    1.514109;    1.575665;    1.657675;    1.732630;    1.794628;    1.867266;    1.961225;    2.075869;    2.236261;    2.352505;    2.476157;    2.656201;    2.820729;    3.074656;    3.374493;    3.613054;    3.905859;    4.399546;    4.897864;    5.663953;    6.448279;    7.160115;    9.705669;   12.613628;   18.951072;   48.478638;  196.730526;2173856437.902916;
36;    4.300918;    0.983126;    0.898508;    0.871233;    0.825501;    0.784641;    0.746445;    0.697516;    0.628195;    0.565369;    0.514786;    0.432492;    0.434006;    0.434864;    0.706189;    0.909425;    1.076672;    1.104916;    1.144015;    1.196154;    1.240672;    1.293595;    1.350590;    1.398332;    1.467974;    1.523507;    1.568607;    1.655482;    1.706419;    1.815318;    1.901153;    1.984938;    2.101123;    2.237476;    2.339165;    2.470274;    2.636541;    2.891526;    3.216985;    3.508547;    3.682000;    4.010956;    4.784948;    6.293072;    8.234613;   10.363796;   13.210516;   18.065126;   23.233661;  143.306020;163116.859465;
37;    4.128404;    0.993230;    0.900329;    0.870446;    0.829200;    0.779445;    0.735947;    0.691921;    0.632500;    0.570421;    0.504183;    0.438380;    0.441185;    0.436129;    0.747415;    0.813842;    1.162717;    1.235508;    1.278875;    1.312592;    1.377617;    1.442937;    1.494404;    1.553755;    1.619518;    1.678631;    1.747088;    1.844180;    1.913681;    2.028708;    2.122790;    2.247872;    2.442661;    2.643229;    2.849051;    3.278164;    3.563062;    4.018757;    4.435908;    4.761002;    5.233911;    5.666467;    6.211639;    9.377464;   12.081801;   15.570468;   19.953131;   29.944691;   50.779972;  129.508783;20194.936712;
38;    4.235572;    0.997660;    0.897907;    0.863949;    0.822321;    0.784306;    0.739095;    0.683940;    0.636148;    0.568728;    0.499729;    0.438909;    0.446413;    0.439068;    0.608677;    0.753881;    0.994048;    1.026901;    1.073566;    1.126065;    1.148546;    1.194336;    1.273128;    1.346158;    1.424082;    1.481587;    1.526987;    1.571169;    1.631381;    1.741252;    1.838277;    2.015957;    2.147838;    2.413623;    2.669152;    2.894501;    3.209914;    3.518257;    3.883900;    4.280640;    4.800021;    5.280860;    5.752449;    6.550538;    7.509790;    8.952999;   12.521055;   16.775211;   36.850560;  202.444365;32272.858520;
39;    4.100148;    0.976924;    0.888642;    0.859244;    0.819135;    0.777225;    0.724186;    0.672993;    0.618940;    0.560721;    0.506881;    0.440828;    0.447881;    0.437117;    0.659153;    0.785616;    0.999822;    1.045461;    1.065205;    1.116694;    1.156796;    1.198100;    1.234915;    1.267274;    1.314562;    1.363146;    1.421742;    1.488971;    1.559115;    1.618474;    1.688783;    1.761438;    1.871167;    1.973879;    2.085557;    2.227219;    2.394307;    2.616682;    2.826213;    3.126711;    3.467894;    3.947045;    4.494521;    5.129041;    6.098341;    7.516120;   10.407329;   16.671926;   43.948383;  427.132878;35684.841967;
40;    5.117203;    1.001584;    0.903882;    0.867107;    0.836423;    0.793421;    0.748144;    0.685259;    0.622015;    0.572186;    0.499524;    0.433808;    0.439867;    0.428921;    0.676764;    0.751256;    1.016169;    1.060257;    1.099139;    1.130687;    1.177184;    1.226807;    1.268097;    1.314709;    1.405696;    1.456195;    1.558630;    1.624177;    1.726013;    1.858725;    1.963511;    2.035970;    2.194638;    2.336260;    2.480889;    2.677765;    2.893304;    3.130546;    3.575891;    4.157945;    4.693359;    5.422858;    6.491240;    7.750198;   10.184652;   13.227084;   22.111377;   31.853386;   69.812965;  313.924807;655014.566603;
41;    4.109757;    0.993651;    0.896568;    0.868116;    0.820724;    0.790947;    0.738955;    0.681196;    0.632163;    0.564292;    0.506207;    0.435204;    0.444350;    0.438423;    0.729435;    0.813332;    1.126192;    1.167079;    1.208893;    1.237583;    1.273090;    1.313760;    1.360973;    1.411936;    1.477794;    1.513590;    1.558736;    1.640131;    1.695486;    1.777236;    1.873283;    1.980699;    2.072222;    2.159260;    2.233567;    2.338743;    2.467412;    2.608070;    2.873974;    3.148247;    3.549677;    4.161977;    4.602600;    5.375127;    6.485788;    7.732678;    9.687678;   13.558841;   25.723854;  167.719958;22449.642349;
42;    4.277492;    1.014589;    0.904225;    0.868472;    0.837534;    0.800267;    0.753835;    0.688196;    0.638730;    0.572642;    0.510622;    0.438684;    0.440066;    0.438495;    0.689349;    0.887453;    1.076465;    1.110327;    1.151339;    1.192190;    1.256092;    1.296738;    1.352856;    1.404860;    1.482486;    1.576983;    1.668328;    1.768479;    1.839248;    1.900153;    1.971487;    2.080257;    2.188553;    2.332814;    2.419929;    2.610376;    2.842885;    3.144433;    3.391945;    3.646443;    3.962993;    4.340517;    5.025530;    6.346976;    7.733976;   10.570304;   15.681050;   24.434854;   43.013387;  101.861128; 9052.152727;
43;    4.773895;    1.007417;    0.904847;    0.867748;    0.840515;    0.790243;    0.745887;    0.704233;    0.645312;    0.580561;    0.507774;    0.433132;    0.436682;    0.430510;    0.726391;    0.861316;    1.161970;    1.220561;    1.286389;    1.331599;    1.408720;    1.450659;    1.520672;    1.586884;    1.673833;    1.721987;    1.796450;    1.912051;    2.085722;    2.175197;    2.279585;    2.430158;    2.581187;    2.748329;    2.907979;    3.226336;    3.446812;    3.733652;    4.138504;    4.472834;    4.857031;    5.430463;    6.222551;    6.935593;    7.766698;    8.940371;   10.976588;   15.874551;   31.445327;   99.519431;58532.026580;
44;    4.100255;    1.007091;    0.910565;    0.879110;    0.858116;    0.814160;    0.757988;    0.707470;    0.650867;    0.579714;    0.502695;    0.439132;    0.447129;    0.443826;    0.675216;    0.836621;    1.042873;    1.063323;    1.107727;    1.157622;    1.214255;    1.284258;    1.335075;    1.405465;    1.475426;    1.535048;    1.591152;    1.684157;    1.769426;    1.821510;    1.946800;    2.042248;    2.157720;    2.294620;    2.457221;    2.659578;    2.892057;    3.201567;    3.496522;    3.881228;    4.495488;    5.288452;    5.764311;    6.479661;    7.353737;    8.563398;   10.323083;   16.167300;   23.930445;   60.336209;14303.045370;
45;    4.218476;    0.991956;    0.894625;    0.855903;    0.815260;    0.778564;    0.743978;    0.699894;    0.642237;    0.571499;    0.514922;    0.441626;    0.447194;    0.440369;    0.631089;    0.715108;    1.059520;    1.093320;    1.119234;    1.138478;    1.180928;    1.249383;    1.305193;    1.361866;    1.422405;    1.490411;    1.542423;    1.612079;    1.665742;    1.736569;    1.824067;    1.930635;    2.063508;    2.197094;    2.340025;    2.437707;    2.583631;    2.792777;    3.062103;    3.470646;    3.945112;    4.396614;    5.020176;    5.654963;    6.390898;    7.408427;    9.555568;   13.509009;   24.293721;   83.602540;125097.854737;
46;    4.062657;    1.007453;    0.902917;    0.861025;    0.830044;    0.796558;    0.740817;    0.695107;    0.640437;    0.566345;    0.500704;    0.430813;    0.435885;    0.431280;    0.601886;    0.682045;    0.946883;    0.983405;    1.004589;    1.047587;    1.089750;    1.116109;    1.155489;    1.200731;    1.231096;    1.294231;    1.357478;    1.428945;    1.480034;    1.594582;    1.704017;    1.863344;    2.047790;    2.213139;    2.367155;    2.577365;    2.850215;    3.135766;    3.330604;    4.148431;    4.774749;    5.382652;    6.436586;    8.122048;   10.647808;   16.036644;   23.447163;   29.564756;   41.875004;  154.173387;42593.694057;
47;    4.083790;    1.019014;    0.914374;    0.873664;    0.847088;    0.813788;    0.765773;    0.702201;    0.649931;    0.581532;    0.518517;    0.439335;    0.444809;    0.439756;    0.703719;    0.872378;    1.207688;    1.267568;    1.361254;    1.393989;    1.479591;    1.561662;    1.623343;    1.698059;    1.757062;    1.832222;    1.911296;    1.998680;    2.125278;    2.325558;    2.495758;    2.664111;    2.846786;    3.013029;    3.208655;    3.465534;    3.693489;    3.946129;    4.214192;    4.490831;    4.943120;    5.475286;    5.978312;    6.714299;    7.485050;    8.993354;   10.848152;   14.286630;   23.817304;   41.776300; 7478.217295;
48;    4.204334;    0.998123;    0.906329;    0.871562;    0.826934;    0.790602;    0.740957;    0.696953;    0.631280;    0.571302;    0.509826;    0.439760;    0.448453;    0.436453;    0.650564;    0.799145;    0.917947;    0.984689;    1.023261;    1.057129;    1.098426;    1.146906;    1.196276;    1.259257;    1.313856;    1.363051;    1.409342;    1.442327;    1.501580;    1.553267;    1.617290;    1.694466;    1.782961;    1.855106;    1.968713;    2.090556;    2.213650;    2.351138;    2.601652;    2.934225;    3.341411;    3.685679;    4.051904;    4.479226;    5.243685;    6.418582;    7.827503;   11.024281;   39.205274;  140.849641;27480.803822;
49;    4.836404;    0.997692;    0.902381;    0.867491;    0.830657;    0.772078;    0.731550;    0.696565;    0.639688;    0.590670;    0.517156;    0.442955;    0.441792;    0.438782;    0.846441;    1.109027;    1.474240;    1.591172;    1.645403;    1.736685;    1.844514;    1.926526;    1.979741;    2.032671;    2.151466;    2.237748;    2.363580;    2.496773;    2.620330;    2.819205;    2.982129;    3.137784;    3.500556;    3.755932;    4.310784;    4.663953;    5.051960;    5.499261;    6.694276;    7.244757;    8.410475;    9.307613;   10.999405;   12.903688;   14.600659;   18.134833;   23.680201;   33.102285;   53.939108;  172.103329;10036.597947;
50;    4.691388;    1.001025;    0.899046;    0.868395;    0.830298;    0.795077;    0.737552;    0.698272;    0.642573;    0.569366;    0.519184;    0.444569;    0.440315;    0.435643;    0.607124;    0.669161;    0.915232;    1.004245;    1.057910;    1.148968;    1.194756;    1.249615;    1.295744;    1.343159;    1.390020;    1.434848;    1.486281;    1.550280;    1.630529;    1.711016;    1.832636;    1.976219;    2.077302;    2.274412;    2.393598;    2.568280;    2.747936;    2.958969;    3.381861;    3.731041;    4.228626;    4.732819;    5.395454;    6.391158;    7.914000;    9.816928;   12.541567;   17.757998;   40.269258;  226.701019; 9348.615161;
51;    4.432251;    1.027035;    0.922876;    0.891221;    0.839883;    0.803702;    0.755555;    0.712706;    0.659479;    0.583448;    0.518461;    0.438509;    0.435918;    0.434931;    0.598299;    0.818006;    1.051062;    1.095555;    1.144659;    1.190276;    1.241784;    1.293596;    1.336257;    1.377817;    1.436690;    1.498800;    1.552052;    1.605733;    1.659891;    1.749502;    1.829527;    1.943266;    2.084674;    2.281332;    2.413541;    2.666893;    2.875240;    3.153873;    3.591958;    4.042590;    4.541594;    5.018612;    6.092819;    7.241847;    8.768108;   10.402299;   15.166975;   22.255974;   37.182293;   93.280323;304224.962882;
52;    5.048489;    0.996057;    0.898328;    0.867499;    0.821444;    0.791419;    0.739826;    0.684208;    0.621731;    0.563098;    0.496244;    0.437163;    0.442226;    0.437753;    0.628007;    0.770869;    0.962823;    1.017525;    1.061337;    1.099687;    1.146198;    1.193956;    1.235134;    1.293397;    1.343693;    1.386811;    1.442270;    1.552507;    1.642916;    1.753307;    1.879135;    2.000063;    2.231187;    2.497746;    2.774101;    3.037780;    3.264342;    3.477868;    3.715390;    3.939452;    4.260129;    4.660209;    5.100898;    5.620621;    6.385230;    7.432052;    9.055731;   12.284883;   20.137591;   93.264896; 3360.198646;
53;    4.313345;    0.990799;    0.908609;    0.869983;    0.845114;    0.797312;    0.745220;    0.700348;    0.647198;    0.577023;    0.520203;    0.435232;    0.442798;    0.432574;    0.672637;    0.741193;    0.961030;    0.982963;    1.031734;    1.065293;    1.112522;    1.145560;    1.199570;    1.234918;    1.277036;    1.321492;    1.387648;    1.462682;    1.520500;    1.598979;    1.687019;    1.767732;    1.884957;    1.982589;    2.130185;    2.287333;    2.411681;    2.573843;    2.780841;    3.032811;    3.500596;    4.067946;    4.774308;    5.593879;    6.288860;    7.364692;   10.296145;   14.051339;   19.698786;   55.715221; 3929.671533;
54;    4.744523;    1.009446;    0.908436;    0.865300;    0.832360;    0.792300;    0.754372;    0.709254;    0.649148;    0.571980;    0.500719;    0.434059;    0.435414;    0.431299;    0.645724;    0.709991;    0.868152;    0.909503;    0.941767;    0.967877;    1.004637;    1.028825;    1.053520;    1.091510;    1.129595;    1.180196;    1.229015;    1.262982;    1.311395;    1.355927;    1.432450;    1.517087;    1.648781;    1.786685;    1.956614;    2.154259;    2.311417;    2.526184;    2.730943;    2.980533;    3.304092;    3.812231;    4.445049;    5.142339;    5.898125;    7.157706;    9.538314;   13.742050;   21.618708;   90.952099; 8615.027622;
55;    4.853917;    0.987418;    0.886491;    0.859535;    0.829731;    0.787414;    0.735458;    0.689337;    0.645433;    0.584976;    0.511174;    0.440558;    0.448275;    0.434080;    0.664244;    0.716732;    0.931249;    0.962629;    0.989273;    1.025708;    1.059127;    1.110169;    1.168360;    1.241867;    1.310206;    1.392816;    1.476170;    1.554908;    1.671046;    1.806983;    1.938320;    2.023205;    2.109811;    2.259134;    2.400183;    2.520386;    2.668986;    2.895732;    3.206684;    3.550812;    4.038109;    4.543622;    5.059985;    5.845705;    7.092196;   12.039854;   23.417412;   43.065220;  108.915672;  217.785351;636725.403034;
56;    4.575929;    0.993638;    0.893605;    0.858433;    0.814228;    0.770536;    0.721952;    0.674636;    0.617961;    0.565697;    0.504531;    0.441795;    0.440192;    0.436525;    0.860229;    0.966243;    1.246540;    1.321570;    1.361304;    1.415540;    1.439431;    1.466891;    1.506905;    1.571314;    1.612577;    1.662189;    1.727863;    1.813340;    1.869453;    1.940705;    2.053555;    2.184466;    2.331781;    2.561407;    2.765060;    2.913126;    3.130251;    3.443038;    3.864773;    4.301263;    5.265791;    5.945585;    6.978635;    8.122521;   10.304912;   12.959281;   17.241547;   22.445246;   31.375323;   70.211433;356709.952092;
57;    4.515415;    1.015522;    0.916512;    0.884103;    0.840162;    0.803561;    0.747240;    0.696642;    0.641050;    0.576770;    0.517915;    0.442195;    0.448878;    0.441200;    0.632671;    0.823113;    1.122241;    1.151940;    1.168640;    1.206245;    1.254970;    1.305507;    1.367118;    1.451080;    1.571403;    1.658640;    1.718436;    1.808188;    1.904653;    1.968196;    2.081563;    2.199072;    2.338814;    2.507060;    2.656812;    2.794497;    2.961687;    3.193200;    3.462994;    3.681418;    3.955040;    4.480612;    5.668753;    6.584862;    7.823193;    9.928587;   12.774223;   16.519184;   22.247962;  108.935595;153107.868493;
58;    4.623013;    1.006095;    0.906200;    0.868615;    0.827572;    0.792163;    0.739993;    0.699908;    0.640821;    0.579958;    0.516735;    0.439197;    0.444247;    0.440687;    0.707408;    0.898604;    1.225878;    1.258400;    1.303313;    1.347246;    1.394994;    1.434588;    1.474596;    1.523972;    1.579474;    1.664916;    1.770155;    1.834348;    1.942143;    2.031162;    2.100757;    2.200972;    2.283537;    2.448086;    2.622425;    2.783955;    2.966538;    3.123742;    3.336400;    3.555379;    3.817561;    4.100724;    4.482346;    5.150600;    5.791436;    6.944612;    8.462742;   12.289087;   18.401596;   47.640945;192677.119805;
59;    4.403053;    0.995905;    0.903096;    0.862935;    0.819553;    0.787636;    0.744343;    0.679660;    0.623770;    0.573094;    0.520357;    0.437104;    0.433746;    0.432428;    0.593746;    0.662144;    0.995881;    1.023513;    1.056647;    1.096423;    1.138039;    1.197251;    1.246338;    1.287259;    1.350845;    1.428908;    1.494803;    1.575093;    1.647598;    1.757232;    1.862474;    2.009319;    2.106800;    2.243926;    2.428988;    2.599025;    2.826368;    3.035133;    3.289111;    3.678574;    4.180813;    4.737649;    5.629521;    7.060263;    9.077901;   16.662751;   23.380589;   32.600723;   53.142971;  260.518259;38770.256147;
60;    4.910226;    1.004670;    0.906679;    0.875462;    0.838938;    0.796045;    0.756771;    0.706895;    0.637987;    0.568526;    0.504478;    0.440598;    0.446825;    0.439791;    0.694879;    0.847217;    1.061526;    1.104339;    1.129153;    1.168333;    1.200541;    1.236352;    1.277272;    1.335318;    1.381565;    1.433448;    1.494195;    1.572372;    1.645706;    1.716685;    1.792692;    1.892134;    1.983636;    2.087976;    2.248080;    2.335850;    2.518397;    2.672417;    2.864888;    3.248263;    3.718925;    4.267370;    4.918389;    5.615440;    6.746602;    7.946209;    9.737783;   13.970947;   22.578336;   71.421690;16351.989190;
61;    4.235027;    0.996403;    0.900094;    0.864753;    0.836103;    0.799116;    0.742654;    0.701842;    0.647546;    0.587581;    0.515003;    0.441408;    0.442650;    0.443441;    0.703361;    0.806569;    1.120613;    1.181705;    1.277259;    1.332415;    1.393295;    1.433950;    1.476253;    1.529297;    1.594571;    1.666469;    1.751833;    1.845910;    1.955767;    2.068367;    2.193657;    2.368607;    2.496159;    2.658543;    2.880350;    3.222825;    3.454491;    3.686432;    3.998733;    4.337605;    4.687634;    5.153081;    5.579782;    6.288121;    7.172306;    9.704657;   13.289414;   26.273054;   50.571251;  481.545369;27213171.335062;
62;    5.873280;    0.992376;    0.894117;    0.863571;    0.824900;    0.775727;    0.727062;    0.687879;    0.626141;    0.562182;    0.503408;    0.436499;    0.448743;    0.434360;    0.773584;    0.882028;    1.137271;    1.172124;    1.208642;    1.243761;    1.280758;    1.322429;    1.355516;    1.403462;    1.451250;    1.512694;    1.605190;    1.716203;    1.833907;    1.946789;    2.050423;    2.179024;    2.339146;    2.582727;    2.776810;    3.000201;    3.168005;    3.369830;    3.695902;    4.068277;    4.531612;    5.157329;    5.860706;    7.086781;    8.656694;   10.685685;   13.623493;   16.875584;   88.797168;  168.240022;78499.981395;
63;    4.295590;    1.000229;    0.894609;    0.860669;    0.815054;    0.778337;    0.727976;    0.693119;    0.644559;    0.592855;    0.523130;    0.441909;    0.448554;    0.436960;    0.721608;    0.926489;    1.143416;    1.205474;    1.250867;    1.300821;    1.342671;    1.402025;    1.455176;    1.507685;    1.572439;    1.613337;    1.689823;    1.756333;    1.839472;    2.004929;    2.194487;    2.301420;    2.403323;    2.507199;    2.633896;    2.794672;    2.978666;    3.110363;    3.294292;    3.488585;    3.782821;    4.153249;    4.621877;    5.342378;    6.288760;    7.454985;    8.675982;   10.962587;   25.367375;  145.384614;16317.814009;
64;    4.243076;    1.004997;    0.905918;    0.880384;    0.833989;    0.798411;    0.754651;    0.711428;    0.653848;    0.588831;    0.514815;    0.441057;    0.447053;    0.441055;    0.846350;    1.002599;    1.177988;    1.498331;    1.594549;    1.643859;    1.680510;    1.711586;    1.743819;    1.793780;    1.848893;    1.910757;    1.965845;    2.005963;    2.103249;    2.202904;    2.284588;    2.383999;    2.584279;    2.775820;    2.967372;    3.241062;    3.507077;    3.761310;    4.116487;    4.446535;    4.946197;    6.199768;    7.053305;    8.195490;    9.326478;   10.964507;   13.607128;   18.963100;   39.606829;  131.362874;122912.645001;
65;    5.429453;    0.979789;    0.889611;    0.852866;    0.823660;    0.781616;    0.742477;    0.678251;    0.623181;    0.566767;    0.501213;    0.439450;    0.439398;    0.437000;    0.882196;    0.945821;    1.223572;    1.259531;    1.313247;    1.342627;    1.374836;    1.411464;    1.473857;    1.523389;    1.573925;    1.611987;    1.657452;    1.707059;    1.780524;    1.847865;    1.930166;    2.002635;    2.170164;    2.297231;    2.432624;    2.613634;    2.772394;    3.056239;    3.242520;    3.650467;    4.328470;    5.171404;    5.909570;    7.229169;    8.788411;   11.489216;   16.669122;   20.826659;   33.735467;  280.883561;54818.929448;
66;    4.256653;    1.002083;    0.907499;    0.877767;    0.840963;    0.797017;    0.749347;    0.709389;    0.646316;    0.574566;    0.517863;    0.439633;    0.447923;    0.435394;    0.713047;    0.855176;    1.050021;    1.083708;    1.113390;    1.179135;    1.242703;    1.313665;    1.410504;    1.469955;    1.541942;    1.608419;    1.674871;    1.729617;    1.775899;    1.933185;    2.059040;    2.186816;    2.325616;    2.557268;    2.725779;    2.947037;    3.138569;    3.718673;    4.128824;    4.470769;    4.855570;    5.403580;    6.040326;    7.859511;    9.397735;   14.964305;   18.856591;   25.494805;   53.349668;  202.026993;31987.649246;
67;    4.586448;    0.995246;    0.903027;    0.860512;    0.828369;    0.789755;    0.739901;    0.671678;    0.625776;    0.567440;    0.511263;    0.439849;    0.444968;    0.443690;    0.676212;    0.781141;    1.199985;    1.270248;    1.311798;    1.340449;    1.385223;    1.425555;    1.488337;    1.528959;    1.585804;    1.637707;    1.691430;    1.762209;    1.872375;    1.962719;    2.121720;    2.243584;    2.438597;    2.606891;    2.716196;    2.857661;    3.096616;    3.389991;    3.806000;    4.103185;    4.733924;    5.519300;    6.273037;    7.371007;    9.453091;   15.144336;   24.665916;   52.718810;  106.864458;  517.702018;38067.974917;
68;    4.275889;    1.001909;    0.904449;    0.870323;    0.822500;    0.785388;    0.741109;    0.704368;    0.635043;    0.584180;    0.510630;    0.439660;    0.442125;    0.437082;    0.802108;    0.911575;    1.153904;    1.193817;    1.233501;    1.293080;    1.360555;    1.424318;    1.486553;    1.532108;    1.625225;    1.679888;    1.732326;    1.813803;    1.924851;    2.053937;    2.210506;    2.341432;    2.535685;    2.756497;    3.025464;    3.314020;    3.581764;    3.795872;    4.108513;    4.467068;    4.867754;    5.411944;    6.376705;    7.288643;    8.738662;   10.568951;   14.076834;   18.368792;   32.996286;  132.581736;10457.365121;
69;    4.472014;    0.994558;    0.906370;    0.871155;    0.839949;    0.803053;    0.770793;    0.723820;    0.665193;    0.593487;    0.517155;    0.446100;    0.453111;    0.445651;    0.821280;    0.905645;    1.223892;    1.260097;    1.321100;    1.372877;    1.432214;    1.495837;    1.556314;    1.615990;    1.695352;    1.761357;    1.844344;    1.928528;    2.007347;    2.089253;    2.175817;    2.289949;    2.469954;    2.676296;    2.885802;    3.090639;    3.243637;    3.491543;    3.827664;    4.370558;    4.877467;    5.550391;    6.580560;    7.981729;   10.988353;   20.340390;   27.430367;   36.756995;   69.595916;  154.007962;15884.933459;
70;    4.016077;    1.013564;    0.915806;    0.876023;    0.847535;    0.799408;    0.744323;    0.687953;    0.640122;    0.567629;    0.503062;    0.438821;    0.441362;    0.443026;    0.639430;    0.710339;    1.081328;    1.113211;    1.163595;    1.205984;    1.273385;    1.336327;    1.384097;    1.463032;    1.549635;    1.602363;    1.658823;    1.747218;    1.831659;    1.977699;    2.115420;    2.230906;    2.339062;    2.469744;    2.695273;    2.839993;    3.027246;    3.291908;    3.551887;    3.788613;    4.198403;    4.696988;    6.163821;    7.324654;    8.769827;   11.440237;   14.501153;   30.486958;   46.402459;  273.295345;154334.976765;
71;    4.019876;    1.003456;    0.903649;    0.866998;    0.825957;    0.791081;    0.744242;    0.694461;    0.648384;    0.574752;    0.500945;    0.438498;    0.443143;    0.439096;    0.716045;    0.815872;    1.217202;    1.276732;    1.328454;    1.360512;    1.422474;    1.490629;    1.533370;    1.600029;    1.672762;    1.766322;    1.832537;    1.888014;    1.966250;    2.052649;    2.175040;    2.343787;    2.434662;    2.552676;    2.801357;    2.896526;    3.022714;    3.229466;    3.487184;    3.941455;    4.389369;    4.801701;    5.648431;    6.617951;    8.078754;    9.689745;   15.958718;   23.364705;   32.736427;  100.125987;284536.931940;
72;    4.014933;    1.007896;    0.906061;    0.880091;    0.845813;    0.799418;    0.754881;    0.700282;    0.648378;    0.573860;    0.521093;    0.437738;    0.444644;    0.438930;    0.724410;    0.799274;    1.025398;    1.053144;    1.095748;    1.127675;    1.155328;    1.182528;    1.236697;    1.284451;    1.333313;    1.394675;    1.438315;    1.499815;    1.584507;    1.672180;    1.769281;    1.883377;    1.986466;    2.096909;    2.203468;    2.319617;    2.421005;    2.641594;    2.870662;    3.102548;    3.414953;    3.704251;    4.190331;    4.659162;    5.754364;    7.257005;   11.756035;   23.506932;   58.809944;  154.556784;20474.860187;
73;    4.028822;    1.031677;    0.927216;    0.899422;    0.851617;    0.813197;    0.780059;    0.727376;    0.654805;    0.594779;    0.515527;    0.449932;    0.452504;    0.442775;    0.784838;    0.939056;    1.178450;    1.229546;    1.257595;    1.321704;    1.381600;    1.419359;    1.467436;    1.518400;    1.579575;    1.648688;    1.699994;    1.768382;    1.832213;    1.946899;    2.091330;    2.211427;    2.366109;    2.534251;    2.671271;    2.800274;    2.945461;    3.182024;    3.440094;    3.689445;    4.072150;    4.459734;    5.036336;    5.702405;    6.569637;    7.917277;   10.448282;   13.613070;   29.436106;  124.567793;65169.972961;
74;    4.005479;    1.008148;    0.901074;    0.863629;    0.838567;    0.796504;    0.742994;    0.692521;    0.639452;    0.574192;    0.509072;    0.443194;    0.449016;    0.443729;    0.759179;    0.838810;    1.258157;    1.435528;    1.520917;    1.590858;    1.681335;    1.804739;    1.865642;    1.984262;    2.101316;    2.261079;    2.405269;    2.546667;    2.784670;    2.998892;    3.233831;    3.528489;    3.746762;    4.212857;    4.547473;    4.881656;    5.299170;    5.697985;    6.263492;    7.205125;    8.182672;    9.302451;   10.935696;   13.230515;   15.944213;   21.095130;   28.813055;   36.382628;   86.265426;  183.011006;25973.988105;
75;    4.014951;    0.990600;    0.892261;    0.855796;    0.822450;    0.787447;    0.748201;    0.689844;    0.626240;    0.566057;    0.501951;    0.433236;    0.439364;    0.430388;    0.637094;    0.740399;    0.885891;    0.917094;    0.952736;    0.997582;    1.045724;    1.100772;    1.213199;    1.274585;    1.332765;    1.402697;    1.457302;    1.551093;    1.637058;    1.707930;    1.808881;    1.890742;    1.996551;    2.134816;    2.274726;    2.462731;    2.655897;    2.815545;    2.966554;    3.185704;    3.681748;    4.094587;    4.566401;    5.232715;    6.074742;    7.434464;   10.382376;   17.359150;   40.576442;  220.422795;39340.824246;
76;    4.019096;    1.010159;    0.904975;    0.877894;    0.829406;    0.794374;    0.735508;    0.694915;    0.630599;    0.584012;    0.516222;    0.441600;    0.443790;    0.442608;    0.708211;    0.794885;    1.018698;    1.042119;    1.074133;    1.121990;    1.180378;    1.228569;    1.272452;    1.331656;    1.393937;    1.456107;    1.506625;    1.601729;    1.693462;    1.795465;    1.895609;    1.988957;    2.084947;    2.190375;    2.304015;    2.447803;    2.619396;    2.827233;    3.030698;    3.272557;    3.501824;    3.870965;    4.333989;    4.954680;    5.726677;    6.894100;    8.935745;   13.309244;   27.996295;  230.284128;122338.054551;
77;    4.009811;    0.973451;    0.879014;    0.841066;    0.809823;    0.771157;    0.729807;    0.676965;    0.617284;    0.566974;    0.495942;    0.431984;    0.440495;    0.429848;    0.639284;    0.790179;    1.026171;    1.056173;    1.083508;    1.105545;    1.130082;    1.161044;    1.201650;    1.257848;    1.316381;    1.396331;    1.472837;    1.555929;    1.618273;    1.702483;    1.803046;    1.892469;    2.004844;    2.116467;    2.254045;    2.424970;    2.596095;    2.781523;    2.994413;    3.278439;    3.519770;    3.831374;    4.182726;    4.686021;    5.656051;    8.171832;   11.026619;   16.117253;   28.265023;  113.815215; 9135.814647;
78;    4.015514;    0.989934;    0.899679;    0.861425;    0.826370;    0.783104;    0.737973;    0.679545;    0.619876;    0.558804;    0.507840;    0.438191;    0.447123;    0.437283;    0.730856;    0.862173;    1.075192;    1.109319;    1.159613;    1.217114;    1.278549;    1.332049;    1.376314;    1.431969;    1.490665;    1.551973;    1.598079;    1.673784;    1.751496;    1.841136;    1.986637;    2.063199;    2.166524;    2.269541;    2.397724;    2.593751;    2.840496;    3.128389;    3.410702;    3.756454;    4.086132;    4.712808;    5.319199;    6.136055;    7.355812;    9.909296;   12.291609;   16.909183;   26.609084;  106.181986;23212.895477;
79;    4.014811;    1.003355;    0.905747;    0.862039;    0.825536;    0.792791;    0.732688;    0.681305;    0.640050;    0.579704;    0.496075;    0.432073;    0.439604;    0.433203;    0.571136;    0.753610;    1.011209;    1.044045;    1.065750;    1.099315;    1.143007;    1.189451;    1.253509;    1.291913;    1.354209;    1.421399;    1.508704;    1.633744;    1.732557;    1.861453;    1.966693;    2.119958;    2.253874;    2.453618;    2.597385;    2.814592;    3.055920;    3.341966;    3.663636;    4.074630;    4.563827;    5.084397;    5.593434;    6.570321;    7.708663;    9.500553;   11.280337;   13.830395;   22.466733;  119.770224;266431.422106;
80;    4.004630;    0.984541;    0.883969;    0.861600;    0.824595;    0.780538;    0.729220;    0.672573;    0.628156;    0.563713;    0.496470;    0.429528;    0.434475;    0.427391;    0.636637;    0.759535;    0.917336;    0.943236;    0.982007;    1.033227;    1.084697;    1.145802;    1.196310;    1.244325;    1.309476;    1.383808;    1.444475;    1.552936;    1.676877;    1.801541;    1.908697;    2.040293;    2.126893;    2.281184;    2.399797;    2.640919;    2.907547;    3.181770;    3.680662;    3.976087;    4.375258;    4.978738;    5.529953;    6.391391;    7.388752;    9.174122;   15.078835;   20.379283;   41.878061;  115.070863;1847503.659107;
81;    4.017603;    0.989352;    0.893418;    0.861123;    0.817772;    0.778401;    0.737226;    0.699078;    0.649123;    0.585498;    0.507834;    0.436980;    0.436661;    0.436838;    0.683431;    0.878613;    1.127604;    1.162557;    1.191865;    1.232688;    1.276494;    1.320517;    1.381735;    1.446372;    1.510652;    1.587646;    1.687598;    1.771680;    1.832975;    1.963480;    2.071131;    2.172733;    2.250733;    2.406582;    2.516219;    2.661078;    2.819141;    3.026364;    3.415546;    3.741394;    4.069999;    4.465188;    5.033936;    5.965825;    7.148438;    8.564543;   11.410155;   15.127866;   26.383669;   80.267531;123876.082409;
82;    4.013309;    0.984111;    0.886960;    0.862395;    0.825268;    0.789377;    0.749174;    0.705249;    0.645429;    0.574967;    0.504418;    0.433236;    0.440190;    0.431917;    0.721993;    0.845570;    1.069500;    1.137583;    1.207190;    1.251487;    1.289521;    1.338400;    1.382697;    1.424573;    1.473591;    1.535861;    1.608299;    1.701740;    1.779615;    1.896956;    2.007273;    2.093011;    2.213835;    2.317115;    2.546996;    2.762832;    2.921873;    3.149922;    3.389523;    3.933205;    4.391315;    4.977506;    5.822977;    6.578998;    7.508104;    8.771270;   10.325389;   13.464483;   20.303456;   91.690399;10308.321110;
83;    4.032944;    0.978204;    0.888924;    0.851899;    0.814830;    0.783662;    0.746116;    0.699311;    0.649951;    0.581863;    0.514103;    0.439637;    0.439599;    0.439892;    0.979783;    1.057705;    1.401756;    1.431944;    1.479180;    1.528135;    1.610985;    1.662862;    1.754137;    1.834394;    1.953550;    2.046579;    2.187945;    2.284149;    2.373586;    2.552444;    2.698476;    2.844449;    3.075352;    3.352556;    3.634603;    3.914296;    4.184323;    4.481782;    4.749759;    5.150529;    5.582029;    6.047988;    6.671884;    7.601515;    8.998881;   10.890548;   18.203462;   33.875893;   49.546958;  178.136535;61050.783652;
84;    4.024488;    0.996348;    0.911108;    0.878189;    0.839411;    0.794336;    0.744695;    0.702353;    0.648066;    0.570944;    0.511137;    0.439000;    0.444841;    0.441387;    0.842651;    0.913080;    1.312302;    1.348576;    1.412387;    1.473689;    1.547452;    1.601121;    1.647551;    1.691451;    1.751656;    1.804147;    1.876073;    1.952077;    2.078894;    2.282714;    2.437085;    2.620395;    2.778139;    2.945647;    3.119490;    3.373486;    3.595602;    4.387023;    5.139693;    5.880233;    6.896678;    8.670645;   10.113107;   11.902699;   14.504592;   24.813527;   34.467894;   57.079659;  109.921792;  267.494315;3196095.347047;
85;    4.017198;    1.004851;    0.913454;    0.884128;    0.845330;    0.801446;    0.754767;    0.703303;    0.655286;    0.587639;    0.522357;    0.439189;    0.442574;    0.436924;    0.718166;    0.869433;    1.187804;    1.213709;    1.243793;    1.307990;    1.354896;    1.419799;    1.485717;    1.576224;    1.675889;    1.796249;    1.894725;    1.964998;    2.078849;    2.194646;    2.268981;    2.374276;    2.516057;    2.680878;    2.863642;    3.093300;    3.321098;    3.835882;    4.237981;    4.688016;    5.300632;    5.907106;    6.474943;    7.314189;    8.765286;   11.464262;   15.772047;   24.990476;   53.118930;  229.726118;168080.020788;
86;    4.015052;    1.004291;    0.896832;    0.861205;    0.825562;    0.780638;    0.735777;    0.689691;    0.632803;    0.580048;    0.516567;    0.439533;    0.447825;    0.436414;    0.741199;    0.811792;    1.086902;    1.123082;    1.174461;    1.233402;    1.283603;    1.342563;    1.383884;    1.420897;    1.471101;    1.546871;    1.658998;    1.749801;    1.823318;    1.906932;    2.007656;    2.137680;    2.223972;    2.367110;    2.493168;    2.666933;    2.830253;    3.045430;    3.258782;    3.524686;    3.885358;    4.498897;    5.408173;    6.399807;    7.545827;    9.027850;   11.207356;   16.938592;   27.736525;   72.133296; 5201.545914;
87;    4.070520;    1.000128;    0.898478;    0.867725;    0.819316;    0.780192;    0.731733;    0.692629;    0.624478;    0.568354;    0.514124;    0.439935;    0.443414;    0.434650;    0.766592;    1.032968;    1.165171;    1.196198;    1.226708;    1.286326;    1.331942;    1.371260;    1.439668;    1.511315;    1.605174;    1.659684;    1.717571;    1.803970;    1.880837;    2.017471;    2.123647;    2.232565;    2.352435;    2.545089;    2.766509;    3.014743;    3.350627;    3.652404;    3.983856;    4.293890;    4.746712;    5.244618;    6.138965;    6.817548;    7.808450;    9.753343;   12.327849;   15.490638;   23.523840;   66.619043; 9032.048931;
88;    4.219227;    1.010689;    0.905284;    0.871195;    0.842306;    0.796327;    0.765171;    0.722559;    0.664148;    0.595687;    0.507395;    0.437248;    0.438630;    0.431503;    0.686319;    0.744075;    0.951501;    1.006994;    1.033802;    1.135127;    1.198222;    1.269336;    1.307589;    1.380738;    1.426240;    1.508708;    1.590530;    1.669583;    1.733888;    1.830999;    1.968517;    2.065995;    2.204797;    2.375893;    2.569280;    2.764044;    3.035960;    3.455842;    3.817348;    4.360000;    4.977214;    5.345491;    6.109212;    7.207179;    8.441665;   10.144563;   11.940625;   14.891098;   21.729002;   63.089370;166129.507399;
89;    4.060519;    1.009236;    0.910532;    0.883590;    0.838825;    0.804737;    0.751358;    0.689931;    0.638178;    0.558411;    0.504789;    0.437035;    0.444270;    0.438610;    0.670221;    0.814216;    1.158570;    1.191967;    1.219091;    1.250452;    1.303090;    1.338011;    1.374492;    1.420643;    1.470356;    1.519391;    1.579496;    1.638207;    1.684716;    1.813716;    1.924321;    2.054800;    2.174163;    2.333128;    2.482341;    2.607208;    2.804844;    3.097021;    3.459529;    3.761019;    4.616221;    5.878586;    6.791647;    8.202552;    9.914262;   14.950086;   19.473148;   24.766461;   48.707921;  133.277033;16240.810199;
90;    4.036708;    0.998384;    0.904514;    0.868757;    0.829413;    0.799619;    0.748587;    0.712288;    0.643769;    0.584074;    0.518312;    0.441309;    0.449071;    0.436973;    0.727824;    0.901283;    1.202006;    1.250253;    1.275356;    1.316368;    1.349161;    1.401287;    1.453831;    1.508108;    1.555053;    1.620588;    1.670315;    1.737664;    1.790879;    1.850482;    1.940885;    2.080034;    2.199623;    2.320817;    2.467394;    2.627390;    2.855448;    3.089487;    3.296615;    3.626032;    3.987192;    4.546258;    5.773317;    6.909626;    8.289682;   10.057705;   12.415652;   16.184523;   23.923259;   56.264840;161768.619779;
91;    4.014974;    1.007855;    0.905939;    0.882185;    0.837710;    0.785536;    0.748447;    0.692445;    0.640138;    0.573428;    0.512526;    0.438249;    0.445737;    0.435942;    0.610249;    0.689648;    0.910070;    0.946446;    0.985582;    1.026598;    1.060055;    1.118716;    1.156872;    1.182503;    1.230870;    1.286988;    1.325062;    1.386966;    1.452689;    1.554487;    1.626582;    1.687504;    1.772969;    1.876961;    1.967549;    2.097887;    2.248027;    2.475596;    2.760608;    3.097612;    3.365257;    4.194221;    5.390940;    6.980902;    8.755707;   11.301166;   17.113085;   26.241672;   55.228117;  133.789213;598033.380299;
92;    4.360785;    0.991906;    0.894819;    0.857781;    0.827460;    0.786715;    0.731653;    0.682660;    0.627606;    0.576547;    0.507389;    0.436609;    0.443530;    0.436472;    0.679641;    0.795008;    1.090231;    1.157335;    1.247461;    1.308666;    1.345993;    1.383736;    1.422663;    1.469183;    1.512487;    1.571488;    1.626595;    1.681040;    1.738398;    1.795689;    1.877360;    1.998842;    2.149916;    2.308693;    2.425830;    2.564455;    2.719472;    2.875615;    3.042441;    3.304620;    3.615604;    3.910775;    4.615118;    5.330093;    6.408475;    7.602172;   10.544054;   16.822464;   26.848284;   60.209133;10422.246415;
93;    6.107503;    1.005648;    0.909656;    0.880741;    0.841810;    0.805220;    0.767777;    0.709773;    0.651160;    0.585232;    0.516252;    0.441979;    0.444626;    0.440773;    0.662482;    0.754941;    1.100337;    1.138122;    1.184693;    1.229091;    1.280337;    1.325928;    1.367732;    1.431793;    1.499759;    1.566968;    1.646059;    1.777625;    1.885724;    2.004218;    2.109635;    2.280193;    2.457474;    2.589276;    2.729529;    2.929682;    3.231180;    3.564379;    3.930134;    4.442668;    4.983349;    5.520872;    6.603314;    7.522453;    9.172622;   11.825955;   16.947294;   26.744999;  188.355135;  648.358436;69132.119887;
94;    4.358293;    1.004153;    0.906215;    0.876978;    0.826242;    0.784446;    0.741434;    0.682275;    0.623280;    0.582506;    0.507616;    0.438086;    0.436159;    0.435127;    0.711648;    0.770577;    0.938680;    0.955382;    0.994517;    1.026697;    1.059346;    1.087669;    1.130278;    1.180560;    1.224143;    1.293367;    1.352172;    1.411364;    1.459503;    1.514306;    1.573126;    1.633392;    1.708940;    1.793648;    1.899288;    2.042155;    2.299605;    2.524025;    2.710950;    2.895937;    3.185596;    3.552084;    3.952978;    4.387779;    4.872260;    5.740437;    7.250897;   11.231284;   23.240196;  234.822884;351263.637476;
95;    4.148398;    1.011708;    0.909450;    0.874554;    0.842131;    0.798501;    0.761154;    0.705731;    0.647695;    0.593358;    0.511110;    0.440676;    0.444148;    0.439294;    0.719352;    0.894971;    1.223784;    1.249433;    1.287634;    1.327936;    1.384123;    1.438834;    1.491752;    1.562628;    1.658252;    1.732108;    1.813542;    1.892409;    1.982589;    2.059225;    2.179695;    2.324691;    2.449846;    2.649021;    2.850321;    3.137770;    3.708880;    4.131229;    4.662239;    5.212853;    5.881678;    6.926626;    7.667795;    9.257831;   12.196661;   15.008640;   18.899337;   33.581672;   51.757153;  241.792378;164176.794739;
96;    4.107215;    0.998049;    0.892323;    0.859985;    0.834127;    0.790621;    0.753789;    0.697626;    0.634833;    0.583216;    0.505825;    0.435705;    0.437809;    0.432815;    0.804590;    0.937796;    1.120009;    1.166570;    1.228524;    1.289901;    1.341639;    1.407648;    1.478016;    1.526936;    1.585632;    1.728995;    1.904708;    1.999323;    2.061979;    2.127723;    2.208313;    2.337582;    2.471305;    2.582860;    2.727929;    2.906527;    3.272148;    3.506055;    3.869900;    4.239223;    4.703384;    5.372038;    6.103885;    6.895627;    8.093831;   10.223644;   14.016162;   19.341334;   34.584070;   94.703773;216659.774021;
97;    4.175269;    1.014973;    0.921749;    0.876014;    0.839559;    0.786491;    0.748787;    0.702314;    0.635000;    0.576074;    0.509337;    0.434429;    0.442696;    0.434449;    0.715556;    0.848131;    1.081556;    1.138996;    1.190175;    1.225495;    1.269771;    1.312304;    1.365670;    1.397986;    1.470243;    1.512244;    1.585194;    1.642672;    1.718498;    1.784681;    1.897998;    2.018894;    2.182865;    2.316421;    2.397824;    2.524875;    2.727386;    2.958238;    3.221116;    3.442446;    3.763455;    4.189437;    4.659849;    5.247508;    5.838514;    6.903852;    8.367363;   11.934075;   18.449949;   92.639381;18589.729634;
98;    4.180910;    1.002565;    0.906608;    0.871065;    0.839664;    0.796553;    0.740304;    0.701520;    0.645793;    0.586793;    0.514036;    0.438955;    0.448201;    0.443082;    0.795981;    0.935147;    1.284617;    1.332720;    1.391572;    1.432271;    1.508960;    1.569626;    1.652187;    1.709447;    1.754968;    1.804489;    1.866172;    1.930110;    1.991753;    2.053155;    2.131721;    2.215677;    2.452297;    2.612510;    2.747571;    2.957601;    3.113686;    3.339151;    3.542437;    3.835108;    4.153556;    4.511232;    5.082754;    5.968633;    7.664730;   10.570484;   12.930935;   19.458789;   28.696512;  164.330500;409988.416986;
99;    4.399859;    0.994900;    0.889762;    0.868787;    0.831783;    0.798177;    0.740140;    0.695993;    0.640223;    0.579547;    0.513348;    0.443404;    0.448160;    0.442300;    0.679624;    0.845259;    1.101399;    1.155221;    1.199408;    1.272588;    1.300550;    1.335071;    1.407415;    1.459411;    1.496511;    1.541592;    1.624108;    1.690425;    1.749812;    1.840883;    1.951368;    2.105570;    2.263073;    2.422632;    2.574775;    2.744177;    2.895449;    3.147769;    3.405487;    3.663315;    3.933456;    4.301323;    4.861504;    5.352149;    6.122425;    7.432159;    9.117907;   12.072760;   17.751448;   52.960411;14368510.281116;
100;    4.401982;    0.993908;    0.892763;    0.865969;    0.835370;    0.789399;    0.751906;    0.693083;    0.621994;    0.569910;    0.508310;    0.438701;    0.445456;    0.431955;    0.662583;    0.723162;    0.968292;    1.001200;    1.042277;    1.078435;    1.118404;    1.149806;    1.192295;    1.229503;    1.267669;    1.319998;    1.384734;    1.447379;    1.584032;    1.699524;    1.819781;    1.889365;    2.002687;    2.100099;    2.205487;    2.374383;    2.572919;    2.880525;    3.201486;    3.537421;    4.047172;    4.464273;    5.084828;    5.918818;    6.890059;    8.737732;   11.399005;   15.960815;   32.084584;  112.763920;37716.680054;
