Simulation;Time;PC0;PC1;PC2;PC3;PC4;PC5;PC6;PC7;PC8;PC9;
Nan;Nan;0;0;0;0;1;0;0;0;0;0;
0;    0.316452;    0.989810;    0.487109;    0.391797;    0.331610;    0.276162;    0.254333;    0.235246;    0.191954;    0.147433;    0.080069;
1;    0.311638;    1.014889;    0.500117;    0.410398;    0.336471;    0.278369;    0.262072;    0.224042;    0.186850;    0.148080;    0.095364;
2;    0.308174;    1.014168;    0.512599;    0.432273;    0.356265;    0.286023;    0.265831;    0.233394;    0.192940;    0.144781;    0.090369;
3;    0.313664;    0.981266;    0.500452;    0.435126;    0.358557;    0.287433;    0.266119;    0.232292;    0.193322;    0.152157;    0.083291;
4;    0.314455;    1.025421;    0.513186;    0.440297;    0.353441;    0.292558;    0.277988;    0.234400;    0.199099;    0.157530;    0.090539;
5;    0.313786;    1.003516;    0.491939;    0.406971;    0.349983;    0.284039;    0.268266;    0.244168;    0.205632;    0.155396;    0.074970;
6;    0.308990;    1.001991;    0.498694;    0.408333;    0.349701;    0.277832;    0.264066;    0.230302;    0.187239;    0.148140;    0.074194;
7;    0.310918;    1.019792;    0.504461;    0.433179;    0.355396;    0.290727;    0.260222;    0.234881;    0.201744;    0.148445;    0.078246;
8;    0.315384;    0.984199;    0.488145;    0.402073;    0.344765;    0.280548;    0.269128;    0.246678;    0.210546;    0.154516;    0.082441;
9;    0.310174;    1.000116;    0.505171;    0.415873;    0.351651;    0.289070;    0.277108;    0.250896;    0.220694;    0.166434;    0.094583;
10;    0.314498;    1.006155;    0.504610;    0.407837;    0.345080;    0.284983;    0.266913;    0.243628;    0.217709;    0.164135;    0.106831;
11;    0.311713;    0.978601;    0.494064;    0.395374;    0.339912;    0.279689;    0.255893;    0.221187;    0.195325;    0.140419;    0.080240;
12;    0.315734;    0.958036;    0.491529;    0.402578;    0.344074;    0.286148;    0.265593;    0.230548;    0.186571;    0.147754;    0.081147;
13;    0.329968;    1.015627;    0.488630;    0.417768;    0.346259;    0.283280;    0.262070;    0.237178;    0.203390;    0.145827;    0.087007;
14;    0.310681;    0.973925;    0.490039;    0.425683;    0.347791;    0.273518;    0.263796;    0.240932;    0.204061;    0.131658;    0.076342;
15;    0.314721;    1.032895;    0.483263;    0.413451;    0.337832;    0.277817;    0.253326;    0.221165;    0.195696;    0.144009;    0.073490;
16;    0.308975;    0.997190;    0.506273;    0.434361;    0.355865;    0.294200;    0.265882;    0.234166;    0.192024;    0.146606;    0.081281;
17;    0.310302;    0.971468;    0.490696;    0.440937;    0.339903;    0.275586;    0.247292;    0.223506;    0.198246;    0.153990;    0.092774;
18;    0.313437;    0.940911;    0.482724;    0.407980;    0.352079;    0.281758;    0.269540;    0.240113;    0.190093;    0.158898;    0.101997;
19;    0.313639;    0.992461;    0.483026;    0.393997;    0.338408;    0.282355;    0.257013;    0.237525;    0.203600;    0.159999;    0.099771;
20;    0.307828;    1.037555;    0.494868;    0.412574;    0.339202;    0.282122;    0.269240;    0.235713;    0.205125;    0.159291;    0.100727;
21;    0.314800;    1.024868;    0.490259;    0.415108;    0.340780;    0.284465;    0.259820;    0.233893;    0.196999;    0.155088;    0.080592;
22;    0.318462;    1.017179;    0.494815;    0.406713;    0.352853;    0.291280;    0.268008;    0.238276;    0.180581;    0.143704;    0.088934;
23;    0.317320;    0.988736;    0.488368;    0.392522;    0.345725;    0.289082;    0.275773;    0.241889;    0.199895;    0.141198;    0.074967;
24;    0.313292;    1.025265;    0.507690;    0.418173;    0.353103;    0.289190;    0.271936;    0.250765;    0.217498;    0.149459;    0.079966;
25;    0.307610;    0.977070;    0.493292;    0.402958;    0.343115;    0.276010;    0.259983;    0.220939;    0.184639;    0.152483;    0.085437;
26;    0.317549;    1.005839;    0.501037;    0.418101;    0.350978;    0.293741;    0.279319;    0.250316;    0.202403;    0.162049;    0.091974;
27;    0.323783;    1.022223;    0.489255;    0.419637;    0.343721;    0.286845;    0.258478;    0.247257;    0.217214;    0.170672;    0.084274;
28;    0.307634;    1.033727;    0.494352;    0.406020;    0.346864;    0.288178;    0.273055;    0.241731;    0.205979;    0.152495;    0.088782;
29;    0.602499;    1.065371;    0.498270;    0.412941;    0.348553;    0.295574;    0.277667;    0.254554;    0.210850;    0.169096;    0.096048;
30;    0.310427;    1.020563;    0.498590;    0.413349;    0.349720;    0.283620;    0.264698;    0.244193;    0.203250;    0.146366;    0.090676;
31;    0.317616;    1.013280;    0.496062;    0.407581;    0.348014;    0.280291;    0.252448;    0.233038;    0.199610;    0.154571;    0.080854;
32;    0.391592;    0.972060;    0.497919;    0.402942;    0.341951;    0.288852;    0.265702;    0.238446;    0.193381;    0.147874;    0.092479;
33;    0.358032;    1.030953;    0.489541;    0.397240;    0.343555;    0.279403;    0.265823;    0.233401;    0.193817;    0.148779;    0.088727;
34;    0.338491;    1.043036;    0.498014;    0.404203;    0.344435;    0.290168;    0.265354;    0.229945;    0.199824;    0.156300;    0.096615;
35;    0.326810;    0.994330;    0.494215;    0.398070;    0.341949;    0.285358;    0.268537;    0.235063;    0.185250;    0.146603;    0.082192;
36;    0.320240;    0.949070;    0.498231;    0.408960;    0.343326;    0.278800;    0.258049;    0.237753;    0.193894;    0.155705;    0.085925;
37;    0.311222;    0.984917;    0.497156;    0.414537;    0.335247;    0.273570;    0.250724;    0.229268;    0.190832;    0.148964;    0.068047;
38;    0.310633;    1.004328;    0.488135;    0.408097;    0.354618;    0.280359;    0.256965;    0.220554;    0.187789;    0.137812;    0.076002;
39;    0.310104;    0.945922;    0.477905;    0.386918;    0.328663;    0.275838;    0.255981;    0.220806;    0.176344;    0.134789;    0.073989;
40;    0.309240;    1.007664;    0.502284;    0.408359;    0.346878;    0.278556;    0.263874;    0.235747;    0.193963;    0.144999;    0.088347;
41;    0.364654;    1.000197;    0.493069;    0.395694;    0.345517;    0.276482;    0.253075;    0.228836;    0.185219;    0.143168;    0.088286;
42;    0.316213;    1.049946;    0.494479;    0.402292;    0.339673;    0.280890;    0.264403;    0.238162;    0.193335;    0.130119;    0.086865;
43;    0.313705;    1.026700;    0.494754;    0.418720;    0.354363;    0.287346;    0.258235;    0.242739;    0.208997;    0.157817;    0.100739;
44;    0.370661;    1.003020;    0.499904;    0.411267;    0.359758;    0.283939;    0.262167;    0.231760;    0.197359;    0.129714;    0.070349;
45;    0.426794;    0.984299;    0.482255;    0.401667;    0.340079;    0.280169;    0.260678;    0.229164;    0.207749;    0.158317;    0.079115;
46;    0.316762;    1.034609;    0.498135;    0.414210;    0.356294;    0.279006;    0.258786;    0.239542;    0.198106;    0.150874;    0.102775;
47;    0.313547;    1.035889;    0.498267;    0.418375;    0.356044;    0.291284;    0.268853;    0.248673;    0.210764;    0.144759;    0.073190;
48;    0.314671;    0.972997;    0.489507;    0.408038;    0.350140;    0.287758;    0.264372;    0.238916;    0.184069;    0.134334;    0.085690;
49;    0.305966;    0.980429;    0.487837;    0.416882;    0.346036;    0.276442;    0.257826;    0.228896;    0.199741;    0.140201;    0.082258;
50;    0.342635;    1.010490;    0.489249;    0.399270;    0.334867;    0.276839;    0.256105;    0.231444;    0.196806;    0.138073;    0.086589;
51;    0.381374;    1.041688;    0.510367;    0.435438;    0.367241;    0.291159;    0.272152;    0.243844;    0.212233;    0.152849;    0.092005;
52;    0.582713;    1.002462;    0.494525;    0.400086;    0.336395;    0.276418;    0.258849;    0.222862;    0.192950;    0.137982;    0.064672;
53;    0.404194;    0.949087;    0.505603;    0.400841;    0.344056;    0.278613;    0.261459;    0.233404;    0.206422;    0.146831;    0.092565;
54;    0.325917;    1.029781;    0.507439;    0.399744;    0.350742;    0.281393;    0.260858;    0.237158;    0.203829;    0.162835;    0.073304;
55;    0.313043;    0.993538;    0.477449;    0.386229;    0.334235;    0.274258;    0.262223;    0.228134;    0.185519;    0.151257;    0.083309;
56;    0.319037;    1.006330;    0.487953;    0.402967;    0.329374;    0.272957;    0.248429;    0.223308;    0.194804;    0.140418;    0.090128;
57;    0.330654;    1.021499;    0.507128;    0.412091;    0.342892;    0.283667;    0.260919;    0.233984;    0.203885;    0.146348;    0.090245;
58;    0.315237;    1.012764;    0.497584;    0.405665;    0.353446;    0.279582;    0.260050;    0.238390;    0.198970;    0.151621;    0.076686;
59;    0.338762;    0.986550;    0.499785;    0.437268;    0.341791;    0.276262;    0.257307;    0.241914;    0.194761;    0.140463;    0.072062;
60;    0.329220;    1.004415;    0.497452;    0.412431;    0.356727;    0.278125;    0.262070;    0.231271;    0.175709;    0.144869;    0.079124;
61;    0.393790;    0.986896;    0.485794;    0.389497;    0.341126;    0.282948;    0.263674;    0.239868;    0.197496;    0.152382;    0.089369;
62;    0.544535;    0.990059;    0.486485;    0.426123;    0.338742;    0.276307;    0.252579;    0.226780;    0.201675;    0.148253;    0.093682;
63;    0.339564;    1.026471;    0.486728;    0.388962;    0.334920;    0.275435;    0.256604;    0.226398;    0.187423;    0.149697;    0.091204;
64;    0.446616;    1.006817;    0.494270;    0.424535;    0.345574;    0.284295;    0.263296;    0.229734;    0.201708;    0.151939;    0.078224;
65;    0.315045;    0.963513;    0.485294;    0.395774;    0.339388;    0.271164;    0.252521;    0.221396;    0.176264;    0.137616;    0.073595;
66;    0.328699;    0.990636;    0.494882;    0.407857;    0.351215;    0.284036;    0.267579;    0.244631;    0.200052;    0.137607;    0.078929;
67;    0.434915;    0.965926;    0.482445;    0.394558;    0.346685;    0.292997;    0.267607;    0.240241;    0.203363;    0.154823;    0.078908;
68;    0.324406;    0.999326;    0.491958;    0.401208;    0.342470;    0.284127;    0.269426;    0.229421;    0.206692;    0.152781;    0.092691;
69;    0.321363;    0.961260;    0.490809;    0.401675;    0.332652;    0.279604;    0.266129;    0.239240;    0.216156;    0.170578;    0.097740;
70;    0.317069;    1.015327;    0.505781;    0.407179;    0.349321;    0.287323;    0.271981;    0.241313;    0.200794;    0.166880;    0.086838;
71;    0.311272;    1.005429;    0.489665;    0.398309;    0.345698;    0.285462;    0.265274;    0.239825;    0.200458;    0.155646;    0.083578;
72;    0.316520;    1.017579;    0.490993;    0.402702;    0.348685;    0.288216;    0.276413;    0.247280;    0.207888;    0.155504;    0.080225;
73;    0.315165;    1.043637;    0.506376;    0.424217;    0.364531;    0.287754;    0.269118;    0.237952;    0.193476;    0.141833;    0.082559;
74;    0.308309;    1.032627;    0.492684;    0.433361;    0.336317;    0.276467;    0.263938;    0.226569;    0.195828;    0.150946;    0.079956;
75;    0.312811;    1.003277;    0.494302;    0.396557;    0.330395;    0.275976;    0.257564;    0.241404;    0.203119;    0.136320;    0.086238;
76;    0.308710;    1.031263;    0.490985;    0.415279;    0.346165;    0.286711;    0.263903;    0.240889;    0.200000;    0.159162;    0.077018;
77;    0.308623;    0.966885;    0.476427;    0.386229;    0.329003;    0.273482;    0.252367;    0.225336;    0.195068;    0.147667;    0.086536;
78;    0.308668;    0.971441;    0.496705;    0.405844;    0.344568;    0.274455;    0.261461;    0.232270;    0.187489;    0.141001;    0.073009;
79;    0.308945;    1.008138;    0.498650;    0.401583;    0.345815;    0.284017;    0.250477;    0.213525;    0.176522;    0.129504;    0.075184;
80;    0.313758;    1.005288;    0.488037;    0.391896;    0.330486;    0.274640;    0.255961;    0.218988;    0.180093;    0.137390;    0.084612;
81;    0.309564;    0.984587;    0.485110;    0.411679;    0.339690;    0.279185;    0.261224;    0.232091;    0.202865;    0.157427;    0.085512;
82;    0.311229;    0.987422;    0.481748;    0.389641;    0.332798;    0.277059;    0.257487;    0.232317;    0.206972;    0.153531;    0.095732;
83;    0.322047;    0.944715;    0.475201;    0.381114;    0.329877;    0.282716;    0.266398;    0.234450;    0.201637;    0.153385;    0.081887;
84;    0.309235;    0.960460;    0.502203;    0.416595;    0.344910;    0.283078;    0.264228;    0.225307;    0.189157;    0.134226;    0.081038;
85;    0.312044;    0.980218;    0.498883;    0.409669;    0.355458;    0.290262;    0.265744;    0.249446;    0.224130;    0.157456;    0.085165;
86;    0.309245;    1.035106;    0.491140;    0.408493;    0.329938;    0.276633;    0.261151;    0.234561;    0.204474;    0.144679;    0.081890;
87;    0.308236;    1.010122;    0.486263;    0.393443;    0.336684;    0.281354;    0.260449;    0.231940;    0.189753;    0.151212;    0.082313;
88;    0.316161;    1.041593;    0.501694;    0.424054;    0.340197;    0.278461;    0.271348;    0.246650;    0.207324;    0.157542;    0.080455;
89;    0.326507;    1.017340;    0.505148;    0.424308;    0.344301;    0.282899;    0.263167;    0.239606;    0.206109;    0.147369;    0.074891;
90;    0.321622;    0.983326;    0.493231;    0.402118;    0.351128;    0.281441;    0.265562;    0.233090;    0.195037;    0.157349;    0.079993;
91;    0.315390;    1.022287;    0.500395;    0.407013;    0.347639;    0.283980;    0.251552;    0.224681;    0.195886;    0.150704;    0.100751;
92;    0.307207;    0.995872;    0.492502;    0.410149;    0.341794;    0.271049;    0.255872;    0.229007;    0.196007;    0.149939;    0.078109;
93;    0.318038;    0.998427;    0.497953;    0.415540;    0.348586;    0.281715;    0.256936;    0.232675;    0.190597;    0.150556;    0.082775;
94;    0.323595;    1.007550;    0.496567;    0.395906;    0.346127;    0.284421;    0.266703;    0.238043;    0.212075;    0.156789;    0.087563;
95;    0.300804;    1.026271;    0.499193;    0.419954;    0.352309;    0.284071;    0.264003;    0.239806;    0.195706;    0.156060;    0.070504;
96;    0.310447;    1.029465;    0.490909;    0.403696;    0.339218;    0.273380;    0.250597;    0.227490;    0.193873;    0.144425;    0.081327;
97;    0.319846;    0.997788;    0.511340;    0.421245;    0.353134;    0.292008;    0.265282;    0.231539;    0.200161;    0.165054;    0.102204;
98;    0.424658;    1.001115;    0.499838;    0.404579;    0.343818;    0.281459;    0.265577;    0.230412;    0.204891;    0.153434;    0.101848;
99;    0.322711;    1.016349;    0.481619;    0.393046;    0.332722;    0.274821;    0.265825;    0.234109;    0.197473;    0.155990;    0.079844;
100;    0.335757;    0.999004;    0.485270;    0.422007;    0.337608;    0.278044;    0.263957;    0.231215;    0.199487;    0.140083;    0.079020;
