Simulation;Time;PC0;PC1;PC2;PC3;PC4;PC5;PC6;PC7;PC8;PC9;
Nan;Nan;0;0;0;0;1;0;0;0;0;0;
0;    0.013868;    0.141640;    0.100195;    0.093797;    0.085534;    0.075012;    0.074999;    0.075076;    0.075049;    0.075026;    0.075029;
1;    0.014287;    0.142850;    0.101860;    0.094557;    0.086315;    0.076056;    0.076143;    0.076083;    0.076122;    0.076136;    0.076155;
2;    0.013086;    0.142508;    0.102769;    0.095923;    0.087515;    0.077059;    0.077128;    0.077135;    0.077145;    0.077165;    0.077177;
3;    0.013485;    0.140419;    0.100445;    0.095515;    0.087294;    0.076485;    0.076523;    0.076528;    0.076566;    0.076596;    0.076604;
4;    0.013002;    0.143022;    0.102357;    0.096513;    0.087671;    0.077578;    0.077669;    0.077591;    0.077610;    0.077645;    0.077652;
5;    0.013660;    0.142171;    0.100117;    0.093778;    0.086390;    0.075982;    0.076012;    0.076077;    0.076098;    0.076090;    0.076108;
6;    0.012908;    0.142138;    0.101584;    0.094903;    0.087501;    0.075791;    0.075882;    0.075893;    0.075872;    0.075899;    0.075888;
7;    0.012263;    0.142808;    0.101410;    0.095024;    0.087890;    0.077084;    0.077070;    0.077121;    0.077099;    0.077117;    0.077112;
8;    0.012822;    0.140983;    0.099571;    0.093902;    0.086888;    0.075442;    0.075521;    0.075575;    0.075601;    0.075612;    0.075608;
9;    0.013226;    0.141549;    0.101347;    0.095121;    0.087754;    0.076869;    0.076966;    0.076967;    0.077023;    0.077027;    0.077044;
10;    0.013164;    0.142074;    0.101759;    0.095425;    0.087072;    0.076636;    0.076685;    0.076725;    0.076783;    0.076795;    0.076818;
11;    0.012800;    0.140515;    0.100481;    0.093955;    0.086380;    0.075660;    0.075720;    0.075744;    0.075790;    0.075806;    0.075821;
12;    0.013224;    0.139138;    0.099681;    0.092788;    0.086003;    0.075513;    0.075590;    0.075605;    0.075609;    0.075647;    0.075598;
13;    0.011605;    0.142984;    0.099887;    0.093639;    0.086052;    0.075912;    0.075935;    0.075988;    0.075989;    0.075966;    0.075980;
14;    0.014119;    0.140466;    0.100422;    0.094370;    0.086227;    0.074893;    0.075013;    0.075098;    0.075125;    0.074985;    0.074984;
15;    0.013443;    0.144328;    0.099816;    0.093653;    0.085130;    0.075266;    0.075261;    0.075287;    0.075331;    0.075331;    0.075331;
16;    0.014339;    0.141339;    0.101230;    0.094740;    0.087381;    0.077068;    0.077064;    0.077090;    0.077104;    0.077129;    0.077152;
17;    0.011648;    0.140147;    0.099990;    0.094138;    0.086167;    0.075211;    0.075250;    0.075273;    0.075319;    0.075330;    0.075347;
18;    0.012166;    0.138064;    0.098275;    0.092401;    0.085026;    0.074966;    0.075066;    0.075096;    0.075021;    0.075055;    0.075073;
19;    0.011117;    0.141654;    0.099101;    0.092317;    0.086114;    0.075278;    0.075306;    0.075384;    0.075393;    0.075423;    0.075436;
20;    0.012191;    0.144298;    0.101017;    0.095024;    0.086692;    0.076262;    0.076330;    0.076349;    0.076393;    0.076412;    0.076439;
21;    0.011888;    0.143543;    0.100168;    0.094143;    0.086275;    0.076043;    0.076060;    0.076080;    0.076090;    0.076131;    0.076110;
22;    0.011693;    0.142792;    0.100104;    0.093676;    0.086242;    0.076647;    0.076689;    0.076744;    0.076667;    0.076688;    0.076706;
23;    0.011719;    0.141174;    0.099354;    0.092540;    0.085991;    0.075819;    0.075867;    0.075913;    0.075952;    0.075948;    0.075960;
24;    0.012155;    0.143162;    0.101973;    0.095549;    0.087389;    0.077208;    0.077243;    0.077324;    0.077371;    0.077316;    0.077329;
25;    0.012270;    0.140537;    0.100518;    0.094640;    0.086648;    0.075442;    0.075560;    0.075509;    0.075489;    0.075523;    0.075524;
26;    0.012259;    0.141946;    0.100588;    0.094575;    0.087122;    0.076932;    0.077030;    0.077072;    0.077063;    0.077080;    0.077076;
27;    0.012714;    0.143351;    0.099901;    0.093640;    0.086346;    0.076045;    0.076053;    0.076148;    0.076193;    0.076231;    0.076200;
28;    0.012477;    0.143897;    0.100284;    0.094171;    0.086832;    0.076657;    0.076754;    0.076735;    0.076757;    0.076762;    0.076770;
29;    0.019076;    0.145732;    0.100763;    0.094488;    0.086691;    0.077360;    0.077422;    0.077492;    0.077469;    0.077489;    0.077497;
30;    0.010751;    0.143144;    0.101159;    0.095474;    0.087392;    0.076355;    0.076378;    0.076427;    0.076456;    0.076472;    0.076485;
31;    0.011799;    0.142813;    0.101161;    0.094237;    0.086770;    0.075976;    0.076019;    0.076061;    0.076103;    0.076137;    0.076152;
32;    0.020763;    0.139897;    0.100620;    0.092933;    0.085424;    0.075956;    0.076024;    0.076068;    0.076050;    0.076071;    0.076094;
33;    0.012230;    0.144031;    0.100478;    0.093787;    0.086707;    0.075762;    0.075850;    0.075827;    0.075850;    0.075876;    0.075894;
34;    0.012299;    0.144459;    0.100932;    0.094693;    0.086660;    0.076897;    0.076972;    0.076974;    0.076993;    0.076994;    0.077016;
35;    0.016794;    0.141526;    0.100379;    0.093905;    0.086419;    0.075938;    0.076036;    0.075995;    0.076011;    0.076045;    0.076072;
36;    0.011486;    0.138502;    0.100766;    0.094782;    0.086568;    0.075407;    0.075418;    0.075512;    0.075491;    0.075520;    0.075531;
37;    0.011360;    0.141042;    0.101295;    0.095341;    0.086289;    0.075453;    0.075480;    0.075534;    0.075534;    0.075556;    0.075548;
38;    0.012207;    0.142356;    0.099945;    0.093671;    0.086547;    0.075567;    0.075591;    0.075615;    0.075638;    0.075614;    0.075640;
39;    0.011905;    0.138784;    0.098382;    0.092259;    0.084007;    0.074211;    0.074280;    0.074260;    0.074269;    0.074303;    0.074295;
40;    0.012437;    0.142389;    0.101968;    0.094770;    0.086340;    0.076080;    0.076185;    0.076200;    0.076171;    0.076202;    0.076208;
41;    0.012800;    0.142071;    0.100837;    0.094197;    0.087580;    0.075600;    0.075612;    0.075639;    0.075630;    0.075652;    0.075686;
42;    0.014551;    0.145025;    0.101021;    0.095188;    0.086826;    0.076376;    0.076415;    0.076480;    0.076467;    0.076474;    0.076492;
43;    0.012453;    0.143506;    0.100437;    0.094039;    0.086186;    0.076542;    0.076563;    0.076642;    0.076648;    0.076672;    0.076691;
44;    0.012518;    0.141952;    0.101014;    0.093991;    0.087008;    0.076416;    0.076489;    0.076534;    0.076566;    0.076555;    0.076556;
45;    0.015258;    0.141121;    0.098986;    0.092937;    0.085877;    0.075026;    0.075069;    0.075091;    0.075156;    0.075146;    0.075148;
46;    0.015354;    0.143988;    0.101178;    0.095389;    0.087955;    0.076544;    0.076580;    0.076630;    0.076641;    0.076651;    0.076672;
47;    0.011136;    0.143941;    0.100688;    0.095371;    0.087733;    0.076981;    0.076977;    0.077050;    0.077103;    0.077065;    0.077066;
48;    0.015877;    0.140075;    0.099213;    0.093615;    0.086356;    0.075776;    0.075768;    0.075851;    0.075825;    0.075838;    0.075857;
49;    0.015849;    0.140745;    0.099604;    0.093834;    0.086676;    0.075386;    0.075401;    0.075358;    0.075411;    0.075425;    0.075443;
50;    0.012220;    0.142783;    0.100472;    0.093704;    0.086071;    0.075474;    0.075489;    0.075564;    0.075550;    0.075562;    0.075566;
51;    0.012106;    0.144064;    0.102061;    0.096452;    0.088686;    0.077696;    0.077713;    0.077706;    0.077752;    0.077761;    0.077774;
52;    0.015677;    0.142196;    0.101033;    0.094834;    0.086092;    0.075586;    0.075626;    0.075637;    0.075700;    0.075651;    0.075649;
53;    0.013857;    0.138322;    0.101676;    0.094675;    0.086950;    0.075832;    0.075853;    0.075897;    0.075957;    0.075954;    0.075970;
54;    0.014239;    0.143599;    0.102718;    0.094671;    0.087969;    0.076657;    0.076696;    0.076755;    0.076806;    0.076859;    0.076827;
55;    0.011159;    0.141968;    0.098927;    0.092864;    0.085406;    0.074641;    0.074721;    0.074760;    0.074755;    0.074780;    0.074786;
56;    0.010044;    0.142710;    0.100668;    0.093681;    0.085863;    0.074910;    0.074906;    0.074936;    0.074983;    0.074989;    0.075005;
57;    0.010750;    0.143041;    0.102283;    0.095761;    0.087662;    0.076743;    0.076757;    0.076787;    0.076844;    0.076829;    0.076846;
58;    0.011327;    0.142689;    0.101118;    0.094389;    0.087455;    0.076176;    0.076195;    0.076290;    0.076260;    0.076293;    0.076292;
59;    0.012292;    0.141021;    0.101263;    0.095769;    0.087091;    0.075757;    0.075791;    0.075902;    0.075867;    0.075880;    0.075902;
60;    0.011337;    0.142155;    0.101043;    0.095245;    0.088303;    0.076054;    0.076128;    0.076164;    0.076157;    0.076218;    0.076172;
61;    0.012956;    0.141174;    0.099360;    0.092525;    0.085682;    0.075485;    0.075505;    0.075571;    0.075598;    0.075611;    0.075612;
62;    0.013642;    0.141456;    0.099625;    0.093574;    0.085324;    0.075205;    0.075247;    0.075237;    0.075306;    0.075277;    0.075297;
63;    0.012940;    0.143927;    0.100608;    0.093087;    0.085555;    0.075222;    0.075263;    0.075266;    0.075301;    0.075320;    0.075331;
64;    0.012860;    0.142377;    0.100537;    0.094715;    0.085961;    0.076042;    0.076084;    0.076121;    0.076176;    0.076189;    0.076182;
65;    0.013232;    0.139878;    0.099867;    0.093346;    0.086261;    0.074522;    0.074529;    0.074549;    0.074576;    0.074636;    0.074596;
66;    0.016841;    0.141217;    0.100323;    0.094438;    0.087205;    0.076089;    0.076139;    0.076201;    0.076206;    0.076158;    0.076183;
67;    0.014828;    0.139641;    0.098038;    0.091445;    0.084682;    0.075521;    0.075514;    0.075576;    0.075608;    0.075614;    0.075607;
68;    0.010829;    0.141886;    0.100153;    0.093949;    0.086501;    0.075914;    0.076016;    0.075915;    0.076011;    0.075989;    0.076003;
69;    0.011470;    0.139449;    0.099899;    0.093578;    0.084969;    0.075321;    0.075364;    0.075391;    0.075447;    0.075473;    0.075479;
70;    0.012250;    0.142604;    0.101865;    0.094491;    0.087476;    0.076816;    0.076902;    0.076900;    0.076907;    0.076962;    0.076931;
71;    0.011339;    0.142256;    0.099732;    0.093299;    0.086038;    0.075971;    0.075973;    0.076018;    0.076028;    0.076064;    0.076052;
72;    0.012115;    0.142993;    0.099713;    0.093876;    0.086799;    0.076362;    0.076460;    0.076478;    0.076505;    0.076514;    0.076512;
73;    0.011410;    0.144293;    0.101788;    0.095761;    0.088112;    0.077402;    0.077507;    0.077494;    0.077496;    0.077498;    0.077471;
74;    0.011714;    0.144118;    0.100878;    0.095665;    0.086694;    0.075822;    0.075916;    0.075925;    0.075975;    0.075974;    0.075961;
75;    0.011644;    0.142292;    0.101208;    0.093867;    0.085363;    0.075464;    0.075529;    0.075609;    0.075617;    0.075570;    0.075593;
76;    0.010869;    0.143907;    0.100151;    0.093484;    0.086562;    0.076208;    0.076251;    0.076282;    0.076271;    0.076314;    0.076298;
77;    0.010870;    0.140229;    0.098661;    0.091677;    0.083964;    0.074251;    0.074277;    0.074302;    0.074349;    0.074359;    0.074350;
78;    0.011921;    0.140147;    0.101177;    0.094516;    0.086184;    0.075260;    0.075392;    0.075324;    0.075297;    0.075310;    0.075314;
79;    0.011479;    0.142347;    0.100969;    0.094414;    0.087438;    0.076387;    0.076395;    0.076416;    0.076441;    0.076478;    0.076492;
80;    0.011897;    0.142605;    0.100530;    0.094061;    0.085809;    0.075102;    0.075204;    0.075162;    0.075158;    0.075202;    0.075220;
81;    0.011009;    0.141150;    0.099412;    0.093575;    0.085670;    0.075175;    0.075231;    0.075251;    0.075316;    0.075346;    0.075345;
82;    0.010587;    0.141426;    0.099225;    0.092820;    0.084945;    0.074980;    0.075063;    0.075106;    0.075139;    0.075131;    0.075137;
83;    0.010823;    0.138561;    0.097754;    0.091153;    0.083539;    0.074415;    0.074435;    0.074461;    0.074508;    0.074517;    0.074534;
84;    0.011129;    0.139132;    0.100990;    0.094979;    0.086823;    0.076042;    0.076067;    0.076090;    0.076088;    0.076082;    0.076100;
85;    0.012401;    0.140364;    0.100472;    0.094059;    0.086669;    0.076413;    0.076448;    0.076543;    0.076596;    0.076553;    0.076572;
86;    0.012378;    0.144374;    0.101081;    0.093807;    0.085871;    0.075700;    0.075734;    0.075778;    0.075841;    0.075809;    0.075831;
87;    0.010880;    0.142760;    0.099805;    0.093006;    0.085520;    0.075562;    0.075581;    0.075551;    0.075546;    0.075591;    0.075593;
88;    0.011312;    0.144495;    0.102231;    0.095519;    0.087225;    0.076459;    0.076578;    0.076588;    0.076593;    0.076609;    0.076609;
89;    0.013311;    0.142843;    0.101964;    0.096184;    0.087562;    0.076590;    0.076655;    0.076679;    0.076724;    0.076728;    0.076670;
90;    0.012221;    0.140859;    0.100459;    0.093868;    0.086965;    0.075703;    0.075786;    0.075783;    0.075820;    0.075859;    0.075859;
91;    0.012380;    0.143230;    0.101617;    0.094764;    0.086711;    0.076382;    0.076403;    0.076437;    0.076461;    0.076472;    0.076502;
92;    0.012078;    0.141838;    0.100858;    0.095200;    0.087079;    0.075297;    0.075346;    0.075389;    0.075388;    0.075411;    0.075407;
93;    0.013455;    0.141720;    0.100921;    0.095065;    0.087358;    0.076191;    0.076235;    0.076245;    0.076287;    0.076289;    0.076300;
94;    0.011313;    0.142315;    0.100809;    0.093779;    0.087164;    0.076167;    0.076191;    0.076201;    0.076259;    0.076273;    0.076268;
95;    0.011935;    0.143521;    0.101318;    0.094932;    0.087900;    0.076451;    0.076503;    0.076564;    0.076536;    0.076593;    0.076589;
96;    0.012193;    0.144042;    0.101077;    0.094467;    0.086917;    0.075545;    0.075599;    0.075628;    0.075659;    0.075666;    0.075661;
97;    0.012078;    0.141260;    0.101988;    0.095846;    0.087908;    0.077232;    0.077236;    0.077218;    0.077242;    0.077280;    0.077298;
98;    0.016334;    0.141982;    0.101478;    0.094960;    0.086748;    0.076114;    0.076184;    0.076181;    0.076201;    0.076221;    0.076256;
99;    0.011546;    0.143384;    0.099779;    0.093595;    0.085594;    0.074953;    0.075078;    0.075075;    0.075099;    0.075143;    0.075099;
100;    0.013610;    0.142152;    0.099658;    0.093623;    0.086148;    0.075260;    0.075332;    0.075307;    0.075346;    0.075361;    0.075362;
