Simulation;Time;PC0;PC1;PC2;PC3;PC4;PC5;PC6;PC7;PC8;PC9;
Nan;Nan;0;0;0;0;1;0;0;0;0;0;
0;    0.147813;    0.990337;    0.451747;    0.356100;    0.294534;    0.237575;    0.221205;    0.203912;    0.161729;    0.116897;    0.062811;
1;    0.140690;    1.015594;    0.464432;    0.373360;    0.299738;    0.240483;    0.226996;    0.198404;    0.175554;    0.136730;    0.071527;
2;    0.145298;    1.013382;    0.475896;    0.394559;    0.315991;    0.246424;    0.234615;    0.208156;    0.179512;    0.140742;    0.088200;
3;    0.141430;    0.979045;    0.463462;    0.392867;    0.318791;    0.247054;    0.232662;    0.208846;    0.183877;    0.150718;    0.087804;
4;    0.167444;    1.024689;    0.475922;    0.400371;    0.313680;    0.252825;    0.232728;    0.196349;    0.163701;    0.135100;    0.081635;
5;    0.141592;    1.003610;    0.455932;    0.369931;    0.311619;    0.245583;    0.224625;    0.208771;    0.176323;    0.131305;    0.071919;
6;    0.142083;    1.002218;    0.462975;    0.371519;    0.312901;    0.238566;    0.229704;    0.203982;    0.165778;    0.121329;    0.063734;
7;    0.144146;    1.019425;    0.467893;    0.395534;    0.315060;    0.249221;    0.228488;    0.205434;    0.172621;    0.135244;    0.064630;
8;    0.144158;    0.983607;    0.452303;    0.365293;    0.304819;    0.240878;    0.234531;    0.220546;    0.193583;    0.147916;    0.078267;
9;    0.146568;    0.998616;    0.468137;    0.377836;    0.313289;    0.248368;    0.236618;    0.209711;    0.191927;    0.142209;    0.077226;
10;    0.143586;    1.005504;    0.468495;    0.371040;    0.306077;    0.245674;    0.235476;    0.211767;    0.184450;    0.146798;    0.091311;
11;    0.142012;    0.977303;    0.458222;    0.359376;    0.302279;    0.241829;    0.233207;    0.215773;    0.187473;    0.144511;    0.089755;
12;    0.143502;    0.955487;    0.454970;    0.365147;    0.306865;    0.244006;    0.233472;    0.212201;    0.173244;    0.135972;    0.078049;
13;    0.141944;    1.016660;    0.452522;    0.379564;    0.308206;    0.245829;    0.221440;    0.200059;    0.168084;    0.117223;    0.073802;
14;    0.146423;    0.973423;    0.455228;    0.389223;    0.310057;    0.235844;    0.226622;    0.210606;    0.180682;    0.126437;    0.065394;
15;    0.141972;    1.036033;    0.448018;    0.375878;    0.299806;    0.238986;    0.221114;    0.203050;    0.179330;    0.131798;    0.067139;
16;    0.144920;    0.995260;    0.468932;    0.396258;    0.315196;    0.253984;    0.233982;    0.200433;    0.178410;    0.136111;    0.081796;
17;    0.143719;    0.970188;    0.454744;    0.405907;    0.302184;    0.238880;    0.225363;    0.204103;    0.180310;    0.134301;    0.081826;
18;    0.146111;    0.937925;    0.446512;    0.370195;    0.312507;    0.244350;    0.234128;    0.210951;    0.173339;    0.144388;    0.089132;
19;    0.142437;    0.992740;    0.447270;    0.357587;    0.301096;    0.245523;    0.214909;    0.202484;    0.176107;    0.126651;    0.074855;
20;    0.146547;    1.039753;    0.458957;    0.374832;    0.301516;    0.243283;    0.229948;    0.207273;    0.186345;    0.140900;    0.093954;
21;    0.143085;    1.026377;    0.453962;    0.376945;    0.302566;    0.245635;    0.227781;    0.196899;    0.162923;    0.129228;    0.065097;
22;    0.150744;    1.017232;    0.457611;    0.368514;    0.313766;    0.251021;    0.237282;    0.214058;    0.177844;    0.141674;    0.083055;
23;    0.139425;    0.987961;    0.451873;    0.355711;    0.307835;    0.247535;    0.237391;    0.221189;    0.187827;    0.130060;    0.065317;
24;    0.146553;    1.025079;    0.471256;    0.380035;    0.313426;    0.247883;    0.230979;    0.212736;    0.190672;    0.142706;    0.083100;
25;    0.148607;    0.976048;    0.457876;    0.366645;    0.304893;    0.238949;    0.229831;    0.202977;    0.174680;    0.137241;    0.074531;
26;    0.141952;    1.004734;    0.463733;    0.379633;    0.311279;    0.253559;    0.248152;    0.230870;    0.191862;    0.143913;    0.064072;
27;    0.151570;    1.023504;    0.453164;    0.382136;    0.304609;    0.246572;    0.227411;    0.220183;    0.196067;    0.156506;    0.086965;
28;    0.160580;    1.034945;    0.457403;    0.368109;    0.310200;    0.249164;    0.240328;    0.210326;    0.181356;    0.132538;    0.073890;
29;    0.191173;    1.067813;    0.460847;    0.374327;    0.309687;    0.255096;    0.241002;    0.215894;    0.168405;    0.134831;    0.072012;
30;    0.138511;    1.021365;    0.462463;    0.375846;    0.311511;    0.242898;    0.229370;    0.212489;    0.186416;    0.138512;    0.083536;
31;    0.163995;    1.014087;    0.460560;    0.371154;    0.309850;    0.241130;    0.227945;    0.210346;    0.174160;    0.143923;    0.083671;
32;    0.229371;    0.969775;    0.461514;    0.365529;    0.302883;    0.248066;    0.239319;    0.220716;    0.181256;    0.131672;    0.089411;
33;    0.173397;    1.033289;    0.453952;    0.360849;    0.305805;    0.240662;    0.234525;    0.210681;    0.176362;    0.139751;    0.079802;
34;    0.149390;    1.044614;    0.461099;    0.366675;    0.304713;    0.249084;    0.240391;    0.219911;    0.188955;    0.147759;    0.086124;
35;    0.148776;    0.993805;    0.458102;    0.361222;    0.302023;    0.245429;    0.235441;    0.207878;    0.179251;    0.138189;    0.083971;
36;    0.143727;    0.946001;    0.462527;    0.372114;    0.305999;    0.241782;    0.227664;    0.211287;    0.172671;    0.125192;    0.072912;
37;    0.143740;    0.984368;    0.461799;    0.376008;    0.297712;    0.238283;    0.221947;    0.204468;    0.168070;    0.126475;    0.073450;
38;    0.144237;    1.005042;    0.452654;    0.371490;    0.314716;    0.241853;    0.223860;    0.205884;    0.172842;    0.124631;    0.072505;
39;    0.194844;    0.944311;    0.442876;    0.351457;    0.291820;    0.238234;    0.226615;    0.197195;    0.162304;    0.114579;    0.057285;
40;    0.143989;    1.007819;    0.466205;    0.371401;    0.308048;    0.240817;    0.227997;    0.204887;    0.171319;    0.137249;    0.079699;
41;    0.170019;    1.000663;    0.457601;    0.360027;    0.307425;    0.238543;    0.215673;    0.190955;    0.162540;    0.121179;    0.075269;
42;    0.146634;    1.052642;    0.458613;    0.365773;    0.303720;    0.242949;    0.219267;    0.197909;    0.160475;    0.125387;    0.076199;
43;    0.144436;    1.027668;    0.458299;    0.381148;    0.313855;    0.248684;    0.237164;    0.214656;    0.179048;    0.141914;    0.090060;
44;    0.164504;    1.002396;    0.463639;    0.373736;    0.321584;    0.244225;    0.236008;    0.222215;    0.188189;    0.135814;    0.079629;
45;    0.195202;    0.984245;    0.446701;    0.364935;    0.302524;    0.240455;    0.228126;    0.206288;    0.181880;    0.134366;    0.076857;
46;    0.143609;    1.036048;    0.461871;    0.375992;    0.317322;    0.242734;    0.229900;    0.198209;    0.158616;    0.125562;    0.077120;
47;    0.143502;    1.036955;    0.461235;    0.379131;    0.316822;    0.250626;    0.230626;    0.216737;    0.194666;    0.141439;    0.082193;
48;    0.142811;    0.971141;    0.453126;    0.369902;    0.311086;    0.246342;    0.230259;    0.216412;    0.186150;    0.138058;    0.081286;
49;    0.158032;    0.979573;    0.451756;    0.378063;    0.308831;    0.239782;    0.222146;    0.195933;    0.172273;    0.136866;    0.084873;
50;    0.161730;    1.011733;    0.454012;    0.363118;    0.296560;    0.238478;    0.225456;    0.208825;    0.168413;    0.129517;    0.062964;
51;    0.149374;    1.041949;    0.473042;    0.395310;    0.328870;    0.250096;    0.231886;    0.212351;    0.186081;    0.136847;    0.082284;
52;    0.229130;    1.002986;    0.459293;    0.364062;    0.298521;    0.239147;    0.217483;    0.201637;    0.176357;    0.120179;    0.060780;
53;    0.283473;    0.945409;    0.469521;    0.364531;    0.306194;    0.241490;    0.227091;    0.207018;    0.186024;    0.135764;    0.079733;
54;    0.145102;    1.030625;    0.471350;    0.363264;    0.312078;    0.241207;    0.224682;    0.210939;    0.182496;    0.140825;    0.074324;
55;    0.144462;    0.994770;    0.442259;    0.350638;    0.296967;    0.235930;    0.228248;    0.206603;    0.178276;    0.139115;    0.073273;
56;    0.151326;    1.007997;    0.453147;    0.367152;    0.291578;    0.233774;    0.217033;    0.197770;    0.165854;    0.126583;    0.081314;
57;    0.145099;    1.021721;    0.470853;    0.375138;    0.304973;    0.245869;    0.221133;    0.201527;    0.165273;    0.122511;    0.074362;
58;    0.144158;    1.013173;    0.461711;    0.368418;    0.314330;    0.242019;    0.225337;    0.213059;    0.180745;    0.142139;    0.072193;
59;    0.145438;    0.985622;    0.463966;    0.399039;    0.303149;    0.238624;    0.223660;    0.208254;    0.169724;    0.137109;    0.081418;
60;    0.146144;    1.004403;    0.461192;    0.374919;    0.319056;    0.241433;    0.232998;    0.213967;    0.179845;    0.138192;    0.060923;
61;    0.246998;    0.986504;    0.449446;    0.352876;    0.304032;    0.245348;    0.230505;    0.211064;    0.178987;    0.131869;    0.074900;
62;    0.798752;    0.990136;    0.450951;    0.389682;    0.301919;    0.237369;    0.225561;    0.198445;    0.175739;    0.126413;    0.079157;
63;    0.165509;    1.029213;    0.451847;    0.353425;    0.298233;    0.238225;    0.217646;    0.182270;    0.159084;    0.111220;    0.062705;
64;    0.146030;    1.007113;    0.458018;    0.385459;    0.305980;    0.245246;    0.234249;    0.213243;    0.182837;    0.128994;    0.066518;
65;    0.144340;    0.962827;    0.450345;    0.359808;    0.302795;    0.234921;    0.217232;    0.191984;    0.171131;    0.134379;    0.065037;
66;    0.250926;    0.989709;    0.458969;    0.370910;    0.312556;    0.244033;    0.226894;    0.213878;    0.180409;    0.128310;    0.079611;
67;    0.191099;    0.963788;    0.445946;    0.357392;    0.306238;    0.251478;    0.230813;    0.213945;    0.181427;    0.137372;    0.073294;
68;    0.146291;    0.999219;    0.455743;    0.364199;    0.306057;    0.246444;    0.231567;    0.202357;    0.179154;    0.125624;    0.073625;
69;    0.144728;    0.959286;    0.454986;    0.364703;    0.297483;    0.243512;    0.223937;    0.193893;    0.176134;    0.137146;    0.068841;
70;    0.143212;    1.014946;    0.469199;    0.370007;    0.310383;    0.248247;    0.235839;    0.204519;    0.176707;    0.141241;    0.067499;
71;    0.141386;    1.005644;    0.453162;    0.361299;    0.305976;    0.247198;    0.225534;    0.203159;    0.164255;    0.131323;    0.073517;
72;    0.153751;    1.018156;    0.454062;    0.364848;    0.309487;    0.250263;    0.238434;    0.216190;    0.179555;    0.130784;    0.077025;
73;    0.160757;    1.044575;    0.469261;    0.385062;    0.322370;    0.249349;    0.240653;    0.209887;    0.178415;    0.138754;    0.071513;
74;    0.141424;    1.034916;    0.456877;    0.385965;    0.299640;    0.240005;    0.229696;    0.188435;    0.163866;    0.122185;    0.073849;
75;    0.140659;    1.004080;    0.458838;    0.360364;    0.293499;    0.238400;    0.220094;    0.202735;    0.173129;    0.124806;    0.078444;
76;    0.141409;    1.032971;    0.454377;    0.377667;    0.307570;    0.246829;    0.234862;    0.213406;    0.181976;    0.144202;    0.074715;
77;    0.140177;    0.966760;    0.441534;    0.350483;    0.291526;    0.236849;    0.224966;    0.206509;    0.175419;    0.134133;    0.071969;
78;    0.140561;    0.970143;    0.461504;    0.369555;    0.307214;    0.237061;    0.221104;    0.184937;    0.145631;    0.107152;    0.065655;
79;    0.141392;    1.007897;    0.462449;    0.364984;    0.308466;    0.245853;    0.230838;    0.205174;    0.175640;    0.131430;    0.076632;
80;    0.137325;    1.006785;    0.452743;    0.356257;    0.294663;    0.237755;    0.222091;    0.190095;    0.153662;    0.111182;    0.056627;
81;    0.143088;    0.984446;    0.449622;    0.374219;    0.300928;    0.240833;    0.230156;    0.212984;    0.187084;    0.143570;    0.073580;
82;    0.141639;    0.987876;    0.446115;    0.353181;    0.294688;    0.237659;    0.229821;    0.213213;    0.184605;    0.133444;    0.068575;
83;    0.140966;    0.942801;    0.439651;    0.345479;    0.292156;    0.244323;    0.227350;    0.208602;    0.178121;    0.132857;    0.072018;
84;    0.145025;    0.957413;    0.465706;    0.378372;    0.306267;    0.245112;    0.227566;    0.202352;    0.171717;    0.114360;    0.077912;
85;    0.141880;    0.978046;    0.462096;    0.371698;    0.315857;    0.249880;    0.235950;    0.225917;    0.201996;    0.148385;    0.084258;
86;    0.143245;    1.037772;    0.455929;    0.371802;    0.293514;    0.239218;    0.226561;    0.207558;    0.185062;    0.133925;    0.071370;
87;    0.140883;    1.011324;    0.450194;    0.356508;    0.300455;    0.246011;    0.217076;    0.183154;    0.145133;    0.118662;    0.070677;
88;    0.147094;    1.043767;    0.466116;    0.387120;    0.302485;    0.239730;    0.230872;    0.205701;    0.176612;    0.143504;    0.081952;
89;    0.147933;    1.017488;    0.468737;    0.385377;    0.306528;    0.244498;    0.227984;    0.200935;    0.175392;    0.137743;    0.066142;
90;    0.144091;    0.982402;    0.457329;    0.365178;    0.313955;    0.243127;    0.229765;    0.201416;    0.168103;    0.136578;    0.071994;
91;    0.142253;    1.023095;    0.464237;    0.369982;    0.308692;    0.243621;    0.227591;    0.207213;    0.179404;    0.142431;    0.091279;
92;    0.140945;    0.996331;    0.457297;    0.372773;    0.306358;    0.234429;    0.217059;    0.195640;    0.158321;    0.122197;    0.077197;
93;    0.147001;    0.997894;    0.461988;    0.378022;    0.311206;    0.243223;    0.227713;    0.205045;    0.177627;    0.144542;    0.074136;
94;    0.144330;    1.007547;    0.460198;    0.359035;    0.308183;    0.246779;    0.231040;    0.206120;    0.178431;    0.133777;    0.068660;
95;    0.147086;    1.027337;    0.462907;    0.382460;    0.313838;    0.244690;    0.230953;    0.212160;    0.168789;    0.138074;    0.074503;
96;    0.143423;    1.032045;    0.455629;    0.367445;    0.302538;    0.235732;    0.223415;    0.199436;    0.176972;    0.130864;    0.065872;
97;    0.146586;    0.995484;    0.474405;    0.382559;    0.314963;    0.250710;    0.227629;    0.200013;    0.165389;    0.130222;    0.067581;
98;    0.173438;    1.000836;    0.464396;    0.368210;    0.306546;    0.241831;    0.227228;    0.196889;    0.166590;    0.128143;    0.086124;
99;    0.146071;    1.018819;    0.446509;    0.357185;    0.296126;    0.237587;    0.227721;    0.200009;    0.169727;    0.136944;    0.067105;
100;    0.154266;    0.999732;    0.449403;    0.385388;    0.301379;    0.240764;    0.218701;    0.184823;    0.158534;    0.119600;    0.072263;
