Simulation;Time;PC 0;PC 1;PC 2;PC 3;PC 4;PC 5;PC 6;PC 7;PC 8;PC 9;PC10;PC11;PC12;PC13;PC14;PC15;PC16;PC17;PC18;PC19;PC20;PC21;PC22;PC23;PC24;PC25;PC26;PC27;PC28;PC29;PC30;PC31;PC32;PC33;PC34;PC35;PC36;PC37;PC38;PC39;PC40;PC41;PC42;PC43;PC44;PC45;PC46;PC47;PC48;PC49;
Nan;Nan;0;0;0;0;0;0;0;0;0;0;0;0;0;0;0;1;0;0;0;0;0;0;0;0;0;0;0;0;0;0;0;0;0;0;0;0;0;0;0;0;0;0;0;0;0;0;0;0;0;0;
0;    7.273199;    0.982691;    0.848784;    0.786862;    0.735776;    0.680341;    0.611373;    0.530764;    0.470394;    0.387490;    0.314590;    0.247219;    0.226794;    0.199456;    0.179336;    0.166921;    0.151805;    0.151264;    0.150294;    0.149608;    0.148615;    0.148073;    0.146664;    0.145161;    0.142632;    0.140579;    0.138050;    0.135195;    0.133671;    0.131763;    0.129274;    0.126525;    0.123434;    0.120128;    0.116784;    0.113420;    0.109995;    0.105925;    0.101686;    0.096620;    0.090190;    0.084924;    0.078457;    0.071911;    0.065171;    0.058070;    0.049761;    0.040903;    0.032555;    0.021432;    0.010848;
1;    7.350650;    1.008453;    0.871102;    0.805511;    0.757293;    0.681042;    0.611343;    0.547904;    0.481038;    0.404436;    0.336593;    0.256469;    0.231424;    0.200826;    0.181184;    0.168187;    0.152672;    0.152011;    0.151236;    0.150106;    0.149516;    0.149068;    0.148199;    0.146739;    0.144273;    0.142603;    0.140656;    0.138350;    0.136583;    0.134354;    0.131416;    0.128937;    0.126302;    0.123224;    0.119195;    0.114147;    0.110134;    0.106142;    0.102704;    0.097221;    0.091370;    0.086246;    0.080658;    0.073436;    0.065637;    0.057036;    0.048911;    0.039781;    0.030763;    0.022245;    0.012514;
2;    7.269925;    1.015646;    0.881610;    0.819422;    0.771789;    0.703864;    0.618950;    0.560628;    0.479492;    0.413723;    0.336907;    0.250408;    0.228406;    0.200540;    0.179389;    0.169652;    0.152879;    0.152280;    0.151441;    0.149711;    0.148834;    0.147842;    0.146876;    0.145318;    0.144377;    0.143305;    0.142061;    0.140605;    0.138916;    0.136237;    0.132834;    0.130510;    0.127360;    0.124225;    0.120723;    0.117491;    0.113964;    0.110047;    0.105732;    0.099277;    0.092133;    0.086255;    0.080833;    0.074349;    0.065780;    0.057274;    0.049995;    0.041541;    0.032319;    0.022816;    0.010237;
3;    7.307972;    1.008476;    0.881039;    0.819302;    0.764025;    0.692249;    0.635135;    0.570700;    0.491678;    0.419719;    0.334997;    0.255115;    0.235936;    0.201749;    0.180155;    0.169922;    0.151942;    0.150640;    0.150189;    0.149877;    0.148750;    0.147492;    0.146375;    0.144819;    0.143487;    0.142629;    0.141467;    0.139571;    0.137142;    0.135679;    0.133408;    0.130259;    0.127089;    0.123715;    0.120623;    0.116928;    0.113506;    0.109959;    0.105418;    0.099561;    0.093858;    0.086649;    0.081508;    0.075375;    0.069603;    0.062887;    0.055241;    0.046298;    0.035962;    0.023405;    0.011909;
4;    7.362167;    1.026242;    0.890448;    0.831288;    0.770766;    0.689474;    0.617094;    0.563040;    0.491433;    0.405934;    0.333490;    0.252423;    0.232685;    0.202265;    0.181488;    0.173221;    0.154373;    0.153723;    0.153301;    0.152962;    0.151659;    0.149923;    0.148704;    0.147544;    0.146528;    0.145278;    0.143153;    0.140614;    0.138244;    0.135453;    0.134007;    0.131915;    0.129046;    0.124917;    0.121808;    0.118455;    0.114397;    0.110131;    0.104225;    0.100510;    0.096070;    0.090564;    0.084618;    0.076827;    0.068257;    0.060646;    0.052449;    0.044878;    0.034549;    0.024757;    0.013057;
5;    7.335278;    1.004403;    0.868566;    0.807164;    0.748182;    0.687452;    0.620011;    0.556106;    0.484427;    0.412255;    0.337016;    0.254538;    0.224617;    0.199210;    0.180180;    0.168514;    0.152275;    0.152015;    0.150775;    0.150062;    0.150130;    0.149297;    0.147550;    0.145668;    0.143840;    0.143011;    0.141401;    0.139353;    0.136522;    0.133971;    0.129980;    0.128009;    0.124713;    0.121293;    0.117224;    0.113769;    0.111058;    0.106989;    0.101648;    0.097201;    0.091307;    0.086755;    0.080611;    0.074908;    0.067636;    0.058509;    0.048810;    0.038575;    0.030290;    0.021144;    0.010351;
6;    9.068633;    0.999520;    0.866597;    0.809403;    0.740298;    0.678234;    0.612087;    0.551165;    0.484982;    0.400649;    0.329344;    0.253043;    0.233018;    0.201756;    0.178678;    0.164809;    0.150774;    0.149782;    0.148840;    0.148203;    0.147348;    0.146296;    0.145165;    0.144015;    0.142085;    0.140081;    0.138240;    0.135126;    0.132890;    0.130396;    0.128518;    0.126546;    0.123719;    0.120979;    0.116970;    0.114134;    0.110277;    0.105536;    0.101944;    0.097606;    0.093059;    0.088488;    0.082633;    0.075569;    0.067160;    0.060466;    0.053177;    0.043706;    0.033436;    0.023211;    0.010758;
7;    7.297818;    1.017763;    0.880412;    0.814752;    0.756287;    0.694910;    0.623532;    0.557196;    0.473846;    0.400401;    0.324558;    0.251175;    0.227274;    0.198988;    0.179188;    0.167091;    0.153498;    0.152966;    0.152117;    0.150915;    0.149449;    0.149017;    0.147734;    0.146126;    0.144174;    0.141759;    0.140795;    0.139771;    0.138348;    0.136192;    0.133997;    0.131183;    0.128465;    0.125434;    0.121386;    0.117467;    0.112324;    0.107868;    0.103756;    0.099487;    0.094114;    0.087940;    0.080560;    0.072536;    0.065941;    0.060042;    0.052182;    0.042211;    0.033902;    0.024158;    0.013282;
8;    7.306305;    0.988979;    0.857337;    0.800881;    0.747003;    0.674699;    0.619593;    0.543950;    0.470591;    0.404248;    0.323808;    0.247312;    0.225915;    0.199400;    0.178814;    0.167970;    0.151745;    0.151380;    0.150099;    0.149434;    0.147604;    0.145561;    0.144749;    0.143588;    0.142486;    0.140647;    0.138370;    0.136379;    0.134518;    0.132490;    0.129681;    0.127046;    0.123486;    0.120650;    0.117615;    0.114254;    0.109694;    0.107397;    0.103973;    0.099637;    0.094391;    0.088885;    0.082261;    0.076338;    0.070488;    0.062880;    0.054220;    0.044992;    0.033921;    0.024065;    0.012963;
9;    7.220592;    1.013573;    0.881601;    0.827346;    0.758117;    0.692354;    0.636693;    0.556549;    0.489693;    0.427182;    0.341985;    0.252353;    0.232055;    0.200829;    0.179863;    0.166894;    0.151051;    0.150945;    0.150017;    0.148923;    0.147345;    0.146814;    0.144873;    0.143791;    0.142377;    0.140634;    0.138502;    0.136990;    0.135662;    0.133773;    0.130771;    0.128958;    0.126731;    0.124132;    0.120555;    0.116433;    0.111722;    0.107991;    0.104568;    0.100178;    0.095300;    0.090295;    0.084447;    0.077023;    0.070135;    0.060909;    0.053970;    0.045428;    0.036837;    0.024921;    0.013690;
10;    7.314196;    1.010909;    0.877349;    0.822709;    0.761969;    0.704333;    0.639037;    0.582248;    0.505363;    0.430721;    0.336233;    0.252570;    0.227386;    0.201233;    0.177964;    0.168922;    0.150425;    0.150144;    0.149489;    0.148919;    0.148733;    0.147995;    0.146727;    0.146019;    0.145635;    0.144697;    0.143853;    0.142301;    0.140023;    0.138109;    0.135520;    0.133285;    0.130542;    0.127653;    0.124157;    0.120095;    0.115990;    0.111307;    0.105730;    0.100931;    0.094813;    0.090009;    0.084602;    0.077358;    0.071584;    0.064356;    0.054759;    0.042935;    0.033773;    0.022203;    0.011253;
11;    7.304866;    0.995711;    0.866904;    0.815559;    0.760565;    0.687953;    0.628603;    0.562166;    0.481637;    0.417293;    0.328138;    0.253809;    0.234695;    0.198976;    0.179747;    0.170686;    0.151839;    0.150739;    0.150021;    0.148901;    0.147283;    0.147258;    0.146303;    0.144767;    0.142145;    0.141556;    0.140231;    0.138561;    0.136581;    0.133488;    0.130203;    0.127463;    0.124907;    0.122256;    0.119461;    0.116103;    0.112028;    0.108666;    0.104708;    0.100074;    0.093975;    0.088144;    0.082146;    0.075705;    0.067925;    0.059447;    0.051767;    0.044767;    0.036795;    0.026104;    0.014626;
12;    7.395365;    0.990653;    0.866599;    0.819809;    0.760735;    0.683434;    0.615633;    0.550009;    0.470205;    0.396688;    0.331969;    0.252559;    0.230243;    0.195895;    0.176437;    0.165657;    0.150284;    0.149366;    0.148485;    0.146049;    0.145925;    0.144948;    0.143857;    0.143273;    0.142303;    0.140950;    0.139774;    0.137863;    0.135884;    0.133182;    0.130063;    0.126363;    0.122793;    0.118408;    0.115254;    0.110944;    0.107323;    0.104311;    0.100761;    0.096865;    0.091387;    0.086520;    0.080683;    0.074455;    0.066979;    0.059794;    0.051451;    0.040656;    0.031672;    0.020965;    0.011050;
13;    7.291521;    1.005385;    0.864585;    0.806243;    0.752999;    0.678823;    0.614121;    0.547835;    0.475009;    0.404137;    0.325078;    0.253959;    0.229876;    0.199935;    0.179462;    0.171423;    0.152862;    0.151597;    0.151102;    0.149780;    0.148788;    0.148163;    0.146999;    0.145843;    0.144191;    0.142086;    0.140372;    0.138594;    0.136560;    0.134876;    0.132329;    0.129622;    0.126749;    0.123661;    0.120209;    0.116643;    0.111767;    0.107587;    0.101692;    0.097105;    0.091515;    0.086495;    0.080853;    0.074472;    0.067050;    0.060299;    0.053271;    0.044693;    0.034463;    0.024659;    0.012195;
14;    7.332048;    0.983067;    0.854864;    0.804156;    0.735889;    0.683636;    0.618636;    0.553343;    0.474687;    0.394160;    0.320632;    0.252276;    0.230491;    0.202111;    0.180530;    0.167416;    0.153428;    0.152830;    0.151423;    0.150324;    0.149859;    0.148701;    0.147401;    0.146451;    0.145811;    0.144630;    0.142765;    0.140917;    0.138475;    0.136441;    0.133460;    0.130502;    0.127607;    0.123610;    0.121382;    0.118823;    0.114996;    0.110499;    0.105481;    0.101108;    0.095704;    0.090415;    0.083659;    0.078811;    0.071864;    0.064465;    0.054780;    0.045937;    0.037103;    0.026428;    0.012624;
15;    7.339854;    0.995786;    0.849097;    0.789845;    0.722230;    0.666002;    0.600296;    0.536871;    0.468155;    0.391318;    0.319523;    0.248360;    0.220804;    0.197052;    0.178361;    0.169893;    0.151170;    0.150335;    0.150032;    0.149211;    0.148057;    0.146821;    0.145787;    0.144273;    0.142684;    0.141219;    0.139829;    0.137770;    0.134461;    0.132632;    0.130224;    0.127761;    0.124975;    0.122826;    0.119943;    0.116186;    0.112318;    0.108406;    0.103844;    0.098325;    0.093666;    0.088645;    0.082547;    0.075959;    0.069088;    0.061904;    0.053095;    0.041966;    0.032140;    0.021421;    0.011802;
16;    7.419276;    1.020428;    0.891325;    0.821939;    0.760581;    0.697556;    0.622209;    0.565381;    0.490668;    0.413037;    0.338319;    0.257840;    0.233405;    0.204312;    0.182723;    0.168184;    0.153121;    0.152338;    0.152362;    0.151303;    0.150991;    0.150063;    0.149177;    0.147620;    0.146621;    0.145145;    0.143656;    0.141825;    0.139972;    0.137411;    0.134341;    0.131759;    0.129421;    0.126667;    0.123104;    0.120247;    0.116607;    0.113073;    0.108152;    0.102968;    0.097024;    0.090726;    0.084252;    0.076640;    0.068758;    0.061481;    0.052563;    0.041833;    0.033091;    0.022790;    0.012977;
17;    7.259450;    0.988658;    0.860294;    0.799488;    0.736480;    0.675533;    0.607801;    0.533906;    0.465061;    0.396848;    0.327674;    0.251757;    0.229909;    0.196280;    0.176233;    0.163668;    0.151007;    0.150738;    0.149603;    0.147940;    0.146470;    0.145343;    0.144415;    0.143103;    0.141707;    0.139488;    0.138343;    0.136648;    0.135074;    0.133381;    0.131321;    0.128938;    0.126141;    0.123019;    0.119155;    0.115219;    0.112375;    0.108277;    0.103661;    0.097857;    0.091633;    0.086567;    0.080708;    0.074464;    0.068045;    0.059747;    0.050543;    0.040457;    0.031314;    0.021322;    0.011016;
18;    7.253626;    0.981225;    0.859910;    0.800413;    0.748020;    0.678453;    0.618485;    0.541717;    0.466672;    0.411188;    0.341596;    0.252511;    0.233036;    0.199181;    0.179626;    0.169874;    0.152293;    0.151953;    0.150862;    0.150307;    0.149117;    0.148885;    0.147792;    0.146356;    0.144180;    0.140902;    0.139462;    0.137439;    0.135877;    0.133953;    0.131783;    0.128650;    0.125949;    0.123097;    0.120027;    0.116564;    0.112256;    0.107786;    0.104487;    0.099537;    0.094944;    0.088915;    0.083991;    0.078128;    0.071026;    0.062906;    0.054766;    0.046659;    0.036604;    0.024480;    0.012144;
19;    7.260512;    0.993874;    0.858064;    0.797416;    0.749764;    0.690087;    0.631099;    0.554197;    0.488914;    0.409598;    0.327487;    0.253981;    0.229154;    0.202433;    0.180961;    0.168516;    0.153094;    0.152562;    0.151674;    0.149671;    0.148945;    0.148244;    0.147135;    0.145631;    0.144300;    0.142613;    0.141121;    0.139286;    0.137431;    0.135075;    0.132289;    0.129442;    0.126930;    0.124488;    0.121661;    0.118730;    0.115006;    0.110702;    0.104605;    0.100594;    0.095431;    0.089207;    0.082543;    0.076116;    0.069604;    0.061564;    0.051077;    0.041086;    0.031994;    0.022505;    0.012152;
20;    7.910504;    1.012380;    0.868399;    0.820731;    0.752548;    0.690409;    0.631754;    0.571971;    0.506808;    0.424913;    0.341108;    0.253689;    0.228990;    0.199894;    0.177877;    0.169779;    0.150967;    0.150182;    0.148779;    0.147944;    0.146695;    0.146066;    0.144655;    0.143434;    0.142247;    0.141086;    0.139589;    0.137967;    0.136330;    0.134327;    0.131278;    0.128451;    0.125950;    0.123105;    0.119854;    0.116213;    0.111743;    0.108492;    0.104800;    0.099952;    0.095070;    0.089946;    0.084992;    0.078907;    0.071866;    0.062861;    0.054862;    0.045679;    0.035353;    0.024449;    0.012844;
21;    7.254691;    1.008331;    0.864399;    0.809497;    0.749035;    0.693437;    0.622338;    0.549782;    0.477609;    0.403507;    0.332437;    0.253229;    0.231199;    0.199214;    0.179910;    0.164920;    0.151244;    0.150640;    0.149303;    0.149289;    0.148859;    0.147715;    0.146349;    0.144790;    0.143593;    0.142040;    0.140641;    0.139258;    0.137262;    0.134645;    0.131641;    0.129318;    0.126398;    0.123141;    0.118104;    0.114041;    0.111160;    0.107419;    0.102469;    0.098050;    0.093028;    0.087565;    0.081374;    0.074870;    0.069026;    0.061798;    0.053463;    0.044285;    0.032671;    0.021764;    0.011575;
22;    7.304864;    1.015459;    0.876143;    0.816240;    0.752970;    0.678522;    0.616496;    0.544425;    0.485454;    0.423388;    0.336072;    0.254077;    0.228275;    0.200098;    0.179467;    0.166419;    0.152001;    0.150780;    0.150260;    0.149333;    0.148556;    0.147123;    0.145091;    0.144203;    0.143250;    0.141716;    0.139317;    0.137033;    0.134487;    0.133078;    0.131459;    0.128832;    0.126766;    0.124232;    0.120317;    0.115430;    0.111085;    0.107648;    0.103913;    0.099361;    0.094282;    0.089372;    0.084044;    0.077707;    0.071110;    0.063491;    0.055790;    0.046037;    0.035525;    0.022560;    0.011032;
23;    7.326048;    1.002953;    0.870189;    0.824041;    0.772060;    0.709163;    0.637744;    0.552472;    0.487472;    0.409782;    0.328461;    0.256393;    0.233073;    0.201185;    0.181227;    0.171661;    0.152342;    0.150940;    0.150554;    0.149593;    0.149023;    0.148039;    0.147051;    0.145941;    0.144667;    0.143387;    0.141405;    0.139750;    0.137767;    0.135612;    0.133775;    0.130947;    0.128048;    0.124477;    0.120969;    0.115593;    0.112006;    0.108422;    0.104229;    0.099171;    0.094122;    0.089559;    0.083575;    0.076837;    0.069260;    0.062356;    0.054236;    0.044115;    0.032847;    0.022109;    0.011503;
24;    7.319957;    1.021243;    0.882757;    0.829111;    0.758863;    0.693518;    0.624733;    0.553603;    0.484290;    0.406439;    0.333922;    0.252071;    0.226677;    0.196357;    0.176564;    0.167265;    0.150033;    0.148928;    0.148636;    0.147991;    0.147590;    0.146183;    0.144138;    0.142920;    0.141496;    0.140320;    0.138513;    0.136022;    0.133297;    0.130906;    0.128798;    0.126823;    0.124009;    0.120935;    0.118563;    0.116322;    0.112707;    0.108179;    0.103848;    0.098246;    0.092411;    0.086277;    0.079341;    0.072640;    0.066368;    0.057726;    0.048492;    0.039601;    0.030902;    0.020173;    0.011234;
25;    7.289029;    0.991735;    0.863157;    0.810648;    0.754302;    0.676743;    0.618578;    0.551123;    0.486958;    0.398569;    0.325936;    0.253225;    0.228246;    0.199560;    0.179005;    0.169629;    0.150480;    0.149497;    0.148935;    0.147733;    0.147522;    0.147004;    0.145365;    0.143166;    0.142023;    0.141064;    0.139530;    0.137656;    0.135956;    0.134015;    0.131405;    0.127719;    0.124207;    0.121981;    0.118845;    0.114959;    0.110870;    0.107114;    0.102856;    0.097734;    0.092252;    0.087095;    0.081429;    0.075576;    0.067861;    0.061023;    0.052825;    0.043651;    0.034310;    0.022755;    0.010792;
26;    7.806868;    1.017463;    0.883245;    0.825380;    0.764918;    0.705368;    0.644420;    0.577718;    0.501563;    0.412057;    0.345863;    0.254647;    0.231355;    0.200491;    0.182181;    0.172310;    0.153233;    0.152464;    0.152437;    0.151617;    0.150423;    0.147961;    0.147755;    0.146704;    0.145884;    0.143785;    0.141426;    0.138491;    0.135993;    0.133208;    0.129604;    0.126528;    0.124442;    0.122512;    0.119851;    0.116391;    0.111923;    0.107516;    0.103681;    0.100140;    0.095673;    0.089298;    0.084053;    0.078018;    0.070104;    0.062307;    0.053656;    0.044764;    0.035660;    0.024609;    0.012297;
27;    8.810518;    1.009529;    0.867165;    0.802150;    0.743779;    0.688627;    0.634485;    0.563772;    0.491380;    0.409524;    0.335464;    0.254569;    0.234853;    0.198426;    0.178317;    0.164947;    0.150364;    0.149501;    0.149267;    0.147912;    0.147266;    0.146153;    0.144838;    0.142683;    0.141830;    0.140334;    0.138825;    0.137463;    0.135213;    0.133916;    0.131935;    0.129004;    0.125688;    0.121406;    0.116714;    0.112889;    0.109286;    0.105972;    0.101320;    0.096120;    0.091216;    0.085408;    0.078591;    0.072412;    0.066274;    0.059196;    0.050631;    0.043507;    0.034218;    0.022422;    0.012265;
28;   12.039518;    1.013462;    0.869056;    0.817299;    0.748475;    0.677254;    0.619549;    0.547621;    0.486988;    0.413176;    0.326288;    0.248603;    0.229483;    0.197160;    0.178619;    0.169596;    0.151276;    0.150689;    0.150145;    0.149314;    0.147311;    0.145722;    0.144027;    0.142607;    0.142159;    0.140749;    0.138757;    0.136445;    0.134404;    0.132250;    0.130680;    0.128496;    0.126263;    0.123533;    0.120721;    0.117680;    0.113505;    0.108810;    0.104335;    0.099766;    0.094052;    0.087307;    0.081115;    0.074476;    0.067476;    0.060071;    0.050694;    0.042113;    0.033220;    0.021826;    0.011125;
29;   11.960049;    1.025707;    0.873813;    0.817384;    0.762498;    0.694220;    0.634939;    0.560267;    0.483956;    0.397626;    0.320084;    0.246372;    0.224063;    0.197839;    0.178743;    0.166371;    0.151686;    0.151243;    0.150727;    0.150094;    0.149155;    0.147788;    0.145492;    0.143411;    0.142006;    0.139824;    0.138382;    0.136334;    0.135275;    0.133078;    0.130170;    0.128098;    0.125368;    0.122537;    0.118657;    0.115885;    0.112292;    0.108096;    0.104188;    0.098575;    0.093417;    0.088762;    0.082311;    0.075449;    0.068168;    0.059587;    0.052256;    0.043902;    0.033772;    0.023465;    0.013704;
30;    7.425642;    1.010827;    0.871626;    0.822013;    0.757339;    0.697644;    0.627859;    0.572382;    0.497995;    0.414508;    0.343007;    0.254000;    0.230334;    0.201307;    0.182050;    0.173541;    0.154509;    0.153712;    0.152991;    0.152262;    0.151004;    0.149524;    0.148307;    0.146798;    0.144349;    0.143158;    0.141729;    0.139869;    0.137371;    0.134804;    0.132130;    0.129867;    0.127447;    0.124321;    0.121403;    0.118707;    0.114915;    0.110512;    0.105186;    0.101177;    0.096180;    0.090350;    0.086012;    0.080306;    0.072593;    0.063223;    0.053362;    0.044983;    0.034967;    0.022987;    0.011259;
31;   15.704029;    1.005790;    0.868212;    0.810051;    0.752932;    0.688129;    0.635302;    0.562852;    0.488711;    0.415306;    0.335113;    0.254785;    0.235301;    0.200101;    0.180134;    0.170820;    0.151426;    0.150704;    0.149098;    0.148574;    0.147697;    0.146291;    0.144704;    0.143058;    0.141137;    0.139261;    0.136514;    0.134261;    0.131596;    0.130345;    0.128744;    0.126453;    0.123334;    0.118990;    0.115951;    0.113567;    0.109378;    0.104902;    0.099807;    0.091892;    0.087471;    0.082503;    0.077651;    0.072384;    0.065651;    0.058243;    0.049712;    0.039411;    0.032467;    0.023594;    0.012548;
32;   10.160138;    0.997939;    0.872323;    0.809383;    0.755269;    0.695906;    0.611768;    0.555065;    0.486638;    0.401253;    0.323737;    0.251846;    0.236818;    0.201137;    0.177838;    0.169452;    0.150979;    0.150395;    0.149574;    0.149343;    0.148458;    0.147073;    0.146165;    0.144775;    0.143365;    0.141904;    0.139544;    0.137523;    0.134453;    0.132093;    0.129245;    0.126450;    0.123677;    0.121120;    0.117944;    0.114048;    0.109786;    0.106055;    0.101770;    0.097896;    0.092559;    0.087450;    0.081535;    0.073293;    0.064853;    0.059496;    0.051759;    0.043216;    0.034096;    0.023944;    0.012389;
33;    7.933098;    0.999219;    0.854196;    0.795827;    0.739587;    0.680012;    0.602642;    0.546856;    0.476890;    0.410663;    0.337538;    0.246974;    0.221839;    0.195951;    0.177885;    0.165367;    0.150088;    0.149339;    0.148879;    0.147913;    0.147450;    0.146223;    0.145320;    0.143121;    0.141457;    0.139713;    0.137116;    0.135587;    0.133842;    0.132733;    0.130490;    0.128188;    0.125618;    0.123163;    0.120531;    0.116645;    0.112248;    0.107044;    0.103696;    0.099326;    0.094005;    0.087233;    0.079897;    0.073388;    0.065192;    0.058697;    0.049245;    0.041116;    0.029781;    0.021382;    0.011615;
34;    8.266578;    1.021270;    0.875275;    0.822412;    0.766343;    0.688659;    0.616349;    0.556718;    0.489411;    0.408896;    0.331884;    0.252649;    0.232455;    0.200248;    0.180981;    0.170993;    0.151967;    0.151138;    0.149654;    0.148585;    0.147926;    0.146279;    0.144492;    0.144112;    0.143502;    0.142142;    0.140543;    0.138627;    0.136188;    0.134185;    0.131679;    0.128589;    0.125947;    0.122549;    0.119730;    0.114904;    0.111415;    0.107797;    0.104030;    0.099250;    0.093190;    0.086248;    0.079922;    0.073140;    0.065514;    0.057612;    0.047599;    0.040370;    0.032332;    0.021604;    0.010570;
35;    7.541300;    1.000479;    0.867660;    0.818864;    0.747878;    0.676553;    0.608519;    0.539945;    0.485684;    0.415672;    0.338907;    0.252240;    0.226745;    0.201523;    0.180570;    0.171772;    0.151329;    0.150301;    0.150217;    0.149669;    0.147728;    0.146739;    0.145225;    0.144110;    0.142742;    0.142008;    0.140455;    0.138255;    0.135160;    0.133105;    0.130469;    0.128295;    0.125701;    0.122780;    0.119899;    0.116672;    0.113486;    0.109350;    0.104100;    0.098079;    0.092491;    0.087600;    0.082468;    0.075775;    0.067149;    0.060049;    0.051169;    0.043495;    0.034257;    0.022894;    0.012230;
36;    7.992283;    0.981572;    0.861576;    0.810695;    0.741333;    0.680219;    0.622145;    0.555301;    0.470944;    0.396264;    0.335083;    0.247528;    0.224222;    0.199252;    0.179278;    0.164709;    0.150822;    0.150531;    0.149388;    0.148882;    0.147939;    0.146524;    0.145164;    0.143775;    0.142525;    0.140408;    0.137345;    0.134847;    0.133329;    0.131830;    0.129804;    0.126897;    0.123370;    0.120799;    0.117347;    0.114461;    0.110245;    0.106338;    0.102141;    0.097267;    0.091324;    0.084600;    0.079542;    0.074249;    0.068287;    0.060928;    0.053379;    0.043144;    0.031511;    0.021487;    0.012367;
37;    7.508209;    0.992836;    0.863340;    0.809842;    0.746602;    0.675000;    0.612090;    0.551119;    0.477668;    0.402711;    0.326747;    0.252939;    0.229845;    0.200263;    0.179263;    0.170568;    0.150863;    0.149815;    0.149396;    0.148129;    0.147541;    0.146572;    0.145150;    0.143739;    0.142444;    0.140858;    0.138789;    0.137805;    0.135909;    0.134336;    0.131842;    0.129197;    0.126110;    0.123399;    0.121118;    0.117675;    0.113369;    0.108681;    0.102390;    0.097426;    0.092713;    0.086174;    0.077745;    0.071099;    0.064199;    0.058168;    0.050228;    0.039932;    0.032762;    0.022814;    0.011247;
38;    7.677128;    0.996465;    0.858941;    0.801074;    0.737037;    0.678835;    0.614011;    0.540762;    0.478029;    0.398327;    0.320086;    0.251263;    0.232946;    0.200830;    0.181340;    0.169151;    0.153170;    0.152217;    0.151336;    0.150508;    0.149386;    0.148150;    0.146867;    0.145006;    0.143641;    0.141641;    0.138738;    0.137522;    0.136143;    0.134633;    0.132279;    0.129531;    0.126863;    0.123336;    0.119208;    0.114774;    0.111056;    0.107058;    0.103559;    0.098971;    0.093580;    0.087624;    0.082350;    0.076063;    0.068605;    0.061225;    0.054444;    0.045525;    0.034989;    0.023470;    0.013460;
39;    7.685152;    0.973666;    0.849742;    0.797881;    0.734452;    0.671693;    0.598978;    0.531587;    0.462721;    0.391666;    0.327229;    0.254055;    0.235139;    0.200953;    0.179630;    0.168055;    0.152111;    0.151585;    0.150086;    0.149324;    0.148132;    0.147375;    0.146126;    0.144116;    0.142384;    0.141396;    0.138847;    0.138014;    0.136798;    0.134725;    0.131955;    0.129162;    0.126871;    0.123147;    0.119170;    0.115440;    0.111990;    0.108133;    0.103442;    0.098851;    0.093076;    0.089123;    0.083959;    0.077690;    0.070342;    0.063334;    0.055003;    0.046790;    0.038341;    0.028288;    0.015735;
40;    9.201354;    1.003331;    0.868410;    0.807612;    0.754712;    0.690785;    0.625717;    0.545111;    0.467133;    0.404445;    0.322973;    0.250724;    0.230806;    0.197625;    0.176216;    0.167475;    0.149251;    0.148667;    0.147701;    0.146303;    0.145645;    0.144524;    0.143286;    0.142045;    0.140470;    0.138779;    0.137011;    0.134323;    0.133076;    0.131653;    0.129273;    0.126428;    0.123226;    0.119357;    0.115692;    0.111716;    0.107545;    0.102582;    0.098949;    0.094278;    0.088705;    0.083776;    0.078398;    0.072410;    0.065864;    0.059745;    0.052803;    0.044099;    0.033855;    0.021463;    0.010222;
41;    7.519562;    0.992704;    0.858367;    0.806590;    0.736420;    0.684855;    0.612905;    0.538009;    0.474382;    0.395874;    0.326191;    0.248642;    0.231613;    0.200127;    0.180802;    0.170057;    0.152067;    0.151036;    0.150822;    0.150304;    0.149118;    0.148338;    0.146825;    0.145362;    0.143795;    0.141640;    0.140244;    0.138329;    0.135989;    0.133754;    0.130752;    0.128371;    0.125595;    0.121851;    0.118396;    0.115467;    0.111557;    0.106823;    0.102354;    0.098081;    0.093123;    0.087124;    0.080811;    0.075133;    0.067975;    0.059875;    0.051057;    0.041140;    0.033620;    0.023655;    0.012392;
42;    7.919033;    1.016205;    0.866533;    0.807342;    0.754163;    0.694718;    0.628748;    0.545315;    0.480642;    0.402440;    0.330500;    0.251977;    0.228427;    0.201206;    0.180668;    0.165945;    0.152036;    0.151216;    0.150326;    0.149859;    0.149518;    0.148201;    0.147676;    0.146086;    0.143990;    0.141908;    0.139260;    0.138154;    0.136455;    0.134404;    0.131209;    0.129375;    0.127194;    0.124126;    0.120269;    0.117273;    0.114568;    0.110870;    0.106035;    0.100611;    0.094349;    0.086433;    0.079344;    0.073848;    0.066593;    0.060441;    0.052296;    0.043090;    0.036274;    0.026688;    0.014816;
43;    8.468775;    1.009351;    0.868441;    0.806745;    0.757864;    0.686207;    0.622424;    0.563094;    0.488943;    0.410380;    0.328913;    0.247976;    0.226545;    0.196419;    0.178262;    0.168280;    0.151326;    0.150824;    0.149406;    0.148521;    0.147945;    0.147571;    0.146022;    0.144130;    0.142897;    0.141436;    0.139452;    0.137869;    0.135824;    0.133892;    0.131185;    0.128915;    0.125711;    0.121658;    0.118991;    0.116194;    0.112384;    0.108123;    0.103277;    0.098785;    0.093413;    0.087535;    0.081941;    0.075707;    0.067509;    0.059569;    0.051466;    0.042304;    0.033979;    0.022568;    0.013032;
44;    7.694026;    1.006795;    0.872837;    0.816663;    0.773837;    0.707881;    0.630798;    0.563151;    0.492314;    0.408706;    0.322758;    0.251067;    0.233097;    0.203272;    0.182551;    0.169984;    0.153111;    0.152553;    0.152185;    0.151731;    0.150762;    0.149913;    0.148655;    0.146470;    0.145070;    0.143567;    0.141906;    0.140095;    0.137218;    0.134050;    0.131828;    0.129435;    0.127242;    0.124333;    0.121959;    0.118519;    0.114672;    0.110331;    0.104874;    0.098024;    0.093689;    0.087235;    0.079630;    0.072145;    0.065903;    0.057867;    0.050348;    0.041687;    0.033514;    0.023986;    0.012515;
45;    7.665845;    0.989660;    0.855246;    0.792704;    0.728526;    0.672207;    0.618227;    0.556827;    0.483268;    0.400110;    0.333149;    0.252815;    0.233214;    0.201725;    0.181620;    0.173078;    0.153547;    0.153061;    0.152760;    0.151782;    0.151054;    0.149934;    0.149127;    0.147908;    0.145939;    0.144681;    0.142814;    0.140600;    0.137943;    0.136365;    0.134251;    0.132142;    0.129672;    0.126710;    0.123253;    0.119585;    0.116201;    0.112413;    0.108199;    0.103233;    0.098725;    0.093444;    0.086955;    0.078623;    0.070201;    0.061624;    0.053413;    0.044098;    0.033260;    0.023387;    0.010978;
46;    7.663070;    1.009436;    0.866515;    0.799444;    0.746783;    0.692145;    0.616767;    0.553380;    0.483526;    0.397884;    0.322056;    0.245773;    0.226135;    0.197150;    0.178685;    0.169439;    0.150972;    0.150263;    0.148969;    0.148102;    0.146910;    0.145493;    0.144647;    0.143471;    0.141449;    0.140044;    0.139116;    0.137863;    0.135850;    0.133711;    0.130907;    0.128584;    0.126198;    0.122155;    0.118252;    0.115293;    0.111678;    0.107256;    0.100945;    0.097310;    0.093332;    0.087543;    0.081114;    0.074095;    0.067434;    0.060612;    0.051658;    0.041762;    0.032885;    0.021864;    0.011747;
47;    7.788569;    1.021132;    0.877848;    0.813315;    0.764063;    0.709975;    0.641500;    0.560191;    0.492486;    0.411344;    0.339047;    0.253155;    0.232398;    0.201961;    0.180624;    0.168595;    0.151307;    0.149503;    0.149033;    0.147246;    0.147058;    0.146065;    0.144964;    0.143909;    0.142055;    0.140050;    0.138759;    0.136755;    0.135118;    0.132693;    0.130412;    0.127868;    0.125673;    0.123237;    0.119664;    0.115574;    0.112518;    0.108603;    0.103621;    0.099264;    0.094371;    0.088413;    0.082350;    0.076031;    0.068244;    0.061837;    0.054010;    0.044673;    0.035175;    0.022673;    0.012545;
48;    7.547467;    0.997788;    0.869317;    0.810546;    0.742476;    0.685156;    0.615958;    0.554946;    0.474711;    0.403160;    0.332373;    0.254439;    0.234926;    0.199742;    0.180059;    0.167546;    0.151490;    0.150610;    0.150971;    0.150664;    0.149579;    0.147235;    0.146085;    0.144701;    0.143147;    0.141742;    0.139837;    0.136936;    0.135142;    0.132979;    0.130243;    0.128021;    0.125045;    0.121079;    0.118308;    0.114109;    0.109938;    0.105715;    0.101991;    0.098191;    0.093333;    0.088045;    0.081626;    0.073832;    0.067313;    0.060187;    0.051152;    0.042011;    0.031983;    0.023230;    0.012249;
49;    8.116601;    0.996741;    0.864491;    0.805992;    0.746574;    0.666828;    0.607822;    0.555008;    0.482992;    0.420366;    0.337359;    0.256572;    0.229519;    0.201570;    0.180469;    0.170298;    0.151810;    0.151602;    0.150468;    0.150040;    0.149690;    0.148606;    0.146922;    0.144641;    0.143387;    0.141735;    0.140855;    0.140107;    0.138539;    0.136301;    0.133399;    0.130517;    0.127678;    0.124566;    0.120629;    0.115644;    0.109229;    0.105158;    0.101096;    0.095879;    0.090405;    0.085182;    0.078815;    0.071331;    0.065645;    0.059249;    0.051906;    0.043315;    0.034930;    0.025449;    0.013696;
50;    7.441114;    1.000576;    0.860872;    0.806594;    0.745269;    0.688948;    0.611422;    0.555399;    0.485165;    0.399252;    0.338306;    0.256909;    0.228158;    0.200039;    0.179773;    0.171177;    0.153135;    0.152238;    0.150724;    0.149787;    0.148734;    0.148206;    0.146313;    0.145274;    0.143891;    0.141971;    0.141515;    0.140634;    0.139195;    0.137176;    0.135215;    0.132410;    0.128516;    0.124475;    0.120782;    0.117573;    0.113680;    0.109134;    0.104443;    0.098693;    0.094379;    0.089479;    0.083275;    0.077304;    0.070045;    0.061467;    0.052698;    0.043605;    0.035689;    0.025083;    0.011279;
51;    8.450577;    1.030014;    0.887042;    0.831352;    0.756081;    0.700052;    0.629987;    0.569058;    0.499855;    0.413185;    0.337093;    0.251568;    0.225433;    0.199677;    0.179507;    0.167291;    0.152314;    0.151267;    0.151363;    0.150963;    0.149792;    0.148965;    0.147546;    0.145506;    0.144293;    0.142960;    0.141042;    0.139881;    0.137735;    0.134597;    0.131768;    0.128891;    0.126842;    0.124074;    0.121108;    0.118007;    0.113631;    0.109713;    0.105241;    0.100138;    0.094727;    0.089004;    0.083177;    0.076315;    0.069585;    0.061893;    0.054308;    0.044142;    0.032670;    0.023579;    0.012584;
52;    9.893386;    0.995313;    0.860200;    0.806171;    0.737046;    0.685721;    0.614612;    0.541640;    0.464511;    0.395505;    0.316856;    0.250260;    0.230223;    0.200616;    0.180441;    0.170396;    0.152111;    0.151120;    0.150500;    0.149285;    0.148309;    0.146619;    0.145656;    0.143923;    0.142481;    0.140492;    0.138175;    0.136488;    0.133954;    0.132157;    0.129707;    0.127870;    0.125619;    0.122600;    0.118303;    0.112874;    0.109802;    0.105664;    0.100619;    0.096537;    0.091132;    0.084496;    0.079978;    0.073430;    0.066234;    0.060020;    0.052118;    0.043076;    0.033804;    0.022758;    0.011416;
53;    8.574670;    0.989993;    0.872542;    0.809507;    0.762228;    0.693493;    0.621647;    0.559468;    0.491150;    0.408966;    0.340295;    0.250390;    0.231381;    0.199041;    0.177740;    0.168728;    0.151081;    0.150684;    0.150533;    0.149323;    0.147599;    0.146384;    0.145478;    0.144089;    0.142740;    0.140242;    0.138987;    0.136958;    0.134911;    0.133390;    0.131107;    0.128105;    0.125734;    0.122426;    0.119282;    0.115547;    0.112004;    0.108258;    0.103042;    0.095894;    0.092360;    0.087872;    0.081854;    0.074229;    0.066144;    0.058584;    0.052065;    0.044637;    0.035432;    0.024142;    0.013135;
54;    8.441618;    1.010832;    0.871715;    0.803785;    0.748514;    0.687887;    0.630413;    0.567153;    0.491327;    0.401980;    0.321185;    0.247470;    0.225085;    0.197569;    0.178494;    0.168551;    0.152473;    0.151959;    0.151165;    0.150299;    0.150264;    0.149296;    0.147507;    0.146814;    0.145939;    0.144604;    0.142508;    0.139690;    0.136462;    0.134333;    0.132343;    0.129977;    0.127844;    0.125254;    0.121804;    0.117777;    0.113136;    0.108262;    0.103679;    0.098358;    0.093667;    0.088520;    0.082381;    0.075374;    0.068508;    0.060335;    0.053161;    0.044125;    0.033573;    0.020672;    0.011223;
55;    8.426468;    0.986144;    0.847799;    0.797880;    0.746005;    0.682842;    0.611388;    0.548135;    0.489266;    0.415439;    0.332383;    0.254395;    0.235496;    0.200176;    0.178104;    0.169595;    0.152089;    0.151404;    0.150482;    0.150184;    0.149495;    0.148341;    0.147417;    0.146313;    0.144189;    0.142528;    0.141420;    0.139215;    0.136490;    0.134357;    0.133196;    0.131231;    0.128080;    0.125329;    0.121903;    0.117889;    0.113486;    0.109358;    0.104688;    0.098419;    0.093698;    0.088234;    0.082401;    0.075768;    0.068775;    0.061573;    0.053334;    0.044009;    0.032555;    0.022920;    0.011603;
56;    8.523093;    0.993029;    0.855533;    0.796472;    0.729229;    0.665755;    0.597363;    0.533353;    0.462143;    0.397018;    0.325755;    0.255765;    0.228538;    0.200333;    0.179575;    0.170940;    0.151148;    0.150264;    0.149578;    0.148419;    0.147808;    0.146559;    0.145657;    0.144497;    0.143140;    0.141407;    0.139663;    0.137807;    0.135516;    0.132649;    0.130150;    0.128156;    0.124698;    0.120985;    0.117514;    0.113393;    0.109842;    0.106443;    0.102287;    0.097909;    0.093072;    0.087382;    0.081282;    0.074048;    0.067019;    0.060090;    0.050528;    0.039948;    0.031393;    0.022134;    0.012006;
57;    8.037720;    1.015697;    0.878647;    0.821888;    0.754314;    0.696311;    0.619706;    0.551524;    0.481471;    0.404056;    0.334939;    0.253480;    0.234020;    0.201406;    0.182430;    0.171383;    0.153534;    0.152850;    0.151051;    0.149574;    0.148938;    0.147169;    0.146476;    0.145104;    0.143439;    0.141160;    0.139940;    0.137473;    0.134593;    0.132106;    0.130174;    0.127743;    0.125096;    0.122473;    0.119119;    0.115646;    0.111499;    0.108437;    0.104067;    0.098677;    0.092817;    0.086448;    0.081843;    0.076212;    0.069385;    0.063118;    0.054976;    0.045031;    0.032572;    0.021742;    0.012463;
58;    9.411002;    1.006516;    0.868866;    0.806788;    0.743211;    0.687052;    0.615227;    0.557575;    0.483360;    0.409244;    0.335294;    0.252620;    0.231396;    0.201890;    0.181651;    0.170986;    0.151867;    0.150760;    0.150547;    0.149080;    0.148482;    0.147285;    0.146554;    0.145451;    0.144303;    0.142695;    0.140984;    0.139015;    0.137089;    0.134187;    0.131065;    0.129157;    0.125795;    0.123768;    0.120903;    0.117101;    0.113353;    0.108652;    0.104358;    0.100242;    0.095148;    0.088812;    0.082300;    0.075087;    0.068568;    0.060997;    0.052487;    0.044195;    0.034736;    0.023076;    0.011398;
59;    8.168017;    0.995901;    0.866388;    0.801907;    0.735245;    0.681940;    0.619353;    0.538470;    0.468036;    0.403973;    0.340051;    0.251518;    0.223248;    0.197848;    0.178705;    0.170309;    0.151280;    0.150617;    0.150460;    0.149624;    0.148701;    0.147770;    0.146194;    0.145587;    0.144571;    0.142836;    0.140936;    0.139210;    0.137466;    0.134915;    0.131471;    0.128409;    0.124401;    0.122148;    0.119574;    0.115963;    0.112516;    0.108102;    0.104628;    0.100408;    0.095346;    0.089885;    0.083375;    0.076812;    0.069494;    0.063219;    0.054660;    0.045623;    0.035222;    0.024401;    0.013819;
60;    8.202190;    1.004262;    0.868920;    0.813629;    0.754743;    0.690926;    0.631855;    0.563451;    0.479382;    0.398543;    0.325181;    0.253509;    0.233989;    0.201796;    0.181145;    0.167845;    0.152792;    0.152619;    0.152004;    0.151325;    0.150095;    0.148831;    0.147426;    0.146770;    0.145032;    0.143135;    0.141877;    0.139426;    0.137644;    0.136027;    0.133666;    0.130811;    0.127717;    0.125279;    0.122188;    0.117852;    0.113742;    0.108697;    0.104055;    0.099585;    0.094812;    0.089234;    0.081909;    0.076071;    0.069945;    0.062107;    0.052837;    0.044521;    0.034540;    0.024422;    0.012447;
61;    7.894303;    0.995206;    0.861789;    0.803015;    0.751465;    0.693397;    0.617582;    0.558575;    0.488705;    0.415422;    0.333559;    0.254155;    0.228890;    0.203245;    0.181885;    0.172610;    0.152200;    0.151472;    0.151062;    0.150641;    0.149168;    0.147045;    0.146434;    0.145330;    0.143293;    0.141393;    0.139482;    0.138306;    0.136350;    0.133907;    0.131606;    0.128928;    0.125135;    0.121607;    0.118157;    0.115220;    0.111778;    0.107888;    0.103103;    0.096722;    0.091795;    0.085245;    0.079455;    0.073257;    0.065534;    0.057865;    0.050752;    0.041868;    0.033387;    0.023532;    0.011974;
62;    8.420747;    0.991901;    0.856412;    0.801870;    0.741174;    0.671116;    0.602708;    0.546065;    0.469028;    0.393487;    0.324864;    0.251605;    0.236158;    0.199593;    0.178853;    0.168357;    0.150481;    0.149989;    0.149250;    0.147943;    0.146397;    0.146249;    0.145235;    0.143998;    0.142271;    0.140608;    0.138324;    0.136039;    0.133527;    0.131870;    0.129397;    0.126948;    0.123776;    0.120545;    0.117331;    0.113572;    0.109909;    0.106453;    0.102501;    0.098299;    0.092658;    0.087449;    0.081301;    0.075128;    0.068571;    0.060404;    0.051414;    0.041725;    0.032540;    0.023949;    0.012480;
63;    8.241471;    1.000290;    0.856487;    0.798764;    0.730462;    0.673155;    0.603898;    0.550818;    0.487612;    0.422511;    0.342750;    0.255934;    0.235403;    0.200402;    0.179731;    0.167238;    0.151530;    0.151371;    0.150502;    0.148097;    0.147142;    0.146603;    0.145359;    0.143234;    0.141779;    0.140129;    0.138790;    0.136904;    0.135109;    0.133886;    0.131782;    0.129167;    0.126254;    0.123691;    0.120742;    0.116671;    0.112123;    0.107417;    0.103382;    0.099151;    0.094369;    0.089334;    0.083608;    0.077616;    0.070136;    0.061954;    0.051982;    0.040596;    0.030527;    0.022296;    0.012799;
64;    7.854224;    1.004966;    0.868328;    0.819806;    0.749711;    0.694236;    0.630496;    0.569757;    0.496457;    0.419132;    0.334114;    0.254607;    0.234585;    0.202480;    0.181122;    0.166671;    0.152010;    0.151612;    0.150884;    0.149974;    0.149067;    0.148038;    0.146559;    0.145828;    0.144552;    0.143053;    0.141221;    0.139460;    0.138017;    0.135816;    0.132564;    0.130725;    0.129000;    0.126757;    0.124052;    0.120258;    0.116718;    0.112830;    0.107862;    0.101808;    0.096785;    0.090711;    0.084892;    0.077862;    0.070644;    0.061563;    0.053606;    0.044006;    0.032395;    0.021254;    0.012872;
65;    8.067087;    0.976747;    0.850514;    0.790259;    0.739221;    0.676191;    0.617771;    0.536230;    0.466513;    0.398303;    0.321316;    0.252118;    0.226585;    0.199829;    0.180633;    0.170496;    0.152593;    0.151668;    0.149632;    0.149316;    0.148242;    0.147333;    0.146779;    0.145600;    0.144151;    0.142973;    0.141011;    0.138824;    0.136472;    0.133787;    0.130566;    0.127348;    0.125396;    0.122440;    0.119501;    0.116495;    0.112971;    0.109083;    0.104108;    0.098845;    0.093906;    0.088054;    0.081979;    0.075985;    0.068547;    0.062903;    0.055797;    0.046460;    0.035504;    0.024626;    0.012610;
66;    8.043295;    1.002387;    0.870740;    0.817629;    0.758304;    0.692338;    0.625071;    0.567286;    0.488912;    0.404882;    0.337327;    0.253486;    0.235862;    0.200686;    0.178895;    0.166829;    0.151511;    0.150679;    0.149677;    0.148130;    0.147469;    0.146960;    0.145985;    0.144732;    0.143508;    0.142007;    0.139433;    0.136309;    0.133793;    0.132102;    0.130260;    0.128476;    0.126648;    0.124387;    0.121687;    0.118164;    0.113886;    0.110032;    0.105477;    0.100318;    0.094332;    0.088802;    0.081190;    0.074678;    0.066288;    0.058499;    0.051863;    0.042086;    0.034107;    0.023273;    0.012301;
67;    8.267774;    0.993936;    0.865180;    0.798556;    0.744299;    0.684182;    0.615575;    0.530519;    0.468944;    0.397200;    0.331036;    0.252378;    0.231188;    0.202895;    0.182402;    0.171110;    0.152134;    0.151408;    0.150272;    0.149318;    0.148509;    0.146700;    0.144683;    0.142778;    0.142056;    0.140625;    0.139007;    0.137694;    0.135676;    0.133115;    0.130844;    0.128441;    0.125663;    0.122479;    0.118346;    0.115042;    0.111133;    0.107409;    0.102161;    0.096283;    0.092575;    0.087814;    0.081678;    0.074519;    0.066584;    0.059974;    0.050958;    0.041174;    0.032190;    0.023668;    0.012554;
68;    8.041216;    1.001915;    0.866993;    0.809494;    0.738810;    0.680975;    0.616288;    0.561932;    0.477198;    0.413277;    0.330636;    0.253416;    0.229399;    0.200720;    0.179994;    0.170044;    0.151979;    0.151541;    0.149885;    0.149073;    0.148272;    0.146438;    0.145705;    0.143933;    0.142463;    0.141956;    0.140545;    0.139017;    0.137325;    0.135026;    0.131706;    0.128091;    0.126201;    0.123892;    0.121753;    0.119012;    0.115721;    0.112038;    0.107755;    0.102529;    0.096345;    0.091364;    0.086976;    0.080855;    0.074046;    0.064606;    0.055852;    0.046085;    0.034293;    0.024600;    0.012700;
69;    8.168082;    0.991875;    0.867566;    0.808070;    0.754638;    0.696622;    0.644764;    0.580092;    0.505676;    0.421048;    0.335127;    0.257869;    0.239184;    0.204867;    0.182641;    0.173764;    0.153426;    0.152310;    0.152434;    0.151178;    0.150221;    0.149014;    0.148083;    0.146612;    0.144265;    0.143121;    0.141772;    0.140129;    0.138129;    0.136296;    0.134030;    0.130886;    0.127328;    0.124615;    0.120745;    0.117240;    0.112023;    0.108806;    0.104742;    0.100121;    0.094698;    0.089248;    0.082446;    0.075234;    0.069293;    0.060922;    0.052997;    0.045033;    0.036992;    0.026007;    0.013169;
70;    7.224035;    1.014026;    0.878359;    0.813934;    0.762628;    0.693185;    0.618583;    0.545063;    0.481209;    0.396776;    0.322349;    0.250725;    0.226864;    0.202474;    0.182361;    0.173511;    0.153074;    0.152468;    0.151802;    0.150576;    0.149846;    0.148903;    0.147293;    0.146316;    0.144475;    0.142011;    0.140590;    0.139613;    0.137583;    0.135524;    0.132487;    0.128977;    0.125507;    0.123375;    0.120629;    0.117009;    0.112928;    0.108195;    0.103192;    0.097267;    0.092721;    0.086278;    0.081530;    0.076252;    0.070434;    0.063808;    0.055902;    0.047525;    0.038114;    0.026933;    0.013210;
71;    7.247610;    1.003454;    0.865887;    0.805564;    0.742202;    0.685541;    0.619319;    0.550921;    0.489332;    0.404632;    0.321787;    0.251756;    0.229864;    0.201078;    0.181119;    0.171150;    0.151807;    0.151338;    0.150401;    0.149481;    0.149020;    0.147927;    0.146519;    0.146053;    0.144913;    0.143380;    0.142132;    0.139965;    0.137615;    0.135753;    0.134090;    0.131336;    0.127603;    0.123936;    0.119349;    0.114042;    0.110131;    0.106829;    0.102857;    0.098946;    0.094032;    0.087834;    0.082546;    0.076412;    0.070169;    0.063065;    0.055291;    0.046599;    0.035263;    0.025085;    0.013352;
72;    7.328743;    1.008272;    0.868220;    0.818615;    0.761672;    0.694513;    0.630775;    0.557676;    0.489401;    0.403716;    0.339576;    0.250526;    0.231223;    0.200837;    0.181057;    0.170913;    0.152640;    0.151826;    0.150600;    0.149997;    0.149440;    0.148445;    0.146963;    0.145243;    0.144084;    0.142696;    0.140817;    0.139679;    0.137529;    0.135130;    0.133406;    0.131068;    0.127151;    0.123163;    0.119588;    0.115300;    0.112032;    0.108306;    0.104113;    0.099862;    0.094488;    0.088089;    0.081259;    0.074381;    0.067532;    0.059955;    0.052122;    0.043037;    0.032211;    0.022910;    0.011712;
73;    7.233086;    1.033017;    0.889526;    0.837805;    0.765957;    0.706031;    0.653600;    0.583162;    0.494466;    0.421000;    0.332420;    0.259682;    0.236088;    0.203647;    0.182489;    0.171221;    0.154983;    0.153714;    0.152812;    0.152554;    0.151608;    0.150027;    0.148668;    0.146663;    0.144892;    0.143152;    0.140862;    0.140088;    0.138526;    0.136084;    0.134132;    0.132533;    0.129775;    0.126927;    0.123525;    0.118863;    0.114115;    0.109243;    0.105152;    0.099998;    0.095836;    0.091265;    0.085964;    0.079099;    0.070566;    0.062686;    0.053349;    0.045128;    0.036840;    0.026041;    0.012131;
74;    7.232668;    1.007583;    0.862056;    0.800097;    0.752563;    0.688541;    0.615805;    0.548404;    0.480857;    0.402690;    0.327333;    0.254289;    0.234645;    0.203256;    0.182940;    0.173083;    0.153906;    0.153296;    0.152929;    0.152535;    0.152289;    0.151195;    0.149437;    0.148227;    0.146714;    0.145097;    0.142767;    0.141468;    0.139779;    0.137489;    0.135171;    0.132485;    0.130267;    0.128250;    0.125352;    0.122316;    0.118857;    0.114483;    0.110183;    0.105110;    0.099396;    0.092352;    0.086090;    0.079092;    0.070812;    0.063688;    0.054354;    0.046541;    0.036355;    0.024666;    0.012465;
75;    7.172768;    0.990037;    0.854503;    0.794194;    0.738551;    0.682513;    0.623964;    0.547476;    0.468580;    0.396322;    0.323241;    0.246988;    0.228050;    0.196753;    0.178140;    0.167149;    0.152194;    0.151078;    0.150253;    0.149627;    0.148694;    0.147463;    0.146734;    0.145452;    0.144498;    0.142943;    0.140923;    0.139366;    0.137449;    0.134634;    0.131393;    0.126988;    0.124747;    0.122399;    0.119665;    0.115864;    0.112170;    0.107418;    0.101038;    0.095966;    0.091884;    0.085948;    0.081317;    0.075793;    0.069015;    0.061222;    0.052520;    0.042768;    0.033808;    0.022919;    0.012327;
76;    7.183786;    1.009769;    0.865930;    0.815867;    0.744316;    0.688069;    0.609131;    0.551706;    0.472442;    0.412044;    0.333313;    0.251699;    0.228233;    0.202128;    0.183165;    0.172320;    0.154670;    0.153858;    0.153149;    0.151841;    0.150319;    0.149740;    0.148125;    0.146937;    0.145356;    0.143904;    0.142264;    0.140588;    0.138723;    0.137370;    0.135357;    0.132722;    0.129823;    0.126410;    0.123273;    0.120272;    0.116838;    0.112571;    0.108395;    0.103672;    0.097251;    0.091570;    0.084555;    0.075366;    0.068122;    0.060700;    0.052613;    0.045251;    0.036148;    0.024660;    0.012017;
77;    7.240735;    0.972231;    0.841480;    0.779918;    0.727193;    0.668317;    0.608070;    0.537682;    0.463534;    0.400717;    0.320482;    0.248529;    0.230588;    0.196691;    0.177413;    0.165620;    0.149314;    0.148565;    0.148172;    0.147345;    0.147039;    0.145726;    0.144957;    0.143882;    0.142799;    0.141366;    0.139141;    0.137311;    0.134262;    0.132668;    0.130843;    0.128359;    0.125911;    0.123603;    0.120101;    0.116172;    0.113186;    0.108985;    0.104215;    0.098572;    0.092836;    0.088000;    0.081702;    0.074663;    0.068182;    0.060808;    0.052651;    0.043099;    0.033959;    0.024904;    0.013081;
78;    7.186492;    0.988834;    0.862450;    0.799959;    0.743099;    0.678909;    0.613939;    0.538367;    0.463334;    0.391511;    0.329851;    0.253366;    0.234591;    0.200062;    0.180180;    0.169152;    0.150890;    0.150223;    0.149638;    0.148682;    0.148298;    0.146742;    0.145606;    0.143994;    0.141849;    0.141390;    0.140264;    0.138898;    0.136849;    0.134786;    0.132948;    0.129850;    0.127263;    0.123612;    0.120013;    0.116248;    0.113044;    0.109082;    0.104471;    0.099248;    0.092081;    0.087026;    0.081149;    0.073724;    0.067314;    0.059892;    0.053075;    0.043560;    0.033885;    0.025240;    0.014214;
79;    7.276824;    1.004751;    0.869610;    0.801327;    0.742352;    0.688663;    0.608892;    0.540705;    0.484033;    0.410006;    0.318982;    0.247503;    0.228291;    0.197582;    0.179205;    0.165303;    0.150197;    0.150002;    0.148989;    0.147258;    0.146542;    0.145503;    0.144094;    0.142735;    0.141606;    0.139757;    0.138033;    0.136733;    0.134722;    0.132654;    0.130012;    0.127135;    0.124777;    0.122522;    0.119231;    0.114984;    0.110461;    0.105057;    0.100394;    0.096628;    0.091681;    0.085615;    0.078474;    0.071224;    0.062536;    0.054089;    0.047903;    0.038871;    0.031305;    0.022496;    0.012426;
80;    7.258659;    0.984404;    0.846295;    0.801269;    0.741567;    0.676462;    0.605852;    0.531763;    0.472188;    0.396603;    0.319624;    0.244925;    0.226368;    0.195561;    0.176680;    0.163615;    0.150472;    0.149372;    0.148155;    0.148182;    0.147623;    0.146366;    0.144616;    0.142958;    0.141339;    0.140352;    0.138759;    0.136993;    0.135027;    0.132604;    0.129464;    0.126629;    0.123349;    0.120782;    0.117778;    0.113940;    0.110472;    0.106256;    0.103041;    0.098542;    0.093728;    0.087407;    0.079937;    0.074535;    0.067313;    0.059633;    0.050707;    0.043623;    0.034124;    0.023957;    0.011978;
81;    7.178254;    0.987912;    0.854896;    0.798795;    0.733323;    0.673295;    0.612726;    0.556899;    0.491441;    0.414563;    0.327710;    0.250175;    0.224879;    0.199992;    0.180268;    0.169357;    0.152041;    0.151431;    0.149409;    0.148381;    0.147622;    0.147094;    0.146334;    0.144732;    0.142831;    0.141736;    0.139709;    0.137476;    0.134659;    0.131731;    0.129813;    0.127811;    0.125193;    0.122031;    0.118477;    0.115668;    0.111709;    0.107064;    0.102102;    0.096647;    0.092049;    0.086602;    0.080304;    0.073979;    0.067847;    0.060502;    0.051688;    0.041311;    0.031692;    0.022148;    0.010005;
82;    7.195520;    0.983141;    0.848975;    0.801379;    0.741940;    0.685191;    0.626026;    0.564484;    0.488732;    0.406167;    0.326421;    0.248307;    0.229315;    0.197440;    0.178504;    0.168296;    0.150857;    0.150574;    0.150034;    0.149123;    0.147153;    0.145877;    0.144177;    0.142825;    0.140821;    0.138335;    0.137081;    0.135268;    0.134020;    0.132182;    0.130148;    0.126754;    0.122576;    0.118682;    0.115882;    0.112791;    0.109278;    0.105253;    0.100903;    0.097134;    0.092141;    0.087629;    0.080945;    0.073202;    0.065711;    0.059040;    0.051092;    0.041014;    0.032316;    0.023323;    0.012099;
83;    7.222565;    0.975020;    0.849984;    0.788862;    0.729695;    0.678264;    0.621648;    0.556830;    0.491892;    0.410679;    0.332893;    0.252758;    0.227168;    0.201579;    0.181014;    0.171043;    0.151868;    0.150687;    0.149655;    0.148451;    0.147982;    0.147291;    0.146062;    0.144533;    0.143029;    0.140855;    0.139746;    0.138247;    0.135794;    0.133930;    0.131394;    0.128389;    0.126054;    0.123895;    0.120661;    0.116888;    0.112310;    0.108231;    0.104087;    0.099379;    0.094626;    0.089732;    0.083837;    0.076577;    0.067884;    0.061289;    0.053775;    0.044460;    0.035488;    0.024878;    0.011654;
84;    7.234993;    0.995009;    0.873879;    0.816911;    0.755006;    0.687935;    0.618634;    0.559079;    0.489431;    0.401096;    0.331140;    0.252261;    0.231847;    0.202331;    0.181625;    0.172542;    0.151966;    0.151107;    0.150384;    0.150269;    0.149082;    0.147294;    0.146503;    0.144832;    0.143410;    0.141585;    0.139512;    0.136357;    0.134029;    0.132319;    0.130242;    0.127982;    0.124996;    0.121443;    0.117592;    0.114279;    0.109705;    0.106759;    0.102996;    0.098497;    0.092266;    0.087189;    0.080897;    0.074523;    0.067609;    0.060663;    0.052711;    0.044224;    0.033772;    0.023869;    0.012694;
85;    7.306788;    1.005297;    0.877198;    0.824554;    0.762577;    0.697146;    0.631318;    0.562402;    0.498355;    0.418208;    0.342089;    0.253494;    0.230627;    0.200341;    0.179988;    0.171982;    0.151181;    0.150550;    0.149463;    0.148365;    0.147835;    0.147505;    0.146174;    0.145118;    0.143018;    0.140422;    0.138799;    0.136798;    0.135249;    0.132942;    0.130290;    0.127550;    0.124418;    0.121674;    0.117940;    0.113940;    0.110275;    0.106152;    0.102290;    0.098046;    0.093251;    0.087857;    0.081537;    0.074036;    0.068520;    0.061197;    0.052441;    0.044861;    0.035330;    0.025059;    0.012534;
86;    7.234774;    1.004637;    0.858762;    0.798912;    0.740472;    0.674628;    0.610480;    0.546534;    0.475066;    0.409603;    0.335302;    0.252319;    0.235157;    0.201176;    0.179317;    0.171137;    0.152348;    0.151209;    0.150134;    0.149812;    0.148653;    0.148136;    0.146994;    0.145207;    0.144357;    0.143175;    0.141501;    0.139210;    0.136427;    0.134052;    0.131926;    0.129564;    0.126887;    0.124104;    0.120492;    0.117357;    0.114008;    0.110207;    0.106066;    0.100252;    0.094677;    0.088680;    0.083121;    0.075154;    0.068673;    0.062238;    0.053620;    0.044523;    0.035653;    0.025756;    0.013760;
87;    7.272724;    1.000535;    0.861070;    0.807553;    0.736370;    0.675575;    0.607401;    0.550819;    0.467916;    0.399038;    0.335339;    0.254422;    0.231218;    0.200008;    0.178729;    0.164415;    0.151094;    0.150106;    0.148745;    0.148093;    0.147045;    0.145329;    0.143176;    0.142580;    0.141159;    0.139688;    0.137712;    0.135737;    0.133772;    0.132053;    0.129586;    0.126658;    0.123468;    0.120338;    0.117846;    0.114852;    0.110898;    0.105257;    0.098986;    0.093808;    0.088842;    0.084572;    0.078767;    0.072884;    0.066169;    0.059668;    0.050846;    0.041177;    0.031737;    0.021796;    0.010145;
88;    7.342136;    1.012217;    0.868191;    0.810602;    0.760191;    0.691282;    0.640764;    0.579795;    0.505498;    0.424595;    0.328150;    0.251236;    0.228334;    0.197349;    0.178976;    0.170351;    0.152135;    0.150859;    0.150128;    0.149186;    0.148300;    0.146935;    0.146224;    0.145107;    0.143052;    0.141421;    0.140119;    0.138265;    0.135865;    0.134077;    0.131821;    0.128373;    0.124465;    0.121628;    0.118809;    0.114941;    0.111149;    0.106671;    0.102114;    0.097180;    0.091814;    0.084375;    0.077968;    0.071754;    0.065593;    0.056838;    0.048771;    0.039515;    0.030152;    0.021136;    0.009145;
89;    7.437807;    1.009755;    0.873318;    0.822719;    0.754186;    0.699233;    0.626424;    0.547612;    0.480825;    0.389448;    0.325828;    0.249853;    0.230717;    0.200432;    0.180955;    0.172546;    0.152448;    0.151428;    0.150218;    0.149714;    0.148809;    0.147887;    0.146459;    0.145761;    0.143979;    0.142524;    0.141310;    0.139601;    0.136983;    0.135672;    0.133203;    0.129646;    0.125660;    0.121834;    0.118601;    0.115641;    0.112401;    0.108251;    0.104203;    0.099637;    0.094595;    0.089104;    0.083442;    0.075623;    0.067212;    0.059385;    0.049716;    0.041444;    0.033784;    0.023868;    0.013452;
90;    7.387858;    0.997837;    0.867224;    0.807256;    0.745325;    0.694860;    0.624020;    0.570579;    0.487709;    0.415067;    0.339158;    0.254888;    0.235776;    0.200261;    0.179976;    0.169346;    0.151574;    0.151154;    0.149652;    0.148997;    0.147658;    0.146519;    0.144481;    0.144345;    0.143720;    0.142168;    0.140237;    0.138858;    0.136280;    0.133366;    0.131429;    0.128984;    0.126473;    0.123635;    0.120247;    0.117326;    0.113602;    0.109841;    0.105402;    0.100326;    0.094078;    0.088100;    0.082145;    0.075223;    0.066655;    0.059300;    0.051872;    0.043445;    0.034435;    0.023703;    0.013939;
91;    7.436772;    1.008042;    0.867967;    0.821721;    0.754324;    0.680096;    0.622760;    0.549547;    0.480926;    0.402070;    0.330914;    0.249827;    0.231994;    0.199724;    0.180162;    0.172089;    0.153663;    0.153276;    0.152263;    0.151043;    0.149933;    0.148704;    0.146794;    0.144686;    0.143954;    0.142591;    0.140607;    0.139502;    0.137662;    0.135137;    0.132512;    0.130185;    0.127364;    0.124155;    0.121130;    0.117912;    0.114222;    0.110965;    0.106810;    0.101088;    0.094487;    0.088462;    0.083523;    0.079208;    0.072435;    0.065036;    0.057024;    0.048436;    0.038229;    0.026003;    0.012845;
92;    7.985796;    0.991382;    0.857209;    0.795704;    0.743579;    0.681849;    0.607292;    0.541055;    0.471235;    0.408755;    0.328701;    0.251062;    0.232123;    0.199169;    0.180301;    0.168568;    0.150811;    0.151249;    0.150999;    0.149926;    0.148935;    0.147357;    0.144539;    0.143941;    0.142263;    0.140664;    0.138535;    0.137500;    0.136263;    0.134276;    0.131987;    0.128963;    0.126315;    0.124032;    0.120618;    0.116961;    0.112248;    0.108304;    0.103687;    0.099295;    0.094039;    0.087503;    0.082398;    0.076035;    0.068555;    0.060113;    0.053167;    0.044821;    0.035201;    0.022204;    0.011880;
93;   11.162045;    1.005346;    0.871958;    0.819563;    0.757893;    0.699518;    0.642659;    0.566539;    0.492691;    0.414191;    0.334896;    0.254031;    0.230935;    0.203027;    0.180870;    0.170934;    0.152831;    0.151568;    0.151070;    0.150070;    0.149974;    0.148878;    0.147262;    0.146420;    0.145131;    0.143519;    0.141607;    0.140014;    0.137434;    0.135698;    0.133184;    0.129779;    0.126657;    0.123184;    0.119290;    0.116768;    0.112528;    0.108265;    0.103141;    0.098567;    0.093802;    0.087919;    0.082793;    0.075626;    0.068989;    0.060657;    0.053188;    0.044783;    0.035181;    0.024440;    0.013915;
94;    8.662553;    1.004028;    0.868366;    0.815025;    0.741352;    0.678085;    0.616313;    0.538979;    0.465254;    0.410318;    0.326258;    0.250073;    0.223458;    0.199560;    0.179637;    0.170064;    0.153548;    0.152340;    0.151785;    0.150688;    0.149387;    0.148431;    0.147178;    0.146147;    0.145179;    0.144066;    0.142367;    0.140409;    0.138071;    0.135201;    0.132551;    0.129505;    0.125887;    0.123448;    0.120390;    0.115775;    0.113167;    0.108850;    0.103743;    0.098614;    0.093796;    0.088410;    0.082537;    0.075798;    0.067522;    0.060150;    0.051261;    0.042534;    0.031902;    0.022988;    0.011700;
95;    7.539374;    1.012528;    0.871966;    0.813464;    0.758508;    0.693231;    0.636396;    0.562076;    0.488848;    0.421582;    0.330723;    0.253271;    0.231638;    0.201637;    0.180872;    0.172129;    0.152279;    0.152056;    0.150851;    0.149831;    0.148450;    0.147329;    0.146824;    0.146057;    0.144185;    0.141382;    0.140625;    0.139324;    0.137007;    0.134856;    0.132944;    0.130423;    0.127584;    0.125355;    0.121606;    0.118041;    0.114475;    0.110935;    0.106594;    0.100696;    0.093884;    0.089013;    0.083543;    0.077562;    0.071747;    0.064370;    0.055054;    0.045970;    0.036191;    0.024279;    0.013564;
96;    7.781916;    0.998265;    0.854306;    0.797927;    0.750417;    0.685436;    0.629045;    0.555095;    0.477309;    0.412208;    0.326065;    0.249824;    0.227826;    0.199229;    0.178001;    0.167254;    0.152039;    0.151808;    0.150635;    0.149374;    0.149549;    0.148896;    0.147879;    0.146381;    0.145071;    0.143630;    0.142125;    0.140501;    0.137488;    0.135521;    0.133162;    0.129807;    0.126696;    0.123477;    0.119415;    0.114700;    0.111673;    0.107575;    0.102738;    0.097922;    0.093171;    0.087194;    0.078957;    0.072353;    0.066855;    0.061692;    0.055237;    0.046886;    0.036842;    0.024282;    0.012927;
97;    7.707283;    1.017737;    0.887331;    0.817776;    0.757962;    0.683869;    0.627915;    0.563330;    0.479333;    0.408100;    0.331909;    0.250731;    0.232035;    0.199701;    0.178247;    0.165311;    0.149631;    0.148940;    0.148597;    0.147811;    0.146683;    0.145454;    0.144221;    0.142559;    0.140944;    0.140295;    0.139293;    0.137561;    0.135297;    0.132490;    0.129858;    0.127085;    0.124329;    0.121030;    0.118181;    0.114970;    0.111586;    0.107859;    0.103909;    0.098711;    0.093260;    0.088589;    0.082824;    0.076784;    0.069129;    0.061463;    0.051805;    0.042724;    0.034358;    0.024303;    0.011307;
98;    7.736547;    1.001732;    0.868420;    0.808757;    0.755387;    0.690813;    0.616257;    0.559142;    0.488420;    0.415840;    0.333319;    0.250914;    0.234160;    0.202731;    0.182306;    0.174014;    0.153118;    0.152215;    0.151953;    0.150637;    0.150343;    0.149024;    0.147928;    0.146746;    0.145409;    0.143541;    0.142502;    0.140548;    0.137950;    0.134902;    0.132523;    0.129689;    0.127411;    0.124148;    0.121629;    0.118590;    0.114988;    0.111233;    0.106034;    0.100267;    0.095758;    0.090439;    0.084033;    0.077490;    0.071199;    0.063867;    0.055025;    0.045669;    0.035911;    0.026231;    0.012103;
99;    7.970385;    0.992909;    0.849632;    0.806203;    0.745921;    0.690669;    0.612615;    0.551204;    0.480784;    0.407953;    0.331347;    0.254322;    0.233572;    0.202982;    0.182249;    0.170537;    0.153739;    0.153370;    0.151963;    0.151249;    0.150198;    0.149487;    0.148931;    0.147560;    0.145942;    0.143634;    0.142162;    0.140590;    0.139184;    0.137447;    0.135533;    0.133562;    0.130983;    0.128520;    0.125322;    0.122374;    0.117697;    0.113111;    0.109158;    0.104190;    0.098451;    0.092386;    0.086947;    0.080382;    0.071646;    0.063236;    0.052893;    0.043975;    0.032458;    0.022967;    0.012496;
100;    8.402766;    0.993704;    0.855104;    0.805236;    0.751082;    0.683850;    0.627203;    0.550978;    0.465070;    0.400798;    0.329099;    0.252878;    0.233833;    0.198252;    0.178157;    0.168098;    0.151804;    0.150817;    0.150375;    0.148977;    0.148224;    0.146827;    0.145206;    0.143945;    0.142251;    0.140381;    0.138929;    0.137430;    0.135516;    0.134070;    0.131910;    0.128864;    0.125416;    0.121595;    0.118250;    0.114248;    0.110639;    0.107146;    0.103114;    0.098544;    0.093708;    0.086978;    0.080059;    0.073783;    0.067445;    0.059448;    0.052369;    0.044427;    0.035775;    0.024923;    0.012218;
