Simulation;Time;PC0;PC1;PC2;PC3;PC4;PC5;PC6;PC7;PC8;PC9;
Nan;Nan;0;0;0;0;1;0;0;0;0;0;
0;    0.073560;    0.989810;    0.536393;    6.183052;    7.529858;   10.823015;   11.817579;   13.138485;   15.459483;   49.313811;  319.258403;
1;    0.070832;    1.014889;    0.549645;    1.507624;    4.282617;    5.965346;    7.821278;   11.496600;   13.399718;   19.660378;68722.237317;
2;    0.071354;    1.014168;    0.564097;    1.040036;    1.519351;    9.859196;   10.536387;   13.036385;   24.890986;   33.391567;119543.372551;
3;    0.071947;    0.981266;    0.552258;    1.662966;    2.099719;   11.412161;   11.807142;   19.533421;   27.907334;   44.404971; 2187.528901;
4;    0.073593;    1.025421;    0.565337;    1.244224;    3.189373;    8.280076;   15.497347;   18.886525;  100.217476;  307.658013;  764.226221;
5;    0.073092;    1.003516;    0.541976;    1.592257;    1.613926;   11.828247;   13.502018;   14.749378;   27.083486;  359.456992;15548.560442;
6;    0.073344;    1.001991;    0.548630;    1.749074;    1.933751;   10.335485;   12.977408;   17.227459;   85.814386;  211.632173; 1436.294524;
7;    0.072122;    1.019792;    0.555458;    0.967095;    4.932412;    6.918922;   10.882351;   12.041072;   13.723833;   16.599982;   39.747531;
8;    0.071528;    0.984199;    0.538059;    3.188950;    4.223549;    4.308982;    5.001187;    5.947751;   11.295442;  135.834598; 1979.522340;
9;    0.071622;    1.000116;    0.556434;    2.358436;    4.316491;    4.361865;    4.954280;    6.969555;   13.442145;   54.920722;31279.878978;
10;    0.073144;    1.006155;    0.555415;    4.578491;    5.513030;   11.931818;   14.194942;   53.421738;   76.648268;  133.539616;4658241.856998;
11;    0.072886;    0.978601;    0.543460;   13.520745;   18.493301;   20.472656;   47.675712;   66.566324;  113.704669;  360.886732; 1968.840788;
12;    0.078758;    0.958036;    0.541349;    1.828695;    4.580662;    5.377741;    5.944701;    7.954527;    9.269401;   13.703645;  335.761893;
13;    0.071431;    1.015627;    0.538167;    1.094933;    2.336914;   15.845356;   17.010200;   33.746675;   39.105393;   42.780683;  100.335501;
14;    0.072938;    0.973925;    0.539635;    0.873571;    1.447483;   11.112453;   13.283766;   17.645187;   21.914017;   31.446077;   72.339514;
15;    0.072246;    1.032895;    0.532619;    1.019519;    1.639237;    5.982857;    9.240497;   10.669530;   20.348800;   45.974915;  612.408533;
16;    0.072560;    0.997190;    0.557830;    0.953501;    3.259643;    5.178878;    5.997062;    7.517264;   13.510467;   25.136154;64037.074120;
17;    0.075344;    0.971468;    0.540762;    0.662173;    4.907645;    5.028484;    5.430282;    6.103338;    9.075657;   12.655242; 2653.106869;
18;    0.072355;    0.940911;    0.532092;    1.253370;    1.522675;    8.478333;   10.479858;   12.730983;   16.520022;  232.827207;  854.740443;
19;    0.072250;    0.992461;    0.532138;    2.446737;    8.151356;    8.774873;   14.320450;   15.755190;   19.319990;   23.712807;16025.709996;
20;    0.074491;    1.037555;    0.545094;    2.129674;    5.847658;   10.119108;   15.764073;   24.339526;   30.881193;  142.737696;72856.668839;
21;    0.070709;    1.024868;    0.540346;    1.371133;    6.010847;    7.035367;    7.587635;    8.320120;    9.576703;   54.811978;109241.510733;
22;    0.077211;    1.017179;    0.545177;    1.921689;    2.025326;    7.607625;   13.679585;   16.901551;   23.294866;   26.841244; 4767.746701;
23;    0.078054;    0.988736;    0.537844;    4.495394;    4.716042;    8.014505;    8.683552;   10.045448;   16.538462;   87.086699;26156.943396;
24;    0.071893;    1.025265;    0.558755;    1.807677;    2.311800;    5.700666;    6.014775;    7.811717;    9.330855;   13.623989;25157.429244;
25;    0.071774;    0.977070;    0.543162;    3.551277;    4.112291;    5.413961;    7.084902;    9.206031;   14.603413;   24.858231;13179.294060;
26;    0.072680;    1.005839;    0.552516;    1.800502;    3.917991;    4.113896;    7.182683;   14.180115;   24.102747;   43.336294;  158.814986;
27;    0.075413;    1.022223;    0.539186;    1.037429;    5.762085;   31.254952;   33.659993;   52.304829;   63.368167;   90.901425;  555.980582;
28;    0.069001;    1.033727;    0.544859;    3.011942;    3.996160;    6.631056;   11.117297;   22.406133;   94.630408; 1040.542346;155561902.614632;
29;    0.113270;    1.065371;    0.549156;    2.202670;    5.404482;   16.821284;   19.997723;   24.715555;   51.598876;  144.155887; 5447.695635;
30;    0.073178;    1.020563;    0.549588;    2.521259;    2.989055;   16.637455;   18.492226;   22.769888;   37.240922;   75.067862;84659.194074;
31;    0.071538;    1.013280;    0.545740;    1.441485;    1.855915;    4.630886;    5.452187;    9.643452;   11.781003;   24.942948;12549.046854;
32;    0.087950;    0.972060;    0.547643;    1.660970;    2.787019;    8.970869;    9.482206;   11.082537;   15.397899;   56.538255; 1808.371448;
33;    0.087246;    1.030953;    0.539216;    2.419622;    2.579217;    8.518205;    8.881585;   10.182146;   14.192036;   75.941813;  336.967769;
34;    0.073871;    1.043036;    0.548603;    4.244052;    4.670671;    5.715858;    7.650387;   10.105149;   12.862000;   24.999907;   94.060380;
35;    0.073619;    0.994330;    0.544327;    3.738210;    3.863741;    4.237848;    4.575406;    5.790302;    7.558964;   33.855805; 2170.262568;
36;    0.072272;    0.949070;    0.548858;    2.538733;    3.322772;    5.827437;    6.109092;    6.951961;    8.853568;   12.444182; 1024.287806;
37;    0.071030;    0.984917;    0.547238;    2.789403;    8.816576;    9.117315;   13.797873;   14.272075;   17.210961;   23.207771; 1076.298910;
38;    0.071592;    1.004328;    0.537647;    1.240956;    1.435590;    5.690139;   18.025371;   20.429905;   38.168630;   46.298439; 3414.767832;
39;    0.071993;    0.945922;    0.526467;    7.897411;   10.305491;   11.145305;   16.425470;   18.456003;   20.615396;  119.631084;25361.963545;
40;    0.071361;    1.007664;    0.552747;    1.357596;    1.381768;    5.047664;    5.733327;    7.580886;    8.412313;  233.214866; 2416.557524;
41;    0.079277;    1.000197;    0.542494;    5.606246;    7.594706;   12.265938;   13.109836;   16.154965;   20.143311;   24.981372; 6800.388844;
42;    0.073123;    1.049946;    0.544412;    5.173851;    5.588827;    5.740500;    6.157434;    7.093596;    8.590491;   47.716674; 8090.258301;
43;    0.072328;    1.026700;    0.544972;    1.058536;    1.366783;    8.359787;   11.315771;   19.345447;   65.376315;   96.677789;  524.609298;
44;    0.078610;    1.003020;    0.550431;    1.336691;    1.398412;   80.351036;   98.845554;  135.613604;  241.771366;  578.569142;10170.869617;
45;    0.089375;    0.984299;    0.531539;    1.683506;    3.002946;    3.917942;   13.011815;   19.439683;   27.522401;   51.838427;  280.535605;
46;    0.075312;    1.034609;    0.548395;    2.495438;    2.846944;   20.076283;   26.907339;   36.010866;  139.953939;  308.086843; 2541.719829;
47;    0.071320;    1.035889;    0.549578;    2.252588;    3.097892;   10.378643;   15.853916;   26.641752;   33.075432;   45.674967; 4453.487016;
48;    0.072267;    0.972997;    0.539683;    2.160569;    2.739341;    3.410925;    3.943064;    4.676778;    6.398888;   21.730599;  307.009647;
49;    0.072851;    0.980429;    0.537294;    1.283617;    3.523352;    6.196914;   12.007590;   18.078655;   69.372418;  147.160442; 4957.390946;
50;    0.075407;    1.010490;    0.538289;    2.255976;    6.043106;    6.415916;    7.731448;    9.308672;   15.591827;   25.502703; 1525.510629;
51;    0.074003;    1.041688;    0.562802;    1.293066;    1.685552;    7.599400;   11.722069;   12.772597;   14.261177;   21.609116;  701.416121;
52;    0.078964;    1.002462;    0.544272;    3.775462;    4.149715;    5.128842;    6.063098;    8.417833;   16.255700;  143.733814;  211.037645;
53;    0.132093;    0.949087;    0.556168;    6.568552;    7.125590;    8.185818;    9.072499;   94.183743;  157.055577; 1081.367437;958857.063771;
54;    0.070514;    1.029781;    0.557316;    2.834643;    3.262775;    5.824056;    9.221789;   10.338459;   13.370947;   26.272050; 1038.230530;
55;    0.071566;    0.993538;    0.525760;    9.199900;    9.669479;   10.648113;   26.228204;   37.645721;   79.690970;  134.907457; 5013.988214;
56;    0.073037;    1.006330;    0.536791;    1.311257;    2.643645;    2.700047;    2.924425;    3.174576;    5.738200;   18.527182; 3023.722116;
57;    0.076416;    1.021499;    0.558357;    3.385601;    9.956951;   10.110183;   10.425232;   15.714344;   24.511100;  265.533559; 2798.053213;
58;    0.069232;    1.012764;    0.547692;    2.074255;    2.407885;   12.321687;   12.884002;   16.217570;   24.664185;   56.214201; 2545.048700;
59;    0.073507;    0.986550;    0.550998;    1.076693;    3.982722;    4.200055;    5.380419;    6.356757;    8.566635;   13.939524; 4904.501618;
60;    0.075384;    1.004415;    0.547897;    2.032677;    2.227223;    5.767366;    7.447290;    9.844259;   12.836045;  106.954054;10239.122082;
61;    0.089861;    0.986896;    0.534748;    5.269386;    6.046910;   11.991295;   13.214947;   18.999226;   38.069746;   99.445472;762527.072353;
62;    0.109847;    0.990059;    0.536287;    0.833465;    2.746033;    5.750671;    6.073713;    6.409444;    8.646968;   11.799881;  369.101680;
63;    0.072538;    1.026471;    0.535148;    2.128610;    2.397431;    6.878614;    8.681159;   12.265132;   15.400778;   66.611351;  878.716599;
64;    0.071047;    1.006817;    0.544921;    1.194833;    2.024007;   17.262995;   24.973844;   34.452195;   49.123927;   64.812197;84957.262584;
65;    0.072008;    0.963513;    0.534189;    2.328779;    2.936281;   27.319202;   34.691889;   40.688628;   50.655548;   77.444848;  186.820459;
66;    0.070909;    0.990636;    0.545175;    2.999156;    3.795555;   23.471082;   28.792935;  151.503089;  583.305911; 1262.600470;66925.149776;
67;    0.070482;    0.965926;    0.531541;    2.162865;    2.586423;    5.812275;    5.952273;    6.765776;    8.267858;   15.078119;1138236.325505;
68;    0.071563;    0.999326;    0.541956;    3.148361;    3.994374;   11.606867;   15.473215;   18.238510;   26.608412;   45.666838;2748819.262924;
69;    0.069741;    0.961260;    0.540419;    3.535235;   20.953433;   27.933933;   34.080099;   42.762079;   55.089303;   64.314353;  858.737218;
70;    0.076048;    1.015327;    0.556576;    1.703769;    1.945366;    2.776805;    2.984051;    3.322594;    4.090232;    5.690114; 5463.309575;
71;    0.075423;    1.005429;    0.539475;    2.799523;    3.002429;    6.137862;    6.475831;    8.122083;    9.327381;   11.296961;   17.319173;
72;    0.069140;    1.017579;    0.541423;    5.153267;    6.564604;    8.197081;   12.458149;   19.188000;   23.790422;   43.326807; 5697.649022;
73;    0.069477;    1.043637;    0.558114;    1.528984;    1.596899;   59.470362;   65.822007;   84.321390;  269.219053;  359.487971; 7888.063946;
74;    0.069740;    1.032627;    0.543131;    2.419025;    5.438813;    6.185008;    6.591307;    7.091601;    8.375789;   10.392097; 2415.292511;
75;    0.069884;    1.003277;    0.543802;    2.502828;    4.471915;    5.865895;    7.156377;    8.185261;    9.300892;   25.214728;  128.189960;
76;    0.069855;    1.031263;    0.541076;    1.015732;    2.858657;    4.865412;    5.823447;    6.115262;    6.974839;   11.724405;   72.131917;
77;    0.068643;    0.966885;    0.524150;    2.489771;    4.751452;   15.555183;   19.338021;   22.892384;   41.776085;  743.936456;11528.417111;
78;    0.068366;    0.971441;    0.546639;    1.500141;    1.570045;    3.641420;    4.907434;    5.540869;    7.743734;    9.501798; 3707.173666;
79;    0.070181;    1.008138;    0.548752;    5.738117;    5.956467;   18.995677;   19.936689;   25.519852;   30.920317;  240.782714;40360.769659;
80;    0.070018;    1.005288;    0.537435;    9.009508;   15.502149;   19.067154;   26.313829;   34.272997;   64.556774;   84.585687; 1800.724506;
81;    0.068883;    0.984587;    0.534506;    1.433583;    3.504428;    4.458368;    6.464780;    6.956219;   13.229226;   15.972282;  151.103035;
82;    0.069724;    0.987422;    0.530432;    5.270387;    7.283584;    9.984258;   10.843350;   14.696830;   22.971175;   26.888503;   48.062143;
83;    0.071173;    0.944715;    0.523373;   14.344223;   16.661845;   18.827970;   27.254458;  158.402147;  502.997699; 1460.649578; 6788.744750;
84;    0.071152;    0.960460;    0.553329;    3.014845;   10.019886;   10.371977;   11.282402;   22.650421;   28.317212;  435.152330;17161.723893;
85;    0.070889;    0.980218;    0.549524;    2.011574;    2.281811;   11.807308;   18.779549;   20.712400;   25.217275;   31.830736; 1714.470297;
86;    0.070175;    1.035106;    0.539927;    1.291547;    9.187300;   15.828296;   17.738640;   20.849030;   27.266363;   36.622388;  664.889682;
87;    0.071274;    1.010122;    0.535261;    3.991719;    8.417083;   46.649521;   50.289277;   56.281440;   68.932162;  108.321989; 8222.392974;
88;    0.071150;    1.041593;    0.551670;    1.148453;    8.287206;   17.487442;   24.866889;   50.624025;  244.967799;  490.334683; 4457.998243;
89;    0.069322;    1.017340;    0.556577;    2.197027;    5.009658;    6.277009;    6.637138;    6.993837;   30.325074;   91.945358; 1612.666358;
90;    0.076529;    0.983326;    0.542693;    2.595576;    2.762238;   13.234726;   22.848683;   38.945709;   60.734695;   92.353743; 1071.979422;
91;    0.067878;    1.022287;    0.550539;    1.876637;    2.026284;    9.075223;   10.529250;   11.290855;   12.554187;   14.589522; 3143.453216;
92;    0.069774;    0.995872;    0.542387;    2.271265;    3.305572;    7.342544;    8.497921;   12.885184;   15.724435;  132.388254;  422.406727;
93;    0.069721;    0.998427;    0.548359;    2.221770;    5.263001;   20.282781;   22.701416;   24.951088;   35.372706;  257.079612; 1531.394781;
94;    0.069243;    1.007550;    0.546459;    4.071370;    4.725820;    4.737829;    5.303326;    7.239378;    9.880079;   12.973757;  116.239899;
95;    0.073342;    1.026271;    0.549936;    1.208233;    3.133916;    5.337622;    8.509429;    9.512187;   11.942273;   25.680391; 1151.624648;
96;    0.071808;    1.029465;    0.540106;    1.899788;    4.263911;   22.960374;   66.395966;   74.612944;  100.035323;  166.630043; 2787.794277;
97;    0.076702;    0.997788;    0.562848;    2.512471;    4.404960;    4.790555;    7.537281;   11.142199;   14.839344;   37.694902; 8625.979512;
98;    0.080822;    1.001115;    0.549692;    3.192226;    3.558877;    7.438749;   12.093491;   14.551250;   20.884587;   27.725255;16120.640463;
99;    0.078841;    1.016349;    0.530440;    3.752079;    4.687844;    8.195632;    9.596785;   12.034207;   57.686576;  188.862971;15621247.388306;
100;    0.072547;    0.999004;    0.534993;    0.939196;    7.111216;    7.490486;    8.973584;   10.661443;   13.778751;   39.804977;70990.035266;
