Simulation;Time;PC 0;PC 1;PC 2;PC 3;PC 4;PC 5;PC 6;PC 7;PC 8;PC 9;PC10;PC11;PC12;PC13;PC14;PC15;PC16;PC17;PC18;PC19;PC20;PC21;PC22;PC23;PC24;PC25;PC26;PC27;PC28;PC29;PC30;PC31;PC32;PC33;PC34;PC35;PC36;PC37;PC38;PC39;PC40;PC41;PC42;PC43;PC44;PC45;PC46;PC47;PC48;PC49;
Nan;Nan;0;0;0;0;0;0;0;0;0;0;0;0;0;0;0;1;0;0;0;0;0;0;0;0;0;0;0;0;0;0;0;0;0;0;0;0;0;0;0;0;0;0;0;0;0;0;0;0;0;0;
0;    1.677115;    0.981710;    0.851518;    0.796041;    0.750351;    0.697350;    0.627108;    0.542317;    0.480235;    0.389774;    0.310420;    0.235710;    0.225357;    0.205180;    0.204444;    0.217429;    0.232249;    0.242283;    0.252795;    0.264185;    0.276364;    0.289426;    0.303062;    0.317084;    0.331434;    0.346896;    0.362322;    0.377800;    0.395420;    0.413641;    0.432178;    0.451481;    0.471216;    0.492323;    0.513573;    0.535896;    0.558690;    0.581708;    0.605899;    0.630170;    0.655549;    0.681643;    0.708315;    0.735443;    0.763764;    0.793452;    0.823360;    0.853255;    0.884235;    0.915893;    0.948253;
1;    1.688542;    1.008423;    0.874906;    0.814297;    0.771789;    0.696624;    0.625582;    0.560990;    0.490651;    0.407742;    0.334552;    0.245822;    0.231619;    0.209009;    0.207996;    0.225254;    0.241395;    0.251329;    0.262100;    0.273409;    0.285412;    0.298817;    0.312636;    0.326578;    0.340798;    0.356811;    0.373006;    0.390103;    0.408224;    0.426936;    0.445602;    0.465394;    0.485793;    0.506759;    0.528567;    0.549984;    0.574153;    0.598590;    0.624068;    0.648825;    0.674458;    0.701580;    0.729017;    0.756976;    0.784926;    0.813968;    0.844231;    0.874902;    0.907496;    0.941021;    0.974763;
2;    1.666516;    1.016305;    0.886749;    0.830943;    0.789602;    0.723984;    0.636462;    0.577572;    0.491450;    0.420733;    0.337193;    0.239894;    0.227965;    0.207824;    0.207013;    0.219743;    0.236801;    0.247093;    0.258063;    0.269141;    0.281855;    0.294960;    0.308878;    0.323152;    0.338256;    0.354573;    0.371196;    0.388760;    0.407142;    0.425919;    0.444948;    0.465231;    0.485523;    0.507473;    0.529911;    0.552890;    0.576961;    0.602145;    0.627104;    0.652769;    0.678257;    0.704963;    0.732909;    0.761442;    0.789591;    0.819528;    0.850737;    0.882401;    0.915337;    0.949059;    0.981916;
3;    1.678084;    1.008679;    0.886037;    0.830667;    0.780248;    0.710271;    0.654448;    0.589175;    0.505110;    0.427260;    0.333263;    0.244520;    0.236632;    0.210091;    0.208884;    0.223445;    0.241236;    0.250941;    0.262136;    0.273906;    0.286092;    0.299014;    0.312610;    0.326504;    0.341463;    0.357744;    0.374414;    0.391875;    0.409249;    0.428221;    0.447432;    0.467042;    0.487515;    0.509327;    0.531680;    0.554367;    0.578067;    0.602344;    0.626975;    0.651669;    0.676818;    0.702365;    0.729895;    0.758736;    0.788264;    0.818439;    0.849229;    0.879994;    0.911112;    0.942168;    0.974973;
4;    1.662922;    1.027038;    0.895690;    0.843372;    0.787691;    0.706979;    0.632987;    0.578952;    0.503209;    0.410538;    0.332430;    0.241986;    0.232939;    0.209685;    0.208688;    0.222781;    0.238463;    0.248970;    0.260090;    0.272530;    0.284972;    0.298262;    0.312557;    0.327458;    0.343010;    0.359360;    0.376185;    0.393380;    0.411899;    0.430884;    0.451206;    0.472223;    0.493114;    0.513928;    0.536610;    0.559864;    0.584021;    0.608530;    0.633161;    0.659629;    0.686365;    0.713910;    0.742172;    0.770382;    0.800268;    0.830987;    0.861659;    0.893819;    0.925516;    0.959025;    0.992637;
5;    1.655255;    1.004461;    0.872586;    0.817460;    0.762784;    0.704511;    0.636802;    0.571580;    0.495113;    0.417556;    0.335189;    0.243833;    0.224028;    0.207120;    0.206689;    0.224338;    0.239627;    0.250228;    0.261118;    0.272821;    0.285711;    0.299146;    0.312711;    0.326955;    0.341523;    0.357601;    0.373774;    0.390569;    0.407332;    0.425308;    0.443716;    0.463910;    0.484273;    0.504773;    0.526516;    0.548657;    0.572255;    0.596351;    0.620806;    0.646586;    0.672303;    0.700055;    0.727966;    0.756687;    0.785219;    0.813840;    0.843312;    0.873913;    0.905516;    0.938151;    0.970747;
6;    1.654274;    0.999786;    0.870929;    0.820372;    0.755140;    0.694637;    0.628057;    0.566774;    0.497372;    0.406106;    0.327693;    0.242705;    0.233289;    0.209404;    0.207850;    0.222855;    0.238502;    0.248218;    0.258747;    0.270860;    0.283643;    0.296481;    0.310214;    0.324267;    0.338770;    0.354204;    0.369955;    0.386353;    0.403682;    0.421802;    0.440697;    0.460619;    0.480743;    0.501582;    0.522909;    0.545128;    0.568041;    0.591459;    0.616366;    0.642170;    0.669226;    0.696648;    0.724436;    0.752570;    0.780474;    0.810130;    0.840239;    0.870776;    0.902086;    0.934079;    0.966048;
7;    1.653667;    1.018624;    0.885427;    0.825870;    0.772591;    0.713674;    0.641274;    0.573869;    0.484428;    0.405010;    0.322065;    0.240913;    0.227217;    0.206596;    0.205779;    0.222739;    0.237055;    0.247635;    0.258965;    0.271475;    0.284503;    0.297760;    0.311311;    0.325686;    0.340148;    0.355713;    0.373253;    0.390921;    0.409262;    0.428811;    0.448809;    0.469158;    0.489897;    0.512096;    0.533671;    0.556305;    0.579222;    0.603422;    0.628995;    0.654394;    0.680759;    0.707190;    0.734048;    0.762438;    0.791933;    0.822728;    0.854015;    0.885510;    0.918491;    0.951991;    0.984910;
8;    1.662636;    0.988416;    0.860878;    0.811258;    0.761721;    0.690878;    0.637433;    0.558674;    0.480197;    0.409624;    0.321175;    0.235998;    0.224577;    0.205469;    0.204562;    0.217150;    0.232972;    0.243058;    0.253215;    0.264935;    0.276605;    0.288558;    0.301612;    0.315757;    0.330362;    0.345710;    0.361387;    0.378073;    0.395632;    0.414095;    0.433093;    0.452598;    0.472243;    0.493716;    0.515178;    0.537236;    0.559925;    0.584662;    0.609924;    0.635279;    0.661513;    0.688024;    0.715025;    0.743067;    0.772137;    0.801053;    0.830648;    0.860676;    0.890790;    0.923258;    0.955844;
9;    1.666117;    1.014490;    0.887130;    0.840447;    0.773766;    0.709822;    0.655606;    0.572225;    0.502306;    0.436449;    0.342543;    0.242129;    0.232458;    0.209094;    0.208197;    0.223480;    0.238573;    0.249105;    0.259949;    0.271970;    0.283917;    0.296990;    0.310330;    0.325294;    0.340456;    0.356391;    0.372638;    0.390148;    0.408055;    0.426451;    0.445475;    0.465680;    0.487043;    0.509170;    0.531311;    0.554233;    0.577445;    0.601978;    0.627505;    0.653390;    0.679928;    0.707229;    0.734969;    0.763057;    0.792429;    0.822161;    0.853392;    0.884596;    0.916211;    0.948217;    0.981136;
10;    1.658657;    1.012017;    0.882737;    0.835809;    0.779033;    0.723314;    0.657918;    0.601523;    0.520955;    0.440711;    0.335843;    0.242786;    0.227433;    0.209593;    0.208393;    0.224684;    0.239204;    0.249400;    0.260434;    0.271905;    0.284337;    0.297474;    0.310715;    0.325533;    0.341522;    0.357729;    0.374947;    0.392219;    0.409983;    0.428638;    0.447896;    0.468090;    0.488585;    0.510214;    0.531749;    0.553871;    0.576689;    0.600783;    0.625080;    0.650785;    0.676923;    0.704432;    0.732410;    0.760692;    0.790348;    0.820891;    0.850520;    0.880689;    0.912835;    0.945140;    0.978134;
11;    1.647576;    0.995347;    0.870951;    0.827152;    0.776625;    0.704354;    0.646211;    0.578597;    0.492200;    0.423332;    0.324599;    0.242817;    0.234886;    0.206764;    0.206347;    0.220673;    0.238978;    0.249099;    0.259553;    0.271141;    0.282724;    0.296169;    0.309647;    0.323545;    0.337490;    0.353572;    0.369978;    0.387504;    0.405025;    0.422645;    0.441646;    0.461663;    0.482617;    0.503583;    0.525870;    0.548441;    0.571445;    0.595573;    0.619714;    0.643852;    0.668607;    0.695067;    0.722103;    0.749947;    0.778062;    0.806467;    0.836129;    0.867582;    0.899592;    0.931110;    0.963455;
12;    1.652140;    0.990505;    0.871313;    0.832575;    0.777751;    0.700348;    0.632531;    0.565560;    0.479716;    0.400434;    0.330198;    0.242323;    0.231045;    0.204313;    0.203549;    0.220359;    0.237902;    0.248457;    0.259215;    0.270579;    0.283184;    0.295462;    0.308755;    0.323260;    0.338609;    0.354284;    0.370444;    0.387193;    0.404640;    0.422275;    0.440719;    0.459761;    0.479658;    0.499690;    0.521014;    0.543004;    0.565384;    0.589510;    0.614358;    0.639355;    0.664688;    0.690874;    0.717828;    0.745413;    0.773247;    0.803071;    0.832056;    0.861048;    0.892405;    0.923147;    0.956576;
13;    1.666962;    1.005492;    0.868127;    0.815722;    0.767903;    0.695312;    0.630731;    0.562694;    0.485566;    0.408063;    0.321597;    0.243138;    0.229569;    0.207373;    0.206609;    0.221340;    0.239310;    0.249382;    0.260443;    0.271977;    0.285141;    0.298543;    0.312249;    0.326788;    0.342158;    0.358092;    0.374562;    0.391489;    0.409508;    0.428477;    0.448161;    0.467884;    0.488801;    0.510042;    0.531255;    0.553211;    0.575549;    0.599893;    0.623772;    0.649523;    0.675700;    0.701656;    0.728778;    0.756912;    0.785110;    0.814689;    0.844609;    0.875743;    0.906978;    0.939095;    0.971695;
14;    1.669675;    0.981270;    0.857241;    0.813394;    0.748863;    0.700212;    0.635017;    0.568475;    0.485203;    0.396208;    0.315695;    0.240098;    0.227718;    0.207692;    0.206292;    0.220785;    0.235934;    0.245988;    0.256016;    0.267245;    0.279350;    0.291700;    0.304924;    0.319169;    0.334436;    0.350315;    0.365871;    0.382541;    0.399607;    0.417523;    0.435887;    0.454564;    0.474624;    0.494959;    0.516980;    0.539493;    0.561935;    0.584965;    0.608881;    0.634140;    0.659598;    0.686553;    0.713446;    0.741309;    0.768870;    0.797327;    0.825808;    0.855683;    0.886519;    0.917395;    0.948565;
15;    1.664271;    0.996066;    0.852208;    0.799179;    0.734759;    0.680642;    0.613729;    0.549535;    0.477047;    0.394253;    0.315961;    0.237683;    0.219932;    0.204398;    0.203735;    0.217105;    0.234464;    0.244448;    0.255603;    0.266867;    0.278607;    0.291273;    0.304690;    0.318858;    0.333332;    0.348844;    0.365414;    0.382331;    0.399417;    0.418266;    0.437512;    0.457582;    0.478382;    0.499741;    0.522284;    0.544083;    0.566998;    0.591361;    0.615558;    0.640508;    0.666294;    0.693080;    0.720072;    0.747919;    0.776407;    0.806024;    0.835466;    0.865242;    0.897038;    0.929417;    0.962458;
16;    1.661126;    1.020648;    0.896384;    0.832518;    0.775695;    0.716098;    0.640853;    0.583034;    0.504066;    0.418833;    0.336914;    0.247077;    0.233355;    0.212712;    0.211963;    0.228290;    0.243277;    0.253654;    0.265301;    0.276960;    0.289705;    0.302824;    0.316315;    0.330924;    0.346163;    0.361930;    0.378863;    0.395996;    0.414342;    0.433044;    0.452424;    0.472565;    0.493243;    0.515156;    0.536567;    0.560313;    0.583996;    0.608506;    0.632763;    0.658552;    0.684672;    0.711615;    0.738929;    0.767431;    0.796560;    0.826808;    0.857300;    0.887623;    0.919895;    0.952293;    0.986001;
17;    1.663640;    0.988305;    0.864190;    0.809748;    0.750921;    0.691466;    0.623867;    0.546058;    0.473445;    0.400402;    0.325392;    0.241274;    0.229749;    0.203747;    0.203077;    0.220227;    0.237104;    0.247177;    0.257759;    0.268781;    0.280612;    0.293259;    0.306794;    0.320640;    0.335324;    0.350205;    0.366976;    0.384257;    0.401860;    0.419731;    0.438244;    0.457943;    0.477320;    0.497793;    0.519436;    0.541560;    0.564891;    0.588480;    0.612577;    0.636801;    0.661839;    0.688359;    0.715443;    0.743414;    0.771351;    0.799677;    0.829163;    0.858856;    0.890797;    0.923114;    0.955307;
18;    1.661973;    0.979661;    0.863141;    0.810045;    0.762285;    0.694167;    0.635147;    0.555607;    0.475363;    0.416569;    0.340230;    0.240558;    0.232422;    0.205684;    0.205025;    0.220141;    0.237119;    0.247271;    0.257467;    0.268840;    0.281163;    0.294282;    0.307480;    0.321298;    0.335509;    0.349995;    0.365487;    0.381557;    0.398640;    0.416385;    0.435130;    0.454182;    0.474280;    0.494829;    0.516109;    0.538461;    0.561204;    0.584451;    0.608970;    0.633097;    0.658577;    0.683286;    0.710295;    0.737534;    0.765716;    0.794496;    0.824541;    0.855014;    0.886162;    0.916390;    0.947378;
19;    1.661754;    0.992806;    0.860722;    0.806506;    0.763809;    0.706230;    0.648352;    0.568409;    0.499844;    0.414043;    0.324022;    0.242195;    0.227470;    0.208753;    0.207781;    0.223658;    0.238703;    0.248504;    0.259139;    0.269857;    0.282206;    0.295148;    0.308676;    0.323168;    0.338020;    0.353684;    0.370321;    0.387614;    0.405642;    0.423552;    0.441853;    0.461238;    0.481274;    0.502389;    0.524575;    0.546459;    0.569170;    0.592677;    0.616078;    0.641969;    0.667854;    0.693215;    0.719527;    0.746965;    0.775520;    0.804793;    0.833653;    0.864195;    0.895587;    0.927154;    0.959573;
20;    1.665195;    1.013645;    0.872900;    0.832440;    0.767475;    0.707911;    0.650397;    0.589703;    0.522123;    0.433960;    0.341485;    0.243840;    0.229463;    0.208458;    0.207628;    0.222524;    0.240150;    0.250221;    0.260686;    0.272041;    0.284192;    0.298174;    0.312156;    0.326964;    0.342210;    0.358052;    0.374606;    0.391336;    0.409480;    0.427839;    0.446726;    0.467079;    0.488240;    0.510171;    0.532657;    0.555639;    0.578944;    0.603456;    0.628403;    0.653636;    0.679185;    0.705955;    0.733774;    0.762036;    0.791393;    0.820298;    0.851038;    0.882279;    0.914274;    0.946934;    0.979985;
21;    1.661535;    1.009074;    0.868459;    0.820449;    0.764618;    0.712217;    0.640241;    0.565074;    0.488643;    0.408659;    0.330900;    0.242954;    0.231782;    0.207792;    0.207071;    0.223107;    0.239191;    0.249302;    0.260389;    0.272474;    0.285105;    0.297954;    0.311484;    0.326145;    0.341239;    0.357293;    0.373946;    0.391440;    0.409611;    0.427990;    0.447353;    0.467369;    0.487555;    0.508064;    0.528608;    0.551500;    0.575992;    0.600495;    0.624572;    0.650838;    0.677747;    0.704319;    0.731353;    0.759237;    0.788134;    0.817642;    0.848225;    0.878742;    0.909487;    0.941517;    0.975087;
22;    1.703500;    1.016410;    0.880842;    0.827531;    0.768559;    0.695128;    0.633264;    0.558067;    0.497517;    0.432064;    0.335703;    0.244061;    0.228495;    0.208668;    0.207741;    0.223208;    0.239343;    0.249208;    0.260100;    0.271479;    0.283672;    0.296584;    0.309919;    0.325535;    0.341212;    0.357221;    0.373822;    0.391173;    0.408785;    0.427911;    0.448153;    0.468410;    0.489391;    0.510411;    0.532202;    0.554327;    0.577967;    0.603054;    0.627801;    0.653705;    0.679613;    0.706929;    0.735284;    0.763903;    0.792765;    0.822515;    0.853589;    0.884738;    0.916317;    0.948164;    0.981982;
23;    1.652263;    1.002578;    0.873996;    0.835383;    0.788347;    0.727860;    0.656008;    0.566155;    0.498204;    0.414360;    0.324957;    0.245495;    0.233499;    0.209501;    0.208599;    0.223398;    0.241721;    0.251748;    0.262754;    0.274131;    0.286796;    0.299454;    0.313132;    0.327643;    0.343065;    0.358666;    0.374997;    0.392280;    0.410083;    0.428461;    0.447500;    0.467063;    0.486970;    0.508385;    0.530148;    0.551899;    0.574964;    0.598942;    0.623071;    0.647655;    0.673474;    0.700728;    0.728125;    0.756035;    0.784595;    0.813588;    0.843449;    0.872673;    0.903245;    0.935674;    0.968812;
24;    1.656307;    1.023384;    0.888873;    0.842921;    0.776305;    0.712514;    0.643417;    0.570295;    0.496624;    0.412376;    0.334001;    0.243052;    0.227735;    0.206036;    0.205247;    0.219386;    0.238787;    0.249200;    0.260493;    0.272411;    0.285767;    0.299311;    0.312617;    0.327573;    0.342852;    0.358940;    0.375268;    0.391890;    0.409613;    0.428453;    0.448743;    0.469543;    0.490578;    0.511789;    0.534966;    0.558686;    0.582496;    0.606699;    0.632672;    0.658083;    0.684200;    0.711024;    0.738721;    0.767407;    0.796614;    0.825637;    0.856625;    0.887895;    0.920682;    0.954341;    0.988749;
25;    1.643916;    0.991336;    0.867317;    0.822049;    0.770435;    0.692443;    0.635010;    0.566128;    0.498647;    0.401565;    0.322399;    0.242403;    0.227832;    0.207319;    0.206644;    0.219942;    0.238422;    0.248546;    0.259078;    0.270168;    0.282714;    0.295497;    0.308608;    0.321900;    0.336844;    0.352632;    0.368787;    0.385164;    0.402837;    0.421176;    0.440066;    0.459062;    0.478877;    0.500229;    0.522131;    0.543786;    0.567217;    0.591340;    0.616089;    0.640355;    0.665393;    0.690951;    0.717410;    0.744967;    0.773248;    0.803030;    0.833200;    0.863251;    0.894407;    0.925627;    0.957771;
26;    2.180590;    1.017887;    0.888000;    0.836958;    0.780943;    0.723875;    0.663668;    0.596315;    0.515754;    0.417856;    0.346296;    0.244470;    0.231787;    0.208926;    0.208393;    0.223269;    0.240643;    0.250995;    0.263180;    0.275085;    0.287835;    0.300073;    0.314970;    0.330169;    0.345926;    0.361445;    0.377238;    0.393205;    0.410615;    0.429193;    0.448797;    0.469435;    0.491212;    0.513129;    0.535239;    0.557610;    0.580605;    0.604616;    0.629511;    0.656426;    0.682991;    0.710199;    0.737751;    0.765878;    0.794567;    0.824625;    0.854948;    0.886872;    0.919263;    0.951418;    0.984481;
27;    1.988753;    1.010732;    0.871657;    0.812939;    0.758750;    0.706310;    0.654378;    0.581629;    0.505242;    0.415792;    0.334619;    0.244711;    0.236444;    0.207682;    0.206992;    0.223914;    0.241060;    0.251220;    0.262352;    0.273541;    0.285976;    0.298701;    0.311787;    0.325356;    0.340783;    0.356966;    0.374475;    0.392257;    0.409925;    0.429238;    0.448502;    0.468082;    0.488419;    0.509218;    0.530586;    0.552399;    0.576069;    0.600809;    0.624716;    0.649601;    0.676398;    0.703863;    0.730968;    0.759483;    0.788144;    0.818041;    0.848105;    0.880439;    0.912136;    0.943914;    0.976380;
28;    1.670828;    1.014912;    0.873944;    0.829291;    0.764387;    0.694487;    0.638427;    0.564058;    0.501433;    0.421957;    0.325407;    0.238669;    0.230322;    0.205297;    0.204591;    0.218702;    0.235376;    0.245516;    0.256749;    0.268530;    0.280280;    0.292368;    0.305711;    0.320172;    0.336598;    0.352984;    0.368906;    0.385782;    0.403404;    0.422029;    0.442260;    0.463202;    0.484324;    0.506011;    0.528682;    0.551831;    0.574606;    0.598337;    0.623414;    0.649565;    0.675814;    0.702522;    0.730743;    0.759643;    0.789611;    0.819610;    0.850231;    0.881295;    0.913548;    0.946187;    0.980295;
29;    1.908530;    1.028023;    0.879155;    0.829461;    0.780035;    0.713617;    0.655146;    0.578474;    0.497795;    0.403093;    0.318116;    0.237025;    0.224772;    0.205805;    0.205235;    0.219044;    0.234190;    0.244932;    0.256451;    0.268990;    0.281860;    0.295233;    0.308662;    0.322807;    0.338033;    0.353410;    0.370601;    0.388649;    0.407278;    0.425715;    0.444353;    0.465547;    0.487383;    0.509375;    0.532261;    0.555647;    0.579625;    0.604046;    0.629783;    0.655939;    0.682693;    0.710286;    0.737948;    0.767583;    0.797387;    0.828193;    0.859688;    0.892538;    0.924695;    0.958766;    0.993129;
30;    1.691671;    1.010514;    0.875078;    0.832894;    0.772436;    0.715496;    0.644895;    0.589864;    0.510603;    0.420238;    0.342757;    0.242953;    0.229611;    0.208362;    0.207706;    0.224101;    0.239601;    0.249896;    0.261176;    0.273348;    0.286098;    0.299503;    0.313181;    0.327653;    0.342296;    0.358873;    0.376053;    0.393599;    0.411560;    0.430556;    0.450026;    0.469351;    0.490294;    0.511232;    0.533755;    0.556918;    0.580497;    0.604163;    0.628662;    0.654562;    0.680399;    0.705781;    0.733955;    0.762670;    0.790443;    0.818895;    0.848658;    0.879708;    0.911503;    0.943060;    0.976096;
31;    2.492534;    1.006167;    0.872389;    0.820933;    0.768521;    0.705952;    0.654402;    0.579326;    0.500668;    0.421802;    0.333813;    0.244455;    0.236301;    0.208670;    0.207872;    0.222085;    0.240057;    0.250416;    0.261030;    0.272815;    0.285202;    0.298059;    0.311494;    0.325516;    0.340520;    0.356313;    0.372351;    0.389665;    0.407894;    0.426736;    0.446202;    0.465907;    0.485732;    0.505993;    0.527293;    0.550012;    0.572797;    0.596375;    0.620619;    0.644373;    0.670482;    0.698082;    0.725823;    0.754742;    0.783918;    0.813658;    0.843789;    0.873698;    0.906197;    0.939039;    0.972445;
32;    2.838870;    0.997885;    0.877063;    0.820839;    0.771770;    0.714919;    0.627990;    0.570576;    0.498267;    0.404630;    0.319411;    0.240976;    0.236712;    0.208300;    0.206972;    0.220787;    0.237495;    0.247670;    0.258489;    0.270726;    0.282974;    0.296290;    0.309679;    0.323623;    0.338531;    0.354490;    0.370391;    0.387467;    0.404262;    0.422845;    0.441314;    0.460820;    0.481464;    0.502621;    0.524488;    0.546931;    0.569586;    0.593094;    0.617341;    0.642257;    0.668040;    0.694351;    0.721405;    0.748210;    0.776324;    0.806868;    0.836985;    0.868455;    0.899393;    0.931651;    0.964324;
33;    1.785955;    1.000226;    0.858215;    0.806117;    0.754898;    0.698093;    0.619120;    0.563033;    0.488502;    0.418206;    0.338171;    0.236836;    0.221395;    0.203791;    0.203212;    0.216650;    0.233135;    0.243241;    0.254661;    0.266072;    0.278789;    0.291685;    0.306110;    0.320153;    0.335043;    0.351209;    0.367307;    0.384636;    0.401959;    0.420587;    0.439444;    0.459097;    0.479600;    0.501198;    0.523549;    0.545726;    0.568713;    0.592241;    0.617160;    0.642993;    0.668665;    0.694514;    0.721201;    0.749368;    0.778073;    0.807631;    0.837308;    0.868503;    0.899638;    0.932473;    0.966035;
34;    1.813694;    1.022540;    0.880032;    0.834223;    0.783135;    0.706033;    0.632379;    0.571766;    0.500668;    0.414247;    0.330698;    0.242730;    0.233816;    0.208963;    0.207863;    0.222886;    0.238788;    0.249297;    0.259746;    0.271031;    0.283975;    0.296585;    0.309617;    0.324554;    0.340065;    0.355967;    0.373033;    0.390748;    0.409232;    0.428406;    0.448404;    0.468723;    0.489520;    0.510535;    0.532723;    0.555054;    0.579457;    0.604312;    0.630100;    0.656216;    0.682213;    0.709130;    0.737155;    0.765477;    0.795202;    0.825538;    0.855354;    0.886708;    0.920473;    0.953338;    0.987652;
35;    2.031447;    1.000519;    0.871906;    0.830723;    0.762994;    0.691983;    0.623628;    0.553254;    0.497333;    0.422292;    0.338446;    0.241337;    0.225937;    0.209060;    0.208081;    0.221880;    0.237709;    0.247593;    0.258862;    0.270425;    0.282099;    0.295156;    0.308463;    0.323085;    0.338290;    0.354607;    0.371047;    0.387912;    0.405089;    0.423549;    0.442714;    0.463018;    0.484277;    0.506036;    0.528417;    0.550742;    0.573539;    0.597533;    0.620729;    0.645090;    0.670376;    0.697825;    0.725595;    0.753194;    0.780626;    0.810329;    0.839406;    0.870558;    0.902502;    0.933911;    0.967131;
36;    1.673346;    0.980583;    0.865646;    0.822293;    0.755784;    0.696673;    0.640326;    0.571698;    0.480710;    0.399190;    0.333429;    0.235768;    0.222039;    0.205294;    0.204453;    0.217645;    0.232353;    0.242533;    0.252497;    0.264014;    0.275808;    0.288161;    0.301211;    0.314900;    0.329578;    0.344444;    0.359501;    0.375403;    0.393614;    0.411921;    0.430837;    0.450233;    0.469778;    0.490720;    0.512056;    0.534853;    0.556852;    0.580415;    0.605353;    0.630432;    0.655639;    0.681498;    0.708948;    0.736845;    0.764854;    0.794171;    0.823842;    0.854031;    0.883487;    0.914877;    0.948015;
37;    1.680420;    0.992585;    0.867434;    0.820686;    0.761985;    0.690754;    0.627740;    0.565287;    0.487275;    0.406222;    0.323051;    0.242178;    0.229716;    0.207890;    0.206891;    0.221017;    0.238251;    0.247776;    0.258721;    0.269557;    0.282021;    0.294866;    0.308217;    0.322204;    0.336557;    0.351755;    0.367391;    0.384858;    0.401959;    0.419896;    0.438473;    0.458046;    0.478220;    0.499667;    0.521732;    0.544209;    0.566584;    0.589756;    0.612823;    0.637295;    0.663465;    0.689919;    0.716252;    0.744012;    0.773335;    0.803579;    0.833772;    0.863367;    0.895633;    0.927587;    0.960050;
38;    1.671345;    0.995705;    0.861681;    0.810812;    0.749489;    0.693668;    0.628452;    0.552650;    0.487092;    0.401154;    0.315191;    0.239598;    0.232061;    0.207337;    0.206145;    0.221356;    0.236191;    0.246337;    0.257189;    0.268787;    0.280672;    0.293520;    0.307511;    0.321210;    0.336563;    0.352132;    0.367666;    0.385555;    0.403589;    0.421975;    0.441148;    0.461142;    0.481842;    0.502534;    0.524313;    0.546825;    0.569882;    0.593523;    0.618004;    0.642999;    0.668527;    0.694822;    0.721634;    0.749470;    0.777798;    0.807106;    0.836905;    0.867348;    0.898306;    0.929487;    0.962992;
39;    1.681516;    0.971593;    0.852182;    0.806953;    0.746674;    0.686163;    0.612617;    0.542421;    0.469093;    0.392175;    0.322763;    0.241891;    0.233731;    0.206933;    0.206036;    0.220783;    0.237548;    0.247579;    0.257398;    0.268939;    0.281108;    0.293628;    0.306514;    0.319896;    0.333997;    0.349420;    0.364299;    0.381513;    0.399271;    0.417203;    0.435577;    0.454315;    0.474228;    0.494276;    0.514661;    0.536796;    0.559876;    0.582638;    0.605660;    0.629257;    0.653882;    0.680027;    0.706242;    0.733147;    0.760176;    0.788560;    0.817428;    0.846856;    0.878103;    0.909723;    0.940521;
40;    1.676214;    1.004442;    0.873470;    0.819232;    0.771315;    0.709847;    0.645221;    0.560718;    0.477607;    0.410608;    0.320672;    0.241056;    0.232097;    0.206343;    0.205207;    0.219837;    0.237330;    0.247383;    0.258197;    0.269569;    0.282091;    0.295260;    0.308475;    0.322795;    0.337641;    0.353779;    0.370946;    0.388034;    0.406443;    0.425244;    0.444827;    0.465061;    0.485331;    0.505908;    0.527362;    0.549360;    0.572704;    0.595921;    0.620526;    0.645743;    0.671279;    0.697789;    0.725524;    0.754570;    0.784383;    0.814552;    0.844434;    0.875051;    0.906205;    0.937372;    0.969995;
41;    1.831875;    0.992101;    0.861773;    0.817052;    0.749833;    0.701286;    0.628564;    0.550961;    0.483945;    0.398738;    0.323169;    0.237187;    0.230688;    0.206584;    0.205995;    0.218898;    0.233910;    0.243796;    0.255192;    0.266987;    0.279478;    0.292386;    0.305069;    0.319133;    0.333744;    0.348581;    0.365137;    0.382051;    0.399178;    0.416955;    0.435181;    0.454769;    0.475012;    0.495609;    0.517474;    0.540158;    0.563803;    0.587542;    0.612412;    0.638625;    0.664641;    0.691467;    0.718311;    0.746077;    0.774152;    0.803094;    0.832577;    0.862435;    0.894226;    0.926616;    0.959314;
42;    1.857911;    1.017232;    0.870276;    0.817644;    0.769483;    0.713081;    0.648050;    0.560719;    0.492215;    0.407084;    0.328504;    0.241742;    0.228467;    0.209280;    0.208348;    0.221880;    0.238543;    0.249158;    0.260325;    0.272657;    0.285062;    0.297751;    0.312100;    0.325998;    0.340547;    0.355587;    0.371558;    0.389746;    0.408624;    0.427210;    0.446042;    0.466546;    0.488506;    0.510353;    0.532564;    0.556529;    0.580965;    0.605948;    0.630630;    0.656066;    0.681567;    0.706917;    0.733961;    0.763258;    0.792226;    0.822435;    0.853547;    0.884733;    0.918331;    0.951324;    0.984297;
43;    1.681219;    1.010582;    0.873380;    0.818113;    0.774997;    0.704517;    0.641421;    0.581386;    0.502976;    0.417921;    0.328123;    0.237957;    0.227096;    0.204494;    0.203885;    0.217361;    0.235052;    0.245457;    0.256480;    0.268276;    0.280753;    0.294079;    0.307457;    0.321412;    0.336765;    0.352555;    0.369441;    0.387522;    0.406271;    0.425621;    0.444706;    0.465139;    0.485957;    0.506694;    0.528753;    0.552088;    0.575123;    0.598481;    0.623133;    0.649473;    0.675318;    0.702370;    0.730153;    0.758622;    0.787150;    0.817403;    0.848064;    0.878843;    0.911448;    0.942954;    0.977240;
44;    1.697595;    1.006606;    0.876900;    0.827095;    0.791150;    0.726594;    0.647504;    0.578510;    0.504342;    0.413451;    0.319138;    0.239806;    0.232703;    0.209947;    0.209103;    0.222717;    0.236617;    0.246778;    0.257717;    0.269360;    0.281502;    0.294435;    0.307918;    0.321804;    0.337085;    0.352761;    0.369320;    0.386377;    0.403660;    0.421209;    0.440837;    0.461385;    0.482388;    0.503937;    0.526823;    0.549970;    0.572984;    0.596965;    0.621204;    0.645040;    0.672188;    0.699158;    0.725337;    0.752995;    0.781545;    0.811353;    0.842647;    0.874146;    0.906804;    0.939083;    0.972640;
45;    1.675613;    0.988199;    0.857645;    0.800790;    0.740835;    0.686784;    0.634088;    0.571891;    0.494120;    0.403399;    0.330241;    0.240903;    0.232069;    0.207804;    0.206810;    0.221599;    0.237741;    0.247784;    0.258694;    0.270107;    0.282279;    0.295242;    0.308619;    0.322969;    0.337272;    0.353053;    0.369870;    0.385892;    0.403061;    0.422058;    0.441356;    0.461132;    0.481309;    0.502519;    0.523768;    0.545973;    0.568928;    0.592714;    0.616198;    0.640924;    0.666832;    0.693187;    0.720159;    0.747286;    0.773936;    0.801935;    0.831125;    0.860935;    0.891421;    0.923199;    0.954986;
46;    1.961527;    1.010698;    0.871236;    0.809872;    0.762661;    0.711144;    0.634676;    0.569570;    0.496300;    0.402992;    0.320869;    0.235868;    0.226609;    0.204808;    0.204153;    0.216945;    0.233035;    0.243486;    0.254442;    0.266160;    0.278467;    0.291309;    0.305357;    0.319760;    0.334740;    0.350717;    0.367814;    0.386025;    0.404124;    0.422971;    0.442228;    0.461962;    0.482987;    0.503526;    0.524929;    0.547853;    0.571649;    0.595682;    0.619877;    0.646793;    0.673526;    0.700738;    0.728373;    0.756417;    0.786082;    0.816333;    0.846393;    0.877189;    0.909569;    0.942849;    0.976662;
47;    1.666700;    1.022480;    0.882738;    0.824506;    0.780784;    0.730172;    0.662066;    0.576315;    0.505433;    0.416920;    0.339325;    0.243379;    0.233326;    0.210699;    0.209917;    0.224734;    0.240175;    0.249677;    0.260678;    0.271665;    0.284958;    0.297800;    0.311298;    0.326131;    0.341351;    0.357528;    0.374271;    0.391373;    0.410056;    0.429097;    0.449012;    0.469234;    0.489966;    0.511846;    0.533619;    0.556362;    0.580585;    0.605060;    0.629875;    0.655651;    0.683088;    0.710026;    0.738074;    0.767060;    0.795851;    0.826351;    0.857653;    0.889283;    0.921962;    0.954168;    0.988424;
48;    1.806523;    0.997574;    0.873624;    0.821604;    0.756994;    0.702919;    0.632345;    0.570696;    0.485005;    0.407872;    0.330058;    0.243504;    0.234348;    0.207817;    0.206948;    0.223211;    0.238804;    0.249200;    0.260690;    0.272307;    0.284472;    0.296494;    0.310341;    0.324367;    0.339231;    0.355264;    0.371179;    0.387647;    0.406058;    0.424512;    0.442980;    0.462529;    0.482827;    0.503129;    0.525075;    0.547065;    0.570090;    0.593525;    0.617802;    0.643484;    0.668989;    0.695788;    0.722414;    0.749632;    0.778705;    0.807621;    0.836943;    0.867662;    0.898340;    0.931369;    0.963681;
49;    1.694595;    0.996135;    0.867902;    0.815397;    0.760342;    0.680347;    0.622257;    0.569302;    0.492935;    0.426900;    0.335396;    0.245548;    0.228788;    0.209344;    0.208642;    0.225286;    0.241664;    0.251996;    0.262753;    0.274263;    0.286618;    0.299517;    0.312711;    0.325938;    0.341245;    0.356538;    0.372745;    0.390548;    0.407936;    0.426010;    0.444516;    0.463641;    0.483674;    0.504140;    0.525731;    0.547357;    0.568475;    0.591951;    0.616812;    0.641980;    0.667462;    0.694290;    0.721138;    0.748906;    0.778295;    0.807760;    0.837476;    0.868320;    0.899761;    0.931881;    0.964050;
50;    1.726024;    1.000291;    0.864051;    0.817033;    0.759162;    0.705644;    0.626190;    0.569494;    0.495309;    0.401951;    0.336279;    0.245851;    0.226850;    0.207564;    0.206647;    0.221543;    0.240998;    0.251182;    0.261511;    0.272610;    0.284855;    0.297861;    0.310882;    0.325119;    0.339757;    0.355346;    0.372247;    0.389630;    0.407192;    0.425522;    0.444424;    0.464016;    0.483558;    0.503749;    0.525494;    0.548752;    0.572135;    0.595500;    0.619564;    0.644242;    0.670193;    0.697287;    0.724318;    0.752719;    0.781224;    0.810526;    0.840075;    0.870878;    0.903321;    0.934994;    0.966758;
51;    2.020266;    1.031910;    0.892755;    0.843998;    0.770990;    0.719227;    0.649582;    0.588147;    0.514790;    0.420281;    0.336822;    0.242055;    0.225608;    0.208233;    0.207216;    0.222148;    0.238738;    0.248915;    0.260447;    0.272615;    0.284796;    0.298158;    0.311687;    0.325798;    0.341353;    0.357937;    0.374702;    0.393466;    0.412172;    0.431271;    0.451058;    0.471275;    0.493097;    0.515142;    0.537666;    0.561849;    0.585888;    0.610969;    0.636117;    0.662265;    0.689311;    0.716092;    0.744428;    0.772958;    0.802904;    0.833301;    0.865328;    0.896536;    0.929174;    0.962856;    0.997173;
52;    1.949020;    0.994839;    0.863584;    0.816970;    0.751394;    0.703132;    0.631228;    0.555391;    0.472321;    0.400164;    0.312263;    0.239200;    0.229604;    0.207173;    0.206364;    0.222016;    0.235518;    0.245524;    0.256397;    0.267679;    0.280054;    0.292772;    0.306196;    0.320057;    0.335189;    0.350798;    0.366590;    0.383544;    0.400974;    0.419153;    0.437751;    0.457625;    0.478481;    0.499361;    0.520287;    0.541567;    0.565300;    0.590024;    0.614922;    0.640741;    0.666953;    0.692953;    0.721153;    0.747743;    0.775732;    0.805663;    0.835498;    0.866489;    0.897403;    0.929119;    0.961625;
53;    1.908839;    0.989481;    0.877330;    0.820547;    0.778650;    0.711115;    0.638945;    0.574856;    0.504003;    0.414900;    0.339773;    0.239322;    0.229876;    0.206002;    0.205127;    0.218930;    0.236053;    0.246310;    0.257595;    0.268918;    0.280768;    0.293703;    0.307179;    0.321273;    0.335756;    0.350155;    0.366393;    0.382903;    0.399627;    0.417638;    0.435991;    0.455164;    0.475701;    0.496769;    0.518770;    0.540815;    0.564056;    0.587942;    0.611966;    0.636242;    0.662219;    0.689272;    0.715448;    0.742692;    0.770541;    0.799655;    0.830696;    0.861954;    0.893614;    0.924842;    0.957187;
54;    1.753824;    1.011713;    0.876325;    0.813172;    0.763594;    0.705540;    0.649177;    0.585188;    0.505055;    0.407419;    0.318508;    0.237270;    0.225090;    0.204842;    0.204192;    0.217490;    0.233713;    0.244060;    0.255105;    0.266973;    0.279985;    0.293261;    0.306999;    0.321523;    0.337325;    0.353619;    0.370168;    0.386868;    0.404154;    0.423352;    0.442904;    0.463356;    0.484941;    0.506836;    0.528910;    0.551372;    0.574837;    0.598966;    0.623515;    0.648902;    0.675305;    0.702901;    0.730858;    0.758995;    0.788188;    0.817457;    0.848451;    0.879592;    0.911473;    0.942774;    0.977186;
55;    1.760375;    0.985333;    0.850394;    0.807012;    0.759466;    0.698150;    0.625896;    0.561224;    0.500842;    0.420856;    0.329621;    0.242935;    0.234582;    0.206971;    0.205933;    0.219878;    0.238518;    0.248608;    0.258912;    0.270895;    0.282956;    0.295634;    0.308431;    0.322668;    0.336714;    0.351716;    0.367996;    0.384229;    0.401067;    0.418944;    0.437803;    0.457740;    0.477740;    0.498848;    0.520364;    0.541543;    0.563663;    0.586921;    0.610818;    0.634376;    0.660728;    0.686865;    0.713784;    0.741538;    0.769844;    0.798753;    0.828317;    0.858545;    0.889000;    0.920352;    0.952426;
56;    1.846403;    0.992641;    0.858562;    0.805254;    0.741309;    0.679541;    0.610048;    0.544761;    0.469429;    0.400127;    0.322762;    0.245020;    0.227747;    0.208282;    0.207442;    0.222680;    0.240280;    0.250119;    0.260587;    0.271591;    0.284068;    0.296673;    0.309775;    0.324037;    0.338726;    0.353662;    0.369381;    0.386185;    0.403188;    0.421007;    0.439443;    0.459492;    0.479337;    0.499716;    0.521385;    0.543296;    0.566038;    0.590337;    0.614829;    0.639822;    0.665942;    0.692360;    0.719046;    0.746335;    0.774644;    0.804124;    0.833372;    0.862964;    0.893801;    0.926465;    0.959613;
57;    1.784161;    1.015808;    0.882768;    0.832893;    0.769587;    0.714049;    0.635705;    0.566069;    0.491405;    0.407917;    0.332546;    0.242680;    0.234054;    0.209122;    0.208360;    0.223942;    0.239346;    0.249488;    0.259480;    0.271114;    0.283639;    0.296404;    0.310356;    0.324633;    0.339256;    0.354729;    0.372221;    0.389305;    0.406609;    0.425440;    0.445712;    0.466060;    0.486996;    0.508095;    0.530453;    0.553375;    0.576877;    0.601467;    0.626197;    0.651499;    0.676987;    0.704152;    0.732800;    0.762283;    0.791777;    0.823079;    0.853983;    0.884813;    0.915472;    0.947809;    0.981621;
58;    1.793273;    1.006785;    0.873034;    0.816227;    0.756810;    0.703590;    0.631532;    0.573670;    0.495161;    0.415291;    0.334081;    0.241742;    0.231421;    0.209573;    0.208723;    0.223739;    0.238357;    0.248364;    0.259380;    0.270361;    0.282223;    0.295083;    0.309057;    0.323264;    0.338348;    0.354308;    0.370831;    0.387711;    0.405621;    0.423367;    0.441602;    0.462050;    0.482477;    0.504920;    0.527366;    0.550324;    0.573771;    0.597169;    0.622195;    0.647917;    0.674018;    0.700503;    0.727635;    0.755425;    0.785353;    0.815161;    0.846146;    0.877437;    0.908734;    0.940772;    0.973291;
59;    1.826548;    0.995899;    0.870649;    0.812531;    0.750197;    0.699729;    0.637469;    0.552394;    0.477891;    0.409922;    0.340211;    0.240985;    0.222413;    0.205454;    0.204518;    0.218856;    0.236701;    0.246854;    0.258259;    0.269686;    0.281914;    0.294707;    0.308053;    0.322596;    0.337710;    0.353252;    0.369553;    0.387455;    0.405477;    0.423646;    0.441949;    0.460930;    0.480217;    0.501489;    0.523280;    0.545907;    0.568747;    0.592101;    0.617138;    0.642201;    0.667748;    0.694319;    0.721911;    0.749679;    0.778450;    0.808272;    0.837664;    0.867832;    0.899143;    0.930197;    0.963246;
60;    1.808608;    1.004002;    0.872663;    0.824193;    0.769411;    0.707270;    0.649311;    0.578727;    0.488810;    0.401208;    0.321476;    0.242293;    0.233887;    0.209033;    0.207810;    0.222459;    0.238169;    0.248798;    0.259456;    0.270955;    0.283056;    0.295752;    0.308738;    0.323227;    0.337928;    0.353389;    0.370307;    0.387379;    0.405336;    0.424240;    0.443503;    0.463778;    0.483974;    0.505718;    0.528269;    0.550994;    0.574175;    0.597370;    0.621943;    0.647713;    0.673540;    0.700404;    0.727085;    0.755738;    0.784610;    0.814509;    0.844029;    0.874782;    0.906021;    0.937957;    0.970353;
61;    1.801953;    0.994443;    0.865027;    0.812269;    0.765693;    0.710595;    0.633408;    0.573404;    0.499569;    0.420414;    0.330204;    0.242782;    0.227118;    0.210227;    0.209358;    0.222424;    0.238540;    0.248534;    0.259599;    0.271242;    0.282777;    0.294565;    0.308022;    0.322336;    0.336953;    0.352291;    0.368154;    0.385019;    0.402231;    0.420316;    0.439610;    0.458912;    0.478339;    0.498966;    0.520322;    0.542411;    0.566135;    0.590256;    0.614469;    0.639053;    0.665036;    0.691130;    0.718138;    0.745817;    0.773736;    0.802749;    0.834068;    0.864828;    0.897055;    0.929173;    0.961492;
62;    1.852077;    0.991599;    0.859836;    0.812332;    0.756120;    0.686965;    0.617840;    0.560996;    0.478908;    0.396126;    0.321474;    0.240487;    0.235744;    0.207115;    0.206371;    0.220594;    0.236979;    0.246970;    0.257879;    0.269183;    0.281041;    0.294651;    0.308319;    0.322977;    0.337614;    0.352767;    0.368725;    0.386091;    0.402500;    0.421530;    0.440800;    0.460147;    0.480347;    0.500755;    0.522828;    0.545171;    0.568753;    0.592502;    0.616882;    0.642231;    0.667733;    0.694012;    0.720789;    0.748369;    0.776560;    0.805119;    0.834257;    0.863197;    0.894025;    0.926639;    0.958643;
63;    1.746987;    1.000329;    0.859547;    0.808583;    0.742738;    0.687946;    0.618077;    0.564754;    0.499145;    0.430014;    0.342414;    0.245343;    0.235526;    0.208733;    0.207857;    0.223064;    0.240998;    0.251578;    0.262451;    0.272935;    0.285407;    0.298444;    0.311635;    0.325147;    0.340000;    0.355467;    0.372181;    0.389462;    0.408200;    0.427499;    0.447282;    0.467619;    0.488378;    0.509674;    0.531786;    0.553613;    0.576273;    0.599399;    0.623611;    0.648294;    0.674193;    0.700587;    0.727214;    0.754519;    0.782740;    0.812189;    0.840874;    0.870177;    0.901314;    0.934143;    0.967409;
64;    1.757076;    1.004946;    0.872205;    0.831371;    0.764623;    0.711953;    0.647895;    0.586411;    0.509037;    0.425754;    0.332225;    0.243922;    0.235296;    0.210253;    0.209329;    0.224093;    0.239178;    0.249606;    0.260343;    0.271763;    0.283584;    0.296281;    0.309373;    0.323704;    0.338491;    0.354372;    0.371430;    0.388726;    0.407370;    0.425873;    0.444879;    0.464871;    0.485659;    0.507117;    0.529393;    0.551499;    0.574751;    0.598503;    0.622741;    0.647506;    0.673927;    0.700714;    0.728084;    0.755974;    0.784449;    0.813480;    0.843960;    0.874965;    0.905911;    0.938059;    0.971897;
65;    2.069429;    0.974812;    0.852816;    0.798578;    0.752072;    0.690854;    0.633986;    0.548854;    0.475154;    0.401546;    0.316623;    0.239709;    0.224060;    0.205703;    0.205231;    0.220143;    0.236093;    0.245738;    0.255716;    0.267477;    0.279134;    0.291494;    0.304919;    0.318721;    0.333039;    0.348582;    0.364323;    0.380309;    0.397252;    0.414612;    0.432297;    0.450642;    0.471780;    0.493314;    0.515253;    0.537815;    0.560775;    0.584350;    0.607226;    0.631256;    0.656147;    0.681707;    0.707935;    0.735097;    0.763199;    0.792540;    0.821922;    0.851482;    0.880762;    0.912021;    0.942962;
66;    1.762747;    1.002580;    0.875183;    0.828687;    0.773541;    0.709669;    0.641354;    0.583442;    0.500494;    0.409113;    0.336443;    0.243263;    0.237074;    0.208570;    0.207118;    0.222660;    0.238892;    0.249077;    0.259883;    0.270910;    0.283724;    0.297350;    0.311448;    0.326158;    0.341397;    0.357058;    0.372673;    0.389210;    0.406353;    0.425798;    0.444588;    0.465180;    0.485794;    0.506898;    0.528826;    0.551577;    0.574424;    0.598627;    0.623499;    0.648789;    0.673812;    0.700372;    0.727390;    0.755202;    0.783180;    0.812017;    0.842296;    0.872654;    0.905021;    0.936522;    0.968864;
67;    1.766521;    0.993102;    0.868740;    0.807853;    0.758278;    0.699946;    0.631390;    0.541237;    0.477809;    0.400641;    0.328434;    0.241039;    0.230076;    0.209694;    0.208586;    0.221730;    0.237734;    0.247772;    0.258255;    0.269942;    0.281860;    0.293808;    0.306950;    0.320782;    0.336258;    0.352322;    0.368598;    0.385319;    0.402478;    0.420575;    0.440006;    0.459682;    0.480293;    0.501618;    0.522280;    0.544744;    0.567769;    0.590892;    0.614663;    0.639130;    0.664786;    0.691785;    0.718462;    0.745440;    0.773355;    0.802895;    0.832855;    0.863464;    0.894634;    0.927468;    0.959727;
68;    1.769994;    1.001918;    0.871034;    0.820121;    0.752594;    0.697244;    0.633383;    0.578892;    0.487979;    0.419716;    0.328699;    0.242547;    0.228793;    0.208304;    0.207406;    0.222842;    0.238763;    0.249404;    0.259855;    0.271297;    0.283442;    0.295644;    0.309025;    0.322709;    0.337552;    0.354203;    0.370638;    0.387687;    0.405747;    0.423896;    0.443229;    0.462299;    0.483218;    0.504408;    0.526908;    0.549535;    0.572822;    0.596903;    0.620994;    0.645415;    0.670523;    0.698263;    0.726522;    0.755020;    0.783784;    0.812649;    0.843278;    0.873874;    0.903959;    0.936522;    0.968955;
69;    1.729535;    0.990168;    0.870476;    0.817820;    0.769142;    0.714276;    0.663854;    0.597811;    0.518525;    0.426192;    0.331472;    0.245636;    0.238229;    0.211697;    0.210210;    0.224559;    0.241657;    0.251581;    0.262776;    0.274182;    0.286704;    0.300036;    0.313422;    0.327036;    0.341087;    0.356520;    0.372907;    0.389612;    0.407077;    0.425636;    0.444284;    0.462769;    0.482531;    0.503720;    0.524636;    0.546516;    0.568214;    0.591964;    0.615830;    0.640572;    0.666029;    0.692223;    0.718894;    0.745513;    0.774182;    0.803037;    0.832007;    0.862816;    0.894456;    0.925496;    0.957509;
70;    1.681950;    1.014321;    0.882774;    0.824645;    0.779351;    0.712272;    0.636290;    0.558760;    0.492135;    0.399781;    0.318806;    0.239978;    0.225904;    0.209827;    0.208796;    0.221821;    0.236916;    0.247251;    0.258249;    0.269566;    0.282427;    0.295394;    0.308758;    0.323460;    0.339074;    0.354592;    0.371990;    0.390060;    0.407856;    0.426636;    0.445266;    0.464306;    0.485434;    0.507603;    0.529896;    0.552834;    0.575846;    0.599544;    0.624626;    0.649634;    0.676519;    0.703563;    0.731773;    0.760565;    0.790883;    0.821288;    0.851572;    0.884070;    0.915940;    0.947940;    0.980764;
71;    1.671269;    1.003453;    0.869751;    0.815591;    0.756327;    0.702637;    0.636550;    0.565515;    0.501259;    0.409322;    0.318081;    0.241120;    0.229659;    0.208747;    0.207764;    0.220788;    0.237887;    0.248576;    0.259386;    0.270873;    0.283490;    0.296427;    0.309687;    0.324651;    0.340200;    0.356128;    0.372386;    0.389639;    0.407008;    0.425510;    0.445379;    0.464869;    0.485740;    0.507079;    0.528874;    0.550741;    0.573528;    0.597086;    0.621503;    0.647013;    0.672758;    0.699229;    0.727427;    0.755821;    0.785292;    0.814453;    0.844405;    0.875178;    0.905894;    0.937763;    0.970093;
72;    1.670445;    1.008512;    0.872137;    0.829886;    0.776903;    0.710910;    0.648467;    0.572719;    0.500949;    0.408029;    0.338534;    0.239764;    0.231092;    0.207936;    0.207217;    0.220302;    0.236027;    0.246366;    0.257265;    0.269829;    0.282701;    0.296101;    0.309836;    0.324175;    0.339306;    0.355049;    0.371245;    0.388541;    0.406019;    0.425007;    0.444876;    0.465276;    0.485513;    0.506288;    0.527477;    0.549371;    0.573279;    0.598040;    0.622544;    0.648193;    0.674757;    0.701748;    0.729671;    0.757649;    0.787755;    0.817420;    0.847643;    0.879085;    0.910412;    0.942966;    0.975937;
73;    1.687325;    1.033870;    0.893981;    0.849892;    0.781268;    0.723406;    0.674002;    0.601644;    0.506512;    0.427297;    0.329529;    0.249550;    0.236855;    0.212152;    0.211385;    0.228953;    0.245412;    0.255351;    0.266395;    0.278783;    0.291793;    0.304958;    0.318964;    0.333398;    0.348803;    0.365242;    0.381205;    0.399275;    0.417877;    0.437138;    0.457090;    0.478568;    0.499810;    0.521833;    0.543913;    0.566209;    0.589664;    0.614687;    0.640690;    0.666225;    0.693954;    0.721466;    0.749379;    0.778005;    0.807395;    0.836901;    0.867169;    0.899177;    0.932151;    0.965843;    0.999170;
74;    1.676614;    1.007224;    0.864791;    0.809326;    0.767405;    0.705365;    0.631694;    0.561645;    0.491070;    0.406023;    0.323737;    0.242991;    0.234288;    0.210223;    0.209405;    0.223149;    0.239617;    0.249730;    0.260918;    0.273166;    0.285706;    0.298545;    0.311794;    0.325923;    0.340550;    0.355796;    0.371655;    0.388613;    0.406054;    0.424575;    0.444161;    0.464363;    0.485203;    0.507355;    0.529529;    0.552190;    0.575877;    0.599807;    0.624947;    0.650666;    0.676477;    0.702395;    0.729627;    0.758112;    0.786217;    0.815977;    0.845476;    0.876994;    0.908846;    0.940723;    0.973833;
75;    1.671530;    0.989679;    0.857941;    0.804025;    0.752912;    0.699313;    0.642112;    0.562595;    0.478677;    0.400334;    0.320434;    0.235737;    0.226995;    0.203123;    0.202583;    0.217966;    0.232398;    0.242029;    0.252346;    0.264293;    0.276908;    0.289993;    0.303401;    0.317202;    0.332273;    0.347465;    0.363534;    0.380507;    0.398165;    0.416136;    0.435075;    0.453394;    0.473728;    0.495465;    0.517294;    0.539718;    0.563665;    0.587791;    0.611817;    0.636923;    0.662603;    0.688554;    0.716472;    0.744753;    0.773055;    0.801477;    0.830871;    0.861019;    0.892454;    0.923745;    0.956463;
76;    1.665789;    1.009521;    0.869025;    0.826267;    0.757400;    0.703877;    0.623474;    0.565451;    0.480504;    0.417357;    0.331072;    0.240107;    0.226680;    0.208644;    0.207949;    0.220598;    0.237012;    0.247215;    0.258531;    0.269958;    0.281869;    0.294811;    0.308183;    0.323032;    0.337850;    0.353263;    0.369954;    0.387041;    0.404824;    0.424190;    0.444112;    0.463754;    0.483968;    0.505096;    0.527260;    0.550283;    0.574305;    0.598737;    0.623529;    0.649140;    0.674883;    0.701761;    0.728538;    0.755617;    0.785044;    0.815127;    0.846131;    0.877802;    0.910020;    0.942657;    0.974890;
77;    1.676900;    0.971455;    0.844515;    0.788446;    0.740776;    0.684351;    0.624396;    0.551618;    0.473127;    0.406053;    0.317076;    0.237334;    0.230308;    0.203632;    0.202754;    0.216096;    0.233475;    0.243531;    0.254053;    0.264980;    0.276854;    0.289318;    0.302874;    0.317321;    0.332111;    0.347581;    0.362603;    0.379385;    0.395695;    0.414056;    0.432880;    0.452522;    0.472645;    0.493191;    0.514206;    0.535761;    0.558671;    0.581735;    0.605113;    0.628864;    0.653609;    0.679568;    0.705011;    0.731690;    0.759920;    0.788315;    0.817491;    0.846792;    0.877064;    0.908688;    0.939676;
78;    1.669656;    0.988134;    0.866235;    0.809944;    0.757745;    0.694694;    0.629699;    0.551377;    0.471304;    0.394017;    0.327153;    0.242153;    0.234055;    0.207510;    0.206767;    0.221931;    0.237484;    0.247648;    0.258311;    0.269583;    0.282583;    0.295270;    0.308942;    0.322762;    0.337231;    0.352936;    0.369065;    0.385862;    0.402994;    0.421031;    0.439703;    0.458609;    0.478379;    0.498259;    0.519102;    0.540801;    0.564238;    0.588431;    0.612439;    0.637265;    0.661765;    0.687863;    0.715554;    0.742379;    0.770954;    0.800145;    0.830656;    0.860470;    0.891213;    0.923923;    0.956188;
79;    1.663810;    1.005639;    0.874714;    0.812502;    0.757305;    0.707019;    0.625599;    0.554991;    0.496779;    0.417413;    0.316615;    0.237588;    0.228809;    0.205566;    0.204685;    0.219913;    0.234150;    0.244596;    0.255232;    0.266370;    0.278395;    0.291217;    0.304694;    0.319816;    0.334914;    0.351015;    0.367758;    0.385300;    0.402866;    0.421340;    0.440527;    0.459859;    0.480648;    0.502575;    0.524972;    0.547861;    0.571494;    0.594840;    0.619601;    0.645550;    0.671985;    0.698628;    0.725614;    0.753754;    0.782131;    0.811739;    0.842619;    0.873959;    0.905925;    0.938518;    0.972186;
80;    1.663206;    0.984317;    0.849658;    0.812101;    0.756458;    0.693243;    0.622173;    0.545083;    0.483155;    0.401922;    0.317110;    0.234226;    0.225596;    0.202096;    0.201396;    0.214843;    0.230931;    0.240778;    0.250923;    0.262853;    0.275065;    0.287828;    0.300713;    0.314241;    0.328766;    0.344768;    0.360986;    0.377770;    0.395493;    0.413445;    0.431700;    0.451264;    0.471217;    0.492162;    0.513606;    0.535357;    0.558435;    0.582270;    0.607236;    0.632626;    0.658402;    0.684811;    0.711046;    0.738988;    0.767480;    0.796496;    0.825690;    0.856535;    0.886938;    0.919097;    0.951161;
81;    1.664843;    0.986996;    0.857947;    0.808392;    0.747116;    0.689110;    0.628646;    0.572442;    0.504043;    0.421139;    0.324807;    0.238651;    0.223172;    0.206514;    0.205478;    0.220211;    0.235384;    0.245361;    0.255252;    0.266325;    0.277982;    0.291024;    0.304253;    0.318090;    0.331886;    0.347850;    0.363993;    0.380630;    0.397645;    0.415143;    0.433966;    0.453485;    0.473232;    0.493548;    0.514844;    0.537871;    0.560938;    0.584008;    0.608396;    0.633137;    0.659393;    0.685914;    0.712576;    0.740163;    0.769007;    0.797655;    0.827660;    0.857208;    0.888295;    0.920911;    0.952919;
82;    1.671716;    0.982523;    0.852052;    0.811594;    0.756898;    0.702729;    0.644258;    0.581654;    0.501176;    0.411776;    0.323587;    0.236948;    0.228097;    0.204108;    0.203509;    0.219537;    0.233447;    0.243899;    0.254984;    0.266323;    0.277867;    0.290413;    0.303208;    0.316855;    0.331276;    0.345679;    0.362164;    0.378959;    0.396679;    0.415480;    0.434454;    0.453187;    0.472675;    0.492570;    0.513425;    0.535779;    0.558860;    0.581975;    0.605718;    0.630642;    0.656553;    0.683479;    0.710151;    0.736987;    0.764515;    0.794060;    0.823642;    0.853652;    0.884921;    0.916947;    0.949424;
83;    1.671028;    0.972993;    0.852287;    0.796969;    0.742418;    0.693335;    0.637432;    0.571465;    0.503980;    0.415520;    0.329965;    0.240593;    0.224791;    0.207509;    0.206887;    0.219826;    0.236993;    0.246416;    0.256882;    0.268049;    0.280277;    0.293285;    0.306825;    0.320666;    0.334753;    0.349378;    0.365590;    0.381955;    0.398996;    0.416854;    0.435455;    0.453849;    0.473843;    0.494626;    0.515562;    0.537528;    0.559871;    0.582609;    0.606471;    0.630837;    0.655267;    0.681253;    0.707567;    0.733800;    0.760695;    0.789128;    0.818694;    0.848182;    0.879325;    0.910183;    0.941155;
84;    1.673272;    0.994156;    0.878276;    0.828370;    0.770863;    0.705450;    0.635547;    0.575347;    0.501278;    0.404435;    0.328260;    0.240801;    0.231337;    0.209234;    0.208282;    0.221372;    0.237154;    0.247137;    0.257720;    0.269536;    0.281615;    0.294345;    0.308689;    0.323197;    0.338555;    0.353795;    0.369680;    0.385896;    0.403054;    0.421047;    0.440054;    0.459515;    0.479561;    0.499942;    0.521000;    0.543564;    0.566328;    0.589972;    0.614557;    0.639231;    0.664715;    0.691098;    0.718265;    0.746325;    0.775669;    0.804861;    0.835594;    0.866294;    0.896821;    0.929039;    0.961560;
85;    1.658462;    1.005580;    0.882135;    0.836928;    0.779761;    0.716537;    0.650703;    0.579729;    0.512642;    0.425504;    0.341956;    0.243094;    0.230965;    0.208521;    0.207856;    0.224368;    0.239513;    0.249803;    0.260669;    0.272257;    0.284641;    0.298308;    0.312305;    0.327286;    0.342186;    0.357751;    0.374102;    0.391554;    0.409344;    0.427996;    0.447308;    0.467237;    0.487445;    0.508549;    0.529419;    0.550852;    0.573743;    0.597083;    0.622139;    0.648437;    0.674655;    0.701097;    0.727898;    0.755671;    0.785125;    0.814922;    0.844719;    0.875608;    0.907212;    0.940103;    0.972577;
86;    1.696495;    1.004857;    0.861874;    0.808424;    0.754315;    0.690072;    0.626688;    0.561203;    0.485638;    0.416238;    0.334129;    0.241807;    0.234237;    0.208527;    0.207241;    0.220854;    0.238354;    0.248196;    0.258682;    0.270496;    0.282472;    0.296713;    0.310823;    0.324890;    0.340334;    0.356562;    0.372898;    0.389409;    0.406432;    0.424910;    0.444308;    0.464872;    0.485394;    0.506966;    0.529160;    0.552306;    0.576246;    0.600207;    0.625267;    0.650117;    0.675700;    0.702044;    0.729118;    0.756390;    0.785861;    0.815681;    0.845356;    0.875719;    0.907430;    0.940092;    0.972102;
87;    1.684520;    1.000793;    0.864836;    0.818442;    0.750231;    0.692045;    0.622852;    0.565834;    0.477329;    0.403548;    0.334945;    0.243897;    0.231273;    0.208151;    0.207269;    0.224141;    0.240153;    0.249718;    0.260438;    0.272049;    0.284420;    0.296721;    0.309457;    0.324182;    0.339096;    0.354435;    0.370853;    0.387852;    0.405967;    0.424340;    0.443134;    0.462531;    0.482753;    0.503734;    0.525579;    0.548460;    0.571463;    0.594067;    0.617640;    0.642968;    0.668466;    0.694852;    0.721549;    0.750101;    0.779436;    0.809708;    0.839080;    0.869688;    0.900973;    0.933461;    0.965981;
88;    1.698069;    1.013190;    0.872490;    0.821466;    0.776585;    0.709054;    0.660697;    0.598947;    0.520511;    0.433430;    0.326172;    0.241186;    0.229222;    0.205640;    0.205113;    0.219078;    0.237411;    0.246995;    0.258001;    0.270180;    0.282596;    0.295753;    0.309972;    0.324485;    0.339173;    0.355077;    0.371568;    0.388713;    0.405988;    0.424668;    0.444288;    0.463962;    0.484501;    0.506846;    0.529553;    0.551979;    0.575601;    0.598639;    0.623707;    0.649671;    0.676008;    0.702471;    0.729763;    0.758843;    0.788540;    0.818362;    0.849022;    0.879966;    0.912114;    0.944976;    0.978539;
89;    1.700713;    1.010086;    0.877784;    0.834797;    0.769915;    0.717690;    0.643843;    0.561320;    0.491706;    0.391776;    0.323342;    0.239063;    0.230422;    0.207694;    0.207110;    0.222406;    0.236093;    0.246105;    0.256908;    0.268814;    0.280978;    0.293352;    0.306535;    0.321919;    0.336785;    0.352624;    0.369258;    0.386556;    0.404331;    0.423652;    0.443088;    0.463134;    0.483800;    0.505111;    0.526300;    0.548917;    0.572999;    0.597248;    0.622274;    0.648681;    0.675323;    0.702554;    0.730486;    0.758224;    0.786308;    0.815827;    0.845422;    0.877152;    0.910031;    0.943001;    0.976768;
90;    1.673059;    0.997489;    0.871261;    0.817793;    0.759822;    0.713123;    0.640945;    0.587878;    0.499247;    0.420211;    0.337258;    0.244031;    0.235782;    0.208214;    0.207639;    0.223111;    0.240312;    0.250325;    0.260471;    0.271892;    0.283519;    0.296409;    0.309318;    0.323954;    0.339363;    0.354870;    0.370668;    0.387685;    0.405086;    0.423318;    0.443020;    0.463013;    0.483697;    0.504240;    0.525560;    0.548183;    0.571250;    0.595018;    0.619132;    0.643759;    0.668963;    0.695149;    0.722119;    0.749911;    0.778126;    0.807683;    0.838155;    0.868885;    0.900321;    0.931566;    0.964957;
91;    1.659392;    1.008162;    0.871848;    0.833396;    0.770451;    0.697054;    0.640719;    0.564107;    0.492173;    0.406528;    0.329096;    0.238984;    0.231091;    0.206564;    0.205597;    0.219524;    0.235871;    0.246501;    0.257256;    0.268506;    0.280605;    0.293634;    0.306977;    0.320948;    0.336849;    0.352762;    0.369359;    0.387775;    0.406360;    0.425818;    0.445518;    0.465844;    0.486983;    0.508648;    0.531438;    0.554246;    0.577294;    0.601559;    0.626243;    0.651015;    0.676162;    0.702763;    0.730934;    0.759631;    0.788211;    0.817831;    0.847614;    0.879429;    0.910992;    0.942338;    0.974747;
92;    1.753598;    0.991049;    0.860789;    0.805119;    0.758012;    0.698284;    0.622765;    0.554671;    0.480723;    0.414715;    0.326379;    0.240278;    0.231770;    0.206684;    0.205839;    0.219934;    0.236284;    0.246953;    0.258108;    0.269324;    0.281599;    0.294025;    0.306448;    0.320847;    0.335379;    0.350224;    0.366308;    0.383849;    0.402135;    0.420746;    0.439485;    0.458969;    0.479137;    0.500580;    0.521664;    0.543956;    0.566514;    0.590275;    0.615144;    0.640488;    0.665975;    0.691948;    0.719227;    0.747094;    0.774861;    0.803093;    0.832712;    0.863029;    0.894025;    0.924550;    0.957423;
93;    2.386474;    1.005154;    0.876006;    0.830613;    0.773354;    0.717708;    0.662201;    0.582327;    0.504546;    0.419970;    0.332958;    0.243116;    0.230352;    0.210275;    0.208911;    0.223096;    0.239927;    0.250096;    0.261858;    0.273508;    0.286223;    0.298761;    0.312227;    0.326428;    0.340994;    0.356650;    0.372813;    0.389306;    0.406407;    0.425624;    0.444803;    0.464661;    0.485483;    0.506729;    0.528429;    0.551212;    0.574306;    0.598687;    0.622453;    0.647243;    0.673584;    0.699653;    0.727984;    0.755861;    0.784394;    0.813026;    0.843303;    0.874427;    0.906483;    0.938942;    0.972603;
94;    1.765025;    1.003949;    0.872312;    0.825396;    0.754325;    0.692874;    0.631680;    0.551090;    0.473336;    0.415750;    0.322877;    0.239175;    0.222178;    0.206228;    0.205308;    0.219867;    0.235278;    0.245296;    0.256374;    0.267677;    0.279965;    0.293132;    0.306966;    0.321318;    0.336373;    0.352410;    0.368751;    0.386327;    0.403906;    0.421962;    0.441048;    0.460777;    0.481029;    0.503200;    0.525100;    0.546908;    0.571004;    0.594606;    0.618815;    0.643646;    0.669655;    0.696535;    0.724406;    0.752443;    0.780467;    0.810253;    0.841317;    0.872664;    0.903788;    0.937145;    0.969890;
95;    1.670572;    1.013050;    0.876180;    0.823666;    0.773631;    0.711156;    0.655690;    0.578538;    0.500714;    0.429585;    0.328639;    0.242851;    0.231855;    0.209492;    0.208616;    0.224161;    0.239550;    0.250177;    0.260954;    0.272649;    0.284857;    0.297798;    0.311638;    0.325960;    0.340911;    0.355689;    0.372481;    0.389931;    0.407275;    0.425786;    0.445162;    0.465135;    0.486100;    0.507870;    0.529584;    0.552250;    0.575686;    0.600380;    0.625336;    0.650128;    0.675614;    0.703556;    0.731779;    0.760305;    0.790326;    0.820303;    0.850342;    0.882107;    0.913997;    0.945332;    0.979350;
96;    1.699761;    0.998402;    0.857439;    0.808063;    0.765948;    0.702798;    0.647843;    0.571783;    0.488767;    0.419216;    0.323676;    0.239018;    0.226908;    0.206077;    0.204970;    0.219527;    0.235667;    0.246021;    0.256524;    0.267845;    0.280836;    0.294067;    0.307913;    0.322178;    0.337548;    0.352923;    0.369434;    0.386271;    0.403363;    0.421425;    0.441029;    0.460512;    0.480635;    0.501842;    0.523123;    0.544723;    0.568154;    0.592076;    0.616136;    0.642019;    0.668920;    0.695360;    0.722212;    0.749483;    0.777745;    0.808241;    0.839560;    0.870715;    0.901846;    0.932139;    0.964975;
97;    1.899828;    1.019496;    0.893901;    0.830424;    0.775256;    0.701454;    0.647306;    0.581220;    0.491190;    0.415125;    0.331517;    0.241513;    0.233085;    0.208906;    0.208029;    0.221934;    0.238174;    0.248596;    0.260072;    0.272453;    0.284937;    0.298223;    0.312324;    0.326411;    0.341752;    0.359051;    0.376009;    0.393587;    0.411536;    0.430223;    0.449399;    0.468841;    0.489453;    0.510644;    0.533379;    0.556915;    0.580751;    0.605234;    0.630920;    0.656619;    0.682746;    0.710709;    0.738929;    0.767857;    0.797034;    0.826667;    0.856594;    0.887551;    0.919381;    0.952845;    0.985071;
98;    1.960430;    1.001202;    0.871907;    0.818676;    0.770206;    0.707562;    0.632084;    0.574843;    0.500744;    0.422312;    0.331751;    0.239553;    0.233489;    0.209223;    0.208416;    0.224125;    0.236676;    0.246636;    0.257922;    0.269161;    0.281670;    0.294643;    0.308521;    0.322939;    0.338157;    0.354304;    0.371558;    0.387690;    0.405107;    0.423138;    0.441763;    0.461207;    0.481350;    0.501719;    0.523513;    0.546246;    0.569472;    0.593665;    0.618056;    0.642839;    0.669541;    0.696675;    0.723923;    0.752119;    0.780720;    0.810684;    0.841251;    0.872157;    0.903696;    0.936055;    0.967366;
99;    1.693038;    0.991642;    0.851253;    0.815187;    0.759213;    0.706489;    0.626129;    0.564439;    0.491314;    0.412894;    0.328221;    0.242312;    0.231938;    0.209116;    0.208193;    0.223144;    0.238380;    0.248314;    0.258918;    0.270424;    0.282996;    0.295570;    0.309669;    0.323639;    0.338391;    0.353699;    0.370181;    0.387734;    0.405610;    0.424505;    0.443527;    0.463582;    0.484074;    0.505220;    0.526711;    0.549628;    0.571922;    0.594413;    0.617675;    0.642472;    0.667399;    0.693576;    0.721078;    0.748792;    0.776311;    0.804639;    0.833619;    0.863715;    0.894162;    0.926201;    0.958816;
100;    1.829095;    0.993574;    0.858441;    0.815830;    0.766612;    0.701144;    0.645704;    0.566127;    0.473817;    0.404629;    0.326634;    0.242002;    0.233584;    0.205614;    0.204859;    0.219646;    0.237948;    0.247605;    0.258491;    0.269406;    0.281335;    0.293939;    0.307364;    0.321228;    0.336013;    0.351702;    0.368478;    0.386017;    0.403463;    0.422416;    0.441905;    0.461009;    0.480815;    0.501091;    0.522519;    0.544165;    0.566671;    0.590222;    0.614507;    0.639395;    0.665152;    0.691030;    0.718020;    0.746091;    0.774994;    0.804060;    0.834430;    0.865853;    0.897239;    0.928999;    0.960701;
